*:১ম সংস্করণ ইং ১৮৯৩ ~ published in 1893
*:ষড়ঙ্গ শরণাগতি ~ The Six Limbs of Surrender
S1:শ্রীকৃষ্ণচৈতন্য প্রভু জীবে দয়া করি’
1:১. দৈন্যাত্মিকা ~ 1. Dainyātmikā (Humility)
	S2:ভুলিয়া তোমারে
	S4:বিদ্যার বিলাসে, কাটাইনু কাল
	S5:যৌবনে যখন, ধন-উপার্জ্জনে
	S7:আমার জীবন, সদা পাপে রত
2:২. আত্মনিবেদনাত্মিকা ~ 2. Ātma-nivedanātmikā (Submission of the Self)
	S3:(প্রভু হে!) শুন মোর দুঃখের কাহিনী
	S6:(প্রভু হে!) তুয়া পদে এ মিনতি মোর
	GH20:(প্রভু হে!) এমন দুর্ম্মতি সংসার-ভিতরে
	S19:না করলুঁ করম, গেয়ান নাহি ভেল
	S9:(প্রাণেশ্বর!) কহবুঁ কি সরম্ কি বাত্
	S14:মানস, দেহ, গেহ, যো কিছু মোর
	S15:‘অহং’-‘মম’-শব্দ-অর্থে যাহা কিছু হয়
	S12:‘আমার’ বলিতে প্রভু! আর কিছু নাই
	S11:বস্তুতঃ সকলি তব
	S8:নিবেদন করি প্রভু! তোমার চরণে
	S16:আত্মনিবেদন, তুয়া পদে করি’
3:৩. গোপ্তৃত্বে বরণ ~ 3. Goptṛtve Varaṇa (Acceptance of the Lord as One’s Only Maintainer)
	S18:কি জানি কি বলে
	S13:দারা-পুত্র-নিজ-দেহ-কুটুম্ব-পালনে
	S10:সর্ব্বস্ব তোমার
	S17:তুমি সর্ব্বেশ্বরেশ্বর
4:৪. বিশ্রম্ভাত্মিকা ~ 4. Viśrambhātmikā (Confidence in Śrī Kṛṣṇa’s Protection)
	S20:এখন বুঝিনু প্রভু!
	S21:তুমি ত’ মারিবে যা’রে, কে তা’রে রাখিতে পারে
	S27:আত্মসমর্পণে গেলা অভিমান
	S26:ছোড়ত পুরুষ-অভিমান
5:৫. বর্জ্জনাত্মিকা ~ 5. Varjanātmikā (Rejection of the Unfavorable)
	S23:কেশব! তুয়া জগত বিচিত্র
	S24:তুয়া ভক্তি-প্রতিকূল ধর্ম্ম যা’তে রয়
	S25:বিষয়বিমূঢ় আর মায়াবাদী জন
	S29:আমি ত স্বানন্দ-সুখদবাসী
6:৬. অনুকূল্যাত্মিকা ~ 6. Anukūlyātmika (Acceptance of the Favorable)
	S22:তুয়া ভক্তি-অনুকূল যে-যে কার্য্য হয়
	S28:গোদ্রুমধামে ভজন-অনুকূলে
	E1:শুদ্ধভকত-চরণ-রেণু
	S30:রাধাকুণ্ডতট
7:ভজন-লালসা ~ Bhajana-lāslasā (Longing for Loving Service)
	U1:হরি হে! প্রপঞ্চে পড়িয়া
	U2:হরি হে! অর্থের সঞ্চয়ে
	U3:হরি হে! ভজনে উৎসাহ
	U4:হরি হে! দান-প্রতিগ্রহ
	U5:হরি হে! সঙ্গদোষ-শূন্য
	U6:হরি হে! নীরধর্ম্ম-গত
	V3:ওহে! বৈষ্ণব ঠাকুর
	U7:হরি হে! তোমারে ভুলিয়া
	U8:হরি হে! শ্রীরূপগোসাঞি
	G7:গুরুদেব! বড় কৃপা করি’
	G6:গুরুদেব! কৃপাবিন্দু দিয়া
	G8:গুরুদেব! কবে মোর সেই দিন হবে?
	G9:গুরুদেব! কবে তব করুণা প্রকাশে
	*:সিদ্ধি-লালসা ~ Siddhi-lālasā (Hankering for Ultimate Perfection)
	D2:কবে গৌর-বনে
	R25:দেখিতে দেখিতে, ভুলিব বা কবে
	R21:বৃষভানুসুতা-চরণ-সেবনে
	*:বিজ্ঞপ্তি ~ Vijñapti (An Entreaty)
	GN7:কবে হ’বে বল
	*:শ্রীনাম-মাহাত্ম্য ~ Śrī Nāma-māhātmya (The Glories of Śrī Nāma)
	NM13:কৃষ্ণনাম ধরে কত বল
