{
  "uid":"A15",
  "title":"নমো নমঃ তুলসী কৃষ্ণ-প্রেয়সী",
  "author":"কৃষ্ণদাস",
  "language":"ben",
  "notes":["(অধিকারী-ভেদে)","ENGLISH: vraje rādhā-kṛṣṇa sevā pābô ei abhilāṣī","ENGLISH: sebā adhikār diyā karô nija dāsī","ENGLISH: dīn kṛṣṇadās kay ei ĵenô mor hay"],
  "audio":[],
  "has_synonyms":true,
  "has_translations":true,
  "legend":{"w":"word","h":"hint","s":"synonym","o":"override"},
  "verses":[{
    "lines":[
      [{"w":"নমো","h":" ","s":{"eng":"I offer obeisances"},"o":{}},{"w":"নমঃ","h":" ","s":{"eng":"⬅1"},"o":{}},{"w":"তুলসী","h":" ","s":{"eng":"O Tulasī"},"o":{}},{"w":"কৃষ্ণ","h":"-","s":{"eng":"beloved of Kṛṣṇa"},"o":{}},{"w":"প্রেয়সী","h":" ।","s":{"eng":"⬅1"},"o":{}}],
      [{"w":"রাধাকৃষ্ণ","h":"-","s":{"eng":"Śrī Śrī Rādhā-Kṛṣṇa"},"o":{}},{"w":"পদসেবা","h":" ","s":{"eng":"service to Their lotus feet"},"o":{}},{"w":"এই","h":" ","s":{"eng":"this"},"o":{}},{"w":"অভিলাষী","h":" ॥১॥","s":{"eng":"desiring"},"o":{}}]],
    "translation":{"eng":"O Tulasī, beloved of Kṛṣṇa, I repeatedly offer my obeisances unto you. My cherished desire is to attain the service of Śrī Śrī Rādhā-Kṛṣṇa."}},{
    "lines":[
      [{"w":"যে","h":" ","s":{"eng":"who"},"o":{}},{"w":"তোমার","h":" ","s":{"eng":"your"},"o":{}},{"w":"শরণ","h":" ","s":{"eng":"shelter"},"o":{}},{"w":"লয়","h":",    ","s":{"eng":"takes"},"o":{}},{"w":"তার","h":" ","s":{"eng":"his"},"o":{}},{"w":"বাঞ্ছা","h":" ","s":{"eng":"desires"},"o":{}},{"w":"পূর্ণ","h":" ","s":{"eng":"fulfilled"},"o":{}},{"w":"হয়","h":",","s":{"eng":"become"},"o":{}}],
      [{"w":"কৃপা","h":" ","s":{"eng":"having been merciful"},"o":{}},{"w":"করি’","h":" ","s":{"eng":"⬅1"},"o":{}},{"w":"কর","h":" ","s":{"eng":"you make"},"o":{}},{"w":"তারে","h":" ","s":{"eng":"to him"},"o":{}},{"w":"বৃন্দাবনবাসী","h":" ।","s":{"eng":"Vṛndāvana + resident."},"o":{}}],
      [{"w":"এই","h":" ","s":{"eng":"this"},"o":{}},{"w":"নিবেদন","h":" ","s":{"eng":"prayer"},"o":{}},{"w":"ধর","h":",    ","s":{"eng":"accept"},"o":{}},{"w":"সখীর","h":" ","s":{"eng":"of the sakhīs"},"o":{}},{"w":"অনুগত","h":" ","s":{"eng":"make a follower"},"o":{}},{"w":"কর","h":",","s":{"eng":"⬅1"},"o":{}}],
      [{"w":"রাধাকৃষ্ণ","h":"-","s":{"eng":"Śrī Śrī Rādhā Kṛṣṇa"},"o":{}},{"w":"সেবা","h":" ","s":{"eng":"service"},"o":{}},{"w":"দিয়া","h":" ","s":{"eng":"having given"},"o":{}},{"w":"কর","h":" ","s":{"eng":"make"},"o":{}},{"w":"নিজদাসী","h":" ॥২॥","s":{"eng":"own + maidservant"},"o":{}}]],
    "translation":{"eng":"Whoever takes shelter of you has all his wishes fulfilled. Being merciful upon him, you make him a resident of Vṛndāvana. Please accept this heartfelt prayer and make me a follower of the cowherd damsels of Vraja. Give me the qualification to perform devotional service and make me your own maidservant."}},{
    "lines":[
      [{"w":"মোর","h":" ","s":{"eng":"my"},"o":{}},{"w":"এই","h":" ","s":{"eng":"this"},"o":{}},{"w":"অভিলাষ","h":",    ","s":{"eng":"desire"},"o":{}},{"w":"বিলাসকুঞ্জে","h":" ","s":{"eng":"pleasure + in grove"},"o":{}},{"w":"দিও","h":" ","s":{"eng":"you give"},"o":{}},{"w":"বাস","h":",","s":{"eng":"residence"},"o":{}}],
      [{"w":"নয়নে","h":" ","s":{"eng":"with eyes"},"o":{}},{"w":"হেরিব","h":" ","s":{"eng":"I shall behold"},"o":{}},{"w":"সদা","h":" ","s":{"eng":"always"},"o":{}},{"w":"যুগলরূপরাশি","h":" ।","s":{"eng":"the Divine Couple + beauty + abundant."},"o":{}}],
      [{"w":"দীন","h":" ","s":{"eng":"fallen"},"o":{}},{"w":"কৃষ্ণদাস","h":" ","s":{"eng":"Kṛṣṇadāsa"},"o":{}},{"w":"কয়","h":",    ","s":{"eng":"says"},"o":{}},{"w":"মোর","h":" ","s":{"eng":"my"},"o":{}},{"w":"যেন","h":" ","s":{"eng":"such"},"o":{}},{"w":"এই","h":" ","s":{"eng":"this"},"o":{}},{"w":"হয়","h":",","s":{"eng":"be"},"o":{}}],
      [{"w":"শ্রীরাধাগোবিন্দ","h":"-","s":{"eng":"Śrī Śrī Rādhā-Govinda"},"o":{}},{"w":"প্রেমে","h":" ","s":{"eng":"in divine love"},"o":{}},{"w":"সদা","h":" ","s":{"eng":"always"},"o":{}},{"w":"যেন","h":" ","s":{"eng":"such"},"o":{}},{"w":"ভাসি","h":" ॥৩॥","s":{"eng":"I immerse, float"},"o":{}}]],
    "translation":{"eng":"It is my cherished desire that you grant me residence in the pleasure groves of Vṛndāvana. Then my eyes shall always behold the abundant beauty of the Divine Couple. The fallen Kṛṣṇadāsa prays, “May I always be immersed in prema for Śrī Śrī Rādhā-Govinda.”"}}
  ]
}