{
  "uid":"A16",
  "title":"শ্রীতুলসী-আরতি",
  "author":"?",
  "language":"ben",
  "notes":[],
  "audio":[],
  "has_synonyms":false,
  "has_translations":false,
  "legend":{"w":"word","h":"hint","s":"synonym","o":"override"},
  "verses":[{
    "lines":[
      [{"w":"xxx শ্রীতুলসী","h":"-","s":{"eng":"NULL"},"o":{}},{"w":"আরতি","h":"","s":{"eng":"NULL"},"o":{}}],
      [{"w":"নমো","h":" ","s":{"eng":"NULL"},"o":{}},{"w":"নমো","h":" ","s":{"eng":"NULL"},"o":{}},{"w":"তুলসী","h":" ","s":{"eng":"NULL"},"o":{}},{"w":"মহারাণী","h":" ","s":{"eng":"NULL"},"o":{}}],
      [{"w":"বৃন্দে","h":" ","s":{"eng":"NULL"},"o":{}},{"w":"মহারাণী","h":" ","s":{"eng":"NULL"},"o":{}},{"w":"নমো","h":" ","s":{"eng":"NULL"},"o":{}},{"w":"নমঃ","h":" ","s":{"eng":"NULL"},"o":{}}],
      [{"w":"নমোরে","h":" ","s":{"eng":"NULL"},"o":{}},{"w":"নমোরে","h":" ","s":{"eng":"NULL"},"o":{}},{"w":"মাঁইয়া","h":" ","s":{"eng":"NULL"},"o":{}},{"w":"নমো","h":" ","s":{"eng":"NULL"},"o":{}},{"w":"নারায়ণী","h":" ॥","s":{"eng":"NULL"},"o":{}}]],
    "translation":{"eng":"UNDEFINED"}},{
    "lines":[
      [{"w":"যাকো","h":" ","s":{"eng":"NULL"},"o":{}},{"w":"দরশে","h":" ","s":{"eng":"NULL"},"o":{}},{"w":"পরশে","h":" ","s":{"eng":"NULL"},"o":{}},{"w":"অঘনাশই","h":" ।","s":{"eng":"NULL"},"o":{}}],
      [{"w":"মহিমা","h":" ","s":{"eng":"NULL"},"o":{}},{"w":"বেদ","h":"-","s":{"eng":"NULL"},"o":{}},{"w":"পুরাণে","h":" ","s":{"eng":"NULL"},"o":{}},{"w":"বাখানি","h":" ॥১॥","s":{"eng":"NULL"},"o":{}}]],
    "translation":{"eng":"UNDEFINED"}},{
    "lines":[
      [{"w":"যাকো","h":" ","s":{"eng":"NULL"},"o":{}},{"w":"পত্র","h":", ","s":{"eng":"NULL"},"o":{}},{"w":"মঞ্জরী","h":" ","s":{"eng":"NULL"},"o":{}},{"w":"কোমল","h":" ।","s":{"eng":"NULL"},"o":{}}],
      [{"w":"শ্রীপতি","h":"-","s":{"eng":"NULL"},"o":{}},{"w":"চরণ","h":" ","s":{"eng":"NULL"},"o":{}},{"w":"কমলে","h":" ","s":{"eng":"NULL"},"o":{}},{"w":"লপটানি","h":" ॥২॥","s":{"eng":"NULL"},"o":{}}]],
    "translation":{"eng":"UNDEFINED"}},{
    "lines":[
      [{"w":"ধন্য","h":" ","s":{"eng":"NULL"},"o":{}},{"w":"তুলসী","h":", ","s":{"eng":"NULL"},"o":{}},{"w":"পূরণ","h":" ","s":{"eng":"NULL"},"o":{}},{"w":"তপ","h":" ","s":{"eng":"NULL"},"o":{}},{"w":"কিয়ে","h":" ।","s":{"eng":"NULL"},"o":{}}],
      [{"w":"শ্রীশালগ্রাম","h":"-","s":{"eng":"NULL"},"o":{}},{"w":"মহাপাটরাণী","h":" ॥৩॥","s":{"eng":"NULL"},"o":{}}]],
    "translation":{"eng":"UNDEFINED"}},{
    "lines":[
      [{"w":"ধূপ","h":" ","s":{"eng":"NULL"},"o":{}},{"w":"দীপ","h":" ","s":{"eng":"NULL"},"o":{}},{"w":"নৈবেদ্য","h":" ","s":{"eng":"NULL"},"o":{}},{"w":"আরতি","h":" ।","s":{"eng":"NULL"},"o":{}}],
      [{"w":"ফুলন","h":" ","s":{"eng":"NULL"},"o":{}},{"w":"কিয়ে","h":" ","s":{"eng":"NULL"},"o":{}},{"w":"বরষা","h":" ","s":{"eng":"NULL"},"o":{}},{"w":"বরষাণি","h":" ॥৪॥","s":{"eng":"NULL"},"o":{}}]],
    "translation":{"eng":"UNDEFINED"}},{
    "lines":[
      [{"w":"ছাপান্ন","h":" ","s":{"eng":"NULL"},"o":{}},{"w":"ভোগ","h":" ","s":{"eng":"NULL"},"o":{}},{"w":"ছত্রিশ","h":" ","s":{"eng":"NULL"},"o":{}},{"w":"ব্যঞ্জন","h":" ।","s":{"eng":"NULL"},"o":{}}],
      [{"w":"বিনা","h":" ","s":{"eng":"NULL"},"o":{}},{"w":"তুলসী","h":" ","s":{"eng":"NULL"},"o":{}},{"w":"প্রভু","h":" ","s":{"eng":"NULL"},"o":{}},{"w":"এক","h":" ","s":{"eng":"NULL"},"o":{}},{"w":"নাহি","h":" ","s":{"eng":"NULL"},"o":{}},{"w":"মানি","h":" ॥৫॥","s":{"eng":"NULL"},"o":{}}]],
    "translation":{"eng":"UNDEFINED"}},{
    "lines":[
      [{"w":"শিব","h":" ","s":{"eng":"NULL"},"o":{}},{"w":"শুক","h":" ","s":{"eng":"NULL"},"o":{}},{"w":"নারদ","h":" ","s":{"eng":"NULL"},"o":{}},{"w":"আউর","h":" ","s":{"eng":"NULL"},"o":{}},{"w":"ব্রহ্মাদিক","h":" ।","s":{"eng":"NULL"},"o":{}}],
      [{"w":"চুঁড়ত","h":" ","s":{"eng":"NULL"},"o":{}},{"w":"ফিরত","h":" ","s":{"eng":"NULL"},"o":{}},{"w":"মহামুনি","h":" ","s":{"eng":"NULL"},"o":{}},{"w":"জ্ঞানী","h":" ॥৬॥","s":{"eng":"NULL"},"o":{}}]],
    "translation":{"eng":"UNDEFINED"}},{
    "lines":[
      [{"w":"চন্দ্রশেখর","h":" ","s":{"eng":"NULL"},"o":{}},{"w":"মাঁইয়া","h":" ","s":{"eng":"NULL"},"o":{}},{"w":"তেরা","h":" ","s":{"eng":"NULL"},"o":{}},{"w":"যশ","h":" ","s":{"eng":"NULL"},"o":{}},{"w":"গাওয়ে","h":" ।","s":{"eng":"NULL"},"o":{}}],
      [{"w":"ভকতি","h":" ","s":{"eng":"NULL"},"o":{}},{"w":"দান","h":" ","s":{"eng":"NULL"},"o":{}},{"w":"দিজীয়ে","h":" ","s":{"eng":"NULL"},"o":{}},{"w":"মহারাণী","h":" ॥৭॥","s":{"eng":"NULL"},"o":{}}]],
    "translation":{"eng":"UNDEFINED"}}
  ]
}