{
  "uid":"A3",
  "title":"ভালে গোরা-গদাধরের আরতি নেহারি",
  "author":"bt",
  "language":"ben",
  "notes":["শ্রীগৌর-গোবিন্দ-আরতি","","শব্দার্থঃ- ভালে—সৌভাগ্যক্রমে; নদীয়া-পূরব-ভাবে—ব্রজভাবে; সবু—সকল; পুরট—স্বর্ণ; রোওয়ত—রোদন করিতে করিতে ।"],
  "audio":[],
  "has_synonyms":false,
  "has_translations":false,
  "legend":{"w":"word","h":"hint","s":"synonym","o":"override"},
  "verses":[{
    "lines":[
      [{"w":"ভালে","h":" ","s":{"eng":"NULL"},"o":{}},{"w":"গোরা","h":"-","s":{"eng":"NULL"},"o":{}},{"w":"গদাধরের","h":" ","s":{"eng":"NULL"},"o":{}},{"w":"আরতি","h":" ","s":{"eng":"NULL"},"o":{}},{"w":"নেহারি","h":" ।","s":{"eng":"NULL"},"o":{}}],
      [{"w":"নদীয়া","h":"-","s":{"eng":"NULL"},"o":{}},{"w":"পূরব","h":"-","s":{"eng":"NULL"},"o":{}},{"w":"ভাবে","h":" ","s":{"eng":"NULL"},"o":{}},{"w":"যাঁউ","h":" ","s":{"eng":"NULL"},"o":{}},{"w":"বলিহারী","h":" ॥১॥","s":{"eng":"NULL"},"o":{}}]],
    "translation":{"eng":"UNDEFINED"}},{
    "lines":[
      [{"w":"কল্পতরু","h":"-","s":{"eng":"NULL"},"o":{}},{"w":"তলে","h":" ","s":{"eng":"NULL"},"o":{}},{"w":"রত্ন","h":"-","s":{"eng":"NULL"},"o":{}},{"w":"সিংহাসনোপরি","h":" ।","s":{"eng":"NULL"},"o":{}}],
      [{"w":"সবু","h":" ","s":{"eng":"NULL"},"o":{}},{"w":"সখী","h":"-","s":{"eng":"NULL"},"o":{}},{"w":"বেষ্টিত","h":" ","s":{"eng":"NULL"},"o":{}},{"w":"কিশোর","h":"-","s":{"eng":"NULL"},"o":{}},{"w":"কিশোরী","h":" ॥২॥","s":{"eng":"NULL"},"o":{}}]],
    "translation":{"eng":"UNDEFINED"}},{
    "lines":[
      [{"w":"পুরট","h":"-","s":{"eng":"NULL"},"o":{}},{"w":"জড়িত","h":" ","s":{"eng":"NULL"},"o":{}},{"w":"কত","h":" ","s":{"eng":"NULL"},"o":{}},{"w":"মণি","h":"-","s":{"eng":"NULL"},"o":{}},{"w":"গজমতি","h":" ।","s":{"eng":"NULL"},"o":{}}],
      [{"w":"ঝমকি’","h":" ","s":{"eng":"NULL"},"o":{}},{"w":"ঝমকি’","h":" ","s":{"eng":"NULL"},"o":{}},{"w":"লভে","h":" ","s":{"eng":"NULL"},"o":{}},{"w":"প্রতি","h":" ","s":{"eng":"NULL"},"o":{}},{"w":"অঙ্গ","h":"-","s":{"eng":"NULL"},"o":{}},{"w":"জ্যোতিঃ","h":" ॥৩॥","s":{"eng":"NULL"},"o":{}}]],
    "translation":{"eng":"UNDEFINED"}},{
    "lines":[
      [{"w":"নীল","h":" ","s":{"eng":"NULL"},"o":{}},{"w":"নীরদ","h":" ","s":{"eng":"NULL"},"o":{}},{"w":"লাগি’","h":" ","s":{"eng":"NULL"},"o":{}},{"w":"বিদ্যুত","h":"-","s":{"eng":"NULL"},"o":{}},{"w":"মালা","h":" ।","s":{"eng":"NULL"},"o":{}}],
      [{"w":"দুঁহু","h":" ","s":{"eng":"NULL"},"o":{}},{"w":"অঙ্গ","h":" ","s":{"eng":"NULL"},"o":{}},{"w":"মিলি’","h":" ","s":{"eng":"NULL"},"o":{}},{"w":"শোভা","h":" ","s":{"eng":"NULL"},"o":{}},{"w":"ভুবন","h":" ","s":{"eng":"NULL"},"o":{}},{"w":"উজালা","h":" ॥৪॥","s":{"eng":"NULL"},"o":{}}]],
    "translation":{"eng":"UNDEFINED"}},{
    "lines":[
      [{"w":"শঙ্খ","h":" ","s":{"eng":"NULL"},"o":{}},{"w":"বাজে","h":", ","s":{"eng":"NULL"},"o":{}},{"w":"ঘণ্টা","h":" ","s":{"eng":"NULL"},"o":{}},{"w":"বাজে","h":", ","s":{"eng":"NULL"},"o":{}},{"w":"বাজে","h":" ","s":{"eng":"NULL"},"o":{}},{"w":"করতাল","h":" ।","s":{"eng":"NULL"},"o":{}}],
      [{"w":"মধুর","h":" ","s":{"eng":"NULL"},"o":{}},{"w":"মৃদঙ্গ","h":" ","s":{"eng":"NULL"},"o":{}},{"w":"বাজে","h":" ","s":{"eng":"NULL"},"o":{}},{"w":"পরম","h":" ","s":{"eng":"NULL"},"o":{}},{"w":"রসাল","h":" ॥৫॥","s":{"eng":"NULL"},"o":{}}]],
    "translation":{"eng":"UNDEFINED"}},{
    "lines":[
      [{"w":"বিশাখাদি","h":" ","s":{"eng":"NULL"},"o":{}},{"w":"সখীবৃন্দ","h":" ","s":{"eng":"NULL"},"o":{}},{"w":"দুঁহু","h":" ","s":{"eng":"NULL"},"o":{}},{"w":"গুণ","h":" ","s":{"eng":"NULL"},"o":{}},{"w":"গাওয়ে","h":" ।","s":{"eng":"NULL"},"o":{}}],
      [{"w":"প্রিয়নর্ম্মসখীগণ","h":" ","s":{"eng":"NULL"},"o":{}},{"w":"চামর","h":" ","s":{"eng":"NULL"},"o":{}},{"w":"ঢুলাওয়ে","h":" ॥৬॥","s":{"eng":"NULL"},"o":{}}]],
    "translation":{"eng":"UNDEFINED"}},{
    "lines":[
      [{"w":"অনঙ্গমঞ্জরী","h":" ","s":{"eng":"NULL"},"o":{}},{"w":"চুয়া","h":"-","s":{"eng":"NULL"},"o":{}},{"w":"চন্দন","h":" ","s":{"eng":"NULL"},"o":{}},{"w":"দেওয়ে","h":" ।","s":{"eng":"NULL"},"o":{}}],
      [{"w":"মালতীর","h":" ","s":{"eng":"NULL"},"o":{}},{"w":"মালা","h":" ","s":{"eng":"NULL"},"o":{}},{"w":"রূপমঞ্জরী","h":" ","s":{"eng":"NULL"},"o":{}},{"w":"লাগাওয়ে","h":" ॥৭॥","s":{"eng":"NULL"},"o":{}}]],
    "translation":{"eng":"UNDEFINED"}},{
    "lines":[
      [{"w":"পঞ্চপ্রদীপে","h":" ","s":{"eng":"NULL"},"o":{}},{"w":"ধরি’","h":" ","s":{"eng":"NULL"},"o":{}},{"w":"কর্পূরবাতি","h":" ।","s":{"eng":"NULL"},"o":{}}],
      [{"w":"ললিতা","h":"-","s":{"eng":"NULL"},"o":{}},{"w":"সুন্দরী","h":" ","s":{"eng":"NULL"},"o":{}},{"w":"করে","h":" ","s":{"eng":"NULL"},"o":{}},{"w":"যুগল","h":"-","s":{"eng":"NULL"},"o":{}},{"w":"আরতি","h":" ॥৮॥","s":{"eng":"NULL"},"o":{}}]],
    "translation":{"eng":"UNDEFINED"}},{
    "lines":[
      [{"w":"দেবী","h":", ","s":{"eng":"NULL"},"o":{}},{"w":"লক্ষ্মী","h":", ","s":{"eng":"NULL"},"o":{}},{"w":"শ্রুতিগণ","h":" ","s":{"eng":"NULL"},"o":{}},{"w":"ধরণী","h":" ","s":{"eng":"NULL"},"o":{}},{"w":"লোটাওয়ে","h":" ।","s":{"eng":"NULL"},"o":{}}],
      [{"w":"গোপীজন","h":"-","s":{"eng":"NULL"},"o":{}},{"w":"অধিকার","h":" ","s":{"eng":"NULL"},"o":{}},{"w":"রোওয়ত","h":" ","s":{"eng":"NULL"},"o":{}},{"w":"গাওয়ে","h":" ॥৯॥","s":{"eng":"NULL"},"o":{}}]],
    "translation":{"eng":"UNDEFINED"}},{
    "lines":[
      [{"w":"ভকতিবিনোদ","h":" ","s":{"eng":"NULL"},"o":{}},{"w":"রহি’","h":" ","s":{"eng":"NULL"},"o":{}},{"w":"সুরভীকি","h":" ","s":{"eng":"NULL"},"o":{}},{"w":"কুঞ্জে","h":" ।","s":{"eng":"NULL"},"o":{}}],
      [{"w":"আরতি","h":"-","s":{"eng":"NULL"},"o":{}},{"w":"দরশনে","h":" ","s":{"eng":"NULL"},"o":{}},{"w":"প্রেম","h":"-","s":{"eng":"NULL"},"o":{}},{"w":"সুখ","h":" ","s":{"eng":"NULL"},"o":{}},{"w":"ভুঞ্জে","h":" ॥১০॥","s":{"eng":"NULL"},"o":{}}]],
    "translation":{"eng":"UNDEFINED"}}
  ]
}