{
  "uid":"ASTA1",
  "title":"প্রথমযম-সাধন ~ First Yama Sādhana",
  "author":"?",
  "language":"ben",
  "notes":["নিশান্ত-ভজন—শ্রদ্ধা ~ The close of night (niśānta) bhajana—śraddhā","(রাত্রের শেষ ছয়দণ্ড) ~ (the last six daṇḍas of the night: 3.36 – 6.00 a.m.)",""],
  "audio":[],
  "has_synonyms":false,
  "has_translations":false,
  "legend":{"w":"word","h":"hint","s":"synonym","o":"override"},
  "verses":[{
    "lines":[
      [{"w":"&শ্রীশিক্ষাষ্টকম্‌&","h":"","s":{"eng":"NULL"},"o":{}}],
      [{"w":"&(শ্রীকৃষ্ণচৈতন্যদেবেন","h":" ","s":{"eng":"NULL"},"o":{}},{"w":"বিরচিতম্‌)&","h":"","s":{"eng":"NULL"},"o":{}}],
      [{"w":"চেতোদর্পণ","h":"-","s":{"eng":"NULL"},"o":{}},{"w":"মার্জ্জনং","h":" ","s":{"eng":"NULL"},"o":{}},{"w":"ভব","h":"-","s":{"eng":"NULL"},"o":{}},{"w":"মহাদাবাগ্নি","h":"-","s":{"eng":"NULL"},"o":{}},{"w":"নির্ব্বাপণং","h":"","s":{"eng":"NULL"},"o":{}}],
      [{"w":"শ্রেয়ঃকৈরবচন্দ্রিকা","h":"-","s":{"eng":"NULL"},"o":{}},{"w":"বিতরণং","h":" ","s":{"eng":"NULL"},"o":{}},{"w":"বিদ্যাবধূ","h":"-","s":{"eng":"NULL"},"o":{}},{"w":"জীবনম্","h":" ।","s":{"eng":"NULL"},"o":{}}],
      [{"w":"আনন্দাম্বুধি","h":"-","s":{"eng":"NULL"},"o":{}},{"w":"বর্দ্ধনং","h":" ","s":{"eng":"NULL"},"o":{}},{"w":"প্রতিপদং","h":" ","s":{"eng":"NULL"},"o":{}},{"w":"পূর্ণামৃতাস্বাদনং","h":"","s":{"eng":"NULL"},"o":{}}],
      [{"w":"সর্ব্বাত্মস্নপনং","h":" ","s":{"eng":"NULL"},"o":{}},{"w":"পরং","h":" ","s":{"eng":"NULL"},"o":{}},{"w":"বিজয়তে","h":" ","s":{"eng":"NULL"},"o":{}},{"w":"শ্রীকৃষ্ণসঙ্কীর্ত্তনম্","h":" ॥১॥","s":{"eng":"NULL"},"o":{}}]],
    "translation":{"eng":"UNDEFINED"}},{
    "lines":[
      [{"w":"TRANSLATION:","h":" ","s":{"eng":"NULL"},"o":{}},{"w":"চিত্তরূপ","h":" ","s":{"eng":"NULL"},"o":{}},{"w":"দর্পণের","h":" ","s":{"eng":"NULL"},"o":{}},{"w":"মার্জনকারী","h":", ","s":{"eng":"NULL"},"o":{}},{"w":"ভবরূপ","h":" ","s":{"eng":"NULL"},"o":{}},{"w":"মহাদাবাগ্নির","h":" ","s":{"eng":"NULL"},"o":{}},{"w":"নির্বাপণকারী","h":", ","s":{"eng":"NULL"},"o":{}},{"w":"জীবের","h":" ","s":{"eng":"NULL"},"o":{}},{"w":"মঙ্গলরূপ","h":" ","s":{"eng":"NULL"},"o":{}},{"w":"কৈরবচন্দ্রিকা","h":"-","s":{"eng":"NULL"},"o":{}},{"w":"বিতরণকারী","h":", ","s":{"eng":"NULL"},"o":{}},{"w":"বিদ্যাবধূর","h":" ","s":{"eng":"NULL"},"o":{}},{"w":"জীবনস্বরূপ","h":", ","s":{"eng":"NULL"},"o":{}},{"w":"আনন্দসমুদ্রের","h":" ","s":{"eng":"NULL"},"o":{}},{"w":"বর্দ্ধন","h":"-","s":{"eng":"NULL"},"o":{}},{"w":"কারী","h":", ","s":{"eng":"NULL"},"o":{}},{"w":"পদে","h":" ","s":{"eng":"NULL"},"o":{}},{"w":"পদে","h":" ","s":{"eng":"NULL"},"o":{}},{"w":"পূর্ণামৃতাস্বাদনস্বরূপ","h":" ","s":{"eng":"NULL"},"o":{}},{"w":"এবং","h":" ","s":{"eng":"NULL"},"o":{}},{"w":"সর্বস্বরূপের","h":" ","s":{"eng":"NULL"},"o":{}},{"w":"শীতলকারী","h":" ","s":{"eng":"NULL"},"o":{}},{"w":"স্রীকৃষ্ণ","h":"-","s":{"eng":"NULL"},"o":{}},{"w":"কীর্ত্তন","h":" ","s":{"eng":"NULL"},"o":{}},{"w":"বিশেষরূপে","h":" ","s":{"eng":"NULL"},"o":{}},{"w":"জয়যুক্ত","h":" ","s":{"eng":"NULL"},"o":{}},{"w":"হউন","h":"।","s":{"eng":"NULL"},"o":{}}],
      [{"w":"*****","h":"","s":{"eng":"NULL"},"o":{}}],
      [{"w":"&শ্রীচৈতন্যচরিতামৃত","h":" ","s":{"eng":"NULL"},"o":{}},{"w":"(অন্ত্যলীলা","h":" ২০ । ১১, ১৩, ১৪","s":{"eng":"NULL"},"o":{}},{"w":")&","h":"","s":{"eng":"NULL"},"o":{}}],
      [{"w":"নামসঙ্কীর্ত্তনে","h":" ","s":{"eng":"NULL"},"o":{}},{"w":"হয়","h":" ","s":{"eng":"NULL"},"o":{}},{"w":"সর্ব্বানর্থ","h":"-","s":{"eng":"NULL"},"o":{}},{"w":"নাশ","h":" ।","s":{"eng":"NULL"},"o":{}}],
      [{"w":"সর্ব্ব","h":" ","s":{"eng":"NULL"},"o":{}},{"w":"শুভোদয়","h":" ","s":{"eng":"NULL"},"o":{}},{"w":"কৃষ্ণে","h":" ","s":{"eng":"NULL"},"o":{}},{"w":"প্রেমের","h":" ","s":{"eng":"NULL"},"o":{}},{"w":"উল্লাস","h":" ॥১॥","s":{"eng":"NULL"},"o":{}}]],
    "translation":{"eng":"UNDEFINED"}},{
    "lines":[
      [{"w":"সঙ্কীর্ত্তন","h":" ","s":{"eng":"NULL"},"o":{}},{"w":"হৈতে","h":" ","s":{"eng":"NULL"},"o":{}},{"w":"পাপ","h":"-","s":{"eng":"NULL"},"o":{}},{"w":"সংসার","h":"-","s":{"eng":"NULL"},"o":{}},{"w":"নাশন","h":" ।","s":{"eng":"NULL"},"o":{}}],
      [{"w":"চিত্ত","h":" ","s":{"eng":"NULL"},"o":{}},{"w":"শুদ্ধি","h":", ","s":{"eng":"NULL"},"o":{}},{"w":"সর্ব্বভক্তিসাধন","h":"-","s":{"eng":"NULL"},"o":{}},{"w":"উদ্গম","h":" ॥২॥","s":{"eng":"NULL"},"o":{}}]],
    "translation":{"eng":"UNDEFINED"}},{
    "lines":[
      [{"w":"কৃষ্ণপ্রেমোদ্গম","h":", ","s":{"eng":"NULL"},"o":{}},{"w":"প্রেমামৃত","h":"-","s":{"eng":"NULL"},"o":{}},{"w":"আস্বাদন","h":" ।","s":{"eng":"NULL"},"o":{}}],
      [{"w":"কৃষ্ণপ্রাপ্তি","h":", ","s":{"eng":"NULL"},"o":{}},{"w":"সেবামৃত","h":"-","s":{"eng":"NULL"},"o":{}},{"w":"সমুদ্রে","h":" ","s":{"eng":"NULL"},"o":{}},{"w":"মজ্জন","h":" ॥৩॥","s":{"eng":"NULL"},"o":{}}]],
    "translation":{"eng":"UNDEFINED"}},{
    "lines":[
      [{"w":"*****","h":"","s":{"eng":"NULL"},"o":{}}],
      [{"w":"&গীতাবলী","h":" ","s":{"eng":"NULL"},"o":{}},{"w":"(শিক্ষাষ্টক","h":" ১","s":{"eng":"NULL"},"o":{}},{"w":")&","h":"","s":{"eng":"NULL"},"o":{}}],
      [{"w":"&(ঝাঁপি","h":"—","s":{"eng":"NULL"},"o":{}},{"w":"লোফা)&","h":"","s":{"eng":"NULL"},"o":{}}],
      [{"w":"পীতবরণ","h":" ","s":{"eng":"NULL"},"o":{}},{"w":"কলি","h":"-","s":{"eng":"NULL"},"o":{}},{"w":"পাবন","h":" ","s":{"eng":"NULL"},"o":{}},{"w":"গোরা","h":" ।","s":{"eng":"NULL"},"o":{}}],
      [{"w":"গাওয়াই","h":" ","s":{"eng":"NULL"},"o":{}},{"w":"ঐছন","h":" ","s":{"eng":"NULL"},"o":{}},{"w":"ভাববিভোরা","h":" ॥১॥","s":{"eng":"NULL"},"o":{}}]],
    "translation":{"eng":"UNDEFINED"}},{
    "lines":[
      [{"w":"চিত্তদর্পণ","h":"-","s":{"eng":"NULL"},"o":{}},{"w":"পরিমার্জ্জনকারী","h":" ।","s":{"eng":"NULL"},"o":{}}],
      [{"w":"কৃষ্ণকীর্ত্তন","h":" ","s":{"eng":"NULL"},"o":{}},{"w":"জয়","h":" ","s":{"eng":"NULL"},"o":{}},{"w":"চিত্তবিহারী","h":" ॥২॥","s":{"eng":"NULL"},"o":{}}]],
    "translation":{"eng":"UNDEFINED"}},{
    "lines":[
      [{"w":"হেলা","h":"-","s":{"eng":"NULL"},"o":{}},{"w":"ভবদাব","h":"-","s":{"eng":"NULL"},"o":{}},{"w":"নির্ব্বাপণ","h":"-","s":{"eng":"NULL"},"o":{}},{"w":"বৃত্তি","h":" ।","s":{"eng":"NULL"},"o":{}}],
      [{"w":"কৃষ্ণকীর্ত্তন","h":" ","s":{"eng":"NULL"},"o":{}},{"w":"জয়","h":" ","s":{"eng":"NULL"},"o":{}},{"w":"ক্লেশনিবৃত্তি","h":" ॥৩॥","s":{"eng":"NULL"},"o":{}}]],
    "translation":{"eng":"UNDEFINED"}},{
    "lines":[
      [{"w":"শ্রেয়ঃ","h":"-","s":{"eng":"NULL"},"o":{}},{"w":"কুমুদবিধু","h":"-","s":{"eng":"NULL"},"o":{}},{"w":"জ্যোৎস্না","h":"-","s":{"eng":"NULL"},"o":{}},{"w":"প্রকাশ","h":" ।","s":{"eng":"NULL"},"o":{}}],
      [{"w":"কৃষ্ণকীর্ত্তন","h":" ","s":{"eng":"NULL"},"o":{}},{"w":"জয়","h":" ","s":{"eng":"NULL"},"o":{}},{"w":"ভক্তিবিলাস","h":" ॥৪॥","s":{"eng":"NULL"},"o":{}}]],
    "translation":{"eng":"UNDEFINED"}},{
    "lines":[
      [{"w":"বিশুদ্ধবিদ্যাবধূ","h":"-","s":{"eng":"NULL"},"o":{}},{"w":"জীবন","h":"-","s":{"eng":"NULL"},"o":{}},{"w":"রূপ","h":" ।","s":{"eng":"NULL"},"o":{}}],
      [{"w":"কৃষ্ণকীর্ত্তন","h":" ","s":{"eng":"NULL"},"o":{}},{"w":"জয়","h":" ","s":{"eng":"NULL"},"o":{}},{"w":"সিদ্ধস্বরূপ","h":" ॥৫॥","s":{"eng":"NULL"},"o":{}}]],
    "translation":{"eng":"UNDEFINED"}},{
    "lines":[
      [{"w":"আনন্দ","h":"-","s":{"eng":"NULL"},"o":{}},{"w":"পয়োনিধি","h":"-","s":{"eng":"NULL"},"o":{}},{"w":"বর্দ্ধন","h":"-","s":{"eng":"NULL"},"o":{}},{"w":"কীর্ত্তি","h":" ।","s":{"eng":"NULL"},"o":{}}],
      [{"w":"কৃষ্ণকীর্ত্তন","h":" ","s":{"eng":"NULL"},"o":{}},{"w":"জয়","h":" ","s":{"eng":"NULL"},"o":{}},{"w":"প্লাবন","h":"-","s":{"eng":"NULL"},"o":{}},{"w":"মূর্ত্তি","h":" ॥৬॥","s":{"eng":"NULL"},"o":{}}]],
    "translation":{"eng":"UNDEFINED"}},{
    "lines":[
      [{"w":"পদে","h":" ","s":{"eng":"NULL"},"o":{}},{"w":"পদে","h":" ","s":{"eng":"NULL"},"o":{}},{"w":"পীযূষ","h":"-","s":{"eng":"NULL"},"o":{}},{"w":"স্বাদ","h":"-","s":{"eng":"NULL"},"o":{}},{"w":"প্রদাতা","h":" ।","s":{"eng":"NULL"},"o":{}}],
      [{"w":"কৃষ্ণকীর্ত্তন","h":" ","s":{"eng":"NULL"},"o":{}},{"w":"জয়","h":" ","s":{"eng":"NULL"},"o":{}},{"w":"প্রেমবিধাতা","h":" ॥৭॥","s":{"eng":"NULL"},"o":{}}]],
    "translation":{"eng":"UNDEFINED"}},{
    "lines":[
      [{"w":"ভক্তিবিনোদ","h":" ","s":{"eng":"NULL"},"o":{}},{"w":"স্বাত্মস্নপন","h":" - ","s":{"eng":"NULL"},"o":{}},{"w":"বিধান","h":" ।","s":{"eng":"NULL"},"o":{}}],
      [{"w":"কৃষ্ণকীর্ত্তন","h":" ","s":{"eng":"NULL"},"o":{}},{"w":"জয়","h":" ","s":{"eng":"NULL"},"o":{}},{"w":"প্রেম","h":" ","s":{"eng":"NULL"},"o":{}},{"w":"নিদান","h":" ॥৮॥","s":{"eng":"NULL"},"o":{}}]],
    "translation":{"eng":"UNDEFINED"}},{
    "lines":[
      [{"w":"*****","h":"","s":{"eng":"NULL"},"o":{}}],
      [{"w":"&কৃষ্ণলীলা","h":" ","s":{"eng":"NULL"},"o":{}},{"w":"চিন্তা&","h":"","s":{"eng":"NULL"},"o":{}}],
      [{"w":"&নিশান্ত","h":"-","s":{"eng":"NULL"},"o":{}},{"w":"লীলা&","h":"","s":{"eng":"NULL"},"o":{}}],
      [{"w":"&শ্রীগোবিন্দলীলামৃত","h":" ","s":{"eng":"NULL"},"o":{}},{"w":"(","h":"১ ।১০","s":{"eng":"NULL"},"o":{}},{"w":")&","h":"","s":{"eng":"NULL"},"o":{}}],
      [{"w":"রাত্র্যন্তে","h":" ","s":{"eng":"NULL"},"o":{}},{"w":"ত্রস্তবৃন্দেরিতবহুবিরবৈর্বোধিতৌ","h":" ","s":{"eng":"NULL"},"o":{}},{"w":"কীরশারী","h":"","s":{"eng":"NULL"},"o":{}}],
      [{"w":"পদ্যৈর্হৃদ্যৈরহৃদ্যৈরপি","h":" ","s":{"eng":"NULL"},"o":{}},{"w":"সুখশয়নাদুত্থিতৌ","h":" ","s":{"eng":"NULL"},"o":{}},{"w":"তৌ","h":" ","s":{"eng":"NULL"},"o":{}},{"w":"সখিভিঃ","h":" ।","s":{"eng":"NULL"},"o":{}}],
      [{"w":"দৃষ্টৌ","h":" ","s":{"eng":"NULL"},"o":{}},{"w":"হৃষ্টৌ","h":" ","s":{"eng":"NULL"},"o":{}},{"w":"তদাত্বোদিতরতিললিতৌ","h":" ","s":{"eng":"NULL"},"o":{}},{"w":"কক্‌খটীগীঃ","h":" ","s":{"eng":"NULL"},"o":{}},{"w":"সশঙ্কৌ","h":"","s":{"eng":"NULL"},"o":{}}],
      [{"w":"রাধাকৃষ্ণৌ","h":" ","s":{"eng":"NULL"},"o":{}},{"w":"সতৃষ্ণাবপি","h":" ","s":{"eng":"NULL"},"o":{}},{"w":"নিজনিজ","h":" ","s":{"eng":"NULL"},"o":{}},{"w":"ধাম্ন্যাপ্ততল্পৌ","h":" ","s":{"eng":"NULL"},"o":{}},{"w":"স্মরামি","h":" ॥","s":{"eng":"NULL"},"o":{}}]],
    "translation":{"eng":"UNDEFINED"}},{
    "lines":[
      [{"w":"TRANSLATION:","h":" ","s":{"eng":"NULL"},"o":{}},{"w":"দিবাগমনাশঙ্কায়","h":" ","s":{"eng":"NULL"},"o":{}},{"w":"বৃন্দা","h":" ","s":{"eng":"NULL"},"o":{}},{"w":"শ্রীশ্রীরাধাকৃষ্ণের","h":" ","s":{"eng":"NULL"},"o":{}},{"w":"নিদ্রাভঙ্গের","h":" ","s":{"eng":"NULL"},"o":{}},{"w":"জন্য","h":" ","s":{"eng":"NULL"},"o":{}},{"w":"নিশান্তে","h":" ","s":{"eng":"NULL"},"o":{}},{"w":"শুক","h":"-","s":{"eng":"NULL"},"o":{}},{"w":"শারিকা","h":" ","s":{"eng":"NULL"},"o":{}},{"w":"প্রভৃতি","h":" ","s":{"eng":"NULL"},"o":{}},{"w":"যেসকল","h":" ","s":{"eng":"NULL"},"o":{}},{"w":"পক্ষীকে","h":" ","s":{"eng":"NULL"},"o":{}},{"w":"প্রেরণ","h":" ","s":{"eng":"NULL"},"o":{}},{"w":"করিয়াছিলেন","h":", ","s":{"eng":"NULL"},"o":{}},{"w":"তাহাদের","h":" ","s":{"eng":"NULL"},"o":{}},{"w":"কলরবে","h":" ","s":{"eng":"NULL"},"o":{}},{"w":"এবং","h":" ","s":{"eng":"NULL"},"o":{}},{"w":"প্রিয়","h":" ","s":{"eng":"NULL"},"o":{}},{"w":"ও","h":" ","s":{"eng":"NULL"},"o":{}},{"w":"অপ্রিয়","h":" ","s":{"eng":"NULL"},"o":{}},{"w":"কবিতাপাঠের","h":" ","s":{"eng":"NULL"},"o":{}},{"w":"শব্দে","h":" ","s":{"eng":"NULL"},"o":{}},{"w":"প্রবোধিত","h":"—","s":{"eng":"NULL"},"o":{}},{"w":"তৎকালোচিত","h":"-","s":{"eng":"NULL"},"o":{}},{"w":"রতিভরে","h":" ","s":{"eng":"NULL"},"o":{}},{"w":"পরম","h":" ","s":{"eng":"NULL"},"o":{}},{"w":"কমনীয়","h":" ","s":{"eng":"NULL"},"o":{}},{"w":"এবং","h":" ","s":{"eng":"NULL"},"o":{}},{"w":"দূর","h":" ","s":{"eng":"NULL"},"o":{}},{"w":"হইতে","h":" ","s":{"eng":"NULL"},"o":{}},{"w":"সখীগণকর্ত্তৃক","h":" ","s":{"eng":"NULL"},"o":{}},{"w":"দৃষ্ট","h":" ","s":{"eng":"NULL"},"o":{}},{"w":"‘কক্‌খটী’","h":" ","s":{"eng":"NULL"},"o":{}},{"w":"নাম্নী","h":" ","s":{"eng":"NULL"},"o":{}},{"w":"বানরীর","h":" ","s":{"eng":"NULL"},"o":{}},{"w":"চীৎকারে","h":" ","s":{"eng":"NULL"},"o":{}},{"w":"শঙ্কিত","h":" ","s":{"eng":"NULL"},"o":{}},{"w":"সেই","h":" ","s":{"eng":"NULL"},"o":{}},{"w":"শ্রীরাধা","h":" ","s":{"eng":"NULL"},"o":{}},{"w":"ও","h":" ","s":{"eng":"NULL"},"o":{}},{"w":"শ্রীকৃষ্ণ","h":" ","s":{"eng":"NULL"},"o":{}},{"w":"সতৃষ্ণনয়নে","h":" ","s":{"eng":"NULL"},"o":{}},{"w":"অবলোকন","h":" ","s":{"eng":"NULL"},"o":{}},{"w":"করিতে","h":" ","s":{"eng":"NULL"},"o":{}},{"w":"করিতে","h":" ","s":{"eng":"NULL"},"o":{}},{"w":"স্ব","h":"-","s":{"eng":"NULL"},"o":{}},{"w":"স্ব","h":" ","s":{"eng":"NULL"},"o":{}},{"w":"ভবনে","h":" ","s":{"eng":"NULL"},"o":{}},{"w":"গমনপূর্ব্বক","h":" ","s":{"eng":"NULL"},"o":{}},{"w":"শয্যায়","h":" ","s":{"eng":"NULL"},"o":{}},{"w":"শয়ন","h":" ","s":{"eng":"NULL"},"o":{}},{"w":"করিলেন","h":" ।","s":{"eng":"NULL"},"o":{}}],
      [{"w":"*****","h":"","s":{"eng":"NULL"},"o":{}}],
      [{"w":"&শ্রীভজনরহস্য","h":" ","s":{"eng":"NULL"},"o":{}},{"w":"(","h":"১ ।৩৮","s":{"eng":"NULL"},"o":{}},{"w":")&","h":"","s":{"eng":"NULL"},"o":{}}],
      [{"w":"দেখিয়া","h":" ","s":{"eng":"NULL"},"o":{}},{"w":"অরুনোদয়","h":",    ","s":{"eng":"NULL"},"o":{}},{"w":"বৃন্দাদেবী","h":" ","s":{"eng":"NULL"},"o":{}},{"w":"ব্যস্ত","h":" ","s":{"eng":"NULL"},"o":{}},{"w":"হয়","h":", ","s":{"eng":"NULL"},"o":{}}],
      [{"w":"কুঞ্জে","h":" ","s":{"eng":"NULL"},"o":{}},{"w":"নানা","h":" ","s":{"eng":"NULL"},"o":{}},{"w":"রব","h":" ","s":{"eng":"NULL"},"o":{}},{"w":"করাইল","h":" ।","s":{"eng":"NULL"},"o":{}}],
      [{"w":"শুক","h":"-","s":{"eng":"NULL"},"o":{}},{"w":"শারী","h":"-","s":{"eng":"NULL"},"o":{}},{"w":"পদ্য","h":" ","s":{"eng":"NULL"},"o":{}},{"w":"শুনি","h":",    ","s":{"eng":"NULL"},"o":{}},{"w":"উঠে","h":" ","s":{"eng":"NULL"},"o":{}},{"w":"রাধা","h":"-","s":{"eng":"NULL"},"o":{}},{"w":"নীলমণি","h":",","s":{"eng":"NULL"},"o":{}}],
      [{"w":"সখীগণ","h":" ","s":{"eng":"NULL"},"o":{}},{"w":"দেখি","h":" ","s":{"eng":"NULL"},"o":{}},{"w":"হৃষ্ট","h":" ","s":{"eng":"NULL"},"o":{}},{"w":"হৈল","h":" ॥১॥","s":{"eng":"NULL"},"o":{}}]],
    "translation":{"eng":"UNDEFINED"}},{
    "lines":[
      [{"w":"কালোচিত","h":", ","s":{"eng":"NULL"},"o":{}},{"w":"সুললিত","h":",     ","s":{"eng":"NULL"},"o":{}},{"w":"কক্‌খটীর","h":" ","s":{"eng":"NULL"},"o":{}},{"w":"রবে","h":" ","s":{"eng":"NULL"},"o":{}},{"w":"ভীত","h":",","s":{"eng":"NULL"},"o":{}}],
      [{"w":"রাধাকৃষ্ণ","h":" ","s":{"eng":"NULL"},"o":{}},{"w":"সতৃষ্ণ","h":" ","s":{"eng":"NULL"},"o":{}},{"w":"হইয়া","h":" ।","s":{"eng":"NULL"},"o":{}}],
      [{"w":"নিজ","h":" ","s":{"eng":"NULL"},"o":{}},{"w":"নিজ","h":" ","s":{"eng":"NULL"},"o":{}},{"w":"গৃহে","h":" ","s":{"eng":"NULL"},"o":{}},{"w":"গেলা","h":",    ","s":{"eng":"NULL"},"o":{}},{"w":"নিভৃতে","h":" ","s":{"eng":"NULL"},"o":{}},{"w":"শয়ন","h":" ","s":{"eng":"NULL"},"o":{}},{"w":"কৈলা","h":",","s":{"eng":"NULL"},"o":{}}],
      [{"w":"দুঁহে","h":" ","s":{"eng":"NULL"},"o":{}},{"w":"ভজি","h":" ","s":{"eng":"NULL"},"o":{}},{"w":"সে","h":" ","s":{"eng":"NULL"},"o":{}},{"w":"লীলা","h":" ","s":{"eng":"NULL"},"o":{}},{"w":"স্মরিয়া","h":" ॥২॥","s":{"eng":"NULL"},"o":{}}]],
    "translation":{"eng":"UNDEFINED"}},{
    "lines":[
      [{"w":"এই","h":" ","s":{"eng":"NULL"},"o":{}},{"w":"লীলা","h":" ","s":{"eng":"NULL"},"o":{}},{"w":"স্মর","h":", ","s":{"eng":"NULL"},"o":{}},{"w":"আর","h":" ","s":{"eng":"NULL"},"o":{}},{"w":"গাও","h":" ","s":{"eng":"NULL"},"o":{}},{"w":"কৃষ্ণনাম","h":" ।","s":{"eng":"NULL"},"o":{}}],
      [{"w":"কৃষ্ণলীলা","h":" ","s":{"eng":"NULL"},"o":{}},{"w":"প্রেমধন","h":" ","s":{"eng":"NULL"},"o":{}},{"w":"পাবে","h":" ","s":{"eng":"NULL"},"o":{}},{"w":"কৃষ্ণধাম","h":" ॥৩॥","s":{"eng":"NULL"},"o":{}}]],
    "translation":{"eng":"UNDEFINED"}},{
    "lines":[
      []]}
  ]
}