{
  "uid":"B25",
  "title":"राधे झूलन पधारो झुक आये बदरा",
  "author":"?",
  "language":"hin",
  "notes":[],
  "audio":[
    {"uid":"krsn-1","fn":"B25-krsn-1.mp3","meta":{"artist":"Krsnadas das","src":"21 Hindi & Braj Bhasha Kīrtanas/[17] Rādhe Jhūlana Padhāro/krsn-radhe_jhulana_padharo.mp3"}},
    {"uid":"jana-1","fn":"B25-jana-1.mp3","meta":{"artist":"Janaki dasi","src":"21 Hindi & Braj Bhasha Kīrtanas/[17] Rādhe Jhūlana Padhāro/jana-radhe_jhulana_padharo.mp3"}}],
  "has_synonyms":false,
  "has_translations":false,
  "legend":{"w":"word","h":"hint","s":"synonym","o":"override"},
  "verses":[{
    "lines":[
      [{"w":"राधे","h":" ","s":{"eng":"NULL"},"o":{}},{"w":"झूलन","h":" ","s":{"eng":"NULL"},"o":{}},{"w":"पधारो","h":" ","s":{"eng":"NULL"},"o":{}},{"w":"झुक","h":" ","s":{"eng":"NULL"},"o":{}},{"w":"आये","h":" ","s":{"eng":"NULL"},"o":{}},{"w":"बदरा","h":" ।","s":{"eng":"NULL"},"o":{}}],
      [{"w":"झुक","h":" ","s":{"eng":"NULL"},"o":{}},{"w":"आये","h":" ","s":{"eng":"NULL"},"o":{}},{"w":"बदरा","h":" ","s":{"eng":"NULL"},"o":{}},{"w":"घिर","h":" ","s":{"eng":"NULL"},"o":{}},{"w":"आये","h":" ","s":{"eng":"NULL"},"o":{}},{"w":"बदरा","h":" ॥","s":{"eng":"NULL"},"o":{}}]],
    "translation":{"eng":"UNDEFINED"}},{
    "lines":[
      [{"w":"ऐसो","h":" ","s":{"eng":"NULL"},"o":{}},{"w":"मान","h":" ","s":{"eng":"NULL"},"o":{}},{"w":"नहीं","h":" ","s":{"eng":"NULL"},"o":{}},{"w":"कीजे","h":", ","s":{"eng":"NULL"},"o":{}},{"w":"हठ","h":" ","s":{"eng":"NULL"},"o":{}},{"w":"छोड़ो","h":" ","s":{"eng":"NULL"},"o":{}},{"w":"री","h":" ","s":{"eng":"NULL"},"o":{}},{"w":"अली","h":" ।","s":{"eng":"NULL"},"o":{}}],
      [{"w":"तुम","h":" ","s":{"eng":"NULL"},"o":{}},{"w":"तो","h":" ","s":{"eng":"NULL"},"o":{}},{"w":"परम","h":" ","s":{"eng":"NULL"},"o":{}},{"w":"सयानी","h":" ","s":{"eng":"NULL"},"o":{}},{"w":"वृषभानुकी","h":" ","s":{"eng":"NULL"},"o":{}},{"w":"लली","h":" ॥","s":{"eng":"NULL"},"o":{}}]],
    "translation":{"eng":"UNDEFINED"}},{
    "lines":[
      [{"w":"साजो","h":" ","s":{"eng":"NULL"},"o":{}},{"w":"सोलह","h":" ","s":{"eng":"NULL"},"o":{}},{"w":"शृंगार","h":", ","s":{"eng":"NULL"},"o":{}},{"w":"डारो","h":" ","s":{"eng":"NULL"},"o":{}},{"w":"नैनन","h":" ","s":{"eng":"NULL"},"o":{}},{"w":"कजरा","h":" ।","s":{"eng":"NULL"},"o":{}}],
      [{"w":"पहरो","h":" ","s":{"eng":"NULL"},"o":{}},{"w":"पंचरंग","h":" ","s":{"eng":"NULL"},"o":{}},{"w":"साड़ी","h":" ","s":{"eng":"NULL"},"o":{}},{"w":"ओढ़ो","h":" ","s":{"eng":"NULL"},"o":{}},{"w":"श्याम","h":" ","s":{"eng":"NULL"},"o":{}},{"w":"चदरा","h":" ॥","s":{"eng":"NULL"},"o":{}}]],
    "translation":{"eng":"UNDEFINED"}},{
    "lines":[
      [{"w":"तेरो","h":" ","s":{"eng":"NULL"},"o":{}},{"w":"रसिक","h":" ","s":{"eng":"NULL"},"o":{}},{"w":"प्रीतम","h":", ","s":{"eng":"NULL"},"o":{}},{"w":"मग","h":" ","s":{"eng":"NULL"},"o":{}},{"w":"जोहत","h":" ","s":{"eng":"NULL"},"o":{}},{"w":"खड़ो","h":" ।","s":{"eng":"NULL"},"o":{}}],
      [{"w":"राधे","h":" ","s":{"eng":"NULL"},"o":{}},{"w":"जहाँ","h":" ","s":{"eng":"NULL"},"o":{}},{"w":"पग","h":" ","s":{"eng":"NULL"},"o":{}},{"w":"धारो","h":" ","s":{"eng":"NULL"},"o":{}},{"w":"श्याम","h":" ","s":{"eng":"NULL"},"o":{}},{"w":"नैना","h":" ","s":{"eng":"NULL"},"o":{}},{"w":"धरो","h":" ॥","s":{"eng":"NULL"},"o":{}}]],
    "translation":{"eng":"UNDEFINED"}},{
    "lines":[
      [{"w":"डारी","h":" ","s":{"eng":"NULL"},"o":{}},{"w":"रेशम","h":" ","s":{"eng":"NULL"},"o":{}},{"w":"डोरी","h":" ","s":{"eng":"NULL"},"o":{}},{"w":"जापै","h":" ","s":{"eng":"NULL"},"o":{}},{"w":"झूले","h":" ","s":{"eng":"NULL"},"o":{}},{"w":"राधा","h":" ","s":{"eng":"NULL"},"o":{}},{"w":"गोरी","h":" ।","s":{"eng":"NULL"},"o":{}}],
      [{"w":"जाकी","h":" ","s":{"eng":"NULL"},"o":{}},{"w":"बैयाँ","h":" ","s":{"eng":"NULL"},"o":{}},{"w":"गोरी","h":" ","s":{"eng":"NULL"},"o":{}},{"w":"गोरी","h":" ","s":{"eng":"NULL"},"o":{}},{"w":"पहरे","h":" ","s":{"eng":"NULL"},"o":{}},{"w":"हाथन","h":" ","s":{"eng":"NULL"},"o":{}},{"w":"गजरा","h":" ॥","s":{"eng":"NULL"},"o":{}}]],
    "translation":{"eng":"UNDEFINED"}}
  ]
}