{
  "uid":"E2",
  "title":"শ্রীমন্মহাপ্রভুর হরিবাসর-ব্রতপালন",
  "author":"vdt",
  "language":"ben",
  "notes":[],
  "audio":[
    {"uid":"tama-1","fn":"E2-tama-1.mp3","meta":{"artist":"Tamal Krsna das","src":"17 Ārati/tama-sri_hari_vasare_hari_kirtana_bidhana.mp3"}}],
  "has_synonyms":true,
  "has_translations":true,
  "legend":{"w":"word","h":"hint","s":"synonym","o":"override"},
  "verses":[{
    "lines":[
      [{"w":"শ্রীহরিবাসরে","h":" ","s":{"eng":"on Śrī Hari-bāsara"},"o":{}},{"w":"হরি","h":"-","s":{"eng":"Hari"},"o":{}},{"w":"কীর্ত্তন","h":"-","s":{"eng":"chanting"},"o":{}},{"w":"বিধান","h":" ।","s":{"eng":"prescript, arrangement, prescribing"},"o":{}}],
      [{"w":"নৃত্য","h":" ","s":{"eng":"dance"},"o":{}},{"w":"আরম্ভিলা","h":" ","s":{"eng":"began"},"o":{}},{"w":"প্রভু","h":" ","s":{"eng":"the Lord"},"o":{}},{"w":"জগতের","h":" ","s":{"eng":"of the universe"},"o":{}},{"w":"প্রাণ","h":" ॥১॥","s":{"eng":"life, soul"},"o":{}}]],
    "translation":{"eng":"On Ekādaśī, after decreeing hari-kīrtana, Mahāprabhu, who is the life and soul of the universe, begins to dance in ecstasy."}},{
    "lines":[
      [{"w":"পুণ্যবন্ত","h":" ","s":{"eng":"virtuous"},"o":{}},{"w":"শ্রীবাস","h":"-","s":{"eng":"Śrīvāsa"},"o":{}},{"w":"অঙ্গনে","h":" ","s":{"eng":"in the courtyard"},"o":{}},{"w":"শুভারম্ভ","h":" ।","s":{"eng":"auspicious + commencement"},"o":{}}],
      [{"w":"উঠিল","h":" ","s":{"eng":"arose"},"o":{}},{"w":"কীর্ত্তন","h":"-","s":{"eng":"kīrtana"},"o":{}},{"w":"ধ্বনি","h":" ","s":{"eng":"sound"},"o":{}},{"w":"","h":"‘","s":{"eng":"NULL"},"o":{}},{"w":"গোপাল’","h":" ","s":{"eng":"'Gopāla'"},"o":{}},{"w":"","h":"‘","s":{"eng":"NULL"},"o":{}},{"w":"গোবিন্দ’","h":" ॥২॥","s":{"eng":"'Govinda'"},"o":{}}]],
    "translation":{"eng":"In the courtyard of the virtuous Śrīvāsa, the auspicious sounds of kīrtana—Gopāla! Govinda!—reverberates loudly."}},{
    "lines":[
      [{"w":"মৃদঙ্গ","h":"-","s":{"eng":"mṛdaṅga drums"},"o":{}},{"w":"মন্দিরা","h":" ","s":{"eng":"small, cup-shaped cymbals"},"o":{}},{"w":"বাজে","h":" ","s":{"eng":"resounded"},"o":{}},{"w":"শঙ্খ","h":"-","s":{"eng":"conch"},"o":{}},{"w":"করতাল","h":" ।","s":{"eng":"cymbals"},"o":{}}],
      [{"w":"সঙ্কীর্ত্তন","h":"-","s":{"eng":"congregational chanting"},"o":{}},{"w":"সঙ্গে","h":" ","s":{"eng":"with"},"o":{}},{"w":"সব","h":" ","s":{"eng":"all"},"o":{}},{"w":"হইল","h":" ","s":{"eng":"blended"},"o":{}},{"w":"মিশাল","h":" ॥৩॥","s":{"eng":"⬅1"},"o":{}}]],
    "translation":{"eng":"The sounds of the mṛdaṅga, mandirā (small, cup-shaped cymbals), conch, and karatāla all blend nicely with the saṅkīrtana."}},{
    "lines":[
      [{"w":"ব্রহ্মাণ্ড","h":" ","s":{"eng":"the whole universe"},"o":{}},{"w":"ভেদিল","h":" ","s":{"eng":"penetrated"},"o":{}},{"w":"ধ্বনি","h":" ","s":{"eng":"sounds"},"o":{}},{"w":"পূরিয়া","h":" ","s":{"eng":"having filled"},"o":{}},{"w":"আকাশ","h":" ।","s":{"eng":"sky"},"o":{}}],
      [{"w":"চৌদিকের","h":" ","s":{"eng":"of the four directions"},"o":{}},{"w":"অমঙ্গল","h":" ","s":{"eng":"inauspiciouness"},"o":{}},{"w":"যায়","h":" ","s":{"eng":"becomes"},"o":{}},{"w":"সব","h":" ","s":{"eng":"all"},"o":{}},{"w":"নাশ","h":" ॥৪॥","s":{"eng":"annihilated"},"o":{}}]],
    "translation":{"eng":"The thunderous sound penetrates the universe, filling the whole sky. Everything inauspicious in all four directions is annihilated."}},{
    "lines":[
      [{"w":"ঊষঃকাল","h":" ","s":{"eng":"dawn, daybreak + time"},"o":{}},{"w":"হৈতে","h":" ","s":{"eng":"at"},"o":{}},{"w":"নৃত্য","h":" ","s":{"eng":"dances"},"o":{}},{"w":"করে","h":" ","s":{"eng":"⬅1"},"o":{}},{"w":"বিশ্বম্ভর","h":" ।","s":{"eng":"Lord Viśvambhara"},"o":{}}],
      [{"w":"যূথ","h":" ","s":{"eng":"individual groups"},"o":{}},{"w":"যূথ","h":" ","s":{"eng":"⬅1"},"o":{}},{"w":"হৈল","h":" ","s":{"eng":"happened"},"o":{}},{"w":"যত","h":" ","s":{"eng":"all the"},"o":{}},{"w":"গায়ন","h":" ","s":{"eng":"singing"},"o":{}},{"w":"সুন্দর","h":" ॥৫॥","s":{"eng":"charming"},"o":{}}]],
    "translation":{"eng":"At dawn, Viśvambhara dances while the [kīrtana] groups formed sing charmingly."}},{
    "lines":[
      [{"w":"শ্রীবাস","h":"-","s":{"eng":"Śrīvāsa Paṇḍita"},"o":{}},{"w":"পণ্ডিত","h":" ","s":{"eng":"⬅1"},"o":{}},{"w":"লঞা","h":" ","s":{"eng":"with"},"o":{}},{"w":"এক","h":" ","s":{"eng":"one"},"o":{}},{"w":"সম্প্রদায়","h":" ।","s":{"eng":"group"},"o":{}}],
      [{"w":"মুকুন্দ","h":" ","s":{"eng":"Mukunda"},"o":{}},{"w":"লইয়া","h":" ","s":{"eng":"with"},"o":{}},{"w":"আর","h":" ","s":{"eng":"and, others"},"o":{}},{"w":"জন","h":" ","s":{"eng":"people"},"o":{}},{"w":"কত","h":" ","s":{"eng":"many"},"o":{}},{"w":"গায়","h":" ॥৬॥","s":{"eng":"sing"},"o":{}}]],
    "translation":{"eng":"One group is with Śrīvāsa Paṇḍita, and many others sing with Mukunda Datta."}},{
    "lines":[
      [{"w":"লইয়া","h":" ","s":{"eng":"with"},"o":{}},{"w":"গোবিন্দ","h":" ","s":{"eng":"Govinda Ghoṣa"},"o":{}},{"w":"ঘোষ","h":" ","s":{"eng":"⬅1"},"o":{}},{"w":"আর","h":" ","s":{"eng":"others"},"o":{}},{"w":"কত","h":"-","s":{"eng":"many"},"o":{}},{"w":"জন","h":" ।","s":{"eng":"people"},"o":{}}],
      [{"w":"গৌরচন্দ্র","h":"-","s":{"eng":"the moon-like Gaura"},"o":{}},{"w":"নৃত্যে","h":" ","s":{"eng":"while dancing"},"o":{}},{"w":"সবে","h":" ","s":{"eng":"everyone"},"o":{}},{"w":"করেন","h":" ","s":{"eng":"performs"},"o":{}},{"w":"কীর্ত্তন","h":" ॥৭॥","s":{"eng":"chanting"},"o":{}}]],
    "translation":{"eng":"There are many more with Govinda Ghoṣa. As Gaura-candra dances, everyone performs kīrtana."}},{
    "lines":[
      [{"w":"ধরিয়া","h":" ","s":{"eng":"having held"},"o":{}},{"w":"বুলেন","h":" ","s":{"eng":"passes the hand lightly over"},"o":{}},{"w":"নিত্যানন্দ","h":" ","s":{"eng":"Nityānanda"},"o":{}},{"w":"মহাবলী","h":" ।","s":{"eng":"the mighty"},"o":{}}],
      [{"w":"অলক্ষিতে","h":" ","s":{"eng":"without being seen, stealthily"},"o":{}},{"w":"অদ্বৈত","h":" ","s":{"eng":"Advaita Ācārya"},"o":{}},{"w":"লয়েন","h":" ","s":{"eng":"takes"},"o":{}},{"w":"পদধূলি","h":" ॥৮॥","s":{"eng":"foot + dust"},"o":{}}]],
    "translation":{"eng":"The mighty Nityānanda Prabhu holds onto Mahāprabhu and gently strokes Him, while Advaita Ācārya secretly takes His foot dust."}},{
    "lines":[
      [{"w":"গদাধর","h":"-","s":{"eng":"Gadādhara Paṇḍita"},"o":{}},{"w":"আদি","h":" ","s":{"eng":"and others"},"o":{}},{"w":"যত","h":" ","s":{"eng":"whatever"},"o":{}},{"w":"সজল","h":" ","s":{"eng":"tearful"},"o":{}},{"w":"নয়নে","h":" ।","s":{"eng":"with eyes"},"o":{}}],
      [{"w":"আনন্দে","h":" ","s":{"eng":"in happiness"},"o":{}},{"w":"বিহ্বল","h":" ","s":{"eng":"overwhelmed"},"o":{}},{"w":"হৈল","h":" ","s":{"eng":"became"},"o":{}},{"w":"প্রভুর","h":" ","s":{"eng":"the Lord’s"},"o":{}},{"w":"কীর্ত্তনে","h":" ॥৯॥","s":{"eng":"by kīrtana"},"o":{}}]],
    "translation":{"eng":"Their eyes brimming with tears, Gadādhara and others become over­whelmed in transcendental happiness, due to Mahāprabhu’s kīrtana."}},{
    "lines":[
      [{"w":"যখন","h":" ","s":{"eng":"when"},"o":{}},{"w":"উদ্দণ্ড","h":" ","s":{"eng":"powerfully, uncontrollably"},"o":{}},{"w":"নাচে","h":" ","s":{"eng":"dances"},"o":{}},{"w":"প্রভু","h":" ","s":{"eng":"the Lord"},"o":{}},{"w":"বিশ্বম্ভর","h":" ।","s":{"eng":"Viśvambhara"},"o":{}}],
      [{"w":"পৃথিবী","h":" ","s":{"eng":"the earth"},"o":{}},{"w":"কম্পিত","h":" ","s":{"eng":"trembles"},"o":{}},{"w":"হয়","h":" ","s":{"eng":"⬅1"},"o":{}},{"w":"সবে","h":" ","s":{"eng":"everone"},"o":{}},{"w":"পায়","h":" ","s":{"eng":"gets"},"o":{}},{"w":"ডর","h":" ॥১০॥","s":{"eng":"frightened"},"o":{}}]],
    "translation":{"eng":"When Viśvambhara dances with great force, the Earth trembles and everyone becomes afraid."}},{
    "lines":[
      [{"w":"কখনো","h":" ","s":{"eng":"sometimes"},"o":{}},{"w":"বা","h":" ","s":{"eng":"so [empathetic particle]"},"o":{}},{"w":"মধুর","h":" ","s":{"eng":"sweetly"},"o":{}},{"w":"নাচয়ে","h":" ","s":{"eng":"dances"},"o":{}},{"w":"বিশ্বম্ভর","h":" ।","s":{"eng":"Viśvambhara"},"o":{}}],
      [{"w":"যেন","h":" ","s":{"eng":"just as"},"o":{}},{"w":"দেখি","h":" ","s":{"eng":"looks"},"o":{}},{"w":"নন্দের","h":" ","s":{"eng":"Nanda’s"},"o":{}},{"w":"নন্দন","h":" ","s":{"eng":"son"},"o":{}},{"w":"নটবর","h":" ॥১১॥","s":{"eng":"the best of dancers"},"o":{}}]],
    "translation":{"eng":"Sometimes Viśvambhara dances so sweetly that He appears to be the son of Nanda, the best of dancers."}},{
    "lines":[
      [{"w":"অপরূপ","h":" ","s":{"eng":"unprecedented, incomparably beautiful, wonderful"},"o":{}},{"w":"কৃষ্ণাবেশ","h":", ","s":{"eng":"Kṛṣṇa + attachment, love, rapture"},"o":{}},{"w":"অপরূপ","h":" ","s":{"eng":"incomparably beautiful"},"o":{}},{"w":"নৃত্য","h":" ।","s":{"eng":"dancing"},"o":{}}],
      [{"w":"আনন্দে","h":" ","s":{"eng":"with joy"},"o":{}},{"w":"নয়ন","h":" ","s":{"eng":"eyes"},"o":{}},{"w":"ভরি","h":" ","s":{"eng":"having filled"},"o":{}},{"w":"দেখে","h":" ","s":{"eng":"see"},"o":{}},{"w":"সব","h":" ","s":{"eng":"all"},"o":{}},{"w":"ভৃত্য","h":" ॥১২॥","s":{"eng":"servants"},"o":{}}]],
    "translation":{"eng":"Their eyes filled with joy, Mahāprabhu’s servants observe His unprecedented love for Śrī Kṛṣṇa and His incomparably beautiful dancing."}},{
    "lines":[
      [{"w":"নিজানন্দে","h":" ","s":{"eng":"own + in happiness"},"o":{}},{"w":"নাচে","h":" ","s":{"eng":"dances"},"o":{}},{"w":"মহাপ্রভু","h":" ","s":{"eng":"Mahāprabhu"},"o":{}},{"w":"বিশ্বম্ভর","h":" ।","s":{"eng":"Viśvambhara"},"o":{}}],
      [{"w":"চরণের","h":" ","s":{"eng":"of feet"},"o":{}},{"w":"তাল","h":" ","s":{"eng":"rhythmic"},"o":{}},{"w":"শুনি","h":" ","s":{"eng":"sounded"},"o":{}},{"w":"অতি","h":" ","s":{"eng":"extremely"},"o":{}},{"w":"মনোহর","h":" ॥১৩॥","s":{"eng":"captivating"},"o":{}}]],
    "translation":{"eng":"Mahāprabhu Viśvambhara dances, rejoicing in His own trans­cendental happiness. The rhythmic sound of His lotus feet is extremely captivating."}},{
    "lines":[
      [{"w":"ভাব","h":"-","s":{"eng":"ecstacy, emotion"},"o":{}},{"w":"ভরে","h":" ","s":{"eng":"by the weight"},"o":{}},{"w":"মালা","h":" ","s":{"eng":"garland"},"o":{}},{"w":"নাহি","h":" ","s":{"eng":"not"},"o":{}},{"w":"রহয়ে","h":" ","s":{"eng":"remain, stay"},"o":{}},{"w":"গলায়","h":" ।","s":{"eng":"on neck"},"o":{}}],
      [{"w":"ছিণ্ডিয়া","h":" ","s":{"eng":"having broken"},"o":{}},{"w":"পড়য়ে","h":" ","s":{"eng":"falls"},"o":{}},{"w":"গিয়া","h":" ","s":{"eng":"having gone"},"o":{}},{"w":"ভকতের","h":" ","s":{"eng":"devotees"},"o":{}},{"w":"পায়","h":" ॥১৪॥","s":{"eng":"at the feet"},"o":{}}]],
    "translation":{"eng":"Under the weight of His ecstatic emotions, His garland is unable to remain around His neck. Breaking apart, it falls at the feet of the devotees."}},{
    "lines":[
      [{"w":"চতুর্দ্দিকে","h":" ","s":{"eng":"four + in directions"},"o":{}},{"w":"শ্রীহরি","h":"-","s":{"eng":"Śrī Hari"},"o":{}},{"w":"মঙ্গল","h":"-","s":{"eng":"auspicious"},"o":{}},{"w":"সঙ্কীর্ত্তন","h":" ।","s":{"eng":"congregational chanting"},"o":{}}],
      [{"w":"মাঝে","h":" ","s":{"eng":"in the midst"},"o":{}},{"w":"নাচে","h":" ","s":{"eng":"dances"},"o":{}},{"w":"জগন্নাথ","h":"-","s":{"eng":"Jagannātha Miśra’s"},"o":{}},{"w":"মিশ্রের","h":" ","s":{"eng":"⬅1"},"o":{}},{"w":"নন্দন","h":" ॥১৫॥","s":{"eng":"son"},"o":{}}]],
    "translation":{"eng":"The auspiciousness of śrī harināma saṅkīrtana spreads in all four directions as the son of Jagannātha Miśra dances in the midst [of the devotees]."}},{
    "lines":[
      [{"w":"যাঁ’র","h":" ","s":{"eng":"whose"},"o":{}},{"w":"নামানন্দে","h":" ","s":{"eng":"name + in the bliss"},"o":{}},{"w":"শিব","h":" ","s":{"eng":"Lord Śiva"},"o":{}},{"w":"বসন","h":" ","s":{"eng":"clothing"},"o":{}},{"w":"না","h":" ","s":{"eng":"not"},"o":{}},{"w":"জানে","h":" ।","s":{"eng":"knows"},"o":{}}],
      [{"w":"যাঁ’র","h":" ","s":{"eng":"whose"},"o":{}},{"w":"যশে","h":" ","s":{"eng":"by glories"},"o":{}},{"w":"নাচে","h":" ","s":{"eng":"dances"},"o":{}},{"w":"শিব","h":", ","s":{"eng":"Lord Śiva"},"o":{}},{"w":"সে","h":" ","s":{"eng":"He"},"o":{}},{"w":"নাচে","h":" ","s":{"eng":"dances"},"o":{}},{"w":"আপনে","h":" ॥১৬॥","s":{"eng":"Himself"},"o":{}}]],
    "translation":{"eng":"Absorbed in the bliss of Śrī Hari’s name, Śiva becomes oblivious to his own clothing. He whose glories impel Śiva to dance in ecstasy also dances Himself."}},{
    "lines":[
      [{"w":"যাঁ’র","h":" ","s":{"eng":"whose"},"o":{}},{"w":"নামে","h":" ","s":{"eng":"by name"},"o":{}},{"w":"বাল্মীকি","h":" ","s":{"eng":"Vālmīki"},"o":{}},{"w":"হইলা","h":" ","s":{"eng":"happened"},"o":{}},{"w":"তপোধন","h":" ।","s":{"eng":"austerities + wealth"},"o":{}}],
      [{"w":"যাঁ’র","h":" ","s":{"eng":"whose"},"o":{}},{"w":"নামে","h":" ","s":{"eng":"by name"},"o":{}},{"w":"অজামিল","h":" ","s":{"eng":"Ajāmila"},"o":{}},{"w":"পাইল","h":" ","s":{"eng":"received"},"o":{}},{"w":"মোচন","h":" ॥১৭॥","s":{"eng":"deliverance"},"o":{}}]],
    "translation":{"eng":"By His name, Vālmīki achieved the wealth of austerity, and by His name, Ajāmila received deliverance."}},{
    "lines":[
      [{"w":"যাঁ’র","h":" ","s":{"eng":"whose"},"o":{}},{"w":"নাম","h":"-","s":{"eng":"name"},"o":{}},{"w":"শ্রবণে","h":" ","s":{"eng":"by hearing"},"o":{}},{"w":"সংসার","h":"-","s":{"eng":"material world"},"o":{}},{"w":"বন্ধ","h":" ","s":{"eng":"bindings"},"o":{}},{"w":"ঘুচে","h":" ।","s":{"eng":"destroys"},"o":{}}],
      [{"w":"হেন","h":" ","s":{"eng":"such"},"o":{}},{"w":"প্রভু","h":" ","s":{"eng":"Lord"},"o":{}},{"w":"অবতরি’","h":" ","s":{"eng":"having descended"},"o":{}},{"w":"কলিযুগে","h":" ","s":{"eng":"in the age of Kali"},"o":{}},{"w":"নাচে","h":" ॥১৮॥","s":{"eng":"dances"},"o":{}}]],
    "translation":{"eng":"By hearing His name, the bindings of the material world are destroyed. That Lord, having descended, dances in the age of Kali."}},{
    "lines":[
      [{"w":"যাঁ’র","h":" ","s":{"eng":"whose"},"o":{}},{"w":"নাম","h":" ","s":{"eng":"name"},"o":{}},{"w":"গাই’","h":" ","s":{"eng":"having sung"},"o":{}},{"w":"শুক","h":"-","s":{"eng":"Śukadeva Gosvāmī"},"o":{}},{"w":"নারদ","h":" ","s":{"eng":"Nārada Muṇi"},"o":{}},{"w":"বেড়ায়","h":" ।","s":{"eng":"wonder"},"o":{}}],
      [{"w":"সহস্র","h":"-","s":{"eng":"a thousand"},"o":{}},{"w":"বদন","h":" ","s":{"eng":"mouths [Ananta-śeṣa]"},"o":{}},{"w":"প্রভু","h":" ","s":{"eng":"Lord"},"o":{}},{"w":"যাঁ’র","h":" ","s":{"eng":"whose"},"o":{}},{"w":"গুণ","h":" ","s":{"eng":"qualities, glories"},"o":{}},{"w":"গায়","h":" ॥১৯॥","s":{"eng":"sings"},"o":{}}]],
    "translation":{"eng":"His name is chanted by Śukadeva and Nārada as they wander about. His glories are sung by the Lord of innumerable mouths [Śrī Anantadeva]."}},{
    "lines":[
      [{"w":"সর্ব্ব","h":" ","s":{"eng":"all"},"o":{}},{"w":"মহা","h":"-","s":{"eng":"greatest"},"o":{}},{"w":"প্রায়শ্চিত্ত","h":" ","s":{"eng":"atonement"},"o":{}},{"w":"যে","h":" ","s":{"eng":"that"},"o":{}},{"w":"প্রভুর","h":" ","s":{"eng":"Lord’s"},"o":{}},{"w":"নাম","h":" ।","s":{"eng":"name"},"o":{}}],
      [{"w":"সে","h":"-","s":{"eng":"that"},"o":{}},{"w":"প্রভু","h":" ","s":{"eng":"Lord"},"o":{}},{"w":"নাচয়ে","h":", ","s":{"eng":"dances"},"o":{}},{"w":"দেখে","h":" ","s":{"eng":"looks, sees"},"o":{}},{"w":"যত","h":" ","s":{"eng":"whatever"},"o":{}},{"w":"ভাগ্যবান্","h":" ॥২০॥","s":{"eng":"fortunate"},"o":{}}]],
    "translation":{"eng":"His name constitutes the highest form of atonement. That Lord dances while those who are supremely fortunate look on."}},{
    "lines":[
      [{"w":"প্রভুর","h":" ","s":{"eng":"the Lord’s"},"o":{}},{"w":"আনন্দ","h":" ","s":{"eng":"bliss, happiness"},"o":{}},{"w":"দেখি’","h":" ","s":{"eng":"having seen"},"o":{}},{"w":"ভাগবতগণ","h":" ।","s":{"eng":"devotees"},"o":{}}],
      [{"w":"অন্যোন্যে","h":" ","s":{"eng":"to one another"},"o":{}},{"w":"গলা","h":" ","s":{"eng":"having embraced (lit. neck having held)"},"o":{}},{"w":"ধরি’","h":" ","s":{"eng":"⬅1"},"o":{}},{"w":"করয়ে","h":" ","s":{"eng":"weep"},"o":{}},{"w":"ক্রন্দন","h":" ॥২১॥","s":{"eng":"⬅1"},"o":{}}]],
    "translation":{"eng":"Seeing Mahāprabhu’s transcendental bliss, the associates of the Lord embrace each other and weep."}},{
    "lines":[
      [{"w":"সবার","h":" ","s":{"eng":"everyone’s"},"o":{}},{"w":"অঙ্গেতে","h":" ","s":{"eng":"on bodies"},"o":{}},{"w":"শোভে","h":" ","s":{"eng":"grace"},"o":{}},{"w":"শ্রীচন্দন","h":"-","s":{"eng":"sandal paste"},"o":{}},{"w":"মালা","h":" ।","s":{"eng":"garlands"},"o":{}}],
      [{"w":"আনন্দে","h":" ","s":{"eng":"in bliss"},"o":{}},{"w":"গায়েন","h":" ","s":{"eng":"they sing"},"o":{}},{"w":"কৃষ্ণ","h":"-","s":{"eng":"Kṛṣṇa"},"o":{}},{"w":"রসে","h":" ","s":{"eng":"in nectar"},"o":{}},{"w":"হই’","h":" ","s":{"eng":"having become"},"o":{}},{"w":"ভোলা","h":" ॥২২॥","s":{"eng":"oblivious"},"o":{}}]],
    "translation":{"eng":"Sandal paste and garlands grace everyone’s bodies. They sing in great bliss, forgetting their own selves, due to immersion in kṛṣṇa-rasa."}},{
    "lines":[
      [{"w":"যতেক","h":" ","s":{"eng":"as many"},"o":{}},{"w":"বৈষ্ণব","h":" ","s":{"eng":"Vaiṣṇavas"},"o":{}},{"w":"সব","h":" ","s":{"eng":"all"},"o":{}},{"w":"কীর্ত্তন","h":"-","s":{"eng":"chanting"},"o":{}},{"w":"আবেশে","h":" ।","s":{"eng":"entranced in"},"o":{}}],
      [{"w":"না","h":" ","s":{"eng":"not"},"o":{}},{"w":"জানে","h":" ","s":{"eng":"knows"},"o":{}},{"w":"আপন","h":" ","s":{"eng":"own"},"o":{}},{"w":"দেহ","h":", ","s":{"eng":"bodies"},"o":{}},{"w":"অন্য","h":" ","s":{"eng":"other"},"o":{}},{"w":"জন","h":" ","s":{"eng":"people"},"o":{}},{"w":"কিসে","h":" ॥২৩॥","s":{"eng":"how / in which way"},"o":{}}]],
    "translation":{"eng":"Entranced in kīrtana, all the Vaiṣṇavas lose complete sense of their own bodies and of everyone around them."}},{
    "lines":[
      [{"w":"","h":"“","s":{"eng":"NULL"},"o":{}},{"w":"জয়","h":" ","s":{"eng":"all glories"},"o":{}},{"w":"কৃষ্ণ","h":"-","s":{"eng":"Kṛṣṇa"},"o":{}},{"w":"মুরারি","h":"-","s":{"eng":"Murāri"},"o":{}},{"w":"মুকুন্দ","h":"-","s":{"eng":"Mukunda"},"o":{}},{"w":"বনমালী","h":" ।”","s":{"eng":"Vanamālī"},"o":{}}],
      [{"w":"অহর্নিশ","h":" ","s":{"eng":"day + night"},"o":{}},{"w":"গায়","h":" ","s":{"eng":"sing"},"o":{}},{"w":"সবে","h":" ","s":{"eng":"everyone"},"o":{}},{"w":"হই’","h":" ","s":{"eng":"having become"},"o":{}},{"w":"কুতূহলী","h":" ॥২৪॥","s":{"eng":"delighted"},"o":{}}]],
    "translation":{"eng":"Delighted, everyone sings day and night, “Jaya Kṛṣṇa, Murāri, Mukunda, Vanamālī!”"}},{
    "lines":[
      [{"w":"অহর্নিশ","h":" ","s":{"eng":"day + night"},"o":{}},{"w":"ভক্ত","h":"-","s":{"eng":"devotees"},"o":{}},{"w":"সঙ্গে","h":" ","s":{"eng":"with"},"o":{}},{"w":"নাচে","h":" ","s":{"eng":"dances"},"o":{}},{"w":"বিশ্বম্ভর","h":" ।","s":{"eng":"Viśvambhara"},"o":{}}],
      [{"w":"শ্রান্তি","h":" ","s":{"eng":"fatigue, tiredness, exhaustion"},"o":{}},{"w":"নাহি","h":" ","s":{"eng":"not"},"o":{}},{"w":"কারো","h":", ","s":{"eng":"to anyone"},"o":{}},{"w":"সবে","h":" ","s":{"eng":"everyone"},"o":{}},{"w":"সত্ত্ব","h":"-","s":{"eng":"transcendental"},"o":{}},{"w":"কলেবর","h":" ॥২৫॥","s":{"eng":"bodies"},"o":{}}]],
    "translation":{"eng":"Day and night, Viśvambhara dances with the devotees, but they never become fatigued, because their bodies are fully transcendental."}},{
    "lines":[
      [{"w":"এইমত","h":" ","s":{"eng":"this + way"},"o":{}},{"w":"নাচে","h":" ","s":{"eng":"dances"},"o":{}},{"w":"মহাপ্রভু","h":" ","s":{"eng":"Mahāprabhu"},"o":{}},{"w":"বিশ্বম্ভর","h":" ।","s":{"eng":"Viśvambhara"},"o":{}}],
      [{"w":"নিশি","h":" ","s":{"eng":"in the night"},"o":{}},{"w":"অবশেষ","h":" ","s":{"eng":"end, the last remainder"},"o":{}},{"w":"মাত্র","h":" ","s":{"eng":"limit"},"o":{}},{"w":"সে","h":" ","s":{"eng":"He"},"o":{}},{"w":"এক","h":" ","s":{"eng":"one"},"o":{}},{"w":"প্রহর","h":" ॥২৬॥","s":{"eng":"NULL"},"o":{}}]],
    "translation":{"eng":"In such a manner, Mahāprabhu Viśvambhara dances the entire night, except for one prahara [during which He sleeps]."}},{
    "lines":[
      [{"w":"এইমত","h":" ","s":{"eng":"this + way"},"o":{}},{"w":"আনন্দ","h":" ","s":{"eng":"happiness, joy"},"o":{}},{"w":"হয়","h":" ","s":{"eng":"happens"},"o":{}},{"w":"নবদ্বীপ","h":" ","s":{"eng":"Navadvīpa"},"o":{}},{"w":"পুরে","h":" ।","s":{"eng":"in the town"},"o":{}}],
      [{"w":"প্রেমরসে","h":" ","s":{"eng":"love + in nectar, mellows"},"o":{}},{"w":"বৈকুণ্ঠের","h":" ","s":{"eng":"Vaikuṇṭha’s"},"o":{}},{"w":"নায়ক","h":" ","s":{"eng":"hero"},"o":{}},{"w":"বিহরে","h":" ॥২৭॥","s":{"eng":"sports"},"o":{}}]],
    "translation":{"eng":"In this way, transcendental happiness arises in the land of Navadvīpa as the hero of Vaikuṇṭha sports in prema-rasa."}},{
    "lines":[
      [{"w":"এ","h":"-","s":{"eng":"this"},"o":{}},{"w":"সকল","h":" ","s":{"eng":"all"},"o":{}},{"w":"পুণ্য","h":" ","s":{"eng":"auspicious"},"o":{}},{"w":"কথা","h":" ","s":{"eng":"topics"},"o":{}},{"w":"যে","h":" ","s":{"eng":"who"},"o":{}},{"w":"করে","h":" ","s":{"eng":"hears"},"o":{}},{"w":"শ্রবণ","h":" ।","s":{"eng":"⬅1"},"o":{}}],
      [{"w":"ভক্তসঙ্গে","h":" ","s":{"eng":"devotees + with"},"o":{}},{"w":"গৌরচন্দ্রে","h":" ","s":{"eng":"the moon-like Gaura"},"o":{}},{"w":"রহু","h":" ","s":{"eng":"remain"},"o":{}},{"w":"তা’র","h":" ","s":{"eng":"his"},"o":{}},{"w":"মন","h":" ॥২৮॥","s":{"eng":"heart"},"o":{}}]],
    "translation":{"eng":"Gaura-candra and His associates remain in the hearts of those who hear this entire auspicious description."}},{
    "lines":[
      [{"w":"শ্রীকৃষ্ণচৈতন্য","h":"-","s":{"eng":"Śrī Kṛṣṇa Caitanya"},"o":{}},{"w":"নিত্যানন্দচাঁদ","h":" ","s":{"eng":"the moon-like Nityānanda"},"o":{}},{"w":"জান","h":" ।","s":{"eng":""},"o":{}}],
      [{"w":"বৃন্দাবন","h":" ","s":{"eng":"Vṛndāvana dāsa"},"o":{}},{"w":"দাস","h":" ","s":{"eng":"⬅1"},"o":{}},{"w":"তছু","h":" ","s":{"eng":"His"},"o":{}},{"w":"পদযুগে","h":" ","s":{"eng":"feet + to the two"},"o":{}},{"w":"গান","h":" ॥২৯॥","s":{"eng":"song"},"o":{}}]],
    "translation":{"eng":"Vṛndāvana dāsa offers this song at the lotus feet of Śrī Kṛṣṇa Caitanya and the moon-like Nityānanda Prabhu."}}
  ]
}