{
  "uid":"E4",
  "title":"শ্রীহরি-বাসরে হরি-কীর্ত্তন বিধান",
  "author":"vdt",
  "language":"ben",
  "notes":[],
  "audio":[],
  "has_synonyms":false,
  "has_translations":false,
  "legend":{"w":"word","h":"hint","s":"synonym","o":"override"},
  "verses":[{
    "lines":[
      [{"w":"শ্রীহরি","h":"-","s":{"eng":"NULL"},"o":{}},{"w":"বাসরে","h":" ","s":{"eng":"NULL"},"o":{}},{"w":"হরি","h":"-","s":{"eng":"NULL"},"o":{}},{"w":"কীর্ত্তন","h":" ","s":{"eng":"NULL"},"o":{}},{"w":"বিধান","h":" ।","s":{"eng":"NULL"},"o":{}}],
      [{"w":"নৃত্য","h":" ","s":{"eng":"NULL"},"o":{}},{"w":"আরম্ভিলা","h":" ","s":{"eng":"NULL"},"o":{}},{"w":"প্রভু","h":" ","s":{"eng":"NULL"},"o":{}},{"w":"জগতের","h":" ","s":{"eng":"NULL"},"o":{}},{"w":"প্রাণ","h":" ॥১॥","s":{"eng":"NULL"},"o":{}}]],
    "translation":{"eng":"UNDEFINED"}},{
    "lines":[
      [{"w":"পুণ্যবন্ত","h":" ","s":{"eng":"NULL"},"o":{}},{"w":"শ্রীবাস","h":"-","s":{"eng":"NULL"},"o":{}},{"w":"অঙ্গনে","h":" ","s":{"eng":"NULL"},"o":{}},{"w":"শুভারম্ভ","h":" ।","s":{"eng":"NULL"},"o":{}}],
      [{"w":"উঠিল","h":" ","s":{"eng":"NULL"},"o":{}},{"w":"কীর্ত্তন","h":"-","s":{"eng":"NULL"},"o":{}},{"w":"ধ্বনি","h":" ","s":{"eng":"NULL"},"o":{}},{"w":"‘গোপাল","h":"-","s":{"eng":"NULL"},"o":{}},{"w":"গোবিন্দ’","h":" ॥২॥","s":{"eng":"NULL"},"o":{}}]],
    "translation":{"eng":"UNDEFINED"}},{
    "lines":[
      [{"w":"সবার","h":" ","s":{"eng":"NULL"},"o":{}},{"w":"অঙ্গেতে","h":" ","s":{"eng":"NULL"},"o":{}},{"w":"শোভে","h":" ","s":{"eng":"NULL"},"o":{}},{"w":"শ্রীচন্দন","h":"-","s":{"eng":"NULL"},"o":{}},{"w":"মালা","h":" ।","s":{"eng":"NULL"},"o":{}}],
      [{"w":"আনন্দে","h":" ","s":{"eng":"NULL"},"o":{}},{"w":"নাচয়ে","h":" ","s":{"eng":"NULL"},"o":{}},{"w":"সবে","h":" ","s":{"eng":"NULL"},"o":{}},{"w":"হইয়া","h":" ","s":{"eng":"NULL"},"o":{}},{"w":"বিহ্বলা","h":" ॥৩॥","s":{"eng":"NULL"},"o":{}}]],
    "translation":{"eng":"UNDEFINED"}},{
    "lines":[
      [{"w":"মৃদঙ্গ","h":"-","s":{"eng":"NULL"},"o":{}},{"w":"মন্দিরা","h":" ","s":{"eng":"NULL"},"o":{}},{"w":"বাজে","h":" ","s":{"eng":"NULL"},"o":{}},{"w":"শঙ্খ","h":"-","s":{"eng":"NULL"},"o":{}},{"w":"করতাল","h":" ।","s":{"eng":"NULL"},"o":{}}],
      [{"w":"সংকীর্ত্তন","h":"-","s":{"eng":"NULL"},"o":{}},{"w":"সঙ্গে","h":" ","s":{"eng":"NULL"},"o":{}},{"w":"সব","h":" ","s":{"eng":"NULL"},"o":{}},{"w":"হইল","h":" ","s":{"eng":"NULL"},"o":{}},{"w":"মিশাল","h":" ॥৪॥","s":{"eng":"NULL"},"o":{}}]],
    "translation":{"eng":"UNDEFINED"}},{
    "lines":[
      [{"w":"ব্রহ্মাণ্ডে","h":" ","s":{"eng":"NULL"},"o":{}},{"w":"উঠিল","h":" ","s":{"eng":"NULL"},"o":{}},{"w":"ধ্বনি","h":" ","s":{"eng":"NULL"},"o":{}},{"w":"পুরিয়া","h":" ","s":{"eng":"NULL"},"o":{}},{"w":"আকাশ","h":" ।","s":{"eng":"NULL"},"o":{}}],
      [{"w":"চৌদিকের","h":" ","s":{"eng":"NULL"},"o":{}},{"w":"অমঙ্গল","h":" ","s":{"eng":"NULL"},"o":{}},{"w":"সব","h":" ","s":{"eng":"NULL"},"o":{}},{"w":"যায়","h":" ","s":{"eng":"NULL"},"o":{}},{"w":"নাশ","h":" ॥৫॥","s":{"eng":"NULL"},"o":{}}]],
    "translation":{"eng":"UNDEFINED"}},{
    "lines":[
      [{"w":"চতুর্দ্দিকে","h":" ","s":{"eng":"NULL"},"o":{}},{"w":"শ্রীহরি","h":" ","s":{"eng":"NULL"},"o":{}},{"w":"মঙ্গল","h":" ","s":{"eng":"NULL"},"o":{}},{"w":"সংকীর্ত্তন","h":" ।","s":{"eng":"NULL"},"o":{}}],
      [{"w":"মধ্যে","h":" ","s":{"eng":"NULL"},"o":{}},{"w":"নাচে","h":" ","s":{"eng":"NULL"},"o":{}},{"w":"জগন্নাথ","h":" ","s":{"eng":"NULL"},"o":{}},{"w":"মিশ্রের","h":" ","s":{"eng":"NULL"},"o":{}},{"w":"নন্দন","h":" ॥৬॥","s":{"eng":"NULL"},"o":{}}]],
    "translation":{"eng":"UNDEFINED"}},{
    "lines":[
      [{"w":"যাঁর","h":" ","s":{"eng":"NULL"},"o":{}},{"w":"নামানন্দে","h":" ","s":{"eng":"NULL"},"o":{}},{"w":"শিব","h":" ","s":{"eng":"NULL"},"o":{}},{"w":"বসন","h":" ","s":{"eng":"NULL"},"o":{}},{"w":"না","h":" ","s":{"eng":"NULL"},"o":{}},{"w":"জানে","h":" ।","s":{"eng":"NULL"},"o":{}}],
      [{"w":"যাঁর","h":" ","s":{"eng":"NULL"},"o":{}},{"w":"রসে","h":" ","s":{"eng":"NULL"},"o":{}},{"w":"নাচে","h":" ","s":{"eng":"NULL"},"o":{}},{"w":"শিব","h":", ","s":{"eng":"NULL"},"o":{}},{"w":"সে","h":" ","s":{"eng":"NULL"},"o":{}},{"w":"নাচে","h":" ","s":{"eng":"NULL"},"o":{}},{"w":"আপনে","h":" ॥৭॥","s":{"eng":"NULL"},"o":{}}]],
    "translation":{"eng":"UNDEFINED"}},{
    "lines":[
      [{"w":"যাঁর","h":" ","s":{"eng":"NULL"},"o":{}},{"w":"নামে","h":" ","s":{"eng":"NULL"},"o":{}},{"w":"বাল্মীকি","h":" ","s":{"eng":"NULL"},"o":{}},{"w":"হইল","h":" ","s":{"eng":"NULL"},"o":{}},{"w":"তপোধন","h":" ।","s":{"eng":"NULL"},"o":{}}],
      [{"w":"যাঁর","h":" ","s":{"eng":"NULL"},"o":{}},{"w":"নামে","h":" ","s":{"eng":"NULL"},"o":{}},{"w":"অজামিল","h":" ","s":{"eng":"NULL"},"o":{}},{"w":"পাইল","h":" ","s":{"eng":"NULL"},"o":{}},{"w":"মোচন","h":" ॥৮॥","s":{"eng":"NULL"},"o":{}}]],
    "translation":{"eng":"UNDEFINED"}},{
    "lines":[
      [{"w":"যাঁর","h":" ","s":{"eng":"NULL"},"o":{}},{"w":"নাম","h":" ","s":{"eng":"NULL"},"o":{}},{"w":"শ্রবণে","h":" ","s":{"eng":"NULL"},"o":{}},{"w":"সংসার","h":"-","s":{"eng":"NULL"},"o":{}},{"w":"বন্ধন","h":" ","s":{"eng":"NULL"},"o":{}},{"w":"ঘুচে","h":"","s":{"eng":"NULL"},"o":{}}],
      [{"w":"হেন","h":" ","s":{"eng":"NULL"},"o":{}},{"w":"প্রভু","h":" ","s":{"eng":"NULL"},"o":{}},{"w":"অবতরি","h":" ","s":{"eng":"NULL"},"o":{}},{"w":"কলিযুগে","h":" ","s":{"eng":"NULL"},"o":{}},{"w":"নাচে","h":" ॥৯॥","s":{"eng":"NULL"},"o":{}}]],
    "translation":{"eng":"UNDEFINED"}},{
    "lines":[
      [{"w":"যাঁর","h":" ","s":{"eng":"NULL"},"o":{}},{"w":"নাম","h":" ","s":{"eng":"NULL"},"o":{}},{"w":"লইয়া","h":" ","s":{"eng":"NULL"},"o":{}},{"w":"শুক","h":"-","s":{"eng":"NULL"},"o":{}},{"w":"নারদ","h":" ","s":{"eng":"NULL"},"o":{}},{"w":"বেড়ায়","h":" ।","s":{"eng":"NULL"},"o":{}}],
      [{"w":"সহস্র","h":" ","s":{"eng":"NULL"},"o":{}},{"w":"বদনে","h":" ","s":{"eng":"NULL"},"o":{}},{"w":"প্রভু","h":" ","s":{"eng":"NULL"},"o":{}},{"w":"যার","h":" ","s":{"eng":"NULL"},"o":{}},{"w":"গুণ","h":" ","s":{"eng":"NULL"},"o":{}},{"w":"গায়","h":" ॥১০॥","s":{"eng":"NULL"},"o":{}}]],
    "translation":{"eng":"UNDEFINED"}},{
    "lines":[
      [{"w":"সর্ব্ব","h":" ","s":{"eng":"NULL"},"o":{}},{"w":"মহাপ্রায়শ্চিত্ত","h":" ","s":{"eng":"NULL"},"o":{}},{"w":"যে","h":" ","s":{"eng":"NULL"},"o":{}},{"w":"প্রভুর","h":" ","s":{"eng":"NULL"},"o":{}},{"w":"নাম","h":" ।","s":{"eng":"NULL"},"o":{}}],
      [{"w":"সেই","h":" ","s":{"eng":"NULL"},"o":{}},{"w":"প্রভু","h":" ","s":{"eng":"NULL"},"o":{}},{"w":"নাচয়ে","h":" ","s":{"eng":"NULL"},"o":{}},{"w":"দেখে","h":" ","s":{"eng":"NULL"},"o":{}},{"w":"যত","h":" ","s":{"eng":"NULL"},"o":{}},{"w":"ভাগ্যবান","h":" ॥১১॥","s":{"eng":"NULL"},"o":{}}]],
    "translation":{"eng":"UNDEFINED"}},{
    "lines":[
      [{"w":"নিজানন্দে","h":" ","s":{"eng":"NULL"},"o":{}},{"w":"নাচে","h":" ","s":{"eng":"NULL"},"o":{}},{"w":"মহাপ্রভু","h":" ","s":{"eng":"NULL"},"o":{}},{"w":"বিশ্বম্তর","h":" ।","s":{"eng":"NULL"},"o":{}}],
      [{"w":"চরণের","h":" ","s":{"eng":"NULL"},"o":{}},{"w":"তালি","h":" ","s":{"eng":"NULL"},"o":{}},{"w":"শুনি","h":" ","s":{"eng":"NULL"},"o":{}},{"w":"অতি","h":" ","s":{"eng":"NULL"},"o":{}},{"w":"মনোহর","h":" ॥১২॥","s":{"eng":"NULL"},"o":{}}]],
    "translation":{"eng":"UNDEFINED"}},{
    "lines":[
      [{"w":"ভাবাবেশে","h":" ","s":{"eng":"NULL"},"o":{}},{"w":"মালা","h":" ","s":{"eng":"NULL"},"o":{}},{"w":"নাহি","h":" ","s":{"eng":"NULL"},"o":{}},{"w":"রহয়ে","h":" ","s":{"eng":"NULL"},"o":{}},{"w":"গলায়","h":" ।","s":{"eng":"NULL"},"o":{}}],
      [{"w":"ছিণ্ডিয়া","h":" ","s":{"eng":"NULL"},"o":{}},{"w":"পড়য়ে","h":" ","s":{"eng":"NULL"},"o":{}},{"w":"গিয়া","h":" ","s":{"eng":"NULL"},"o":{}},{"w":"ভকতের","h":" ","s":{"eng":"NULL"},"o":{}},{"w":"গায়","h":" ॥১৩॥","s":{"eng":"NULL"},"o":{}}]],
    "translation":{"eng":"UNDEFINED"}},{
    "lines":[
      [{"w":"শ্রীকৃষ্ণচৈতন্য","h":"-","s":{"eng":"NULL"},"o":{}},{"w":"নিত্যানন্দচাঁদ","h":" ","s":{"eng":"NULL"},"o":{}},{"w":"জান","h":" ।","s":{"eng":"NULL"},"o":{}}],
      [{"w":"বৃন্দাবন","h":"-","s":{"eng":"NULL"},"o":{}},{"w":"দাস","h":" ","s":{"eng":"NULL"},"o":{}},{"w":"তছু","h":" ","s":{"eng":"NULL"},"o":{}},{"w":"পদযুগে","h":" ","s":{"eng":"NULL"},"o":{}},{"w":"গান","h":" ॥১৪॥","s":{"eng":"NULL"},"o":{}}]],
    "translation":{"eng":"UNDEFINED"}},{
    "lines":[
      []]}
  ]
}