{
  "uid":"G10",
  "title":"জয় জয় শ্রীগুরু প্রেম-কল্পতরু",
  "author":"বৈষ্ণব দাস",
  "language":"ben",
  "notes":[],
  "audio":[
    {"uid":"hakr-1","fn":"G10-hakr-1.mp3","meta":{"artist":"Hare Krsna das","src":"01 Śrī Guru/[04] Jaya Jaya Śrī Guru/hakr-jaya_jaya_sri_guru.mp3"}},
    {"uid":"sara-1","fn":"G10-sara-1.mp3","meta":{"artist":"Sarasvati dasi","src":"01 Śrī Guru/[04] Jaya Jaya Śrī Guru/sara-jaya_jaya_sri_guru.mp3"}},
    {"uid":"tama-1","fn":"G10-tama-1.mp3","meta":{"artist":"Tamal Krsna das","src":"01 Śrī Guru/[04] Jaya Jaya Śrī Guru/tama-jaya_jaya_sri_guru.mp3"}},
    {"uid":"srrb-1","fn":"G10-srrb-1.mp3","meta":{"artist":"Sudarsan das (Radha-ramana Babaji Maharaja)","src":"01 Śrī Guru/[04] Jaya Jaya Śrī Guru/srrb-jaya_jaya_sri_guru.mp3"}},
    {"uid":"jahn-1","fn":"G10-jahn-1.m4a","meta":{"artist":"Jahnava dasi","src":"01 Śrī Guru/[04] Jaya Jaya Śrī Guru/jahn-jaya_jaya_sri_guru.m4a"}}],
  "has_synonyms":true,
  "has_translations":true,
  "legend":{"w":"word","h":"hint","s":"synonym","o":"override"},
  "verses":[{
    "lines":[
      [{"w":"জয়","h":" ","s":{"eng":"all glories, all glories"},"o":{}},{"w":"জয়","h":" ","s":{"eng":"⬅1"},"o":{}},{"w":"শ্রীগুরু","h":",    ","s":{"eng":"to śrī guru"},"o":{}},{"w":"প্রেম","h":"-","s":{"eng":"pure love"},"o":{}},{"w":"কল্পতরু","h":",","s":{"eng":"desire-tree"},"o":{}}],
      [{"w":"অদ্ভুত","h":" ","s":{"eng":"astonishing, wonderful"},"o":{}},{"w":"যাঁকো","h":" ","s":{"eng":"(ĵā̃hār) whose"},"o":{}},{"w":"পরকাশ","h":" ।","s":{"eng":"manifestation"},"o":{}}],
      [{"w":"হিয়া","h":" ","s":{"eng":"heart"},"o":{}},{"w":"অগেয়ান","h":",    ","s":{"eng":"(ajñān) ignorance"},"o":{}},{"w":"তিমিরবর","h":" ","s":{"eng":"darkness + gloomy"},"o":{}},{"w":"জ্ঞান","h":"-,","s":{"eng":"knowledge"},"o":{}}],
      [{"w":"সুচন্দ্র","h":" ","s":{"eng":"effulgent moon"},"o":{}},{"w":"কিরণে","h":" ","s":{"eng":"by rays"},"o":{}},{"w":"করু","h":" ","s":{"eng":"he destroys"},"o":{}},{"w":"নাশ","h":" ॥১॥","s":{"eng":"⬅1"},"o":{}}]],
    "translation":{"eng":"All glories, all glories to śrī guru, the desire-tree of prema, whose manifestation is most astonishing. With effulgent moonbeams of knowledge, he destroys the vast darkness of ignorance in the heart."}},{
    "lines":[
      [{"w":"ইহ","h":" ","s":{"eng":"his"},"o":{}},{"w":"লোচন","h":" ","s":{"eng":"eyes"},"o":{}},{"w":"আনন্দ","h":"-","s":{"eng":"bliss"},"o":{}},{"w":"ধাম","h":" ।","s":{"eng":"abode"},"o":{}}],
      [{"w":"অযাচিত","h":" ","s":{"eng":"without praying"},"o":{}},{"w":"মো","h":"-","s":{"eng":"me"},"o":{}},{"w":"হেন","h":",    ","s":{"eng":"such as"},"o":{}},{"w":"পতিত","h":" ","s":{"eng":"fallen person"},"o":{}},{"w":"হেরি","h":" ","s":{"eng":"seeing"},"o":{}},{"w":"যো","h":" ","s":{"eng":""},"o":{}},{"w":"পহুঁ","h":",","s":{"eng":"(prabhu) spiritual master"},"o":{}}],
      [{"w":"যাচি","h":" ","s":{"eng":"voluntarily"},"o":{}},{"w":"দেয়ল","h":" ","s":{"eng":"he gave"},"o":{}},{"w":"হরিনাম","h":" ॥২॥","s":{"eng":"names of Śrī Hari"},"o":{}}]],
    "translation":{"eng":"His eyes are the abode of bliss. Seeing a person as fallen as me, this personality voluntarily gave me harināma, even without my asking."}},{
    "lines":[
      [{"w":"দুরমতি","h":" ","s":{"eng":"[I am] wicked"},"o":{}},{"w":"অগতি","h":",    ","s":{"eng":"helpless, shelterless"},"o":{}},{"w":"সতত","h":" ","s":{"eng":"constantly"},"o":{}},{"w":"অসতে","h":" ","s":{"eng":"mundane matters"},"o":{}},{"w":"মতি","h":",","s":{"eng":"mind"},"o":{}}],
      [{"w":"নাহি","h":" ","s":{"eng":"no"},"o":{}},{"w":"সুকৃতি","h":" ","s":{"eng":"pious or spiritual merit"},"o":{}},{"w":"লব","h":" ","s":{"eng":"a small fraction"},"o":{}},{"w":"লেশ","h":" ।","s":{"eng":"iota"},"o":{}}],
      [{"w":"শ্রীবৃন্দাবন","h":",    ","s":{"eng":"Śrī Vṛndāvana"},"o":{}},{"w":"যুগল","h":"-","s":{"eng":"Divine Couple"},"o":{}},{"w":"ভজন","h":"-","s":{"eng":"worship"},"o":{}},{"w":"ধন","h":",","s":{"eng":"treasure"},"o":{}}],
      [{"w":"তাহে","h":" ","s":{"eng":"in that"},"o":{}},{"w":"করল","h":" ","s":{"eng":"he gave instructions"},"o":{}},{"w":"উপদেশ","h":" ॥৩॥","s":{"eng":"⬅1"},"o":{}}]],
    "translation":{"eng":"I am wicked and helpless, and my mind is constantly absorbed in mundane matters; I do not possess even one iota of devotional merit. Yet he still instructs me about Śrī Vṛndāvana and the treasure of bhajana of the Divine Couple."}},{
    "lines":[
      [{"w":"নিরমল","h":"-","s":{"eng":"pure"},"o":{}},{"w":"গৌর","h":"-,    ","s":{"eng":"Gaura"},"o":{}},{"w":"প্রেমরস","h":" ","s":{"eng":"love + nectar"},"o":{}},{"w":"সিঞ্চনে","h":",","s":{"eng":"he sprinkles, showers"},"o":{}}],
      [{"w":"পূরল","h":" ","s":{"eng":"fulfilled"},"o":{}},{"w":"জগজন","h":" ","s":{"eng":"the people of this world"},"o":{}},{"w":"আশ","h":" ।","s":{"eng":"desires"},"o":{}}],
      [{"w":"সো","h":" ","s":{"eng":"those"},"o":{}},{"w":"চরণাম্বুজে","h":",    ","s":{"eng":"feet + for the lotus-like"},"o":{}},{"w":"রতি","h":" ","s":{"eng":"attachment"},"o":{}},{"w":"নাহি","h":" ","s":{"eng":"not"},"o":{}},{"w":"হোয়ল","h":",","s":{"eng":"happened, born"},"o":{}}],
      [{"w":"রোয়ত","h":" ","s":{"eng":"weeps"},"o":{}},{"w":"বৈষ্ণব","h":"-","s":{"eng":"Śrī Vaiṣṇav dās"},"o":{}},{"w":"দাস","h":" ॥৪॥","s":{"eng":"⬅1"},"o":{}}]],
    "translation":{"eng":"Showering the world with the pure nectar of gaura-prema, śrī guru fulfills everyone’s hopes. Having not developed rati for his lotus feet, this Vaiṣṇava dāsa weeps."}}
  ]
}