{
  "uid":"G15",
  "title":"গুরুদেব! আমি স্বরূপতঃ শ্রীকৃষ্ণ-যোষিত",
  "author":"?",
  "language":"ben",
  "notes":[],
  "audio":[],
  "has_synonyms":false,
  "has_translations":false,
  "legend":{"w":"word","h":"hint","s":"synonym","o":"override"},
  "verses":[{
    "lines":[
      [{"w":"গুরুদেব","h":" !","s":{"eng":"NULL"},"o":{}}],
      [{"w":"আমি","h":" ","s":{"eng":"NULL"},"o":{}},{"w":"স্বরূপতঃ","h":",    ","s":{"eng":"NULL"},"o":{}},{"w":"শ্রীকৃষ্ণ","h":"-","s":{"eng":"NULL"},"o":{}},{"w":"যোষিত","h":", ","s":{"eng":"NULL"},"o":{}}],
      [{"w":"নিবাস","h":"—","s":{"eng":"NULL"},"o":{}},{"w":"শ্রীব্রজধাম","h":" ।","s":{"eng":"NULL"},"o":{}}],
      [{"w":"হইয়া","h":" ","s":{"eng":"NULL"},"o":{}},{"w":"তোমার","h":",    ","s":{"eng":"NULL"},"o":{}},{"w":"যুগল","h":"-","s":{"eng":"NULL"},"o":{}},{"w":"সেবার","h":",","s":{"eng":"NULL"},"o":{}}],
      [{"w":"সহায়তা","h":"—","s":{"eng":"NULL"},"o":{}},{"w":"মোর","h":" ","s":{"eng":"NULL"},"o":{}},{"w":"কাম","h":" ॥১॥","s":{"eng":"NULL"},"o":{}}]],
    "translation":{"eng":"UNDEFINED"}},{
    "lines":[
      [{"w":"কোথা","h":" ","s":{"eng":"NULL"},"o":{}},{"w":"সেই","h":" ","s":{"eng":"NULL"},"o":{}},{"w":"কার্য্য","h":",    ","s":{"eng":"NULL"},"o":{}},{"w":"কোথা","h":" ","s":{"eng":"NULL"},"o":{}},{"w":"মুই","h":" ","s":{"eng":"NULL"},"o":{}},{"w":"অনার্য্য","h":",","s":{"eng":"NULL"},"o":{}}],
      [{"w":"জড়","h":" ","s":{"eng":"NULL"},"o":{}},{"w":"স্বার্থে","h":" ","s":{"eng":"NULL"},"o":{}},{"w":"সদা","h":" ","s":{"eng":"NULL"},"o":{}},{"w":"রতা","h":" ।","s":{"eng":"NULL"},"o":{}}],
      [{"w":"তুচ্ছ","h":" ","s":{"eng":"NULL"},"o":{}},{"w":"সুখ","h":"-","s":{"eng":"NULL"},"o":{}},{"w":"স্বাচ্ছন্দ্য","h":",    ","s":{"eng":"NULL"},"o":{}},{"w":"সর্ব্বথা","h":" ","s":{"eng":"NULL"},"o":{}},{"w":"অমন্দ","h":",","s":{"eng":"NULL"},"o":{}}],
      [{"w":"রহে","h":" ","s":{"eng":"NULL"},"o":{}},{"w":"যদি","h":" ","s":{"eng":"NULL"},"o":{}},{"w":"হৈ","h":" ","s":{"eng":"NULL"},"o":{}},{"w":"কৃতার্থ","h":" ॥২॥","s":{"eng":"NULL"},"o":{}}]],
    "translation":{"eng":"UNDEFINED"}},{
    "lines":[
      [{"w":"ভাবি","h":"—","s":{"eng":"NULL"},"o":{}},{"w":"কৃপা","h":" ","s":{"eng":"NULL"},"o":{}},{"w":"হৈল","h":",    ","s":{"eng":"NULL"},"o":{}},{"w":"জনম","h":" ","s":{"eng":"NULL"},"o":{}},{"w":"সফল","h":",","s":{"eng":"NULL"},"o":{}}],
      [{"w":"নতুবা","h":" ","s":{"eng":"NULL"},"o":{}},{"w":"হৈ","h":" ","s":{"eng":"NULL"},"o":{}},{"w":"যে","h":" ","s":{"eng":"NULL"},"o":{}},{"w":"কাতর","h":" ।","s":{"eng":"NULL"},"o":{}}],
      [{"w":"কৃষ্ণ","h":"-","s":{"eng":"NULL"},"o":{}},{"w":"বিমুখতায়","h":",    ","s":{"eng":"NULL"},"o":{}},{"w":"কষ্ট","h":" ","s":{"eng":"NULL"},"o":{}},{"w":"নাহি","h":" ","s":{"eng":"NULL"},"o":{}},{"w":"পায়","h":",","s":{"eng":"NULL"},"o":{}}],
      [{"w":"চিত্ত","h":" ","s":{"eng":"NULL"},"o":{}},{"w":"কিবা","h":" ","s":{"eng":"NULL"},"o":{}},{"w":"সে","h":" ","s":{"eng":"NULL"},"o":{}},{"w":"পাথর","h":" ॥৩॥","s":{"eng":"NULL"},"o":{}}]],
    "translation":{"eng":"UNDEFINED"}},{
    "lines":[
      [{"w":"অহো","h":" ","s":{"eng":"NULL"},"o":{}},{"w":"কি","h":" ","s":{"eng":"NULL"},"o":{}},{"w":"দুর্গতি","h":" !    ","s":{"eng":"NULL"},"o":{}},{"w":"কেমন","h":" ","s":{"eng":"NULL"},"o":{}},{"w":"কুমতি","h":" !","s":{"eng":"NULL"},"o":{}}],
      [{"w":"জগতে","h":" ","s":{"eng":"NULL"},"o":{}},{"w":"রহিতে","h":" ","s":{"eng":"NULL"},"o":{}},{"w":"দঢ়","h":" ।","s":{"eng":"NULL"},"o":{}}],
      [{"w":"নিজ","h":" ","s":{"eng":"NULL"},"o":{}},{"w":"ঠিকানায়","h":",    ","s":{"eng":"NULL"},"o":{}},{"w":"মতি","h":" ","s":{"eng":"NULL"},"o":{}},{"w":"নাহি","h":" ","s":{"eng":"NULL"},"o":{}},{"w":"ধায়","h":",","s":{"eng":"NULL"},"o":{}}],
      [{"w":"মুই","h":" ","s":{"eng":"NULL"},"o":{}},{"w":"ছিঃ","h":" ","s":{"eng":"NULL"},"o":{}},{"w":"কি","h":" ","s":{"eng":"NULL"},"o":{}},{"w":"শোচ্যতর","h":" !!৪॥","s":{"eng":"NULL"},"o":{}}]],
    "translation":{"eng":"UNDEFINED"}},{
    "lines":[
      [{"w":"স্বরূপানুবন্ধি","h":"-,    ","s":{"eng":"NULL"},"o":{}},{"w":"সেবা","h":" ","s":{"eng":"NULL"},"o":{}},{"w":"প্রতি","h":" ","s":{"eng":"NULL"},"o":{}},{"w":"যদি","h":",","s":{"eng":"NULL"},"o":{}}],
      [{"w":"শুদ্ধ","h":" ","s":{"eng":"NULL"},"o":{}},{"w":"লোভ","h":" ","s":{"eng":"NULL"},"o":{}},{"w":"নাহি","h":" ","s":{"eng":"NULL"},"o":{}},{"w":"হয়","h":" ।","s":{"eng":"NULL"},"o":{}}],
      [{"w":"কোটী","h":" ","s":{"eng":"NULL"},"o":{}},{"w":"জন্ম","h":" ","s":{"eng":"NULL"},"o":{}},{"w":"ধরি’","h":",    ","s":{"eng":"NULL"},"o":{}},{"w":"সুকৃতি","h":" ","s":{"eng":"NULL"},"o":{}},{"w":"বা","h":" ","s":{"eng":"NULL"},"o":{}},{"w":"করি","h":",","s":{"eng":"NULL"},"o":{}}],
      [{"w":"তথাপি","h":" ","s":{"eng":"NULL"},"o":{}},{"w":"সিদ্ধি","h":" ","s":{"eng":"NULL"},"o":{}},{"w":"যে","h":" ","s":{"eng":"NULL"},"o":{}},{"w":"নয়","h":" ॥৫॥","s":{"eng":"NULL"},"o":{}}]],
    "translation":{"eng":"UNDEFINED"}},{
    "lines":[
      [{"w":"প্রভু","h":"! ","s":{"eng":"NULL"},"o":{}},{"w":"এই","h":" ","s":{"eng":"NULL"},"o":{}},{"w":"নির্ব্বন্ধ","h":",    ","s":{"eng":"NULL"},"o":{}},{"w":"যেহেতু","h":" ","s":{"eng":"NULL"},"o":{}},{"w":"সম্বন্ধ","h":",","s":{"eng":"NULL"},"o":{}}],
      [{"w":"আছে","h":" ","s":{"eng":"NULL"},"o":{}},{"w":"মোর","h":" ","s":{"eng":"NULL"},"o":{}},{"w":"তব","h":" ","s":{"eng":"NULL"},"o":{}},{"w":"সাথ","h":" ।","s":{"eng":"NULL"},"o":{}}],
      [{"w":"জড়","h":" ","s":{"eng":"NULL"},"o":{}},{"w":"আকর্ষণ","h":",    ","s":{"eng":"NULL"},"o":{}},{"w":"নাশি’","h":" ","s":{"eng":"NULL"},"o":{}},{"w":"বিকর্ষণ","h":",","s":{"eng":"NULL"},"o":{}}],
      [{"w":"দেহ’","h":" ","s":{"eng":"NULL"},"o":{}},{"w":"সেই","h":" ","s":{"eng":"NULL"},"o":{}},{"w":"লোভ","h":" ","s":{"eng":"NULL"},"o":{}},{"w":"নাথ","h":" !!৬॥","s":{"eng":"NULL"},"o":{}}]],
    "translation":{"eng":"UNDEFINED"}},{
    "lines":[
      [{"w":"যাতে","h":" ","s":{"eng":"NULL"},"o":{}},{"w":"ব্যাকুলতা","h":",    ","s":{"eng":"NULL"},"o":{}},{"w":"জাগে","h":" ","s":{"eng":"NULL"},"o":{}},{"w":"মনে","h":" ","s":{"eng":"NULL"},"o":{}},{"w":"সদা","h":",","s":{"eng":"NULL"},"o":{}}],
      [{"w":"নিত্যসেবায়","h":" ","s":{"eng":"NULL"},"o":{}},{"w":"যোগদানে","h":" ।","s":{"eng":"NULL"},"o":{}}],
      [{"w":"তবে","h":" ","s":{"eng":"NULL"},"o":{}},{"w":"যে","h":" ","s":{"eng":"NULL"},"o":{}},{"w":"ভজন","h":",    ","s":{"eng":"NULL"},"o":{}},{"w":"হবে","h":" ","s":{"eng":"NULL"},"o":{}},{"w":"অনুক্ষণ","h":",","s":{"eng":"NULL"},"o":{}}],
      [{"w":"দ্রুত","h":" ","s":{"eng":"NULL"},"o":{}},{"w":"গতি","h":" ","s":{"eng":"NULL"},"o":{}},{"w":"ব্রজ","h":" ","s":{"eng":"NULL"},"o":{}},{"w":"পানে","h":" ॥৭॥","s":{"eng":"NULL"},"o":{}}]],
    "translation":{"eng":"UNDEFINED"}},{
    "lines":[
      [{"w":"যোগ্যতা","h":"-","s":{"eng":"NULL"},"o":{}},{"w":"রহিত","h":",    ","s":{"eng":"NULL"},"o":{}},{"w":"তবু","h":" ","s":{"eng":"NULL"},"o":{}},{"w":"আশা","h":" ","s":{"eng":"NULL"},"o":{}},{"w":"দীপ্ত","h":",","s":{"eng":"NULL"},"o":{}}],
      [{"w":"পা’ব","h":" ","s":{"eng":"NULL"},"o":{}},{"w":"এই","h":" ","s":{"eng":"NULL"},"o":{}},{"w":"কৃপা","h":"-","s":{"eng":"NULL"},"o":{}},{"w":"ধন","h":" ।","s":{"eng":"NULL"},"o":{}}],
      [{"w":"ভরসা","h":" ","s":{"eng":"NULL"},"o":{}},{"w":"আমার","h":",    ","s":{"eng":"NULL"},"o":{}},{"w":"‘শ্রী’","h":"-","s":{"eng":"NULL"},"o":{}},{"w":"জন","h":" ","s":{"eng":"NULL"},"o":{}},{"w":"তোমার","h":",","s":{"eng":"NULL"},"o":{}}],
      [{"w":"‘শ্রী’","h":"-","s":{"eng":"NULL"},"o":{}},{"w":"সম","h":" ","s":{"eng":"NULL"},"o":{}},{"w":"নবনী","h":" ","s":{"eng":"NULL"},"o":{}},{"w":"মন","h":" ॥৮॥","s":{"eng":"NULL"},"o":{}}]],
    "translation":{"eng":"UNDEFINED"}},{
    "lines":[
      []]}
  ]
}