{
  "uid":"G7",
  "title":"গুরুদেব! বড় কৃপা করি’",
  "author":"bt",
  "language":"ben",
  "notes":[],
  "audio":[
    {"uid":"krsn-2","fn":"G7-krsn-2.mp3","meta":{"artist":"Krsnadas das","src":"01 Śrī Guru/[07] Gurudeva! Baḓô Kṛpā Kôri/krsn-gurudeva_bado_krpa_kori-3.mp3"}},
    {"uid":"srrb-1","fn":"G7-srrb-1.mp3","meta":{"artist":"Sudarsan das (Radha-ramana Babaji Maharaja)","src":"01 Śrī Guru/[07] Gurudeva! Baḓô Kṛpā Kôri/srrb-gurudeva_bado_krpa_kori.mp3"}},
    {"uid":"tama-1","fn":"G7-tama-1.mp3","meta":{"artist":"Tamal Krsna das","src":"01 Śrī Guru/[07] Gurudeva! Baḓô Kṛpā Kôri/tama-gurudeva_bado_krpa_kori-1.mp3"}},
    {"uid":"tama-2","fn":"G7-tama-2.mp3","meta":{"artist":"Tamal Krsna das","src":"01 Śrī Guru/[07] Gurudeva! Baḓô Kṛpā Kôri/tama-gurudeva_bado_krpa_kori-3.mp3"}},
    {"uid":"anad-1","fn":"G7-anad-1.mp3","meta":{"artist":"Anadi Krsna das","src":"01 Śrī Guru/[07] Gurudeva! Baḓô Kṛpā Kôri/anad-gurudeva_bado_krpa_kori.mp3"}},
    {"uid":"tama-3","fn":"G7-tama-3.mp3","meta":{"artist":"Tamal Krsna das","src":"01 Śrī Guru/[07] Gurudeva! Baḓô Kṛpā Kôri/tama-gurudeva_bado_krpa_kori.mp3"}},
    {"uid":"krsn-1","fn":"G7-krsn-1.mp3","meta":{"artist":"Krsnadas das","src":"01 Śrī Guru/[07] Gurudeva! Baḓô Kṛpā Kôri/krsn-gurudeva_bado_krpa_kori.mp3"}},
    {"uid":"gaur-1","fn":"G7-gaur-1.mp3","meta":{"artist":"Gaurasundar das","src":"01 Śrī Guru/[07] Gurudeva! Baḓô Kṛpā Kôri/gaur-gurudeva_bado_krpa_kori.mp3"}},
    {"uid":"krsn-3","fn":"G7-krsn-3.mp3","meta":{"artist":"Krsnadas das","src":"01 Śrī Guru/[07] Gurudeva! Baḓô Kṛpā Kôri/krsn-gurudeva_bado_krpa_kori-1.mp3"}}],
  "has_synonyms":true,
  "has_translations":true,
  "legend":{"w":"word","h":"hint","s":"synonym","o":"override"},
  "verses":[{
    "lines":[
      [{"w":"গুরুদেব","h":"!","s":{"eng":"O Gurudev"},"o":{}}],
      [{"w":"বড়","h":" ","s":{"eng":"very"},"o":{}},{"w":"কৃপা","h":" ","s":{"eng":"mercifully"},"o":{}},{"w":"করি’","h":",    ","s":{"eng":"⬅1"},"o":{}},{"w":"গৌড়","h":"-","s":{"eng":"Śrī Gauḓa-maṇḍala"},"o":{}},{"w":"বন","h":"-","s":{"eng":"forest"},"o":{}},{"w":"মাঝে","h":",","s":{"eng":"within"},"o":{}}],
      [{"w":"গোদ্রুমে","h":" ","s":{"eng":"in Godruma"},"o":{}},{"w":"দিয়াছ","h":" ","s":{"eng":"you have given"},"o":{}},{"w":"স্থান","h":" ।","s":{"eng":"a place"},"o":{}}],
      [{"w":"আজ্ঞা","h":" ","s":{"eng":"you ordered"},"o":{}},{"w":"দিলা","h":" ","s":{"eng":"⬅1"},"o":{}},{"w":"মোরে","h":",    ","s":{"eng":"to me"},"o":{}},{"w":"এই","h":" ","s":{"eng":"this"},"o":{}},{"w":"ব্রজে","h":" ","s":{"eng":"in Vraja"},"o":{}},{"w":"বসি’","h":",","s":{"eng":"having resided"},"o":{}}],
      [{"w":"হরিনাম","h":" ","s":{"eng":"names of Śrī Hari"},"o":{}},{"w":"কর","h":" ","s":{"eng":"chant"},"o":{}},{"w":"গান","h":" ॥১॥","s":{"eng":"⬅1"},"o":{}}]],
    "translation":{"eng":"O Gurudeva! You have very mercifully given me a place in Godruma within the forests of Śrī Gauḓa-maṇḍala. You have ordered me to dwell in this place which is [non-different from] Vraja and to chant the holy names of Śrī Hari."}},{
    "lines":[
      [{"w":"কিন্তু","h":" ","s":{"eng":"but"},"o":{}},{"w":"কবে","h":" ","s":{"eng":"when"},"o":{}},{"w":"প্রভু","h":",    ","s":{"eng":"O Master"},"o":{}},{"w":"যোগ্যতা","h":" ","s":{"eng":"qualification"},"o":{}},{"w":"অর্পিবে","h":",","s":{"eng":"you will bestow"},"o":{}}],
      [{"w":"এ","h":" ","s":{"eng":"this"},"o":{}},{"w":"দাসেরে","h":" ","s":{"eng":"upon servant"},"o":{}},{"w":"দয়া","h":" ","s":{"eng":"mercifully"},"o":{}},{"w":"করি’","h":" ।","s":{"eng":"⬅1"},"o":{}}],
      [{"w":"চিত্ত","h":" ","s":{"eng":"mind"},"o":{}},{"w":"স্থির","h":" ","s":{"eng":"fixed, peaceful"},"o":{}},{"w":"হ’বে","h":",    ","s":{"eng":"will become"},"o":{}},{"w":"সকল","h":" ","s":{"eng":"all"},"o":{}},{"w":"সহিব","h":",","s":{"eng":"I will tolerate"},"o":{}}],
      [{"w":"একান্তে","h":" ","s":{"eng":"sincerely, one-pointedly, in a solitary place"},"o":{}},{"w":"ভজিব","h":" ","s":{"eng":"I shall worship, serve"},"o":{}},{"w":"হরি","h":" ॥২॥","s":{"eng":"Śrī Hari"},"o":{}}]],
    "translation":{"eng":"But when, O Master, will you mercifully bestow upon this servant the qualification [to fulfill your order]? At that time, my mind will be peaceful, I shall tolerate all that happens, and I shall earnestly perform bhajana of Śrī Hari."}},{
    "lines":[
      [{"w":"শৈশবে","h":"-","s":{"eng":"in childhood and youth"},"o":{}},{"w":"যৌবনে","h":",    ","s":{"eng":"⬅1"},"o":{}},{"w":"জড়সুখ","h":"-","s":{"eng":"mundane + pleasures"},"o":{}},{"w":"সঙ্গে","h":",","s":{"eng":"contact with"},"o":{}}],
      [{"w":"অভ্যাস","h":" ","s":{"eng":"habits"},"o":{}},{"w":"হইল","h":" ","s":{"eng":"became"},"o":{}},{"w":"মন্দ","h":"।","s":{"eng":"bad, low, wicked"},"o":{}}],
      [{"w":"নিজ","h":" ","s":{"eng":"my own"},"o":{}},{"w":"কর্ম্মদোষে","h":",    ","s":{"eng":"actions + due to the fault"},"o":{}},{"w":"এ","h":" ","s":{"eng":"this"},"o":{}},{"w":"দেহ","h":" ","s":{"eng":"body"},"o":{}},{"w":"হইল","h":",","s":{"eng":"became"},"o":{}}],
      [{"w":"ভজনের","h":" ","s":{"eng":"of bhajana"},"o":{}},{"w":"প্রতিবন্ধ","h":" ॥৩॥","s":{"eng":"an impediment"},"o":{}}]],
    "translation":{"eng":"Because I indulged in mundane pleasures during my childhood and youth, my habits have become unfavorable [to bhakti]. Due to the reactions of my own misdeeds, this body has become an impediment to performing bhajana."}},{
    "lines":[
      [{"w":"বার্দ্ধক্যে","h":" ","s":{"eng":"in old age"},"o":{}},{"w":"এখন","h":",    ","s":{"eng":"now"},"o":{}},{"w":"পঞ্চরোগে","h":" ","s":{"eng":"five [senses or miseries] + by diseases"},"o":{}},{"w":"হত","h":",","s":{"eng":"attacked"},"o":{}}],
      [{"w":"কেমনে","h":" ","s":{"eng":"how"},"o":{}},{"w":"ভজিব","h":" ","s":{"eng":"I will worship"},"o":{}},{"w":"বল","h":" ।","s":{"eng":"tell (imperative)"},"o":{}}],
      [{"w":"কাঁদিয়া","h":" ","s":{"eng":"weeping and weeping"},"o":{}},{"w":"কাঁদিয়া","h":",    ","s":{"eng":"⬅1"},"o":{}},{"w":"তোমার","h":" ","s":{"eng":"your"},"o":{}},{"w":"চরণে","h":",","s":{"eng":"at feet"},"o":{}}],
      [{"w":"পড়িয়াছি","h":" ","s":{"eng":"I have fallen"},"o":{}},{"w":"সুবিহ্বল","h":" ॥৪॥","s":{"eng":"greatly overwhelmed"},"o":{}}]],
    "translation":{"eng":"Now, in old age, I have become afflicted with the diseases of the five senses. Please tell me how I can do bhajana [in this condition]. Weeping and weeping, I have fallen at your lotus feet, greatly overwhelmed."}}
  ]
}