{
  "uid":"GH15",
  "title":"সখে কলয় গৌরমুদারম্",
  "author":"রাধামোহন দাস",
  "language":"san",
  "notes":["(গুজ্জরী)"],
  "audio":[
    {"uid":"krsn-1","fn":"GH15-krsn-1.mp3","meta":{"artist":"Krsnadas das","src":"20 Sanskrit Songs/[03] Sakhe, Kalaya Gauram Udāram /krsn-sakhe_kalaya_gauram_udaram.mp3"}},
    {"uid":"sadh-1","fn":"GH15-sadh-1.mp3","meta":{"artist":"BV Sadhu Maharaja","src":"20 Sanskrit Songs/[03] Sakhe, Kalaya Gauram Udāram /sadh-sakhe_kalaya_gauram_udaram.mp3"}},
    {"uid":"krsn-2","fn":"GH15-krsn-2.mp3","meta":{"artist":"Krsnadas das","src":"20 Sanskrit Songs/[03] Sakhe, Kalaya Gauram Udāram /krsn-sakhe_kalaya_gauram_udaram-2.mp3"}},
    {"uid":"mith-1","fn":"GH15-mith-1.mp3","meta":{"artist":"Mithu dasi","src":"20 Sanskrit Songs/[03] Sakhe, Kalaya Gauram Udāram /mith-sakhe_kalaya_gauram_udaram.mp3"}},
    {"uid":"jana-1","fn":"GH15-jana-1.mp3","meta":{"artist":"Janaki dasi","src":"20 Sanskrit Songs/[03] Sakhe, Kalaya Gauram Udāram /jana-sakhe_kalaya_gauram_udaram.mp3"}}],
  "has_synonyms":false,
  "has_translations":true,
  "legend":{"w":"word","h":"hint","s":"synonym","o":"override"},
  "verses":[{
    "lines":[
      [{"w":"সখে","h":", ","s":{"eng":"NULL"},"o":{}},{"w":"কলয়","h":" ","s":{"eng":"NULL"},"o":{}},{"w":"গৌরমুদারম্","h":" ।","s":{"eng":"NULL"},"o":{}}],
      [{"w":"নিন্দিত","h":"-","s":{"eng":"NULL"},"o":{}},{"w":"হাটক","h":"-","s":{"eng":"NULL"},"o":{}},{"w":"কান্তি","h":"-","s":{"eng":"NULL"},"o":{}},{"w":"কলেৱর","h":"-","s":{"eng":"NULL"},"o":{}}],
      [{"w":"গর্ৱ্ৱিতমারকমারম্","h":" ॥","s":{"eng":"NULL"},"o":{}},{"w":"ধ্রু","h":"॥","s":{"eng":"NULL"},"o":{}}]],
    "translation":{"eng":"O my dear friend, just think about the magnanimous Śrī Gaurāṅga, whose bodily luster rebukes the splendor of gold and who smashes the pride of Cupid."}},{
    "lines":[
      [{"w":"মধুকর","h":"-","s":{"eng":"NULL"},"o":{}},{"w":"রঞ্জিত","h":"-","s":{"eng":"NULL"},"o":{}},{"w":"মালতি","h":"-","s":{"eng":"NULL"},"o":{}},{"w":"মণ্ডিত","h":"-","s":{"eng":"NULL"},"o":{}}],
      [{"w":"জিতঘন","h":"-","s":{"eng":"NULL"},"o":{}},{"w":"কুঞ্চিত","h":"-","s":{"eng":"NULL"},"o":{}},{"w":"কেশম্","h":" ।","s":{"eng":"NULL"},"o":{}}],
      [{"w":"তিলক","h":"-","s":{"eng":"NULL"},"o":{}},{"w":"ৱিনিন্দিত","h":"-","s":{"eng":"NULL"},"o":{}},{"w":"শশধর","h":"-","s":{"eng":"NULL"},"o":{}},{"w":"রূপক","h":"-","s":{"eng":"NULL"},"o":{}}],
      [{"w":"ভুৱন","h":"-","s":{"eng":"NULL"},"o":{}},{"w":"মনোহর","h":"-","s":{"eng":"NULL"},"o":{}},{"w":"ৱেশম্","h":" ॥১॥","s":{"eng":"NULL"},"o":{}}]],
    "translation":{"eng":"His curly locks, which defeat the splendor of dark rain clouds, are adorned with mālati flowers surrounded by delighted honeybees. His tilaka insults the beauty of the moon, and His attire enchants the whole world."}},{
    "lines":[
      [{"w":"মধু","h":"-","s":{"eng":"NULL"},"o":{}},{"w":"মধুরস্মিত","h":"-","s":{"eng":"NULL"},"o":{}},{"w":"লোভিত","h":"-","s":{"eng":"NULL"},"o":{}},{"w":"তনুভৃতম্","h":"","s":{"eng":"NULL"},"o":{}}],
      [{"w":"অনুপম","h":"-","s":{"eng":"NULL"},"o":{}},{"w":"ভাৱ","h":"-","s":{"eng":"NULL"},"o":{}},{"w":"ৱিলাসম্","h":" ।","s":{"eng":"NULL"},"o":{}}],
      [{"w":"নিধুৱন","h":"-","s":{"eng":"NULL"},"o":{}},{"w":"নাগরী","h":"-","s":{"eng":"NULL"},"o":{}},{"w":"মোহিত","h":"-","s":{"eng":"NULL"},"o":{}},{"w":"মানস","h":"-","s":{"eng":"NULL"},"o":{}}],
      [{"w":"ৱিকথিত","h":"-","s":{"eng":"NULL"},"o":{}},{"w":"গদ্‌গদ","h":"-","s":{"eng":"NULL"},"o":{}},{"w":"ভাষম্","h":" ॥২॥","s":{"eng":"NULL"},"o":{}}]],
    "translation":{"eng":"His smile, sweet like honey, allures all embodied beings. His pastimes are filled with unparalleled sentiments of pure love (bhāvas). His mind is captivated by the heroine of Nidhuvana, as He utters indecipherable words in a choked voice."}},{
    "lines":[
      [{"w":"পরমাকিঞ্চন","h":"-","s":{"eng":"NULL"},"o":{}},{"w":"কিঞ্চন","h":"-","s":{"eng":"NULL"},"o":{}},{"w":"নরগণ","h":"-","s":{"eng":"NULL"},"o":{}}],
      [{"w":"করুণা","h":"-","s":{"eng":"NULL"},"o":{}},{"w":"ৱিতরণশীলম্","h":" ।","s":{"eng":"NULL"},"o":{}}],
      [{"w":"ক্ষোভিত","h":"-","s":{"eng":"NULL"},"o":{}},{"w":"দুর্ম্মতি","h":"-","s":{"eng":"NULL"},"o":{}},{"w":"রাধামোহন","h":"-","s":{"eng":"NULL"},"o":{}}],
      [{"w":"নামক","h":"-","s":{"eng":"NULL"},"o":{}},{"w":"নিরুপম","h":"-","s":{"eng":"NULL"},"o":{}},{"w":"লীলম্","h":" ॥৩॥","s":{"eng":"NULL"},"o":{}}]],
    "translation":{"eng":"It is His nature to distribute mercy to those souls who are utterly destitute [having no wealth other than Kṛṣṇa and service to Him], as well as to those who hanker for material possessions. His incomparable pastimes have thrown this foolish person named Rādhā-mohana into confusion."}}
  ]
}