{
  "uid":"GH23",
  "title":"জয় জয় জগন্নাথ শচীর নন্দন",
  "author":"বাসুদেব ঘোষ",
  "language":"ben",
  "notes":[],
  "audio":[
    {"uid":"srrb-1","fn":"GH23-srrb-1.mp3","meta":{"artist":"Sudarsan das (Radha-ramana Babaji Maharaja)","src":"05 Śrī Gaurāṅga/[01] Jaya Jaya Jagannātha Śacīra-nandana/srrb-jaya_jaya_jagannatha_sacira_nandana.mp3"}}],
  "has_synonyms":true,
  "has_translations":true,
  "legend":{"w":"word","h":"hint","s":"synonym","o":"override"},
  "verses":[{
    "lines":[
      [{"w":"জয়","h":" ","s":{"eng":"all glories, all glories"},"o":{}},{"w":"জয়","h":" ","s":{"eng":"⬅1"},"o":{}},{"w":"জগন্নাথ","h":" ","s":{"eng":"of Jagannātha Miśra and Śacī-devī"},"o":{}},{"w":"শচীর","h":" ","s":{"eng":"⬅1"},"o":{}},{"w":"নন্দন","h":" ।","s":{"eng":"the son"},"o":{}}],
      [{"w":"ত্রিভুবন","h":" ","s":{"eng":"three worlds"},"o":{}},{"w":"করে","h":" ","s":{"eng":"perform"},"o":{}},{"w":"যাঁ’র","h":" ","s":{"eng":"whose"},"o":{}},{"w":"চরণ","h":" ","s":{"eng":"feet"},"o":{}},{"w":"বন্দন","h":" ॥১॥","s":{"eng":"worship"},"o":{}}]],
    "translation":{"eng":"All glories, all glories to the dear son of Jagannātha Miśra and Śacī-devī. His lotus feet are worshiped by the three worlds."}},{
    "lines":[
      [{"w":"নীলাচলে","h":" ","s":{"eng":"in Nīlācala"},"o":{}},{"w":"শঙ্খ","h":"-","s":{"eng":"conchshell"},"o":{}},{"w":"চক্র","h":"-","s":{"eng":"disc"},"o":{}},{"w":"গদা","h":"-","s":{"eng":"club"},"o":{}},{"w":"পদ্মধর","h":" ।","s":{"eng":"lotus flower + He holds"},"o":{}}],
      [{"w":"নদীয়া","h":" ","s":{"eng":"Nadīyā"},"o":{}},{"w":"নগরে","h":" ","s":{"eng":"in the town"},"o":{}},{"w":"দণ্ড","h":"-","s":{"eng":"the staff of a renunciant"},"o":{}},{"w":"কমণ্ডলু","h":"-","s":{"eng":"a water pot"},"o":{}},{"w":"কর","h":" ॥২॥","s":{"eng":"in the hands"},"o":{}}]],
    "translation":{"eng":"In Nīlācala He holds the conchshell, disc, club, and lotus flower, while in the town of Nadīyā He holds the staff of a renunciant and a water pot."}},{
    "lines":[
      [{"w":"কেহ","h":" ","s":{"eng":"some"},"o":{}},{"w":"বলে","h":", —","s":{"eng":"say"},"o":{}},{"w":"","h":"‘","s":{"eng":"NULL"},"o":{}},{"w":"পূরবেতে","h":" ","s":{"eng":"in a previous age"},"o":{}},{"w":"রাবণ","h":" ","s":{"eng":"the demon Rāvaṇa"},"o":{}},{"w":"বধিলা","h":" ।’","s":{"eng":"He killed"},"o":{}}],
      [{"w":"গোলোকের","h":" ","s":{"eng":"Goloka’s"},"o":{}},{"w":"বৈভব","h":" ","s":{"eng":"glorious"},"o":{}},{"w":"লীলা","h":" ","s":{"eng":"pastimes"},"o":{}},{"w":"প্রকাশ","h":" ","s":{"eng":"He revealed"},"o":{}},{"w":"করিলা","h":" ॥৩॥","s":{"eng":"⬅1"},"o":{}}]],
    "translation":{"eng":"Some say that in a previous age He killed the demon Rāvaṇa. Then [as Lord Kṛṣṇa,] He revealed the glorious pastimes of Goloka."}},{
    "lines":[
      [{"w":"শ্রীরাধার","h":" ","s":{"eng":"of Śrī Rādhā"},"o":{}},{"w":"ভাবে","h":" ","s":{"eng":"in estatic moods"},"o":{}},{"w":"এবে","h":" ","s":{"eng":"now"},"o":{}},{"w":"গোরা","h":" ","s":{"eng":"Gaurāṅga (or golden)"},"o":{}},{"w":"অবতার","h":" ।","s":{"eng":"incarnation"},"o":{}}],
      [{"w":"","h":"‘","s":{"eng":"NULL"},"o":{}},{"w":"হরে","h":" ","s":{"eng":"Hare Kṛṣṇa"},"o":{}},{"w":"কৃষ্ণ’","h":"-","s":{"eng":"⬅1"},"o":{}},{"w":"নাম","h":" ","s":{"eng":"the names"},"o":{}},{"w":"গৌর","h":" ","s":{"eng":"Gaurāṅga"},"o":{}},{"w":"করিলা","h":" ","s":{"eng":"He preached"},"o":{}},{"w":"প্রচার","h":" ॥৪॥","s":{"eng":"⬅1"},"o":{}}]],
    "translation":{"eng":"Now, accepting the bhāva of Śrī Rādhā, He has come as the golden avatāra. Lord Gaura preaches the [chanting of the] Hare Kṛṣṇa mahā-mantra."}},{
    "lines":[
      [{"w":"বাসুদেব","h":" ","s":{"eng":"Vāsudeva Ghoṣa"},"o":{}},{"w":"ঘোষ","h":" ","s":{"eng":"⬅1"},"o":{}},{"w":"বলে","h":" ","s":{"eng":"says"},"o":{}},{"w":"করি’","h":" ","s":{"eng":"having folded"},"o":{}},{"w":"যোড়","h":" ","s":{"eng":"⬅1"},"o":{}},{"w":"হাত","h":" ।","s":{"eng":"hands"},"o":{}}],
      [{"w":"যেই","h":" ","s":{"eng":"He who"},"o":{}},{"w":"গৌর","h":", ","s":{"eng":"Gaura"},"o":{}},{"w":"সেই","h":" ","s":{"eng":"He"},"o":{}},{"w":"কৃষ্ণ","h":", ","s":{"eng":"Kṛṣṇa"},"o":{}},{"w":"সেই","h":" ","s":{"eng":"He"},"o":{}},{"w":"জগন্নাথ","h":" ॥৫॥","s":{"eng":"Jagannātha"},"o":{}}]],
    "translation":{"eng":"With folded hands, Vāsudeva Ghoṣa says, “He who is Gaura is also Kṛṣṇa, as well as Jagannātha.”"}}
  ]
}