{
  "uid":"GH31",
  "title":"দেবাদিদেব গৌরচন্দ্র গৌরীদাস-মন্দিরে",
  "author":"গৌরীদাস পণ্ডিত",
  "language":"ben",
  "notes":[],
  "audio":[
    {"uid":"sadh-1","fn":"GH31-sadh-1.mp3","meta":{"artist":"BV Sadhu Maharaja","src":"06 Gaura-Nityānanda/[02] Gaurīdāsa-mandire/sadh-gauridasa_mandire.mp3"}},
    {"uid":"gaur-1","fn":"GH31-gaur-1.mp3","meta":{"artist":"Gaurasundar das","src":"06 Gaura-Nityānanda/[02] Gaurīdāsa-mandire/gaur-gauridasa_mandire.mp3"}},
    {"uid":"sadh-2","fn":"GH31-sadh-2.mp3","meta":{"artist":"BV Sadhu Maharaja","src":"06 Gaura-Nityānanda/[02] Gaurīdāsa-mandire/sadh-gauridasa_mandire-2.mp3"}}],
  "has_synonyms":true,
  "has_translations":true,
  "legend":{"w":"word","h":"hint","s":"synonym","o":"override"},
  "verses":[{
    "lines":[
      [{"w":"দেবাদিদেব","h":" ","s":{"eng":"the Lord of lords"},"o":{}},{"w":"গৌরচন্দ্র","h":" ","s":{"eng":"moon-like Gaura"},"o":{}},{"w":"গৌরীদাস","h":"-","s":{"eng":"Gaurīdāsa Paṇḍita"},"o":{}},{"w":"মন্দিরে","h":" ।","s":{"eng":"in the house, temple"},"o":{}}],
      [{"w":"নিত্যানন্দ","h":"-","s":{"eng":"Nityānanda Prabhu"},"o":{}},{"w":"সঙ্গে","h":" ","s":{"eng":"with"},"o":{}},{"w":"গৌর","h":" ","s":{"eng":"Gaurāṅga"},"o":{}},{"w":"অম্বিকাতে","h":" ","s":{"eng":"in Ambikā-kālnā"},"o":{}},{"w":"বিহরে","h":" ॥১॥","s":{"eng":"frolics, sports"},"o":{}}]],
    "translation":{"eng":"The Lord of lords, Śrī Gaura-candra, along with Nityānanda Prabhu, revels in the house of Gaurīdāsa Paṇḍita in Ambikā-kālnā."}},{
    "lines":[
      [{"w":"চারু","h":"-","s":{"eng":"beautiful"},"o":{}},{"w":"অরুণ","h":"-","s":{"eng":"red"},"o":{}},{"w":"গুঞ্জাহার","h":" ","s":{"eng":"necklace of guñjā berries"},"o":{}},{"w":"হৃৎকমলে","h":" ","s":{"eng":"heart + to the lotus"},"o":{}},{"w":"যে","h":" ","s":{"eng":"which"},"o":{}},{"w":"ধরে","h":" ।","s":{"eng":"holds, rests"},"o":{}}],
      [{"w":"বিরিঞ্চি","h":"-","s":{"eng":"Lord Brahmā"},"o":{}},{"w":"সেব্য","h":"-","s":{"eng":"worshipped"},"o":{}},{"w":"পাদপদ্ম","h":" ","s":{"eng":"lotus feet"},"o":{}},{"w":"লক্ষ্মী","h":"-","s":{"eng":"by Lakṣmī-devī"},"o":{}},{"w":"সেব্য","h":" ","s":{"eng":"worshipped"},"o":{}},{"w":"সাদরে","h":" ॥২॥","s":{"eng":"with great respect"},"o":{}}]],
    "translation":{"eng":"He wears a beautiful red guñjā-mālā that extends to His lotus heart. Brahmā and Lakṣmī worship His lotus feet with great respect."}},{
    "lines":[
      [{"w":"তপ্তহেম","h":"-","s":{"eng":"molten + gold"},"o":{}},{"w":"অঙ্গকান্তি","h":" ","s":{"eng":"limbs + radiance"},"o":{}},{"w":"প্রাতঃ","h":"-","s":{"eng":"early morning"},"o":{}},{"w":"অরুণ","h":"-","s":{"eng":"redish"},"o":{}},{"w":"অম্বরে","h":" ।","s":{"eng":"cloth"},"o":{}}],
      [{"w":"রাধিকানুরাগ","h":" ","s":{"eng":"Śrīmatī Rādhikā + deep attachment"},"o":{}},{"w":"প্রেম","h":"-","s":{"eng":"loving devotion"},"o":{}},{"w":"ভক্তি","h":" ","s":{"eng":"⬅1"},"o":{}},{"w":"বাঞ্ছা","h":" ","s":{"eng":"desires"},"o":{}},{"w":"যে","h":" ","s":{"eng":"who"},"o":{}},{"w":"করে","h":" ॥৩॥","s":{"eng":"does"},"o":{}}]],
    "translation":{"eng":"The radiance of His body shines like molten gold, and His cloth is saffron like the rising sun. He desires the prema-bhakti of Śrīmatī Rādhikā, which is full of anurāga."}},{
    "lines":[
      [{"w":"শচীসুত","h":" ","s":{"eng":"the son of Śacī"},"o":{}},{"w":"গৌরচন্দ্র","h":" ","s":{"eng":"moon-like Gaura"},"o":{}},{"w":"আনন্দিত","h":" ","s":{"eng":"blissful"},"o":{}},{"w":"অন্তরে","h":" ।","s":{"eng":"internally, in the heart"},"o":{}}],
      [{"w":"পাষণ্ড","h":"-","s":{"eng":"atheists"},"o":{}},{"w":"খণ্ড","h":" ","s":{"eng":"the vanquisher"},"o":{}},{"w":"নিত্যানন্দ","h":" ","s":{"eng":"with Nityānanda"},"o":{}},{"w":"সঙ্গে","h":" ","s":{"eng":"⬅1"},"o":{}},{"w":"রঙ্গে","h":" ","s":{"eng":"playfully"},"o":{}},{"w":"বিহরে","h":" ॥৪॥","s":{"eng":"promenades"},"o":{}}]],
    "translation":{"eng":"The son of Śacī, Śrī Gaura-candra, is internally blissful. He playfully roams about with Nityānanda Prabhu, the vanquisher of atheists."}},{
    "lines":[
      [{"w":"নিত্যানন্দ","h":" ","s":{"eng":"Nityānanda and Gaura-candra"},"o":{}},{"w":"গৌরচন্দ্র","h":" ","s":{"eng":"⬅1"},"o":{}},{"w":"গৌরীদাস","h":"-","s":{"eng":"Gaurīdāsa"},"o":{}},{"w":"মন্দিরে","h":" ।","s":{"eng":"in the house"},"o":{}}],
      [{"w":"গৌরীদাস","h":" ","s":{"eng":"Gaurīdāsa"},"o":{}},{"w":"করত","h":" ","s":{"eng":"hopes"},"o":{}},{"w":"আশ","h":" ","s":{"eng":"⬅1"},"o":{}},{"w":"সর্ব্বজীব","h":" ","s":{"eng":"all + souls"},"o":{}},{"w":"উদ্ধারে","h":" ॥৫॥","s":{"eng":"they deliver"},"o":{}}]],
    "translation":{"eng":"Both Nityānanda and Gaura-candra are in the house of Gaurīdāsa, who hopes that They will deliver all jīvas."}}
  ]
}