{
  "uid":"GH35",
  "title":"এমন গৌরাঙ্গ বিনা নাহি আর!",
  "author":"pdt",
  "language":"ben",
  "notes":[],
  "audio":[
    {"uid":"sadh-1","fn":"GH35-sadh-1.mp3","meta":{"artist":"BV Sadhu Maharaja","src":"05 Śrī Gaurāṅga/[05] Emôna Gaurāṅga Binā Nāhi Āra/sadh-emona_gauranga_bina_nahi_ara.mp3"}},
    {"uid":"krsn-1","fn":"GH35-krsn-1.mp3","meta":{"artist":"Krsnadas das","src":"05 Śrī Gaurāṅga/[05] Emôna Gaurāṅga Binā Nāhi Āra/krsn-emona_gauranga_bina_nahi_ara copy.mp3"}},
    {"uid":"krsn-2","fn":"GH35-krsn-2.mp3","meta":{"artist":"Krsnadas das","src":"05 Śrī Gaurāṅga/[05] Emôna Gaurāṅga Binā Nāhi Āra/krsn-emona_gauranga_bina_nahi_ara.mp3"}}],
  "has_synonyms":true,
  "has_translations":true,
  "legend":{"w":"word","h":"hint","s":"synonym","o":"override"},
  "verses":[{
    "lines":[
      [{"w":"এমন","h":" ","s":{"eng":"like, such as"},"o":{}},{"w":"গৌরাঙ্গ","h":" ","s":{"eng":"Gaurāṅga"},"o":{}},{"w":"বিনা","h":" ","s":{"eng":"except, without, but"},"o":{}},{"w":"নাহি","h":" ","s":{"eng":"no"},"o":{}},{"w":"আর","h":"!","s":{"eng":"other"},"o":{}}],
      [{"w":"হেন","h":" ","s":{"eng":"such"},"o":{}},{"w":"অবতার","h":",    ","s":{"eng":"an incarnation"},"o":{}},{"w":"হ’বে","h":" ","s":{"eng":"will be"},"o":{}},{"w":"কি","h":" ","s":{"eng":"or"},"o":{}},{"w":"হয়েছে","h":",","s":{"eng":"has been"},"o":{}}],
      [{"w":"হেন","h":" ","s":{"eng":"such"},"o":{}},{"w":"প্রেম","h":" ","s":{"eng":"divine love"},"o":{}},{"w":"পরচার","h":" ॥১॥","s":{"eng":"preached"},"o":{}}]],
    "translation":{"eng":"There is no one like Gaurāṅga! No other incarnation, past, present, or future, has preached such a rare form of prema."}},{
    "lines":[
      [{"w":"দুরমতি","h":" ","s":{"eng":"wicked"},"o":{}},{"w":"অতি","h":",    ","s":{"eng":"extremely"},"o":{}},{"w":"পতিত","h":" ","s":{"eng":"fallen"},"o":{}},{"w":"পাষণ্ডী","h":",","s":{"eng":"atheists"},"o":{}}],
      [{"w":"প্রাণে","h":" ","s":{"eng":"of life"},"o":{}},{"w":"না","h":" ","s":{"eng":"not"},"o":{}},{"w":"মারিল","h":" ","s":{"eng":"slain"},"o":{}},{"w":"কা’রে","h":" ।","s":{"eng":"of anyone"},"o":{}}],
      [{"w":"হরিনাম","h":" ","s":{"eng":"names of Hari"},"o":{}},{"w":"দিয়া","h":",    ","s":{"eng":"having given"},"o":{}},{"w":"হৃদয়","h":" ","s":{"eng":"heart"},"o":{}},{"w":"শোধিল","h":",","s":{"eng":"He purified"},"o":{}}],
      [{"w":"যাচি’","h":" ","s":{"eng":"having offered"},"o":{}},{"w":"গিয়া","h":" ","s":{"eng":"having gone"},"o":{}},{"w":"ঘরে","h":" ","s":{"eng":"from house to house"},"o":{}},{"w":"ঘরে","h":" ॥২॥","s":{"eng":"⬅1"},"o":{}}]],
    "translation":{"eng":"He has not slain the very wicked or the fallen atheists. Instead, He has purified everyone’s hearts by going from door to door, freely giving them the holy name."}},{
    "lines":[
      [{"w":"ভব","h":"-","s":{"eng":"Śiva"},"o":{}},{"w":"বিরিঞ্চির","h":",    ","s":{"eng":"Brahmā"},"o":{}},{"w":"বাঞ্ছিত","h":" ","s":{"eng":"desired"},"o":{}},{"w":"যে","h":"-","s":{"eng":"that"},"o":{}},{"w":"প্রেম","h":",","s":{"eng":"divine love"},"o":{}}],
      [{"w":"জগতে","h":" ","s":{"eng":"over the world"},"o":{}},{"w":"ফেলিল","h":" ","s":{"eng":"He dropped, let fall"},"o":{}},{"w":"ঢালি’","h":" ।","s":{"eng":"pouring"},"o":{}}],
      [{"w":"কাঙ্গালে","h":" ","s":{"eng":"to the destitute"},"o":{}},{"w":"পাইয়া","h":",    ","s":{"eng":"having received"},"o":{}},{"w":"খাইল","h":" ","s":{"eng":"drank"},"o":{}},{"w":"নাচিয়া","h":",","s":{"eng":"dancing"},"o":{}}],
      [{"w":"বাজাইয়া","h":" ","s":{"eng":"having sounded"},"o":{}},{"w":"করতালি","h":" ॥৩॥","s":{"eng":"clapping of the hands"},"o":{}}]],
    "translation":{"eng":"He has poured over the whole world the prema that is desired by even Śiva and Brahmā. The destitute, upon receiving and drinking this prema, begin to dance and clap their hands with joy."}},{
    "lines":[
      [{"w":"হাসিয়া","h":" ","s":{"eng":"having laughed"},"o":{}},{"w":"কাঁদিয়া","h":",    ","s":{"eng":"having cried"},"o":{}},{"w":"প্রেমে","h":" ","s":{"eng":"in divine love"},"o":{}},{"w":"গড়াগড়ি","h":",","s":{"eng":"rolling"},"o":{}}],
      [{"w":"পুলকে","h":" ","s":{"eng":"horripilation"},"o":{}},{"w":"ব্যাপিল","h":" ","s":{"eng":"all over"},"o":{}},{"w":"অঙ্গ","h":" ।","s":{"eng":"bodily limbs"},"o":{}}],
      [{"w":"চণ্ডালে","h":" ","s":{"eng":"to dog-eater outcastes"},"o":{}},{"w":"ব্রাহ্মণে","h":",    ","s":{"eng":"to brāhmaṇas"},"o":{}},{"w":"করে","h":" ","s":{"eng":"they embrace [one another]"},"o":{}},{"w":"কোলাকুলি","h":",","s":{"eng":"⬅1"},"o":{}}],
      [{"w":"কবে","h":" ","s":{"eng":"when"},"o":{}},{"w":"বা","h":" ","s":{"eng":"[used to emphasize a question]"},"o":{}},{"w":"ছিল","h":" ","s":{"eng":"happened"},"o":{}},{"w":"এ","h":" ","s":{"eng":"this"},"o":{}},{"w":"রঙ্গ","h":" ॥৪॥","s":{"eng":"wondrous spectacle"},"o":{}}]],
    "translation":{"eng":"Laughing and weeping, they roll upon the ground in prema, and the limbs of their bodies manifest horripilation. Even the caṇḍālas (dog-eaters) and brāhmaṇas embrace one another. Oh, has there ever been such a wondrous spectacle?"}},{
    "lines":[
      [{"w":"ডাকিয়া","h":" ","s":{"eng":"having called"},"o":{}},{"w":"হাঁকিয়া","h":",    ","s":{"eng":"having roared"},"o":{}},{"w":"খোল","h":"-","s":{"eng":"with mṛdaṅgas and karatālas"},"o":{}},{"w":"করতালে","h":",","s":{"eng":"⬅1"},"o":{}}],
      [{"w":"গাইয়া","h":"-","s":{"eng":"having sung"},"o":{}},{"w":"ধাইয়া","h":" ","s":{"eng":"having run"},"o":{}},{"w":"ফিরে","h":" ।","s":{"eng":"around, about"},"o":{}}],
      [{"w":"দেখিয়া","h":" ","s":{"eng":"having seen"},"o":{}},{"w":"শমন","h":",    ","s":{"eng":"Yamarāja"},"o":{}},{"w":"তরাস","h":" ","s":{"eng":"fear"},"o":{}},{"w":"পাইয়া","h":",","s":{"eng":"having felt"},"o":{}}],
      [{"w":"কপাট","h":" ","s":{"eng":"doors"},"o":{}},{"w":"হানিল","h":" ","s":{"eng":"closed"},"o":{}},{"w":"দ্বারে","h":" ॥৫॥","s":{"eng":"at the gate"},"o":{}}]],
    "translation":{"eng":"With calls and cries, with mṛdaṅga and karatālas, He and His devotees sing and run hither and thither. Seeing this, Yamarāja (the lord of death) has become frightened and closed his door."}},{
    "lines":[
      [{"w":"এ","h":" ","s":{"eng":"these"},"o":{}},{"w":"তিন","h":" ","s":{"eng":"three"},"o":{}},{"w":"ভুবন","h":",    ","s":{"eng":"worlds"},"o":{}},{"w":"আনন্দে","h":" ","s":{"eng":"with bliss"},"o":{}},{"w":"ভরিল","h":",","s":{"eng":"filled"},"o":{}}],
      [{"w":"উঠিল","h":" ","s":{"eng":"arose"},"o":{}},{"w":"মঙ্গল","h":" ","s":{"eng":"auspicious"},"o":{}},{"w":"সোর","h":" ।","s":{"eng":"(kolāhala, svar) an uproar, tumult"},"o":{}}],
      [{"w":"কহে","h":" ","s":{"eng":"says"},"o":{}},{"w":"প্রেমানন্দ","h":",    ","s":{"eng":"Premānanda dāsa"},"o":{}},{"w":"এমন","h":" ","s":{"eng":"that"},"o":{}},{"w":"গৌরাঙ্গে","h":",","s":{"eng":"for Gaurāṅga"},"o":{}}],
      [{"w":"রতি","h":" ","s":{"eng":"affection"},"o":{}},{"w":"না","h":" ","s":{"eng":"not"},"o":{}},{"w":"জন্মিল","h":" ","s":{"eng":"appeared"},"o":{}},{"w":"মোর","h":" ॥৬॥","s":{"eng":"my"},"o":{}}]],
    "translation":{"eng":"The three worlds have become filled with bliss upon the auspicious uproar of kīrtana. Premānanda dāsa laments, “Oh, rati (affection) for that Gaurāṅga has not appeared in my heart!”"}}
  ]
}