{
  "uid":"GH37",
  "title":"এমন শচীর নন্দন বিনে",
  "author":"pdt",
  "language":"ben",
  "notes":["প্রেমা নামাদ্ভুতার্থঃ শ্রবণপথগতঃ কস্য নাম্নাং মহিম্নঃ","কো বেত্তা কস্য বৃন্দাবনবিপিন-মহামাধুরীষু প্রবেশঃ ।","কো বা জানাতি রাধাং পরমরস-চমৎকার-মাধুর্য্যসীমা-","মেকশ্চৈতন্যচন্দ্রঃ পরমকরুণয়া সর্ব্বমাবিশ্চকার ॥","(শ্রীশ্রীচৈতন্যচন্দ্রামৃতম্)"],
  "audio":[
    {"uid":"krsn-1","fn":"GH37-krsn-1.mp3","meta":{"artist":"Krsnadas das","src":"05 Śrī Gaurāṅga/[06] Emôna Śacīra Nandana Bine/krsn-emona_sacira_nandana_bine.mp3"}},
    {"uid":"gaur-1","fn":"GH37-gaur-1.mp3","meta":{"artist":"Gaurasundar das","src":"05 Śrī Gaurāṅga/[06] Emôna Śacīra Nandana Bine/gaur-emona_sacira_nandana_bine.mp3"}},
    {"uid":"krsn-2","fn":"GH37-krsn-2.mp3","meta":{"artist":"Krsnadas das","src":"05 Śrī Gaurāṅga/[06] Emôna Śacīra Nandana Bine/krsn-emona_sacira_nandana_bine-2.mp3"}},
    {"uid":"vraj-1","fn":"GH37-vraj-1.mp3","meta":{"artist":"Vraj Mohan das","src":"05 Śrī Gaurāṅga/[06] Emôna Śacīra Nandana Bine/vraj-emona_sacira_nandana_bine.mp3"}},
    {"uid":"tama-1","fn":"GH37-tama-1.mp3","meta":{"artist":"Tamal Krsna das","src":"05 Śrī Gaurāṅga/[06] Emôna Śacīra Nandana Bine/tama-emona_sacira_nandana_bine.mp3"}}],
  "has_synonyms":true,
  "has_translations":true,
  "legend":{"w":"word","h":"hint","s":"synonym","o":"override"},
  "verses":[{
    "lines":[
      [{"w":"এমন","h":" ","s":{"eng":"like, such"},"o":{}},{"w":"শচীর","h":" ","s":{"eng":"Śacī’s"},"o":{}},{"w":"নন্দন","h":" ","s":{"eng":"son"},"o":{}},{"w":"বিনে","h":" ।","s":{"eng":"except, without, but"},"o":{}}],
      [{"w":"","h":"‘","s":{"eng":"NULL"},"o":{}},{"w":"প্রেম’","h":" ","s":{"eng":"divine love"},"o":{}},{"w":"বলি’","h":" ","s":{"eng":"called"},"o":{}},{"w":"নাম","h":",    ","s":{"eng":"name"},"o":{}},{"w":"অতি","h":" ","s":{"eng":"extremely"},"o":{}},{"w":"অদ্ভুত","h":",","s":{"eng":"wonderful"},"o":{}}],
      [{"w":"শ্রুত","h":" ","s":{"eng":"heard"},"o":{}},{"w":"হইত","h":" ","s":{"eng":"would have"},"o":{}},{"w":"কা’র","h":" ","s":{"eng":"who"},"o":{}},{"w":"কাণে","h":" ॥১॥","s":{"eng":"in the ears"},"o":{}}]],
    "translation":{"eng":"Except for the son of Mother Śacī…\n…who could have heard about that extraordinarily wonderful thing called prema?"}},{
    "lines":[
      [{"w":"শ্রীকৃষ্ণনামের","h":",    ","s":{"eng":"Śrī Kṛṣṇa + of the names"},"o":{}},{"w":"স্বগুণ","h":" ","s":{"eng":"His own + qualities"},"o":{}},{"w":"মহিমা","h":",","s":{"eng":"glories"},"o":{}}],
      [{"w":"কেবা","h":" ","s":{"eng":"who"},"o":{}},{"w":"জানাইত","h":" ","s":{"eng":"would have announced, informed, made known"},"o":{}},{"w":"আর","h":" ","s":{"eng":"else"},"o":{}},{"w":"?","h":"","s":{"eng":"NULL"},"o":{}}],
      [{"w":"বৃন্দা","h":"-","s":{"eng":"Vṛndā-devī"},"o":{}},{"w":"বিপিনের","h":",    ","s":{"eng":"of the forests (Śrī Vṛndāvana)"},"o":{}},{"w":"মহা","h":" ","s":{"eng":"supreme"},"o":{}},{"w":"মধুরিমা","h":",","s":{"eng":"sweetness"},"o":{}}],
      [{"w":"প্রবেশ","h":" ","s":{"eng":"would have entered"},"o":{}},{"w":"হইত","h":" ","s":{"eng":"⬅1"},"o":{}},{"w":"কা’র","h":" ॥২॥","s":{"eng":"who"},"o":{}}]],
    "translation":{"eng":"…who could have announced the glorious qualities of the holy names of Śrī Kṛṣṇa?\n…who could have entered into the supreme sweetness of the forests of Vṛndā-devī?"}},{
    "lines":[
      [{"w":"কেবা","h":" ","s":{"eng":"who"},"o":{}},{"w":"জানাইত","h":",    ","s":{"eng":"would have explained"},"o":{}},{"w":"রাধার","h":" ","s":{"eng":"Rādhā’s"},"o":{}},{"w":"মাধুর্য্য","h":",","s":{"eng":"sweetness"},"o":{}}],
      [{"w":"রস","h":"-","s":{"eng":"transcendental mellows"},"o":{}},{"w":"যশ","h":" ","s":{"eng":"glories"},"o":{}},{"w":"চমৎকার","h":" ","s":{"eng":"wondrous"},"o":{}},{"w":"?","h":"","s":{"eng":"NULL"},"o":{}}],
      [{"w":"তা’র","h":" ","s":{"eng":"Her"},"o":{}},{"w":"অনুভব","h":",    ","s":{"eng":"knowledge, realization percepting, feeling"},"o":{}},{"w":"সাত্ত্বিক","h":" ","s":{"eng":"ecstatic"},"o":{}},{"w":"বিকার","h":",","s":{"eng":"tranformations*"},"o":{}}],
      [{"w":"গোচর","h":" ","s":{"eng":"perceive"},"o":{}},{"w":"ছিল","h":" ","s":{"eng":"was there"},"o":{}},{"w":"বা","h":" ","s":{"eng":"[used to emphasize a question]"},"o":{}},{"w":"কা’র","h":" ॥৩॥","s":{"eng":"who"},"o":{}}]],
    "translation":{"eng":"…who could have told us about the wondrous glories of the exceedingly sweet transcendental mellows that Śrī Rādhā experiences?\n…who could have understood what she experienced or Her ecstatic bodily transformations?"}},{
    "lines":[
      [{"w":"ব্রজে","h":" ","s":{"eng":"of Vraja"},"o":{}},{"w":"যে","h":"-","s":{"eng":"those"},"o":{}},{"w":"বিলাস","h":",    ","s":{"eng":"amorous pastimes"},"o":{}},{"w":"রাস","h":"-","s":{"eng":"the great rāsa dance"},"o":{}},{"w":"মহারাস","h":",","s":{"eng":"⬅1"},"o":{}}],
      [{"w":"প্রেম","h":" ","s":{"eng":"love"},"o":{}},{"w":"পরকীয়","h":" ","s":{"eng":"paramour"},"o":{}},{"w":"তত্ত্ব","h":" ।","s":{"eng":"fundamental truths"},"o":{}}],
      [{"w":"গোপীর","h":" ","s":{"eng":"of the gopīs"},"o":{}},{"w":"মহিমা","h":",    ","s":{"eng":"the glories"},"o":{}},{"w":"ব্যভিচারী","h":" ","s":{"eng":"transitory spiritual emotions"},"o":{}},{"w":"সীমা","h":",","s":{"eng":"limits"},"o":{}}],
      [{"w":"কা’র","h":" ","s":{"eng":"who"},"o":{}},{"w":"অবগতি","h":" ","s":{"eng":"thoroughly understood"},"o":{}},{"w":"ছিল","h":" ","s":{"eng":"was"},"o":{}},{"w":"এত","h":" ॥৪॥","s":{"eng":"this"},"o":{}}]],
    "translation":{"eng":"…who could have thoroughly understood the amorous pastimes of Vraja, the great rāsa-līlā, the fundamental truths of paramour love (parakīya-prema), the glories of the gopīs, and the limits of spiritual emotions?"}},{
    "lines":[
      [{"w":"ধন্য","h":" ","s":{"eng":"blessed"},"o":{}},{"w":"কলি","h":" ","s":{"eng":"age of Kali"},"o":{}},{"w":"ধন্য","h":",    ","s":{"eng":"fortunate"},"o":{}},{"w":"নিতাই","h":" ","s":{"eng":"Śrī Nitāi and Śrī Caitanya"},"o":{}},{"w":"চৈতন্য","h":",","s":{"eng":"⬅1"},"o":{}}],
      [{"w":"পরম","h":" ","s":{"eng":"greatest"},"o":{}},{"w":"করুণা","h":" ","s":{"eng":"mercy"},"o":{}},{"w":"করি’","h":" ।","s":{"eng":"having done"},"o":{}}],
      [{"w":"বিধি","h":"-","s":{"eng":"the creator (Lord Brahmā)"},"o":{}},{"w":"অগোচর","h":",    ","s":{"eng":"beyond the comprehension"},"o":{}},{"w":"যে","h":" ","s":{"eng":"They"},"o":{}},{"w":"প্রেম","h":"-","s":{"eng":"divine love"},"o":{}},{"w":"বিকার","h":",","s":{"eng":"transformations"},"o":{}}],
      [{"w":"প্রকাশে","h":" ","s":{"eng":"they reveal"},"o":{}},{"w":"জগত","h":"-","s":{"eng":"world"},"o":{}},{"w":"ভরি’","h":" ॥৫॥","s":{"eng":"having filled"},"o":{}}]],
    "translation":{"eng":"By bestowing the greatest mercy, Śrī Nitāi and Śrī Caitanya have made this blessed age of Kali supremely glorious. They have filled the world with revelations of prema and its transformations, which are beyond the comprehension of even Lord Brahmā."}},{
    "lines":[
      [{"w":"উত্তম","h":" ","s":{"eng":"the elevated"},"o":{}},{"w":"অধম","h":",    ","s":{"eng":"the fallen"},"o":{}},{"w":"কিছু","h":" ","s":{"eng":"never"},"o":{}},{"w":"না","h":" ","s":{"eng":"⬅1"},"o":{}},{"w":"বাছিল","h":",","s":{"eng":"discriminated"},"o":{}}],
      [{"w":"যাচিয়া","h":" ","s":{"eng":"freely"},"o":{}},{"w":"দিলেক","h":" ","s":{"eng":"embraced"},"o":{}},{"w":"কোল","h":" ।","s":{"eng":"⬅1"},"o":{}}],
      [{"w":"কহে","h":" ","s":{"eng":"says"},"o":{}},{"w":"প্রেমানন্দে","h":",    ","s":{"eng":"Premānanda dāsa"},"o":{}},{"w":"এমন","h":" ","s":{"eng":"that"},"o":{}},{"w":"গৌরাঙ্গে","h":",","s":{"eng":"Gaurāṅga"},"o":{}}],
      [{"w":"অন্তরে","h":" ","s":{"eng":"in the heart"},"o":{}},{"w":"ধরিয়া","h":" ","s":{"eng":"holding"},"o":{}},{"w":"দোল","h":" ॥৬॥","s":{"eng":"swing"},"o":{}}]],
    "translation":{"eng":"Without discriminating between the elevated and the fallen, They freely embraced everyone. Premānanda says, “Hold that Gaurāṅga within your heart!”"}}
  ]
}