{
  "uid":"GH38",
  "title":"কে যাবি কে যাবি ভাই",
  "author":"ldt",
  "language":"ben",
  "notes":["শব্দার্থঃ- কেরোয়াল—দাঁড়, নাবিক ।","ENGLISH: কে যাবি কে যাবি ***রে*** ভাই ভব-সিন্ধু-পার ।"],
  "audio":[
    {"uid":"nank-1","fn":"GH38-nank-1.m4a","meta":{"artist":"Nanda Kishor das","src":"05 Śrī Gaurāṅga/[08] Ke Ĵābi Ke Ĵābi Re Bhāi/nank-ke_jabi_ke_jabi_re_bhai.m4a"}},
    {"uid":"krsn-1","fn":"GH38-krsn-1.mp3","meta":{"artist":"Krsnadas das","src":"05 Śrī Gaurāṅga/[08] Ke Ĵābi Ke Ĵābi Re Bhāi/krsn-ke_jabi_ke_jabi_re_bhai-2.mp3"}},
    {"uid":"tama-1","fn":"GH38-tama-1.mp3","meta":{"artist":"Tamal Krsna das","src":"05 Śrī Gaurāṅga/[08] Ke Ĵābi Ke Ĵābi Re Bhāi/tama-ke_jabi_ke_jabi_re_bhai-1.mp3"}},
    {"uid":"tama-2","fn":"GH38-tama-2.mp3","meta":{"artist":"Tamal Krsna das","src":"05 Śrī Gaurāṅga/[08] Ke Ĵābi Ke Ĵābi Re Bhāi/tama-ke_jabi_ke_jabi_re_bhai-3.mp3"}},
    {"uid":"tama-3","fn":"GH38-tama-3.mp3","meta":{"artist":"Tamal Krsna das","src":"05 Śrī Gaurāṅga/[08] Ke Ĵābi Ke Ĵābi Re Bhāi/tama-ke_jabi_ke_jabi_re_bhai.mp3"}},
    {"uid":"krsn-2","fn":"GH38-krsn-2.mp3","meta":{"artist":"Krsnadas das","src":"05 Śrī Gaurāṅga/[08] Ke Ĵābi Ke Ĵābi Re Bhāi/krsn-ke_jabi_ke_jabi_re_bhai.mp3"}}],
  "has_synonyms":true,
  "has_translations":true,
  "legend":{"w":"word","h":"hint","s":"synonym","o":"override"},
  "verses":[{
    "lines":[
      [{"w":"কে","h":" ","s":{"eng":"who"},"o":{}},{"w":"যাবি","h":" ","s":{"eng":"will go"},"o":{}},{"w":"কে","h":" ","s":{"eng":"who"},"o":{}},{"w":"যাবি","h":" ","s":{"eng":"will go"},"o":{}},{"w":"ভাই","h":" ","s":{"eng":"brothers"},"o":{}},{"w":"ভবসিন্ধু","h":"-","s":{"eng":"material existence + ocean"},"o":{}},{"w":"পার","h":" ।","s":{"eng":"across"},"o":{}}],
      [{"w":"ধন্য","h":" ","s":{"eng":"blessed"},"o":{}},{"w":"কলিযুগের","h":" ","s":{"eng":"of the age of Kali"},"o":{}},{"w":"চৈতন্য","h":"-","s":{"eng":"the incarnation of Śrī Caitanya"},"o":{}},{"w":"অবতার","h":" ॥১॥","s":{"eng":"⬅1"},"o":{}}]],
    "translation":{"eng":"Who will go? Who will go, O brothers, across this ocean of material existence? This age of Kali is blessed, due to the descent of Śrī Caitanya!"}},{
    "lines":[
      [{"w":"আমার","h":" ","s":{"eng":"my"},"o":{}},{"w":"গৌরাঙ্গের","h":" ","s":{"eng":"of Gaurāṅga"},"o":{}},{"w":"ঘাটে","h":" ","s":{"eng":"at the port"},"o":{}},{"w":"অদান","h":"-","s":{"eng":"free"},"o":{}},{"w":"খেয়া","h":" ","s":{"eng":"ferry-boat"},"o":{}},{"w":"বয়","h":" ।","s":{"eng":"servicing"},"o":{}}],
      [{"w":"জড়","h":", ","s":{"eng":"the inert (old)"},"o":{}},{"w":"অন্ধ","h":", ","s":{"eng":"the blind"},"o":{}},{"w":"আতুর","h":" ","s":{"eng":"sick, afflicted, distressed, agonized"},"o":{}},{"w":"অবধি","h":" ","s":{"eng":"the limits"},"o":{}},{"w":"পার","h":" ","s":{"eng":"cross over"},"o":{}},{"w":"হয়","h":" ॥২॥","s":{"eng":"⬅1"},"o":{}}]],
    "translation":{"eng":"A free ferryboat operates at the port of my Gaurāṅga. Even the old, the blind, and the crippled are crossing over."}},{
    "lines":[
      [{"w":"হরিনামের","h":" ","s":{"eng":"of Harināma"},"o":{}},{"w":"নৌকাখানি","h":" ","s":{"eng":"boat + the"},"o":{}},{"w":"শ্রীগুরু","h":"-","s":{"eng":"śrī guru"},"o":{}},{"w":"কাণ্ডারী","h":" ।","s":{"eng":"helmsman"},"o":{}}],
      [{"w":"সঙ্কীর্ত্তন","h":"-","s":{"eng":"congregational chanting"},"o":{}},{"w":"কেরোয়াল","h":" ","s":{"eng":"the oars"},"o":{}},{"w":"দু’বাহু","h":" ","s":{"eng":"two + arms"},"o":{}},{"w":"পসারি","h":" ॥৩॥","s":{"eng":"upraised"},"o":{}}]],
    "translation":{"eng":"Harināma is the boat, śrī guru is the helmsman, and the upraised arms of the saṅkīrtana party are the oars."}},{
    "lines":[
      [{"w":"সব","h":" ","s":{"eng":"all"},"o":{}},{"w":"জীব","h":" ","s":{"eng":"souls"},"o":{}},{"w":"হৈল","h":" ","s":{"eng":"crossed over"},"o":{}},{"w":"পার","h":" ","s":{"eng":"⬅1"},"o":{}},{"w":"প্রেমের","h":" ","s":{"eng":"of divine love"},"o":{}},{"w":"বাতাসে","h":" ।","s":{"eng":"by winds"},"o":{}}],
      [{"w":"পড়িয়া","h":" ","s":{"eng":"having fallen"},"o":{}},{"w":"রহিল","h":" ","s":{"eng":"remained"},"o":{}},{"w":"লোচন","h":" ","s":{"eng":"Locana dāsa"},"o":{}},{"w":"আপনার","h":" ","s":{"eng":"his own"},"o":{}},{"w":"দোষে","h":" ॥৪॥","s":{"eng":"due to fault"},"o":{}}]],
    "translation":{"eng":"All jīvas are crossing over by the favorable winds of prema. Only Locana dāsa, due to his own fault, has been left behind."}}
  ]
}