{
  "uid":"GH40",
  "title":"গৌরাঙ্গের দু’টী পদ",
  "author":"ndt",
  "language":"ben",
  "notes":[],
  "audio":[
    {"uid":"krsn-1","fn":"GH40-krsn-1.mp3","meta":{"artist":"Krsnadas das","src":"05 Śrī Gaurāṅga/[09] Gaurāṅgera Du’ṭī Pada/krsn-gaurangera_duti_pada.mp3"}},
    {"uid":"tama-1","fn":"GH40-tama-1.mp3","meta":{"artist":"Tamal Krsna das","src":"05 Śrī Gaurāṅga/[09] Gaurāṅgera Du’ṭī Pada/tama-gaurangera_duti_pada-2.mp3"}},
    {"uid":"suma-1","fn":"GH40-suma-1.mp3","meta":{"artist":"Suman Bhattacarya","src":"05 Śrī Gaurāṅga/[09] Gaurāṅgera Du’ṭī Pada/suma-gaurangera_duti_pada-2.mp3"}},
    {"uid":"tama-2","fn":"GH40-tama-2.mp3","meta":{"artist":"Tamal Krsna das","src":"05 Śrī Gaurāṅga/[09] Gaurāṅgera Du’ṭī Pada/tama-gaurangera_duti_pada.mp3"}},
    {"uid":"suma-2","fn":"GH40-suma-2.mp3","meta":{"artist":"Suman Bhattacarya","src":"05 Śrī Gaurāṅga/[09] Gaurāṅgera Du’ṭī Pada/suma-gaurangera_duti_pada.mp3"}},
    {"uid":"srrb-1","fn":"GH40-srrb-1.mp3","meta":{"artist":"Sudarsan das (Radha-ramana Babaji Maharaja)","src":"05 Śrī Gaurāṅga/[09] Gaurāṅgera Du’ṭī Pada/srrb-gaurangera_duti_pada.mp3"}},
    {"uid":"bvsm-1","fn":"GH40-bvsm-1.mp3","meta":{"artist":"Srila BV Svami Prabhupada","src":"05 Śrī Gaurāṅga/[09] Gaurāṅgera Du’ṭī Pada/bvsm-gaurangera_duti_pada.mp3"}},
    {"uid":"????-1","fn":"GH40-????-1.mp3","meta":{"artist":"Unknown Artist","src":"05 Śrī Gaurāṅga/[09] Gaurāṅgera Du’ṭī Pada/????-gaurangera_duti_pada.mp3"}}],
  "has_synonyms":true,
  "has_translations":true,
  "legend":{"w":"word","h":"hint","s":"synonym","o":"override"},
  "verses":[{
    "lines":[
      [{"w":"গৌরাঙ্গের","h":" ","s":{"eng":"of Śrī Gaurāṅga"},"o":{}},{"w":"দু’টী","h":" ","s":{"eng":"the two"},"o":{}},{"w":"পদ","h":",    ","s":{"eng":"feet"},"o":{}},{"w":"যা’র","h":" ","s":{"eng":"whose"},"o":{}},{"w":"ধন","h":" ","s":{"eng":"wealth"},"o":{}},{"w":"সম্পদ","h":",","s":{"eng":"property"},"o":{}}],
      [{"w":"সে","h":" ","s":{"eng":"he or she"},"o":{}},{"w":"জানে","h":" ","s":{"eng":"knows"},"o":{}},{"w":"ভকতি","h":"-","s":{"eng":"devotion"},"o":{}},{"w":"রসসার","h":" ।","s":{"eng":"the mellows + essence"},"o":{}}],
      [{"w":"গৌরাঙ্গের","h":" ","s":{"eng":"of Śrī Gaurāṅga"},"o":{}},{"w":"মধুর","h":" ","s":{"eng":"sweet"},"o":{}},{"w":"লীলা","h":",    ","s":{"eng":"pastimes"},"o":{}},{"w":"যা’র","h":" ","s":{"eng":"whose"},"o":{}},{"w":"কর্ণে","h":" ","s":{"eng":"in ears"},"o":{}},{"w":"প্রবেশিলা","h":",","s":{"eng":"entered"},"o":{}}],
      [{"w":"হৃদয়","h":" ","s":{"eng":"heart"},"o":{}},{"w":"নির্ম্মল","h":" ","s":{"eng":"pure"},"o":{}},{"w":"ভেল","h":" ","s":{"eng":"becomes"},"o":{}},{"w":"তা’র","h":" ॥১॥","s":{"eng":"his or hers"},"o":{}}]],
    "translation":{"eng":"That person for whom the two lotus feet of Śrī Gaurāṅga are his wealth and property knows the essence of bhakti-rasa. That person for whom the sweet pastimes of Gaurāṅga have entered the ears is pure in heart."}},{
    "lines":[
      [{"w":"যে","h":" ","s":{"eng":"he who"},"o":{}},{"w":"গৌরাঙ্গের","h":" ","s":{"eng":"of Śrī Gaurāṅga"},"o":{}},{"w":"নাম","h":" ","s":{"eng":"name"},"o":{}},{"w":"লয়","h":",    ","s":{"eng":"takes"},"o":{}},{"w":"তা’র","h":" ","s":{"eng":"his"},"o":{}},{"w":"হয়","h":" ","s":{"eng":"becomes"},"o":{}},{"w":"প্রেমোদয়","h":",","s":{"eng":"divine + arises"},"o":{}}],
      [{"w":"তা’রে","h":" ","s":{"eng":"to him"},"o":{}},{"w":"মুঞি","h":" ","s":{"eng":"I"},"o":{}},{"w":"যাই","h":" ","s":{"eng":"go"},"o":{}},{"w":"বলিহারি","h":" ।","s":{"eng":"bravo excellent"},"o":{}}],
      [{"w":"গৌরাঙ্গ","h":"-","s":{"eng":"Gaurāṅga"},"o":{}},{"w":"গুণেতে","h":" ","s":{"eng":"in the qualities"},"o":{}},{"w":"ঝুরে","h":",    ","s":{"eng":"eyes stream tears"},"o":{}},{"w":"নিত্যলীলা","h":" ","s":{"eng":"eternal + pastimes"},"o":{}},{"w":"তা’রে","h":" ","s":{"eng":"to him"},"o":{}},{"w":"স্ফুরে","h":",","s":{"eng":"manifests"},"o":{}}],
      [{"w":"সে","h":"-","s":{"eng":"that"},"o":{}},{"w":"জন","h":" ","s":{"eng":"person"},"o":{}},{"w":"ভকতি","h":"-","s":{"eng":"pure devotion"},"o":{}},{"w":"অধিকারী","h":" ॥২॥","s":{"eng":"qualification"},"o":{}}]],
    "translation":{"eng":"Within one who takes Gaurāṅga’s holy names, prema arises. I heartily glorify such a person. To one whose eyes stream tears in appreciation of Gaurāṅga’s transcendental qualities, the Divine Couple’s eternal pastimes become manifest. Such a person is qualified for bhakti."}},{
    "lines":[
      [{"w":"গৌরাঙ্গের","h":" ","s":{"eng":"Gaurāṅga’s"},"o":{}},{"w":"সঙ্গিগণে","h":",    ","s":{"eng":"associates"},"o":{}},{"w":"নিত্যসিদ্ধ","h":" ","s":{"eng":"eternally + perfected"},"o":{}},{"w":"করি’","h":" ","s":{"eng":"having regarded"},"o":{}},{"w":"মানে","h":",","s":{"eng":"⬅1"},"o":{}}],
      [{"w":"সে","h":" ","s":{"eng":"he"},"o":{}},{"w":"যায়","h":" ","s":{"eng":"goes"},"o":{}},{"w":"ব্রজেন্দ্রসুত","h":"-","s":{"eng":"the son of the king of Vraja"},"o":{}},{"w":"পাশ","h":" ।","s":{"eng":"near"},"o":{}}],
      [{"w":"শ্রীগৌড়মণ্ডল","h":"-","s":{"eng":"the land of Śrī Gauḓa-maṇḍala"},"o":{}},{"w":"ভূমি","h":",    ","s":{"eng":"⬅1"},"o":{}},{"w":"যেবা","h":" ","s":{"eng":"he who"},"o":{}},{"w":"জানে","h":" ","s":{"eng":"knows"},"o":{}},{"w":"চিন্তামণি","h":",","s":{"eng":"touchstone"},"o":{}}],
      [{"w":"তা’র","h":" ","s":{"eng":"his"},"o":{}},{"w":"হয়","h":" ","s":{"eng":"happends"},"o":{}},{"w":"ব্রজভূমে","h":" ","s":{"eng":"in the land of Vraja"},"o":{}},{"w":"বাস","h":" ॥৩॥","s":{"eng":"residence"},"o":{}}]],
    "translation":{"eng":"One who reveres Gaurāṅga’s personal associates as eternally perfected souls goes to the transcendental abode of Vrajendra-suta (the son of the king of Vraja). One who knows the land of Śrī Gauḓa-maṇḍala to be spiritual touchstone achieves residence in the land of Vraja."}},{
    "lines":[
      [{"w":"গৌরপ্রেম","h":"-","s":{"eng":"love for Gaurāṅga"},"o":{}},{"w":"রসার্ণবে","h":",    ","s":{"eng":"nectar + in the ocean"},"o":{}},{"w":"সে","h":" ","s":{"eng":"those"},"o":{}},{"w":"তরঙ্গে","h":" ","s":{"eng":"in the waves"},"o":{}},{"w":"যেবা","h":" ","s":{"eng":"he who"},"o":{}},{"w":"ডুবে","h":",","s":{"eng":"plunges"},"o":{}}],
      [{"w":"সে","h":" ","s":{"eng":"he"},"o":{}},{"w":"রাধামাধব","h":"-","s":{"eng":"Śrī Śrī Rādhā-Mādhava"},"o":{}},{"w":"অন্তরঙ্গ","h":" ।","s":{"eng":"intimate associate"},"o":{}}],
      [{"w":"গৃহে","h":" ","s":{"eng":"in the home (as a householder)"},"o":{}},{"w":"বা","h":" ","s":{"eng":"or"},"o":{}},{"w":"বনেতে","h":" ","s":{"eng":"in the forest (as a renunciant)"},"o":{}},{"w":"থাকে","h":",    ","s":{"eng":"he stays"},"o":{}},{"w":"","h":"‘","s":{"eng":"NULL"},"o":{}},{"w":"হা","h":" ","s":{"eng":"“Hā Gaurāṅga”"},"o":{}},{"w":"গৌরাঙ্গ’","h":" ","s":{"eng":"⬅1"},"o":{}},{"w":"ব’লে","h":" ","s":{"eng":"having said"},"o":{}},{"w":"ডাকে","h":",","s":{"eng":"he calls out"},"o":{}}],
      [{"w":"নরোত্তম","h":" ","s":{"eng":"Narottama dāsa"},"o":{}},{"w":"মাগে","h":" ","s":{"eng":"begs"},"o":{}},{"w":"তা’র","h":" ","s":{"eng":"his"},"o":{}},{"w":"সঙ্গ","h":" ॥৪॥","s":{"eng":"association"},"o":{}}]],
    "translation":{"eng":"One who dives into the waves of the ocean of gaura-prema becomes a confidential associate of Śrī Śrī Rādhā-Mādhava. Whether a person lives in his home as a householder or in the forest as a renunciant, if he exclaims, “Hā Gaurāṅga!” Narottama dāsa begs for his association."}}
  ]
}