{
  "uid":"GH53",
  "title":"মন রে! কহনা গৌর-কথা",
  "author":"নরহরি দাস",
  "language":"ben",
  "notes":[],
  "audio":[
    {"uid":"srrb-1","fn":"GH53-srrb-1.mp3","meta":{"artist":"Sudarsan das (Radha-ramana Babaji Maharaja)","src":"05 Śrī Gaurāṅga/[07] Mana re! Kahô Nā Gaura Kathā/srrb-mana_re_kaho_na_gaura_katha.mp3"}},
    {"uid":"tama-1","fn":"GH53-tama-1.mp3","meta":{"artist":"Tamal Krsna das","src":"05 Śrī Gaurāṅga/[07] Mana re! Kahô Nā Gaura Kathā/tama-mana_re_kaho_na_gaura_katha-2.mp3"}},
    {"uid":"tama-2","fn":"GH53-tama-2.mp3","meta":{"artist":"Tamal Krsna das","src":"05 Śrī Gaurāṅga/[07] Mana re! Kahô Nā Gaura Kathā/tama-mana_re_kaho_na_gaura_katha.mp3"}}],
  "has_synonyms":false,
  "has_translations":false,
  "legend":{"w":"word","h":"hint","s":"synonym","o":"override"},
  "verses":[{
    "lines":[
      [{"w":"মন","h":" ","s":{"eng":"NULL"},"o":{}},{"w":"রে","h":"! ","s":{"eng":"NULL"},"o":{}},{"w":"কহনা","h":" ","s":{"eng":"NULL"},"o":{}},{"w":"গৌর","h":"-","s":{"eng":"NULL"},"o":{}},{"w":"কথা","h":" ।","s":{"eng":"NULL"},"o":{}}],
      [{"w":"গৌরের","h":" ","s":{"eng":"NULL"},"o":{}},{"w":"নাম","h":",    ","s":{"eng":"NULL"},"o":{}},{"w":"অমিয়ার","h":" ","s":{"eng":"NULL"},"o":{}},{"w":"ধাম","h":", ","s":{"eng":"NULL"},"o":{}}],
      [{"w":"পিরীতি","h":" ","s":{"eng":"NULL"},"o":{}},{"w":"মূরতি","h":" ","s":{"eng":"NULL"},"o":{}},{"w":"দাতা","h":" ॥১॥","s":{"eng":"NULL"},"o":{}}]],
    "translation":{"eng":"UNDEFINED"}},{
    "lines":[
      [{"w":"শয়নে","h":" ","s":{"eng":"NULL"},"o":{}},{"w":"গৌর","h":",    ","s":{"eng":"NULL"},"o":{}},{"w":"স্বপনে","h":" ","s":{"eng":"NULL"},"o":{}},{"w":"গৌর","h":", ","s":{"eng":"NULL"},"o":{}}],
      [{"w":"গৌর","h":" ","s":{"eng":"NULL"},"o":{}},{"w":"নয়নের","h":" ","s":{"eng":"NULL"},"o":{}},{"w":"তারা","h":" ।","s":{"eng":"NULL"},"o":{}}],
      [{"w":"জীবনে","h":" ","s":{"eng":"NULL"},"o":{}},{"w":"গৌর","h":",    ","s":{"eng":"NULL"},"o":{}},{"w":"মরণে","h":" ","s":{"eng":"NULL"},"o":{}},{"w":"গৌর","h":", ","s":{"eng":"NULL"},"o":{}}],
      [{"w":"গৌর","h":" ","s":{"eng":"NULL"},"o":{}},{"w":"গলার","h":" ","s":{"eng":"NULL"},"o":{}},{"w":"হার","h":" ॥২॥","s":{"eng":"NULL"},"o":{}}]],
    "translation":{"eng":"UNDEFINED"}},{
    "lines":[
      [{"w":"হিয়ার","h":" ","s":{"eng":"NULL"},"o":{}},{"w":"মাঝারে","h":",    ","s":{"eng":"NULL"},"o":{}},{"w":"গৌরাঙ্গে","h":" ","s":{"eng":"NULL"},"o":{}},{"w":"রাখিয়ে","h":", ","s":{"eng":"NULL"},"o":{}}],
      [{"w":"বিরলে","h":" ","s":{"eng":"NULL"},"o":{}},{"w":"বসিয়া","h":" ","s":{"eng":"NULL"},"o":{}},{"w":"র’ব","h":" ।","s":{"eng":"NULL"},"o":{}}],
      [{"w":"মনের","h":" ","s":{"eng":"NULL"},"o":{}},{"w":"সাধেতে","h":",    ","s":{"eng":"NULL"},"o":{}},{"w":"সে","h":" ","s":{"eng":"NULL"},"o":{}},{"w":"রূপচাঁদেরে","h":", ","s":{"eng":"NULL"},"o":{}}],
      [{"w":"নয়নে","h":" ","s":{"eng":"NULL"},"o":{}},{"w":"নয়নে","h":" ","s":{"eng":"NULL"},"o":{}},{"w":"থোব","h":" ॥৩॥","s":{"eng":"NULL"},"o":{}}]],
    "translation":{"eng":"UNDEFINED"}},{
    "lines":[
      [{"w":"গৌর","h":" ","s":{"eng":"NULL"},"o":{}},{"w":"বিহনে","h":",    ","s":{"eng":"NULL"},"o":{}},{"w":"ন","h":" ","s":{"eng":"NULL"},"o":{}},{"w":"বাঁচি","h":" ","s":{"eng":"NULL"},"o":{}},{"w":"পরাণে","h":", ","s":{"eng":"NULL"},"o":{}}],
      [{"w":"গৌর","h":" ","s":{"eng":"NULL"},"o":{}},{"w":"ক’রেছি","h":" ","s":{"eng":"NULL"},"o":{}},{"w":"সার","h":" ।","s":{"eng":"NULL"},"o":{}}],
      [{"w":"গৌর","h":" ","s":{"eng":"NULL"},"o":{}},{"w":"বলিয়া","h":",    ","s":{"eng":"NULL"},"o":{}},{"w":"যাউক","h":" ","s":{"eng":"NULL"},"o":{}},{"w":"জীবন","h":", ","s":{"eng":"NULL"},"o":{}}],
      [{"w":"কিছু","h":" ","s":{"eng":"NULL"},"o":{}},{"w":"না","h":" ","s":{"eng":"NULL"},"o":{}},{"w":"চাহিব","h":" ","s":{"eng":"NULL"},"o":{}},{"w":"আর","h":" ॥৪॥","s":{"eng":"NULL"},"o":{}}]],
    "translation":{"eng":"UNDEFINED"}},{
    "lines":[
      [{"w":"গৌর","h":" ","s":{"eng":"NULL"},"o":{}},{"w":"গমন","h":",    ","s":{"eng":"NULL"},"o":{}},{"w":"গৌর","h":" ","s":{"eng":"NULL"},"o":{}},{"w":"গঠন","h":", ","s":{"eng":"NULL"},"o":{}}],
      [{"w":"গৌর","h":" ","s":{"eng":"NULL"},"o":{}},{"w":"মুখের","h":" ","s":{"eng":"NULL"},"o":{}},{"w":"হাঁসি","h":" ।","s":{"eng":"NULL"},"o":{}}],
      [{"w":"গৌর","h":"-","s":{"eng":"NULL"},"o":{}},{"w":"পিরীতি","h":",    ","s":{"eng":"NULL"},"o":{}},{"w":"গৌর","h":" ","s":{"eng":"NULL"},"o":{}},{"w":"মূরতি","h":", ","s":{"eng":"NULL"},"o":{}}],
      [{"w":"হীয়ায়","h":" ","s":{"eng":"NULL"},"o":{}},{"w":"রহল","h":" ","s":{"eng":"NULL"},"o":{}},{"w":"পশি","h":" ॥৫॥","s":{"eng":"NULL"},"o":{}}]],
    "translation":{"eng":"UNDEFINED"}},{
    "lines":[
      [{"w":"গৌর","h":" ","s":{"eng":"NULL"},"o":{}},{"w":"ধরম","h":",    ","s":{"eng":"NULL"},"o":{}},{"w":"গৌর","h":" ","s":{"eng":"NULL"},"o":{}},{"w":"করম","h":", ","s":{"eng":"NULL"},"o":{}}],
      [{"w":"গৌর","h":" ","s":{"eng":"NULL"},"o":{}},{"w":"বেদের","h":" ","s":{"eng":"NULL"},"o":{}},{"w":"সার","h":" ।","s":{"eng":"NULL"},"o":{}}],
      [{"w":"গৌর","h":" ","s":{"eng":"NULL"},"o":{}},{"w":"চরণে","h":",    ","s":{"eng":"NULL"},"o":{}},{"w":"পরাণ","h":" ","s":{"eng":"NULL"},"o":{}},{"w":"সাঁপিনু","h":", ","s":{"eng":"NULL"},"o":{}}],
      [{"w":"গৌর","h":" ","s":{"eng":"NULL"},"o":{}},{"w":"করিবেন","h":" ","s":{"eng":"NULL"},"o":{}},{"w":"পার","h":" ॥৬॥","s":{"eng":"NULL"},"o":{}}]],
    "translation":{"eng":"UNDEFINED"}},{
    "lines":[
      [{"w":"গৌর","h":" ","s":{"eng":"NULL"},"o":{}},{"w":"শবদ","h":",    ","s":{"eng":"NULL"},"o":{}},{"w":"গৌর","h":" ","s":{"eng":"NULL"},"o":{}},{"w":"সম্পদ","h":", ","s":{"eng":"NULL"},"o":{}}],
      [{"w":"যাঁহার","h":" ","s":{"eng":"NULL"},"o":{}},{"w":"হিয়ায়","h":" ","s":{"eng":"NULL"},"o":{}},{"w":"জাগে","h":" ।","s":{"eng":"NULL"},"o":{}}],
      [{"w":"নরহরিদাস","h":",    ","s":{"eng":"NULL"},"o":{}},{"w":"তাঁর","h":" ","s":{"eng":"NULL"},"o":{}},{"w":"দাসের","h":" ","s":{"eng":"NULL"},"o":{}},{"w":"দাস","h":", ","s":{"eng":"NULL"},"o":{}}],
      [{"w":"চরণে","h":" ","s":{"eng":"NULL"},"o":{}},{"w":"শরণ","h":" ","s":{"eng":"NULL"},"o":{}},{"w":"মাগে","h":" ॥৭॥","s":{"eng":"NULL"},"o":{}}]],
    "translation":{"eng":"UNDEFINED"}}
  ]
}