{
  "uid":"GH78",
  "title":"সুন্দর সুন্দর গৌরাঙ্গ সুন্দর সুন্দর সুন্দর রূপ",
  "author":"?",
  "language":"ben",
  "notes":[],
  "audio":[],
  "has_synonyms":false,
  "has_translations":false,
  "legend":{"w":"word","h":"hint","s":"synonym","o":"override"},
  "verses":[{
    "lines":[
      [{"w":"সুন্দর","h":" ","s":{"eng":"NULL"},"o":{}},{"w":"সুন্দর","h":" ","s":{"eng":"NULL"},"o":{}},{"w":"গৌরাঙ্গ","h":" ","s":{"eng":"NULL"},"o":{}},{"w":"সুন্দর","h":" ","s":{"eng":"NULL"},"o":{}},{"w":"সুন্দর","h":" ","s":{"eng":"NULL"},"o":{}},{"w":"সুন্দর","h":" ","s":{"eng":"NULL"},"o":{}},{"w":"রূপ","h":" ।","s":{"eng":"NULL"},"o":{}}],
      [{"w":"সুন্দর","h":" ","s":{"eng":"NULL"},"o":{}},{"w":"পীরিতি","h":" ","s":{"eng":"NULL"},"o":{}},{"w":"রাজ্যের","h":" ","s":{"eng":"NULL"},"o":{}},{"w":"যেমতি","h":",","s":{"eng":"NULL"},"o":{}}],
      [{"w":"সুঘড়","h":" ","s":{"eng":"NULL"},"o":{}},{"w":"সুন্দর","h":" ","s":{"eng":"NULL"},"o":{}},{"w":"ভূপ","h":" ॥১॥","s":{"eng":"NULL"},"o":{}}]],
    "translation":{"eng":"UNDEFINED"}},{
    "lines":[
      [{"w":"সুন্দর","h":" ","s":{"eng":"NULL"},"o":{}},{"w":"বদনে","h":" ","s":{"eng":"NULL"},"o":{}},{"w":"সুন্দর","h":" ","s":{"eng":"NULL"},"o":{}},{"w":"হাসনি","h":",","s":{"eng":"NULL"},"o":{}}],
      [{"w":"সুন্দর","h":" ","s":{"eng":"NULL"},"o":{}},{"w":"সুন্দর","h":" ","s":{"eng":"NULL"},"o":{}},{"w":"শোভা","h":" ।","s":{"eng":"NULL"},"o":{}}],
      [{"w":"সুন্দর","h":" ","s":{"eng":"NULL"},"o":{}},{"w":"নয়নে","h":" ","s":{"eng":"NULL"},"o":{}},{"w":"সুন্দর","h":" ","s":{"eng":"NULL"},"o":{}},{"w":"চাহনি","h":",","s":{"eng":"NULL"},"o":{}}],
      [{"w":"সুন্দর","h":" ","s":{"eng":"NULL"},"o":{}},{"w":"মানস","h":" ","s":{"eng":"NULL"},"o":{}},{"w":"লোভা","h":" ॥২॥","s":{"eng":"NULL"},"o":{}}]],
    "translation":{"eng":"UNDEFINED"}},{
    "lines":[
      [{"w":"সুন্দর","h":" ","s":{"eng":"NULL"},"o":{}},{"w":"নাসাতে","h":" ","s":{"eng":"NULL"},"o":{}},{"w":"সুন্দর","h":" ","s":{"eng":"NULL"},"o":{}},{"w":"তিলক","h":",","s":{"eng":"NULL"},"o":{}}],
      [{"w":"সুন্দর","h":" ","s":{"eng":"NULL"},"o":{}},{"w":"দেখিতে","h":" ","s":{"eng":"NULL"},"o":{}},{"w":"অতি","h":" ।","s":{"eng":"NULL"},"o":{}}],
      [{"w":"সুন্দর","h":" ","s":{"eng":"NULL"},"o":{}},{"w":"শ্রবণে","h":" ","s":{"eng":"NULL"},"o":{}},{"w":"সুন্দর","h":" ","s":{"eng":"NULL"},"o":{}},{"w":"কুণ্ডল","h":",","s":{"eng":"NULL"},"o":{}}],
      [{"w":"সুন্দর","h":" ","s":{"eng":"NULL"},"o":{}},{"w":"তাহার","h":" ","s":{"eng":"NULL"},"o":{}},{"w":"জ্যোতিঃ","h":" ॥৩॥","s":{"eng":"NULL"},"o":{}}]],
    "translation":{"eng":"UNDEFINED"}},{
    "lines":[
      [{"w":"সুন্দর","h":" ","s":{"eng":"NULL"},"o":{}},{"w":"মস্তকে","h":" ","s":{"eng":"NULL"},"o":{}},{"w":"সুন্দর","h":" ","s":{"eng":"NULL"},"o":{}},{"w":"কুন্তল","h":",","s":{"eng":"NULL"},"o":{}}],
      [{"w":"সুন্দর","h":" ","s":{"eng":"NULL"},"o":{}},{"w":"মেঘের","h":" ","s":{"eng":"NULL"},"o":{}},{"w":"পারা","h":" ।","s":{"eng":"NULL"},"o":{}}],
      [{"w":"সুন্দর","h":" ","s":{"eng":"NULL"},"o":{}},{"w":"গীমেতে","h":" ","s":{"eng":"NULL"},"o":{}},{"w":"সুন্দর","h":" ","s":{"eng":"NULL"},"o":{}},{"w":"দোলনী","h":",","s":{"eng":"NULL"},"o":{}}],
      [{"w":"সুন্দর","h":" ","s":{"eng":"NULL"},"o":{}},{"w":"কুসুম","h":" ","s":{"eng":"NULL"},"o":{}},{"w":"হারা","h":" ॥৪॥","s":{"eng":"NULL"},"o":{}}]],
    "translation":{"eng":"UNDEFINED"}},{
    "lines":[
      [{"w":"সুন্দর","h":" ","s":{"eng":"NULL"},"o":{}},{"w":"নদীয়া","h":" ","s":{"eng":"NULL"},"o":{}},{"w":"নগরে","h":" ","s":{"eng":"NULL"},"o":{}},{"w":"বিহরে","h":",","s":{"eng":"NULL"},"o":{}}],
      [{"w":"সুন্দর","h":" ","s":{"eng":"NULL"},"o":{}},{"w":"গৌরাঙ্গ","h":" ","s":{"eng":"NULL"},"o":{}},{"w":"চাঁদ","h":" ।","s":{"eng":"NULL"},"o":{}}],
      [{"w":"সুন্দর","h":" ","s":{"eng":"NULL"},"o":{}},{"w":"লীলার","h":" ","s":{"eng":"NULL"},"o":{}},{"w":"সৌন্দর্য্য","h":", ","s":{"eng":"NULL"},"o":{}},{"w":"না","h":" ","s":{"eng":"NULL"},"o":{}},{"w":"বুঝে","h":" ","s":{"eng":"NULL"},"o":{}}],
      [{"w":"শেখর","h":" ","s":{"eng":"NULL"},"o":{}},{"w":"জনম","h":" ","s":{"eng":"NULL"},"o":{}},{"w":"আঁধ","h":" ॥৫॥","s":{"eng":"NULL"},"o":{}}]],
    "translation":{"eng":"UNDEFINED"}},{
    "lines":[
      []]}
  ]
}