{
  "uid":"GH80",
  "title":"কি ভাব উঠিল মনে",
  "author":"ldt",
  "language":"ben",
  "notes":[],
  "audio":[],
  "has_synonyms":false,
  "has_translations":false,
  "legend":{"w":"word","h":"hint","s":"synonym","o":"override"},
  "verses":[{
    "lines":[
      [{"w":"কি","h":" ","s":{"eng":"NULL"},"o":{}},{"w":"ভাব","h":" ","s":{"eng":"NULL"},"o":{}},{"w":"উঠিল","h":" ","s":{"eng":"NULL"},"o":{}},{"w":"মনে","h":",    ","s":{"eng":"NULL"},"o":{}},{"w":"কান্দিয়া","h":" ","s":{"eng":"NULL"},"o":{}},{"w":"আকুল","h":" ","s":{"eng":"NULL"},"o":{}},{"w":"কেনে","h":",","s":{"eng":"NULL"},"o":{}}],
      [{"w":"সোনার","h":" ","s":{"eng":"NULL"},"o":{}},{"w":"অঙ্গ","h":" ","s":{"eng":"NULL"},"o":{}},{"w":"ধূলায়","h":" ","s":{"eng":"NULL"},"o":{}},{"w":"লোটায়","h":" ।","s":{"eng":"NULL"},"o":{}}],
      [{"w":"ক্ষণে","h":" ","s":{"eng":"NULL"},"o":{}},{"w":"ক্ষণে","h":" ","s":{"eng":"NULL"},"o":{}},{"w":"বৃন্দাবন","h":",    ","s":{"eng":"NULL"},"o":{}},{"w":"করে","h":" ","s":{"eng":"NULL"},"o":{}},{"w":"গোরা","h":" ","s":{"eng":"NULL"},"o":{}},{"w":"সোঙরণ","h":",","s":{"eng":"NULL"},"o":{}}],
      [{"w":"ললিতা","h":" ","s":{"eng":"NULL"},"o":{}},{"w":"বিশাখা","h":" ","s":{"eng":"NULL"},"o":{}},{"w":"বলি","h":" ","s":{"eng":"NULL"},"o":{}},{"w":"ধায়","h":" ॥১॥","s":{"eng":"NULL"},"o":{}}]],
    "translation":{"eng":"UNDEFINED"}},{
    "lines":[
      [{"w":"রাধা","h":"-","s":{"eng":"NULL"},"o":{}},{"w":"ভাব","h":" ","s":{"eng":"NULL"},"o":{}},{"w":"অঙ্গীকরি","h":",    ","s":{"eng":"NULL"},"o":{}},{"w":"রাধার","h":" ","s":{"eng":"NULL"},"o":{}},{"w":"বরণ","h":" ","s":{"eng":"NULL"},"o":{}},{"w":"ধরি","h":",","s":{"eng":"NULL"},"o":{}}],
      [{"w":"রাধা","h":" ","s":{"eng":"NULL"},"o":{}},{"w":"বিনে","h":" ","s":{"eng":"NULL"},"o":{}},{"w":"আন","h":" ","s":{"eng":"NULL"},"o":{}},{"w":"নাহি","h":" ","s":{"eng":"NULL"},"o":{}},{"w":"ভায়","h":" ।","s":{"eng":"NULL"},"o":{}}],
      [{"w":"সুরধুনীতীর","h":" ","s":{"eng":"NULL"},"o":{}},{"w":"বন","h":",    ","s":{"eng":"NULL"},"o":{}},{"w":"দেখি","h":" ","s":{"eng":"NULL"},"o":{}},{"w":"মনে","h":" ","s":{"eng":"NULL"},"o":{}},{"w":"বৃন্দাবন","h":",","s":{"eng":"NULL"},"o":{}}],
      [{"w":"যমুনাপুলিন","h":" ","s":{"eng":"NULL"},"o":{}},{"w":"বলি","h":" ","s":{"eng":"NULL"},"o":{}},{"w":"ধায়","h":" ॥২॥","s":{"eng":"NULL"},"o":{}}]],
    "translation":{"eng":"UNDEFINED"}},{
    "lines":[
      [{"w":"রাধিকা","h":" ","s":{"eng":"NULL"},"o":{}},{"w":"রাধিকা","h":" ","s":{"eng":"NULL"},"o":{}},{"w":"বলি","h":",    ","s":{"eng":"NULL"},"o":{}},{"w":"ভূমে","h":" ","s":{"eng":"NULL"},"o":{}},{"w":"যায়","h":" ","s":{"eng":"NULL"},"o":{}},{"w":"গড়াগড়ি","h":",","s":{"eng":"NULL"},"o":{}}],
      [{"w":"রাধা","h":" ","s":{"eng":"NULL"},"o":{}},{"w":"নাম","h":" ","s":{"eng":"NULL"},"o":{}},{"w":"জপয়ে","h":" ","s":{"eng":"NULL"},"o":{}},{"w":"সদায়","h":" ।","s":{"eng":"NULL"},"o":{}}],
      [{"w":"প্রেমরসে","h":" ","s":{"eng":"NULL"},"o":{}},{"w":"হইয়া","h":" ","s":{"eng":"NULL"},"o":{}},{"w":"ভোরা","h":",    ","s":{"eng":"NULL"},"o":{}},{"w":"সংকীর্ত্তন","h":" ","s":{"eng":"NULL"},"o":{}},{"w":"মাঝে","h":" ","s":{"eng":"NULL"},"o":{}},{"w":"গোরা","h":",","s":{"eng":"NULL"},"o":{}}],
      [{"w":"রাধা","h":" ","s":{"eng":"NULL"},"o":{}},{"w":"নাম","h":" ","s":{"eng":"NULL"},"o":{}},{"w":"জীবেরে","h":" ","s":{"eng":"NULL"},"o":{}},{"w":"বুঝায়","h":" ॥৩॥","s":{"eng":"NULL"},"o":{}}]],
    "translation":{"eng":"UNDEFINED"}},{
    "lines":[
      [{"w":"ত্রিভঙ্গ","h":" ","s":{"eng":"NULL"},"o":{}},{"w":"হইয়া","h":" ","s":{"eng":"NULL"},"o":{}},{"w":"গোরা","h":",    ","s":{"eng":"NULL"},"o":{}},{"w":"দু’","h":" ","s":{"eng":"NULL"},"o":{}},{"w":"নয়নে","h":" ","s":{"eng":"NULL"},"o":{}},{"w":"প্রেমধারা","h":",","s":{"eng":"NULL"},"o":{}}],
      [{"w":"পীত","h":" ","s":{"eng":"NULL"},"o":{}},{"w":"বসন","h":" ","s":{"eng":"NULL"},"o":{}},{"w":"বংশী","h":" ","s":{"eng":"NULL"},"o":{}},{"w":"চায়","h":" ।","s":{"eng":"NULL"},"o":{}}],
      [{"w":"প্রেমধন","h":" ","s":{"eng":"NULL"},"o":{}},{"w":"অনুক্ষণ","h":",    ","s":{"eng":"NULL"},"o":{}},{"w":"দান","h":" ","s":{"eng":"NULL"},"o":{}},{"w":"করে","h":" ","s":{"eng":"NULL"},"o":{}},{"w":"জনে","h":" ","s":{"eng":"NULL"},"o":{}},{"w":"জন","h":",","s":{"eng":"NULL"},"o":{}}],
      [{"w":"এ","h":" ","s":{"eng":"NULL"},"o":{}},{"w":"লোচন","h":" ","s":{"eng":"NULL"},"o":{}},{"w":"দাস","h":" ","s":{"eng":"NULL"},"o":{}},{"w":"গুণ","h":" ","s":{"eng":"NULL"},"o":{}},{"w":"গায়","h":" ॥৪॥","s":{"eng":"NULL"},"o":{}}]],
    "translation":{"eng":"UNDEFINED"}},{
    "lines":[
      []]}
  ]
}