{
  "uid":"GH88",
  "title":"যাঁর নাম শ্রবণে সংসার-বন্ধ ঘুচে",
  "author":"vdt",
  "language":"ben",
  "notes":[],
  "audio":[],
  "has_synonyms":false,
  "has_translations":false,
  "legend":{"w":"word","h":"hint","s":"synonym","o":"override"},
  "verses":[{
    "lines":[
      [{"w":"যাঁর","h":" ","s":{"eng":"NULL"},"o":{}},{"w":"নাম","h":" ","s":{"eng":"NULL"},"o":{}},{"w":"শ্রবণে","h":" ","s":{"eng":"NULL"},"o":{}},{"w":"সংসার","h":"-","s":{"eng":"NULL"},"o":{}},{"w":"বন্ধ","h":" ","s":{"eng":"NULL"},"o":{}},{"w":"ঘুচে","h":" ।","s":{"eng":"NULL"},"o":{}}],
      [{"w":"হেন","h":" ","s":{"eng":"NULL"},"o":{}},{"w":"প্রভু","h":" ","s":{"eng":"NULL"},"o":{}},{"w":"অবতরি","h":" ","s":{"eng":"NULL"},"o":{}},{"w":"কলিযুগে","h":" ","s":{"eng":"NULL"},"o":{}},{"w":"নাচে","h":" ॥১॥","s":{"eng":"NULL"},"o":{}}]],
    "translation":{"eng":"UNDEFINED"}},{
    "lines":[
      [{"w":"যাঁর","h":" ","s":{"eng":"NULL"},"o":{}},{"w":"নাম","h":" ","s":{"eng":"NULL"},"o":{}},{"w":"লই","h":" ","s":{"eng":"NULL"},"o":{}},{"w":"শুক","h":"-","s":{"eng":"NULL"},"o":{}},{"w":"নারদ","h":" ","s":{"eng":"NULL"},"o":{}},{"w":"বেড়ায়","h":" ।","s":{"eng":"NULL"},"o":{}}],
      [{"w":"সহস্র","h":" ","s":{"eng":"NULL"},"o":{}},{"w":"বদন","h":" ","s":{"eng":"NULL"},"o":{}},{"w":"প্রভু","h":" ","s":{"eng":"NULL"},"o":{}},{"w":"যার","h":" ","s":{"eng":"NULL"},"o":{}},{"w":"গুণ","h":" ","s":{"eng":"NULL"},"o":{}},{"w":"গায়","h":" ॥২॥","s":{"eng":"NULL"},"o":{}}]],
    "translation":{"eng":"UNDEFINED"}},{
    "lines":[
      [{"w":"সর্ব","h":"-","s":{"eng":"NULL"},"o":{}},{"w":"মহা","h":"-","s":{"eng":"NULL"},"o":{}},{"w":"প্রায়শ্চিত্ত","h":" ","s":{"eng":"NULL"},"o":{}},{"w":"যে","h":" ","s":{"eng":"NULL"},"o":{}},{"w":"প্রভুর","h":" ","s":{"eng":"NULL"},"o":{}},{"w":"নাম","h":" ।","s":{"eng":"NULL"},"o":{}}],
      [{"w":"সে","h":" ","s":{"eng":"NULL"},"o":{}},{"w":"প্রভু","h":" ","s":{"eng":"NULL"},"o":{}},{"w":"নাচয়ে","h":" ","s":{"eng":"NULL"},"o":{}},{"w":"দেখে","h":" ","s":{"eng":"NULL"},"o":{}},{"w":"যত","h":" ","s":{"eng":"NULL"},"o":{}},{"w":"ভাগ্যবান","h":" ॥৩॥","s":{"eng":"NULL"},"o":{}}]],
    "translation":{"eng":"UNDEFINED"}},{
    "lines":[
      [{"w":"খ্রীকৃষ্ণচৈতন্য","h":" ","s":{"eng":"NULL"},"o":{}},{"w":"নিত্যানন্দটাদ","h":" ","s":{"eng":"NULL"},"o":{}},{"w":"জান","h":" ।","s":{"eng":"NULL"},"o":{}}],
      [{"w":"বৃন্দাবন","h":" ","s":{"eng":"NULL"},"o":{}},{"w":"দাস","h":" ","s":{"eng":"NULL"},"o":{}},{"w":"তছু","h":" ","s":{"eng":"NULL"},"o":{}},{"w":"পদযুগে","h":" ","s":{"eng":"NULL"},"o":{}},{"w":"গান","h":" ॥৪॥","s":{"eng":"NULL"},"o":{}}]],
    "translation":{"eng":"UNDEFINED"}},{
    "lines":[
      []]}
  ]
}