{
  "uid":"GH92",
  "title":"ভজ রাধা কৃষ্ণ, গোপাল কৃষ্ণ",
  "author":"?",
  "language":"ben",
  "notes":[],
  "audio":[],
  "has_synonyms":false,
  "has_translations":false,
  "legend":{"w":"word","h":"hint","s":"synonym","o":"override"},
  "verses":[{
    "lines":[
      [{"w":"ভজ","h":" ","s":{"eng":"NULL"},"o":{}},{"w":"রাধা","h":" ","s":{"eng":"NULL"},"o":{}},{"w":"কৃষ্ণ","h":",    ","s":{"eng":"NULL"},"o":{}},{"w":"গোপাল","h":" ","s":{"eng":"NULL"},"o":{}},{"w":"কৃষ্ণ","h":"","s":{"eng":"NULL"},"o":{}}],
      [{"w":"কৃষ্ণ","h":" ","s":{"eng":"NULL"},"o":{}},{"w":"কৃষ্ণ","h":" ","s":{"eng":"NULL"},"o":{}},{"w":"বল","h":" ","s":{"eng":"NULL"},"o":{}},{"w":"মুখে","h":" ।","s":{"eng":"NULL"},"o":{}}],
      [{"w":"নামে","h":" ","s":{"eng":"NULL"},"o":{}},{"w":"বুক","h":" ","s":{"eng":"NULL"},"o":{}},{"w":"ভরে","h":" ","s":{"eng":"NULL"},"o":{}},{"w":"যায়","h":",    ","s":{"eng":"NULL"},"o":{}},{"w":"অভাব","h":" ","s":{"eng":"NULL"},"o":{}},{"w":"মিটায়","h":",","s":{"eng":"NULL"},"o":{}}],
      [{"w":"স্বভাব","h":" ","s":{"eng":"NULL"},"o":{}},{"w":"জাগায়","h":" ","s":{"eng":"NULL"},"o":{}},{"w":"মহাসুখে","h":" ॥১॥","s":{"eng":"NULL"},"o":{}}]],
    "translation":{"eng":"UNDEFINED"}},{
    "lines":[
      [{"w":"হরি","h":" ","s":{"eng":"NULL"},"o":{}},{"w":"দীনবন্ধু","h":",    ","s":{"eng":"NULL"},"o":{}},{"w":"চিরদিন","h":" ","s":{"eng":"NULL"},"o":{}},{"w":"বন্ধু","h":",","s":{"eng":"NULL"},"o":{}}],
      [{"w":"জীবের","h":" ","s":{"eng":"NULL"},"o":{}},{"w":"চির","h":" ","s":{"eng":"NULL"},"o":{}},{"w":"সুখে","h":" ","s":{"eng":"NULL"},"o":{}},{"w":"দুঃখে","h":" ।","s":{"eng":"NULL"},"o":{}}],
      [{"w":"(তাই)","h":" ","s":{"eng":"NULL"},"o":{}},{"w":"ভজরে","h":" ","s":{"eng":"NULL"},"o":{}},{"w":"অন্ধ","h":",    ","s":{"eng":"NULL"},"o":{}},{"w":"চরণারবিন্দ","h":",","s":{"eng":"NULL"},"o":{}}],
      [{"w":"দুস্তর","h":" ","s":{"eng":"NULL"},"o":{}},{"w":"মায়া","h":"-","s":{"eng":"NULL"},"o":{}},{"w":"বিপাকে","h":" ॥২॥","s":{"eng":"NULL"},"o":{}}]],
    "translation":{"eng":"UNDEFINED"}},{
    "lines":[
      [{"w":"ভজ","h":" ","s":{"eng":"NULL"},"o":{}},{"w":"মূঢ়মতি","h":",    ","s":{"eng":"NULL"},"o":{}},{"w":"তব","h":" ","s":{"eng":"NULL"},"o":{}},{"w":"চিরসাথী","h":",","s":{"eng":"NULL"},"o":{}}],
      [{"w":"যাঁহার","h":" ","s":{"eng":"NULL"},"o":{}},{"w":"করুণা","h":" ","s":{"eng":"NULL"},"o":{}},{"w":"লোকে","h":" ","s":{"eng":"NULL"},"o":{}},{"w":"লোকে","h":" ।","s":{"eng":"NULL"},"o":{}}],
      [{"w":"তবে","h":" ","s":{"eng":"NULL"},"o":{}},{"w":"কেন","h":" ","s":{"eng":"NULL"},"o":{}},{"w":"পান্থ","h":",    ","s":{"eng":"NULL"},"o":{}},{"w":"এত","h":" ","s":{"eng":"NULL"},"o":{}},{"w":"তুমি","h":" ","s":{"eng":"NULL"},"o":{}},{"w":"ভ্রান্ত","h":",","s":{"eng":"NULL"},"o":{}}],
      [{"w":"কোথায়","h":" ","s":{"eng":"NULL"},"o":{}},{"w":"ছুটিছ","h":" ","s":{"eng":"NULL"},"o":{}},{"w":"দিকে","h":" ","s":{"eng":"NULL"},"o":{}},{"w":"দিকে?","h":" ॥৩॥","s":{"eng":"NULL"},"o":{}}]],
    "translation":{"eng":"UNDEFINED"}},{
    "lines":[
      [{"w":"(সেই)","h":" ","s":{"eng":"NULL"},"o":{}},{"w":"লীলাময়","h":" ","s":{"eng":"NULL"},"o":{}},{"w":"হরি","h":",    ","s":{"eng":"NULL"},"o":{}},{"w":"এসেছে","h":" ","s":{"eng":"NULL"},"o":{}},{"w":"নদীয়াপুরী","h":"","s":{"eng":"NULL"},"o":{}}],
      [{"w":"রাধার","h":" ","s":{"eng":"NULL"},"o":{}},{"w":"পিরীতি","h":" ","s":{"eng":"NULL"},"o":{}},{"w":"ল’য়ে","h":" ","s":{"eng":"NULL"},"o":{}},{"w":"বুকে","h":" ।","s":{"eng":"NULL"},"o":{}}],
      [{"w":"ভজ","h":" ","s":{"eng":"NULL"},"o":{}},{"w":"ভগবানে","h":",    ","s":{"eng":"NULL"},"o":{}},{"w":"সদা","h":" ","s":{"eng":"NULL"},"o":{}},{"w":"মনেপ্রাণে","h":",","s":{"eng":"NULL"},"o":{}}],
      [{"w":"এসেছেন","h":" ","s":{"eng":"NULL"},"o":{}},{"w":"নিতে","h":" ","s":{"eng":"NULL"},"o":{}},{"w":"তোরে","h":" ","s":{"eng":"NULL"},"o":{}},{"w":"বুকে","h":" ॥৪॥","s":{"eng":"NULL"},"o":{}}]],
    "translation":{"eng":"UNDEFINED"}},{
    "lines":[
      []]}
  ]
}