{
  "uid":"GN10",
  "title":"কবে হ’বে হেন দশা মোর",
  "author":"bt",
  "language":"ben",
  "notes":[],
  "audio":[
    {"uid":"srrb-1","fn":"GN10-srrb-1.mp3","meta":{"artist":"Sudarsan das (Radha-ramana Babaji Maharaja)","src":"06 Gaura-Nityānanda/[06] Kabe Ha’be Henô Daśā Mora/srrb-kabe_habe_heno_dasa_mora-3.mp3"}},
    {"uid":"hakr-1","fn":"GN10-hakr-1.mp3","meta":{"artist":"Hare Krsna das","src":"06 Gaura-Nityānanda/[06] Kabe Ha’be Henô Daśā Mora/hakr-kabe_habe_heno_dasa_mora.mp3"}},
    {"uid":"srrb-2","fn":"GN10-srrb-2.mp3","meta":{"artist":"Sudarsan das (Radha-ramana Babaji Maharaja)","src":"06 Gaura-Nityānanda/[06] Kabe Ha’be Henô Daśā Mora/srrb-kabe_habe_heno_dasa_mora-1.mp3"}},
    {"uid":"krsn-1","fn":"GN10-krsn-1.mp3","meta":{"artist":"Krsnadas das","src":"06 Gaura-Nityānanda/[06] Kabe Ha’be Henô Daśā Mora/krsn-kabe_habe_heno_dasa_mora.mp3"}},
    {"uid":"srrb-3","fn":"GN10-srrb-3.mp3","meta":{"artist":"Sudarsan das (Radha-ramana Babaji Maharaja)","src":"06 Gaura-Nityānanda/[06] Kabe Ha’be Henô Daśā Mora/srrb-kabe_habe_heno_dasa_mora.mp3"}}],
  "has_synonyms":true,
  "has_translations":true,
  "legend":{"w":"word","h":"hint","s":"synonym","o":"override"},
  "verses":[{
    "lines":[
      [{"w":"কবে","h":" ","s":{"eng":"when"},"o":{}},{"w":"হ’বে","h":" ","s":{"eng":"will be"},"o":{}},{"w":"হেন","h":" ","s":{"eng":"such"},"o":{}},{"w":"দশা","h":" ","s":{"eng":"condition"},"o":{}},{"w":"মোর","h":" ।","s":{"eng":"mine"},"o":{}}],
      [{"w":"ত্যজি’","h":" ","s":{"eng":"having renounced"},"o":{}},{"w":"জড়","h":"-","s":{"eng":"mundane"},"o":{}},{"w":"আশা","h":",    ","s":{"eng":"desires"},"o":{}},{"w":"বিবিধ","h":" ","s":{"eng":"varieties"},"o":{}},{"w":"বন্ধন","h":",","s":{"eng":"bondage"},"o":{}}],
      [{"w":"ছাড়িব","h":" ","s":{"eng":"I shall relinquish"},"o":{}},{"w":"সংসার","h":"-","s":{"eng":"material existence"},"o":{}},{"w":"ঘোর","h":" ॥১॥","s":{"eng":"dreadful"},"o":{}}]],
    "translation":{"eng":"When will such a condition be mine? Upon renouncing my mundane desires and all varieties of bondage, I shall relinquish this dreadful material existence."}},{
    "lines":[
      [{"w":"বৃন্দাবনাভেদে","h":",    ","s":{"eng":"Śrī Vṛndāvana + non-different from"},"o":{}},{"w":"নবদ্বীপ","h":"-","s":{"eng":"in Śrī Navadvīpa-dhāma"},"o":{}},{"w":"ধামে","h":",","s":{"eng":"⬅1"},"o":{}}],
      [{"w":"বাঁধিব","h":" ","s":{"eng":"I shall construct"},"o":{}},{"w":"কুটীরখানি","h":" ।","s":{"eng":"small hut + a"},"o":{}}],
      [{"w":"শচীর","h":" ","s":{"eng":"Mother Śacī’s"},"o":{}},{"w":"নন্দন","h":"-,    ","s":{"eng":"son"},"o":{}},{"w":"চরণ","h":" ","s":{"eng":"feet"},"o":{}},{"w":"আশ্রয়","h":",","s":{"eng":"shelter"},"o":{}}],
      [{"w":"করিব","h":" ","s":{"eng":"(goes with the following word, māni’) I shall do"},"o":{}},{"w":"সম্বন্ধ","h":" ","s":{"eng":"relationship"},"o":{}},{"w":"মানি’","h":" ॥২॥","s":{"eng":"having recognized"},"o":{}}]],
    "translation":{"eng":"I shall construct a small hut in Śrī Navadvīpa-dhāma, which is non-different from Śrī Vṛndāvana. Recognizing my relationship with Śrī Śacī-nandana, I shall take shelter of His lotus feet."}},{
    "lines":[
      [{"w":"জাহ্নবী","h":"-","s":{"eng":"Jāhnavī River"},"o":{}},{"w":"পুলিনে","h":",    ","s":{"eng":"on the bank"},"o":{}},{"w":"চিন্ময়","h":"-","s":{"eng":"transcendental"},"o":{}},{"w":"কাননে","h":",","s":{"eng":"in the forest"},"o":{}}],
      [{"w":"বসিয়া","h":" ","s":{"eng":"having sat"},"o":{}},{"w":"বিজন","h":"-","s":{"eng":"solitary"},"o":{}},{"w":"স্থলে","h":" ।","s":{"eng":"in a place"},"o":{}}],
      [{"w":"কৃষ্ণনামামৃত","h":",    ","s":{"eng":"the names of Kṛṣṇa + the nectar"},"o":{}},{"w":"নিরন্তর","h":" ","s":{"eng":"continously"},"o":{}},{"w":"পিব","h":",","s":{"eng":"I shall drink"},"o":{}}],
      [{"w":"ডাকিব","h":" ","s":{"eng":"I shall call out"},"o":{}},{"w":"","h":"‘","s":{"eng":"NULL"},"o":{}},{"w":"গৌরাঙ্গ’","h":" ","s":{"eng":"“Gaurāṅga”"},"o":{}},{"w":"ব’লে","h":" ॥৩॥","s":{"eng":"having chanted"},"o":{}}]],
    "translation":{"eng":"Sitting in a solitary place within a transcendental forest on the bank of the Jāhnavī River (Gaṅgā), I shall continuously drink the nectar of Śrī Kṛṣṇa’s name. Chanting the name of Gaurāṅga, I shall call out:"}},{
    "lines":[
      [{"w":"হা","h":"-","s":{"eng":"O Gaura-Nitāi"},"o":{}},{"w":"গৌর","h":"-","s":{"eng":"⬅1"},"o":{}},{"w":"নিতাই","h":",    ","s":{"eng":"⬅2"},"o":{}},{"w":"তোরা","h":" ","s":{"eng":"You (plural)"},"o":{}},{"w":"দু’টী","h":" ","s":{"eng":"two"},"o":{}},{"w":"ভাই","h":",","s":{"eng":"brothers"},"o":{}}],
      [{"w":"পতিতজনের","h":" ","s":{"eng":"fallen + of people"},"o":{}},{"w":"বন্ধু","h":" ।","s":{"eng":"the friends"},"o":{}}],
      [{"w":"অধম","h":" ","s":{"eng":"low"},"o":{}},{"w":"পতিত","h":",    ","s":{"eng":"fallen"},"o":{}},{"w":"আমি","h":" ","s":{"eng":"I"},"o":{}},{"w":"হে","h":" ","s":{"eng":"oh"},"o":{}},{"w":"দুর্জ্জন","h":",","s":{"eng":"wicked"},"o":{}}],
      [{"w":"হও","h":" ","s":{"eng":"be (imperative)"},"o":{}},{"w":"মোরে","h":" ","s":{"eng":"to me"},"o":{}},{"w":"কৃপাসিন্ধু","h":" ॥৪॥","s":{"eng":"an ocean of mercy"},"o":{}}]],
    "translation":{"eng":"“O Gaura-Nitāi! Both of You brothers are the friends of all fallen souls! I am the lowest of the low and very sinful, so please be an ocean of mercy to me.”"}},{
    "lines":[
      [{"w":"কাঁদিতে","h":" ","s":{"eng":"crying and crying"},"o":{}},{"w":"কাঁদিতে","h":",    ","s":{"eng":"⬅1"},"o":{}},{"w":"ষোলক্রোশ","h":"-","s":{"eng":"sixteen + krośas (1 krośa = around 2 square miles)"},"o":{}},{"w":"ধাম","h":",","s":{"eng":"the holy abode"},"o":{}}],
      [{"w":"জাহ্নবী","h":" ","s":{"eng":"the Jāhnavī River (Gaṅga)"},"o":{}},{"w":"উভয়","h":"-","s":{"eng":"both"},"o":{}},{"w":"কূলে","h":" ।","s":{"eng":"by banks"},"o":{}}],
      [{"w":"ভ্রমিতে","h":" ","s":{"eng":"wandering and wandering"},"o":{}},{"w":"ভ্রমিতে","h":",    ","s":{"eng":"⬅1"},"o":{}},{"w":"কভু","h":" ","s":{"eng":"some"},"o":{}},{"w":"ভাগ্যফলে","h":",","s":{"eng":"good fortune + by fruit"},"o":{}}],
      [{"w":"দেখি","h":" ","s":{"eng":"I see"},"o":{}},{"w":"কিছু","h":" ","s":{"eng":"some"},"o":{}},{"w":"তরুমূলে","h":" ॥৫॥","s":{"eng":"tree + by the foot"},"o":{}}]],
    "translation":{"eng":"Weeping and weeping as I wander about the sixteen krośas (thirty-two square miles) of the dhāma, by both the Jāhnavī’s (Gaṅga’s) banks, I shall by some good fortune behold a vision beneath a tree."}},{
    "lines":[
      [{"w":"হা","h":" ","s":{"eng":"O enchanter of my mind"},"o":{}},{"w":"হা","h":" ","s":{"eng":"⬅1"},"o":{}},{"w":"মনোহর","h":",    ","s":{"eng":"⬅2"},"o":{}},{"w":"কি","h":" ","s":{"eng":"what"},"o":{}},{"w":"দেখিনু","h":" ","s":{"eng":"have seen"},"o":{}},{"w":"আমি","h":",","s":{"eng":"I"},"o":{}}],
      [{"w":"বলিয়া","h":" ","s":{"eng":"having said"},"o":{}},{"w":"মূর্চ্ছিত","h":" ","s":{"eng":"I shall faint"},"o":{}},{"w":"হ’ব","h":" ।","s":{"eng":"⬅1"},"o":{}}],
      [{"w":"সম্বিৎ","h":" ","s":{"eng":"consciousness"},"o":{}},{"w":"পাইয়া","h":",    ","s":{"eng":"having regained"},"o":{}},{"w":"কাঁদিব","h":" ","s":{"eng":"I shall cry"},"o":{}},{"w":"গোপনে","h":",","s":{"eng":"in secret"},"o":{}}],
      [{"w":"স্মরি’","h":" ","s":{"eng":"having remembered"},"o":{}},{"w":"দুঁহু","h":" ","s":{"eng":"[of] the two"},"o":{}},{"w":"কৃপা","h":"-","s":{"eng":"mercy"},"o":{}},{"w":"লব","h":" ॥৬॥","s":{"eng":"speck"},"o":{}}]],
    "translation":{"eng":"“O Manohara (enchanter of my mind), what have I seen today?” Saying this, I shall faint. After regaining consciousness, I shall weep in secret, remembering that drop of Śrī Śrī Gaura-Nitāi’s mercy."}}
  ]
}