{
  "uid":"GN16",
  "title":"জীবের ভাগ্যে অবনী বিহরে দুই ভাই",
  "author":"ldt",
  "language":"ben",
  "notes":[],
  "audio":[],
  "has_synonyms":false,
  "has_translations":false,
  "legend":{"w":"word","h":"hint","s":"synonym","o":"override"},
  "verses":[{
    "lines":[
      [{"w":"জীবের","h":" ","s":{"eng":"NULL"},"o":{}},{"w":"ভাগ্যে","h":" ","s":{"eng":"NULL"},"o":{}},{"w":"অবনী","h":" ","s":{"eng":"NULL"},"o":{}},{"w":"বিহরে","h":" ","s":{"eng":"NULL"},"o":{}},{"w":"দুই","h":" ","s":{"eng":"NULL"},"o":{}},{"w":"ভাই","h":" ।","s":{"eng":"NULL"},"o":{}}],
      [{"w":"ভুবনমোহন","h":" ","s":{"eng":"NULL"},"o":{}},{"w":"গোরাচাঁদ","h":"-","s":{"eng":"NULL"},"o":{}},{"w":"নিতাই","h":" ॥১॥","s":{"eng":"NULL"},"o":{}}]],
    "translation":{"eng":"UNDEFINED"}},{
    "lines":[
      [{"w":"কলিযুগে","h":" ","s":{"eng":"NULL"},"o":{}},{"w":"জীব","h":" ","s":{"eng":"NULL"},"o":{}},{"w":"যত","h":" ","s":{"eng":"NULL"},"o":{}},{"w":"ছিল","h":" ","s":{"eng":"NULL"},"o":{}},{"w":"অচেতন","h":" ।","s":{"eng":"NULL"},"o":{}}],
      [{"w":"হরিনামামৃত","h":" ","s":{"eng":"NULL"},"o":{}},{"w":"দিয়া","h":" ","s":{"eng":"NULL"},"o":{}},{"w":"করিল","h":" ","s":{"eng":"NULL"},"o":{}},{"w":"চেতন","h":" ॥২॥","s":{"eng":"NULL"},"o":{}}]],
    "translation":{"eng":"UNDEFINED"}},{
    "lines":[
      [{"w":"হেন","h":" ","s":{"eng":"NULL"},"o":{}},{"w":"অবতার","h":" ","s":{"eng":"NULL"},"o":{}},{"w":"ভাই","h":" ","s":{"eng":"NULL"},"o":{}},{"w":"কভু","h":" ","s":{"eng":"NULL"},"o":{}},{"w":"শুনি","h":" ","s":{"eng":"NULL"},"o":{}},{"w":"নাই","h":" ।","s":{"eng":"NULL"},"o":{}}],
      [{"w":"পাতকী","h":" ","s":{"eng":"NULL"},"o":{}},{"w":"উদ্ধার","h":" ","s":{"eng":"NULL"},"o":{}},{"w":"কৈলা","h":" ","s":{"eng":"NULL"},"o":{}},{"w":"ঘরে","h":" ","s":{"eng":"NULL"},"o":{}},{"w":"ঘরে","h":" ","s":{"eng":"NULL"},"o":{}},{"w":"যাই","h":" ॥৩॥","s":{"eng":"NULL"},"o":{}}]],
    "translation":{"eng":"UNDEFINED"}},{
    "lines":[
      [{"w":"হেন","h":" ","s":{"eng":"NULL"},"o":{}},{"w":"অবতার","h":" ","s":{"eng":"NULL"},"o":{}},{"w":"ভাই","h":" ","s":{"eng":"NULL"},"o":{}},{"w":"নাহি","h":" ","s":{"eng":"NULL"},"o":{}},{"w":"কোন","h":" ","s":{"eng":"NULL"},"o":{}},{"w":"যুগে","h":" ।","s":{"eng":"NULL"},"o":{}}],
      [{"w":"কোন্‌","h":" ","s":{"eng":"NULL"},"o":{}},{"w":"অবতারে","h":" ","s":{"eng":"NULL"},"o":{}},{"w":"হেন","h":" ","s":{"eng":"NULL"},"o":{}},{"w":"পাপীর","h":" ","s":{"eng":"NULL"},"o":{}},{"w":"পাপ","h":" ","s":{"eng":"NULL"},"o":{}},{"w":"মাগে","h":" ॥৪॥","s":{"eng":"NULL"},"o":{}}]],
    "translation":{"eng":"UNDEFINED"}},{
    "lines":[
      [{"w":"রুধির","h":" ","s":{"eng":"NULL"},"o":{}},{"w":"পাড়িল","h":" ","s":{"eng":"NULL"},"o":{}},{"w":"অঙ্গে","h":" ","s":{"eng":"NULL"},"o":{}},{"w":"করিয়া","h":" ","s":{"eng":"NULL"},"o":{}},{"w":"প্রহার","h":" ।","s":{"eng":"NULL"},"o":{}}],
      [{"w":"যাচি","h":" ","s":{"eng":"NULL"},"o":{}},{"w":"প্রেম","h":" ","s":{"eng":"NULL"},"o":{}},{"w":"দিয়া","h":" ","s":{"eng":"NULL"},"o":{}},{"w":"তার","h":" ","s":{"eng":"NULL"},"o":{}},{"w":"করিলা","h":" ","s":{"eng":"NULL"},"o":{}},{"w":"উদ্ধার","h":" ॥৫॥","s":{"eng":"NULL"},"o":{}}]],
    "translation":{"eng":"UNDEFINED"}},{
    "lines":[
      [{"w":"নামপ্রেমসুধাতে","h":" ","s":{"eng":"NULL"},"o":{}},{"w":"ভরিল","h":" ","s":{"eng":"NULL"},"o":{}},{"w":"ত্রিভুবন","h":" ।","s":{"eng":"NULL"},"o":{}}],
      [{"w":"একলা","h":" ","s":{"eng":"NULL"},"o":{}},{"w":"বঞ্চিত","h":" ","s":{"eng":"NULL"},"o":{}},{"w":"ভেল","h":" ","s":{"eng":"NULL"},"o":{}},{"w":"এ","h":" ","s":{"eng":"NULL"},"o":{}},{"w":"দাস","h":" ","s":{"eng":"NULL"},"o":{}},{"w":"লোচন","h":" ॥৬॥","s":{"eng":"NULL"},"o":{}}]],
    "translation":{"eng":"UNDEFINED"}},{
    "lines":[
      []]}
  ]
}