{
  "uid":"GN17",
  "title":"নবদ্বীপে শুনি সিংহনাদ",
  "author":"কৃষ্ণদাস",
  "language":"ben",
  "notes":[],
  "audio":[],
  "has_synonyms":false,
  "has_translations":false,
  "legend":{"w":"word","h":"hint","s":"synonym","o":"override"},
  "verses":[{
    "lines":[
      [{"w":"নবদ্বীপে","h":" ","s":{"eng":"NULL"},"o":{}},{"w":"শুনি","h":" ","s":{"eng":"NULL"},"o":{}},{"w":"সিংহনাদ","h":" ।","s":{"eng":"NULL"},"o":{}}],
      [{"w":"সাজল","h":" ","s":{"eng":"NULL"},"o":{}},{"w":"বৈষ্ণবগণ","h":",    ","s":{"eng":"NULL"},"o":{}},{"w":"করি","h":" ","s":{"eng":"NULL"},"o":{}},{"w":"হরি","h":" ","s":{"eng":"NULL"},"o":{}},{"w":"সংকীর্ত্তন","h":",","s":{"eng":"NULL"},"o":{}}],
      [{"w":"মুঢ়মতি","h":" ","s":{"eng":"NULL"},"o":{}},{"w":"গণিল","h":" ","s":{"eng":"NULL"},"o":{}},{"w":"প্রমাদ","h":" ॥","s":{"eng":"NULL"},"o":{}},{"w":"ধ্রু","h":"॥","s":{"eng":"NULL"},"o":{}}]],
    "translation":{"eng":"UNDEFINED"}},{
    "lines":[
      [{"w":"গৌরচন্দ্র","h":" ","s":{"eng":"NULL"},"o":{}},{"w":"মহারথী","h":",    ","s":{"eng":"NULL"},"o":{}},{"w":"নিত্যানন্দ","h":" ","s":{"eng":"NULL"},"o":{}},{"w":"সেনাপতি","h":",","s":{"eng":"NULL"},"o":{}}],
      [{"w":"অদ্বৈত","h":" ","s":{"eng":"NULL"},"o":{}},{"w":"যুদ্ধের","h":" ","s":{"eng":"NULL"},"o":{}},{"w":"আগুয়ান","h":"।","s":{"eng":"NULL"},"o":{}}],
      [{"w":"প্রেমডোর","h":" ","s":{"eng":"NULL"},"o":{}},{"w":"ফাঁস","h":" ","s":{"eng":"NULL"},"o":{}},{"w":"করি","h":",    ","s":{"eng":"NULL"},"o":{}},{"w":"বান্ধিল","h":" ","s":{"eng":"NULL"},"o":{}},{"w":"অনেক","h":" ","s":{"eng":"NULL"},"o":{}},{"w":"ঐরি","h":",","s":{"eng":"NULL"},"o":{}}],
      [{"w":"নিরন্তর","h":" ","s":{"eng":"NULL"},"o":{}},{"w":"গর্জে","h":" ","s":{"eng":"NULL"},"o":{}},{"w":"হরিনাম","h":" ॥১॥","s":{"eng":"NULL"},"o":{}}]],
    "translation":{"eng":"UNDEFINED"}},{
    "lines":[
      [{"w":"শ্রীচৈতন্য","h":" ","s":{"eng":"NULL"},"o":{}},{"w":"করে","h":" ","s":{"eng":"NULL"},"o":{}},{"w":"রণ","h":",    ","s":{"eng":"NULL"},"o":{}},{"w":"কলিগজে","h":" ","s":{"eng":"NULL"},"o":{}},{"w":"আরোহণ","h":",","s":{"eng":"NULL"},"o":{}}],
      [{"w":"পাষণ্ডদলন","h":" ","s":{"eng":"NULL"},"o":{}},{"w":"বীরবানা","h":" ।","s":{"eng":"NULL"},"o":{}}],
      [{"w":"কলিজীব","h":" ","s":{"eng":"NULL"},"o":{}},{"w":"তরাইতে","h":",    ","s":{"eng":"NULL"},"o":{}},{"w":"আইল","h":" ","s":{"eng":"NULL"},"o":{}},{"w":"প্রভু","h":" ","s":{"eng":"NULL"},"o":{}},{"w":"অবনীতে","h":",","s":{"eng":"NULL"},"o":{}}],
      [{"w":"চৌদিগে","h":" ","s":{"eng":"NULL"},"o":{}},{"w":"চাপিয়া","h":" ","s":{"eng":"NULL"},"o":{}},{"w":"দিল","h":" ","s":{"eng":"NULL"},"o":{}},{"w":"থানা","h":" ॥২॥","s":{"eng":"NULL"},"o":{}}]],
    "translation":{"eng":"UNDEFINED"}},{
    "lines":[
      [{"w":"উত্তম","h":" ","s":{"eng":"NULL"},"o":{}},{"w":"অধম","h":" ","s":{"eng":"NULL"},"o":{}},{"w":"জন","h":",    ","s":{"eng":"NULL"},"o":{}},{"w":"সবে","h":" ","s":{"eng":"NULL"},"o":{}},{"w":"পাইল","h":" ","s":{"eng":"NULL"},"o":{}},{"w":"প্রেম","h":"-","s":{"eng":"NULL"},"o":{}},{"w":"ধন","h":",","s":{"eng":"NULL"},"o":{}}],
      [{"w":"নিতাই","h":"-","s":{"eng":"NULL"},"o":{}},{"w":"চৈতন্য","h":" ","s":{"eng":"NULL"},"o":{}},{"w":"কৃপালেশে","h":" ।","s":{"eng":"NULL"},"o":{}}],
      [{"w":"সমুখে","h":" ","s":{"eng":"NULL"},"o":{}},{"w":"শমন","h":" ","s":{"eng":"NULL"},"o":{}},{"w":"দেখি","h":",    ","s":{"eng":"NULL"},"o":{}},{"w":"কৃষ্ণদাস","h":" ","s":{"eng":"NULL"},"o":{}},{"w":"বড়","h":" ","s":{"eng":"NULL"},"o":{}},{"w":"দুখী","h":",","s":{"eng":"NULL"},"o":{}}],
      [{"w":"না","h":" ","s":{"eng":"NULL"},"o":{}},{"w":"পাইয়া","h":" ","s":{"eng":"NULL"},"o":{}},{"w":"প্রেমের","h":" ","s":{"eng":"NULL"},"o":{}},{"w":"উদ্দেশে","h":" ॥৩॥","s":{"eng":"NULL"},"o":{}}]],
    "translation":{"eng":"UNDEFINED"}},{
    "lines":[
      []]}
  ]
}