{
  "uid":"GN3",
  "title":"পরম করুণ, পঁহু দুইজন",
  "author":"ldt",
  "language":"ben",
  "notes":[],
  "audio":[
    {"uid":"srrb-1","fn":"GN3-srrb-1.mp3","meta":{"artist":"Sudarsan das (Radha-ramana Babaji Maharaja)","src":"06 Gaura-Nityānanda/[01] Parama Karuṇa/srrb-parama_karuna.mp3"}},
    {"uid":"gaur-1","fn":"GN3-gaur-1.mp3","meta":{"artist":"Gaurasundar das","src":"06 Gaura-Nityānanda/[01] Parama Karuṇa/gaur-parama_karuna.mp3"}},
    {"uid":"mith-1","fn":"GN3-mith-1.mp3","meta":{"artist":"Mithu dasi","src":"06 Gaura-Nityānanda/[01] Parama Karuṇa/mith-parama_karuna.mp3"}},
    {"uid":"tama-1","fn":"GN3-tama-1.mp3","meta":{"artist":"Tamal Krsna das","src":"06 Gaura-Nityānanda/[01] Parama Karuṇa/tama-parama_karuna.mp3"}},
    {"uid":"bvsm-1","fn":"GN3-bvsm-1.m4a","meta":{"artist":"Srila BV Svami Prabhupada","src":"06 Gaura-Nityānanda/[01] Parama Karuṇa/bvsm-parama_karuna.m4a"}},
    {"uid":"tama-2","fn":"GN3-tama-2.mp3","meta":{"artist":"Tamal Krsna das","src":"06 Gaura-Nityānanda/[01] Parama Karuṇa/tama-parama_karuna-3.mp3"}},
    {"uid":"tama-3","fn":"GN3-tama-3.mp3","meta":{"artist":"Tamal Krsna das","src":"06 Gaura-Nityānanda/[01] Parama Karuṇa/tama-parama_karuna-1.mp3"}}],
  "has_synonyms":true,
  "has_translations":true,
  "legend":{"w":"word","h":"hint","s":"synonym","o":"override"},
  "verses":[{
    "lines":[
      [{"w":"পরম","h":" ","s":{"eng":"supremely"},"o":{}},{"w":"করুণ","h":",    ","s":{"eng":"merciful"},"o":{}},{"w":"পঁহু","h":" ","s":{"eng":"Lords"},"o":{}},{"w":"দুইজন","h":",","s":{"eng":"the two"},"o":{}}],
      [{"w":"নিতাই","h":" ","s":{"eng":"Nitāi and Gauracandra"},"o":{}},{"w":"গৌরচন্দ্র","h":" ।","s":{"eng":"⬅1"},"o":{}}],
      [{"w":"সব","h":" ","s":{"eng":"all"},"o":{}},{"w":"অবতার","h":"-,    ","s":{"eng":"incarnations"},"o":{}},{"w":"সার","h":" ","s":{"eng":"essence"},"o":{}},{"w":"শিরোমণি","h":",","s":{"eng":"crown-jewels"},"o":{}}],
      [{"w":"কেবল","h":" ","s":{"eng":"absolute"},"o":{}},{"w":"আনন্দ","h":"-","s":{"eng":"bliss"},"o":{}},{"w":"কন্দ","h":" ॥১॥","s":{"eng":"(mūl) source (root)"},"o":{}}]],
    "translation":{"eng":"The two Lords, Nitāi and Gaura-candra, are supremely merciful. They are the essence and the crown-jewels of all avatāras, and They are the source of absolute bliss."}},{
    "lines":[
      [{"w":"ভজ","h":" ","s":{"eng":"worship, just worship"},"o":{}},{"w":"ভজ","h":" ","s":{"eng":"⬅1"},"o":{}},{"w":"ভাই","h":",    ","s":{"eng":"O brother"},"o":{}},{"w":"চৈতন্য","h":"-","s":{"eng":"Caitanya-Nitāi"},"o":{}},{"w":"নিতাই","h":",","s":{"eng":"⬅1"},"o":{}}],
      [{"w":"সুদৃঢ়","h":" ","s":{"eng":"very firm or strong, very steady, absolutely unwavering*"},"o":{}},{"w":"বিশ্বাস","h":" ","s":{"eng":"faith"},"o":{}},{"w":"করি’","h":" ।","s":{"eng":"having put"},"o":{}}],
      [{"w":"বিষয়","h":" ","s":{"eng":"material enjoyment"},"o":{}},{"w":"ছাড়িয়া","h":",    ","s":{"eng":"having renounced"},"o":{}},{"w":"সে","h":"-","s":{"eng":"that"},"o":{}},{"w":"রসে","h":" ","s":{"eng":"in nectar"},"o":{}},{"w":"মজিয়া","h":",","s":{"eng":"having drowned"},"o":{}}],
      [{"w":"মুখে","h":" ","s":{"eng":"from mouth, lips"},"o":{}},{"w":"বল","h":" ","s":{"eng":"chant"},"o":{}},{"w":"হরি","h":" ","s":{"eng":"“Hari, Hari”"},"o":{}},{"w":"হরি","h":" ॥২॥","s":{"eng":"⬅1"},"o":{}}]],
    "translation":{"eng":"O brother, worship Caitanya-Nitāi with unwavering faith. Renouncing material enjoyment and drowning yourself in that rasa [of worshiping Them], let your lips chant, “Hari, Hari!”"}},{
    "lines":[
      [{"w":"দেখ","h":" ","s":{"eng":"see (imperative)"},"o":{}},{"w":"ওরে","h":" ","s":{"eng":"O dear brother"},"o":{}},{"w":"ভাই","h":",    ","s":{"eng":"⬅1"},"o":{}},{"w":"ত্রিভুবনে","h":" ","s":{"eng":"in the three worlds"},"o":{}},{"w":"নাই","h":",","s":{"eng":"not"},"o":{}}],
      [{"w":"এমন","h":" ","s":{"eng":"such"},"o":{}},{"w":"দয়াল","h":" ","s":{"eng":"mercy"},"o":{}},{"w":"দাতা","h":" ।","s":{"eng":"givers of charity, munificent"},"o":{}}],
      [{"w":"পশু","h":" ","s":{"eng":"animals"},"o":{}},{"w":"পাখী","h":" ","s":{"eng":"birds"},"o":{}},{"w":"ঝুরে","h":",    ","s":{"eng":"shed tears"},"o":{}},{"w":"পাষাণ","h":" ","s":{"eng":"stones"},"o":{}},{"w":"বিদরে","h":",","s":{"eng":"melt"},"o":{}}],
      [{"w":"শুনি’","h":" ","s":{"eng":"having heard"},"o":{}},{"w":"যাঁ’র","h":" ","s":{"eng":"whose"},"o":{}},{"w":"গুণগাথা","h":" ॥৩॥","s":{"eng":"glories + narrations"},"o":{}}]],
    "translation":{"eng":"Just see, dear brother! In all the three worlds, no one bestows mercy like They do. Animals and birds shed tears and stones melt upon hearing narrations of Their glories."}},{
    "lines":[
      [{"w":"সংসারে","h":" ","s":{"eng":"in material enjoyment"},"o":{}},{"w":"মজিয়া","h":",    ","s":{"eng":"having drowned, having lost yourself"},"o":{}},{"w":"রহিলে","h":" ","s":{"eng":"you remained"},"o":{}},{"w":"পড়িয়া","h":",","s":{"eng":"having fell"},"o":{}}],
      [{"w":"সে","h":"-","s":{"eng":"those"},"o":{}},{"w":"পদে","h":" ","s":{"eng":"for feet"},"o":{}},{"w":"নহিল","h":" ","s":{"eng":"has not"},"o":{}},{"w":"আশ","h":" ।","s":{"eng":"aspiration"},"o":{}}],
      [{"w":"আপন","h":" ","s":{"eng":"your own"},"o":{}},{"w":"করম","h":",    ","s":{"eng":"misdeeds"},"o":{}},{"w":"ভুঞ্জায়","h":" ","s":{"eng":"suffer, undergo"},"o":{}},{"w":"শমন","h":",","s":{"eng":"the Lord of Death, Yama"},"o":{}}],
      [{"w":"কহয়ে","h":" ","s":{"eng":"says"},"o":{}},{"w":"লোচনদাস","h":" ॥৪॥","s":{"eng":"Locana dāsa"},"o":{}}]],
    "translation":{"eng":"Locana dāsa says, “Since you remain submerged in material enjoyment, the aspiration to take shelter of Their lotus feet has not arisen. Thus you suffer the consequences of your own misdeeds, as meted out by Lord Yama.”"}}
  ]
}