{
  "uid":"GN9",
  "title":"‘গৌরাঙ্গ’ বলিতে হবে",
  "author":"ndt",
  "language":"ben",
  "notes":[],
  "audio":[
    {"uid":"bvnm-1","fn":"GN9-bvnm-1.mp3","meta":{"artist":"Srila BV Narayana Gosvami Maharaja","src":"06 Gaura-Nityānanda/[03] ‘Gaurāṅga’ Bôlite Ha’be/bvnm-gauranga_bolite_habe.mp3"}},
    {"uid":"mith-1","fn":"GN9-mith-1.mp3","meta":{"artist":"Mithu dasi","src":"06 Gaura-Nityānanda/[03] ‘Gaurāṅga’ Bôlite Ha’be/mith-gauranga_bolite_habe.mp3"}},
    {"uid":"krsn-1","fn":"GN9-krsn-1.mp3","meta":{"artist":"Krsnadas das","src":"06 Gaura-Nityānanda/[03] ‘Gaurāṅga’ Bôlite Ha’be/krsn-gauranga_bolite_habe.mp3"}},
    {"uid":"rasi-1","fn":"GN9-rasi-1.mp3","meta":{"artist":"Rasika dasi","src":"06 Gaura-Nityānanda/[03] ‘Gaurāṅga’ Bôlite Ha’be/rasi-gauranga_bolite_habe.mp3"}},
    {"uid":"brsm-1","fn":"GN9-brsm-1.mp3","meta":{"artist":"Srila BR Sridhara Gosvami Maharaja","src":"06 Gaura-Nityānanda/[03] ‘Gaurāṅga’ Bôlite Ha’be/brsm-gauranga_bolite_habe.mp3"}},
    {"uid":"bvnm-2","fn":"GN9-bvnm-2.mp3","meta":{"artist":"Srila BV Narayana Gosvami Maharaja","src":"06 Gaura-Nityānanda/[03] ‘Gaurāṅga’ Bôlite Ha’be/bvnm-gauranga_bolite_habe-3.mp3"}},
    {"uid":"bvsm-1","fn":"GN9-bvsm-1.mp3","meta":{"artist":"Srila BV Svami Prabhupada","src":"06 Gaura-Nityānanda/[03] ‘Gaurāṅga’ Bôlite Ha’be/bvsm-gauranga_bolite_habe.mp3"}},
    {"uid":"bvnm-3","fn":"GN9-bvnm-3.mp3","meta":{"artist":"Srila BV Narayana Gosvami Maharaja","src":"06 Gaura-Nityānanda/[03] ‘Gaurāṅga’ Bôlite Ha’be/bvnm-gauranga_bolite_habe-1.mp3"}},
    {"uid":"sadh-1","fn":"GN9-sadh-1.mp3","meta":{"artist":"BV Sadhu Maharaja","src":"06 Gaura-Nityānanda/[03] ‘Gaurāṅga’ Bôlite Ha’be/sadh-gauranga_bolite_habe.mp3"}}],
  "has_synonyms":true,
  "has_translations":true,
  "legend":{"w":"word","h":"hint","s":"synonym","o":"override"},
  "verses":[{
    "lines":[
      [{"w":"","h":"‘","s":{"eng":"NULL"},"o":{}},{"w":"গৌরাঙ্গ’","h":" ","s":{"eng":"“Gaurāṅga”"},"o":{}},{"w":"বলিতে","h":" ","s":{"eng":"chanting"},"o":{}},{"w":"হবে","h":" ","s":{"eng":"will be"},"o":{}},{"w":"পুলক","h":" ","s":{"eng":"horripilation"},"o":{}},{"w":"শরীর","h":" ।","s":{"eng":"body"},"o":{}}],
      [{"w":"","h":"‘","s":{"eng":"NULL"},"o":{}},{"w":"হরি","h":" ","s":{"eng":"“Hari Hari”"},"o":{}},{"w":"হরি’","h":" ","s":{"eng":"⬅1"},"o":{}},{"w":"বলিতে","h":" ","s":{"eng":"chanting"},"o":{}},{"w":"নয়নে","h":" ","s":{"eng":"from eyes"},"o":{}},{"w":"ব’বে","h":" ","s":{"eng":"will flow"},"o":{}},{"w":"নীর","h":" ॥১॥","s":{"eng":"water"},"o":{}}]],
    "translation":{"eng":"When will the hair on my body stand on end upon chanting, “Gaurāṅga”? When will my eyes overflow with tears upon chanting, “Hari Hari”?"}},{
    "lines":[
      [{"w":"আর","h":" ","s":{"eng":"and"},"o":{}},{"w":"কবে","h":" ","s":{"eng":"when"},"o":{}},{"w":"নিতাইচাঁদের","h":" ","s":{"eng":"the moon-like Nitāi"},"o":{}},{"w":"করুণা","h":" ","s":{"eng":"merciful"},"o":{}},{"w":"হইবে","h":" ।","s":{"eng":"will be"},"o":{}}],
      [{"w":"সংসার","h":"-","s":{"eng":"worldy"},"o":{}},{"w":"বাসনা","h":" ","s":{"eng":"desires"},"o":{}},{"w":"মোর","h":" ","s":{"eng":"my"},"o":{}},{"w":"কবে","h":" ","s":{"eng":"when"},"o":{}},{"w":"তুচ্ছ","h":" ","s":{"eng":"insignificant"},"o":{}},{"w":"হ’বে","h":" ॥২॥","s":{"eng":"will be"},"o":{}}]],
    "translation":{"eng":"And when will the moon-like Nityānanda Prabhu bestow His mercy upon me? When will my material desires become insignificant?"}},{
    "lines":[
      [{"w":"বিষয়","h":" ","s":{"eng":"material enjoyment"},"o":{}},{"w":"ছাড়িয়া","h":" ","s":{"eng":"having renounced"},"o":{}},{"w":"কবে","h":" ","s":{"eng":"when"},"o":{}},{"w":"শুদ্ধ","h":" ","s":{"eng":"pure"},"o":{}},{"w":"হ’বে","h":" ","s":{"eng":"will be"},"o":{}},{"w":"মন","h":" ।","s":{"eng":"the mind"},"o":{}}],
      [{"w":"কবে","h":" ","s":{"eng":"when"},"o":{}},{"w":"হাম","h":" ","s":{"eng":"(āmi) I"},"o":{}},{"w":"হেরব","h":" ","s":{"eng":"will behold"},"o":{}},{"w":"শ্রীবৃন্দাবন","h":" ॥৩॥","s":{"eng":"Śrī Vṛndāvana"},"o":{}}]],
    "translation":{"eng":"When will my mind, as a result of my renouncing material enjoyment, become purified? When will I behold Śrī Vṛndāvana?"}},{
    "lines":[
      [{"w":"রূপ","h":"-","s":{"eng":"Śrīla Rūpa Gosvāmī and Śrīla Radhunātha dāsa Gosvāmī"},"o":{}},{"w":"রঘুনাথ","h":"-","s":{"eng":"⬅1"},"o":{}},{"w":"পদে","h":" ","s":{"eng":"for the feet"},"o":{}},{"w":"হইবে","h":" ","s":{"eng":"will be"},"o":{}},{"w":"আকুতি","h":" ।","s":{"eng":"(ārti, anurāg) eagerness, deep attachment"},"o":{}}],
      [{"w":"কবে","h":" ","s":{"eng":"when"},"o":{}},{"w":"হাম","h":" ","s":{"eng":"I"},"o":{}},{"w":"বুঝব","h":" ","s":{"eng":"will understand"},"o":{}},{"w":"সে","h":" ","s":{"eng":"that"},"o":{}},{"w":"যুগল","h":"-","s":{"eng":"the Divine Couple"},"o":{}},{"w":"পীরিতি","h":" ॥৪॥","s":{"eng":"the love"},"o":{}}]],
    "translation":{"eng":"When will I develop eagerness for the lotus feet of Śrīla Rūpa Gosvāmī and Śrīla Raghunātha dāsa Gosvāmī, by whose mercy I will be able to understand the love (prīti) of the Divine Couple?"}},{
    "lines":[
      [{"w":"রূপ","h":"-","s":{"eng":"Śrīla Rūpa Gosvāmī and Śrīla Raghunātha dāsa Gosvāmī"},"o":{}},{"w":"রঘুনাথ","h":"-","s":{"eng":"⬅1"},"o":{}},{"w":"পদে","h":" ","s":{"eng":"at the feet"},"o":{}},{"w":"রহু","h":" ","s":{"eng":"remain"},"o":{}},{"w":"মোর","h":" ","s":{"eng":"my"},"o":{}},{"w":"আশ","h":" ।","s":{"eng":"aspirations"},"o":{}}],
      [{"w":"প্রার্থনা","h":" ","s":{"eng":"prays"},"o":{}},{"w":"করয়ে","h":" ","s":{"eng":"⬅1"},"o":{}},{"w":"সদা","h":" ","s":{"eng":"constantly"},"o":{}},{"w":"নরোত্তমদাস","h":" ॥৫॥","s":{"eng":"Narottama dāsa"},"o":{}}]],
    "translation":{"eng":"“Let all my hopes and aspirations remain at the lotus feet of Śrī Rūpa and Śrī Raghunātha dāsa.” This is the constant prayer of Narottama dāsa."}}
  ]
}