{
  "uid":"GP9",
  "title":"শ্রীকৃষ্ণচৈতন্য প্রভু দয়া কর মোরে",
  "author":"ndt",
  "language":"ben",
  "notes":[],
  "audio":[
    {"uid":"sadh-1","fn":"GP9-sadh-1.mp3","meta":{"artist":"BV Sadhu Maharaja","src":"07 Gaura-parṣada/[03] Śrī Kṛṣṇa Caitanya Prabhu Dayā Karô More/sadh-sri_krsna_caitanya_prabhu_daya_karo_more.mp3"}},
    {"uid":"mith-1","fn":"GP9-mith-1.mp3","meta":{"artist":"Mithu dasi","src":"07 Gaura-parṣada/[03] Śrī Kṛṣṇa Caitanya Prabhu Dayā Karô More/mith-sri_krsna_caitanya_prabhu_daya_karo_more.mp3"}},
    {"uid":"bvsm-1","fn":"GP9-bvsm-1.mp3","meta":{"artist":"Srila BV Svami Prabhupada","src":"07 Gaura-parṣada/[03] Śrī Kṛṣṇa Caitanya Prabhu Dayā Karô More/bvsm-sri_krsna_caitanya_prabhu_daya_karo_more.mp3"}},
    {"uid":"krsn-1","fn":"GP9-krsn-1.mp3","meta":{"artist":"Krsnadas das","src":"07 Gaura-parṣada/[03] Śrī Kṛṣṇa Caitanya Prabhu Dayā Karô More/krsn-sri_krsna_caitanya_prabhu_daya_karo_more-2.mp3"}},
    {"uid":"bvsm-2","fn":"GP9-bvsm-2.mp3","meta":{"artist":"Srila BV Svami Prabhupada","src":"07 Gaura-parṣada/[03] Śrī Kṛṣṇa Caitanya Prabhu Dayā Karô More/bvsm-sri_krsna_caitanya_prabhu_daya_karo_more-2.mp3"}},
    {"uid":"bvsm-1","fn":"GP9-bvsm-1.m4a","meta":{"artist":"Srila BV Svami Prabhupada","src":"07 Gaura-parṣada/[03] Śrī Kṛṣṇa Caitanya Prabhu Dayā Karô More/bvsm-sri_krsna_caitanya_prabhu_daya_karo_more.m4a"}},
    {"uid":"krsn-2","fn":"GP9-krsn-2.mp3","meta":{"artist":"Krsnadas das","src":"07 Gaura-parṣada/[03] Śrī Kṛṣṇa Caitanya Prabhu Dayā Karô More/krsn-sri_krsna_caitanya_prabhu_daya_karo_more.mp3"}},
    {"uid":"gaur-1","fn":"GP9-gaur-1.mp3","meta":{"artist":"Gaurasundar das","src":"07 Gaura-parṣada/[03] Śrī Kṛṣṇa Caitanya Prabhu Dayā Karô More/gaur-sri_krsna_caitanya_prabhu_daya_karo_more.mp3"}}],
  "has_synonyms":true,
  "has_translations":true,
  "legend":{"w":"word","h":"hint","s":"synonym","o":"override"},
  "verses":[{
    "lines":[
      [{"w":"শ্রীকৃষ্ণচৈতন্য","h":" ","s":{"eng":"O Lord Śrī Kṛṣṇa Caitanya"},"o":{}},{"w":"প্রভু","h":" ","s":{"eng":"⬅1"},"o":{}},{"w":"দয়া","h":" ","s":{"eng":"be merciful"},"o":{}},{"w":"কর","h":" ","s":{"eng":"⬅1"},"o":{}},{"w":"মোরে","h":" ।","s":{"eng":"to me"},"o":{}}],
      [{"w":"তোমা’","h":" ","s":{"eng":"You"},"o":{}},{"w":"বিনা","h":" ","s":{"eng":"without"},"o":{}},{"w":"কে","h":" ","s":{"eng":"who"},"o":{}},{"w":"দয়ালু","h":" ","s":{"eng":"full of compassion"},"o":{}},{"w":"জগৎ","h":"-","s":{"eng":"in the world of material existence"},"o":{}},{"w":"সংসারে","h":" ॥১॥","s":{"eng":"⬅1"},"o":{}}]],
    "translation":{"eng":"O Śrī Kṛṣṇa Caitanya Prabhu, be merciful to me. Except for You, who in this material existence is so full of compassion?"}},{
    "lines":[
      [{"w":"পতিতপাবন","h":"-","s":{"eng":"fallen + deliver"},"o":{}},{"w":"হেতু","h":" ","s":{"eng":"the reason"},"o":{}},{"w":"তব","h":" ","s":{"eng":"Your"},"o":{}},{"w":"অবতার","h":" ।","s":{"eng":"descent"},"o":{}}],
      [{"w":"মো","h":" ","s":{"eng":"me"},"o":{}},{"w":"সম","h":" ","s":{"eng":"same as"},"o":{}},{"w":"পতিত","h":" ","s":{"eng":"fallen"},"o":{}},{"w":"প্রভু","h":" ","s":{"eng":"O Lord"},"o":{}},{"w":"না","h":" ","s":{"eng":"not"},"o":{}},{"w":"পাইবে","h":" ","s":{"eng":"You will find"},"o":{}},{"w":"আর","h":" ॥২॥","s":{"eng":"more"},"o":{}}]],
    "translation":{"eng":"The reason for Your descent is to deliver the fallen souls. O Lord, You will not find anyone else as fallen as me."}},{
    "lines":[
      [{"w":"হা","h":" ","s":{"eng":"Oh"},"o":{}},{"w":"হা","h":" ","s":{"eng":"⬅1"},"o":{}},{"w":"প্রভু","h":" ","s":{"eng":"Nityānanda Prabhu"},"o":{}},{"w":"নিত্যানন্দ","h":" ","s":{"eng":"⬅1"},"o":{}},{"w":"প্রেমানন্দসুখী","h":" ।","s":{"eng":"ecstatic divine love + joyful"},"o":{}}],
      [{"w":"কৃপাবলোকন","h":" ","s":{"eng":"compassion + glance"},"o":{}},{"w":"কর","h":" ","s":{"eng":"do"},"o":{}},{"w":"আমি","h":" ","s":{"eng":"I"},"o":{}},{"w":"বড়","h":" ","s":{"eng":"very"},"o":{}},{"w":"দুঃখী","h":" ॥৩॥","s":{"eng":"sorrowful"},"o":{}}]],
    "translation":{"eng":"O Nityānanda Prabhu, who is always joyful in ecstatic love, glance upon me with compassion, for I am very sorrowful."}},{
    "lines":[
      [{"w":"দয়া","h":" ","s":{"eng":"give mercy"},"o":{}},{"w":"কর","h":" ","s":{"eng":"⬅1"},"o":{}},{"w":"সীতাপতি","h":" ","s":{"eng":"husband of Sītā"},"o":{}},{"w":"অদ্বৈত","h":" ","s":{"eng":"O Advaita Gosāi"},"o":{}},{"w":"গোসাঞি","h":" ।","s":{"eng":"⬅1"},"o":{}}],
      [{"w":"তব","h":" ","s":{"eng":"Your"},"o":{}},{"w":"কৃপাবলে","h":" ","s":{"eng":"mercy + by power"},"o":{}},{"w":"পাই","h":" ","s":{"eng":"I attain"},"o":{}},{"w":"চৈতন্য","h":"-","s":{"eng":"Śrī Caitanya and Nitāi"},"o":{}},{"w":"নিতাই","h":" ॥৪॥","s":{"eng":"⬅1"},"o":{}}]],
    "translation":{"eng":"O Advaita Gosāi, husband of Sītā, be kind to me. By the power of Your mercy, I can surely attain Śrī Caitanya-Nitāi."}},{
    "lines":[
      [{"w":"হা","h":" ","s":{"eng":"alas"},"o":{}},{"w":"হা","h":" ","s":{"eng":"⬅1"},"o":{}},{"w":"স্বরূপ","h":", ","s":{"eng":"O Svarūpa Dāmodara Gosvāmī"},"o":{}},{"w":"সনাতন","h":", ","s":{"eng":"O Sanātana Gosvāmī"},"o":{}},{"w":"রূপ","h":", ","s":{"eng":"O Rūpa Gosvāmī"},"o":{}},{"w":"রঘুনাথ","h":" ।","s":{"eng":"O Raghunātha dāsa Gosvāmī"},"o":{}}],
      [{"w":"ভট্টযুগ","h":", ","s":{"eng":"O two Bhāṭṭas (Gopāla Bhaṭṭa Gosvāmī and Raghunātha Bhaṭṭa Gosvāmī)"},"o":{}},{"w":"শ্রীজীব","h":", ","s":{"eng":"O Śrī Jīva Gosvāmī"},"o":{}},{"w":"হা","h":" ","s":{"eng":"alas"},"o":{}},{"w":"প্রভু","h":" ","s":{"eng":"my master"},"o":{}},{"w":"লোকনাথ","h":" ॥৫॥","s":{"eng":"Lokanātha dāsa Gosvāmī"},"o":{}}]],
    "translation":{"eng":"Alas! O Svarūpa Dāmodara Gosvāmī, Sanātana Gosvāmī, Rūpa Gosvāmī, and Raghunātha dāsa Gosvāmī! O Gopāla Bhaṭṭa Gosvāmī, Raghunātha Bhaṭṭa Gosvāmī, and Śrī Jīva Gosvāmī! O my master, Lokanātha Gosvāmī [give me your mercy]!"}},{
    "lines":[
      [{"w":"দয়া","h":" ","s":{"eng":"give mercy"},"o":{}},{"w":"কর","h":" ","s":{"eng":"⬅1"},"o":{}},{"w":"শ্রীআচার্য্য","h":" ","s":{"eng":"the great ācārya"},"o":{}},{"w":"প্রভু","h":" ","s":{"eng":"Śrīnivāsa Prabhu"},"o":{}},{"w":"শ্রীনিবাস","h":" ।","s":{"eng":"⬅1"},"o":{}}],
      [{"w":"রামচন্দ্র","h":"-","s":{"eng":"Rāmacandra Kavirāja"},"o":{}},{"w":"সঙ্গ","h":" ","s":{"eng":"association"},"o":{}},{"w":"মাগে","h":" ","s":{"eng":"begs"},"o":{}},{"w":"নরোত্তমদাস","h":" ॥৬॥","s":{"eng":"Narottama dāsa"},"o":{}}]],
    "translation":{"eng":"Be merciful, O Prabhu Śrīnivāsa Ācārya! Narottama dāsa begs for the association of Rāmacandra Kavirāja."}},{
    "lines":[
      [{"w":"[দয়া","h":" ","s":{"eng":"NULL"},"o":{}},{"w":"কর","h":" ","s":{"eng":"NULL"},"o":{}},{"w":"প্রভুপাদ","h":" ","s":{"eng":"NULL"},"o":{}},{"w":"শ্রীদয়িতদাস","h":"  ।","s":{"eng":"NULL"},"o":{}}],
      [{"w":"বৈষ্ণবের","h":" ","s":{"eng":"NULL"},"o":{}},{"w":"কৃপা","h":" ","s":{"eng":"NULL"},"o":{}},{"w":"মাগে","h":" ","s":{"eng":"NULL"},"o":{}},{"w":"এ","h":" ","s":{"eng":"NULL"},"o":{}},{"w":"অধম","h":" ","s":{"eng":"NULL"},"o":{}},{"w":"দাস","h":" ॥৭॥","s":{"eng":"NULL"},"o":{}}]],
    "translation":{"eng":"UNDEFINED"}},{
    "lines":[
      [{"w":"দয়া","h":" ","s":{"eng":"NULL"},"o":{}},{"w":"কর","h":" ","s":{"eng":"NULL"},"o":{}},{"w":"গুরুদেব","h":" ","s":{"eng":"NULL"},"o":{}},{"w":"পতিতপাবন","h":" ।","s":{"eng":"NULL"},"o":{}}],
      [{"w":"শ্রীচরণে","h":" ","s":{"eng":"NULL"},"o":{}},{"w":"সেবা","h":" ","s":{"eng":"NULL"},"o":{}},{"w":"মাগে","h":" ","s":{"eng":"NULL"},"o":{}},{"w":"এ","h":" ","s":{"eng":"NULL"},"o":{}},{"w":"পতিতজন","h":" ॥৮॥","s":{"eng":"NULL"},"o":{}},{"w":"]","h":"","s":{"eng":"NULL"},"o":{}}]],
    "translation":{"eng":"UNDEFINED"}}
  ]
}