{
  "uid":"GV17",
  "title":"শ্রীপ্রভুপাদ-পদ্ম-স্তৱকঃ",
  "author":"শ্রীল ভক্তিরক্ষক শ্রীধর গোস্ৱামী মহারাজ",
  "language":"san",
  "notes":[],
  "audio":[
    {"uid":"krsb-1","fn":"GV17-krsb-1.mp3","meta":{"artist":"Krsna das Babaji","src":"19 Sanskrit Stotras/[03] Śrī Prabhupāda-padma-stavakaḥ/krsb-prabhupada_padma_stava.mp3"}},
    {"uid":"casu-1","fn":"GV17-casu-1.mp3","meta":{"artist":"Candrakanta & Sucandra","src":"19 Sanskrit Stotras/[03] Śrī Prabhupāda-padma-stavakaḥ/casu-prabhupada_padma_stava.mp3"}}],
  "has_synonyms":false,
  "has_translations":true,
  "legend":{"w":"word","h":"hint","s":"synonym","o":"override"},
  "verses":[{
    "lines":[
      [{"w":"সুজনার্ব্বুদ","h":"-","s":{"eng":"NULL"},"o":{}},{"w":"রাধিত","h":"-","s":{"eng":"NULL"},"o":{}},{"w":"পাদযুগং","h":"","s":{"eng":"NULL"},"o":{}}],
      [{"w":"যুগধর্ম্ম","h":"-","s":{"eng":"NULL"},"o":{}},{"w":"ধুরন্ধর","h":"-","s":{"eng":"NULL"},"o":{}},{"w":"পাত্রৱরম্","h":"","s":{"eng":"NULL"},"o":{}}],
      [{"w":"ৱরদাভয়","h":"-","s":{"eng":"NULL"},"o":{}},{"w":"দায়ক","h":"-","s":{"eng":"NULL"},"o":{}},{"w":"পূজ্যপদং","h":"","s":{"eng":"NULL"},"o":{}}],
      [{"w":"প্রণমামি","h":" ","s":{"eng":"NULL"},"o":{}},{"w":"সদা","h":" ","s":{"eng":"NULL"},"o":{}},{"w":"প্রভুপাদপদম্","h":" ॥১॥","s":{"eng":"NULL"},"o":{}}]],
    "translation":{"eng":"UNDEFINED"}},{
    "lines":[
      [{"w":"ভজনোর্জ্জিত","h":"-","s":{"eng":"NULL"},"o":{}},{"w":"সজ্জন","h":"-","s":{"eng":"NULL"},"o":{}},{"w":"সঙ্ঘপতিং","h":"","s":{"eng":"NULL"},"o":{}}],
      [{"w":"পতিতাধিক","h":"-","s":{"eng":"NULL"},"o":{}},{"w":"কারুণিকৈকগতিম্","h":"","s":{"eng":"NULL"},"o":{}}],
      [{"w":"গতিৱঞ্চিত","h":"-","s":{"eng":"NULL"},"o":{}},{"w":"ৱঞ্চকাচিন্ত্যপদং","h":"","s":{"eng":"NULL"},"o":{}}],
      [{"w":"প্রণমামি","h":" ","s":{"eng":"NULL"},"o":{}},{"w":"সদা","h":" ","s":{"eng":"NULL"},"o":{}},{"w":"প্রভুপাদপদম্","h":" ॥২॥","s":{"eng":"NULL"},"o":{}}]],
    "translation":{"eng":"UNDEFINED"}},{
    "lines":[
      [{"w":"অতিকোমল","h":"-","s":{"eng":"NULL"},"o":{}},{"w":"কাঞ্চন","h":"-","s":{"eng":"NULL"},"o":{}},{"w":"দীর্ঘতনুং","h":"","s":{"eng":"NULL"},"o":{}}],
      [{"w":"তনুনিন্দিত","h":"-","s":{"eng":"NULL"},"o":{}},{"w":"হেম","h":"-","s":{"eng":"NULL"},"o":{}},{"w":"মৃণালমদম্","h":"","s":{"eng":"NULL"},"o":{}}],
      [{"w":"মদনার্ব্বুদ","h":"-","s":{"eng":"NULL"},"o":{}},{"w":"ৱন্দিত","h":"-","s":{"eng":"NULL"},"o":{}},{"w":"চন্দ্রপদং","h":"","s":{"eng":"NULL"},"o":{}}],
      [{"w":"প্রণমামি","h":" ","s":{"eng":"NULL"},"o":{}},{"w":"সদা","h":" ","s":{"eng":"NULL"},"o":{}},{"w":"প্রভুপাদপদম্","h":" ॥৩॥","s":{"eng":"NULL"},"o":{}}]],
    "translation":{"eng":"UNDEFINED"}},{
    "lines":[
      [{"w":"নিজসেৱক","h":"-","s":{"eng":"NULL"},"o":{}},{"w":"তারক","h":"-","s":{"eng":"NULL"},"o":{}},{"w":"রঞ্জিৱিধুং","h":"","s":{"eng":"NULL"},"o":{}}],
      [{"w":"ৱিধুতাহিত","h":"-","s":{"eng":"NULL"},"o":{}},{"w":"হুঙ্কৃত","h":"-","s":{"eng":"NULL"},"o":{}},{"w":"সিংহৱরম্","h":"-","s":{"eng":"NULL"},"o":{}}],
      [{"w":"ৱরণাগত","h":"-","s":{"eng":"NULL"},"o":{}},{"w":"বালিশ","h":"-","s":{"eng":"NULL"},"o":{}},{"w":"শন্দপদং","h":"","s":{"eng":"NULL"},"o":{}}],
      [{"w":"প্রণমামি","h":" ","s":{"eng":"NULL"},"o":{}},{"w":"সদা","h":" ","s":{"eng":"NULL"},"o":{}},{"w":"প্রভুপাদপদম্","h":" ॥৪॥","s":{"eng":"NULL"},"o":{}}]],
    "translation":{"eng":"UNDEFINED"}},{
    "lines":[
      [{"w":"ৱিপুলীকৃত","h":"-","s":{"eng":"NULL"},"o":{}},{"w":"ৱৈভৱ","h":"-","s":{"eng":"NULL"},"o":{}},{"w":"গৌরভুৱং","h":"","s":{"eng":"NULL"},"o":{}}],
      [{"w":"ভুৱনেষু","h":" ","s":{"eng":"NULL"},"o":{}},{"w":"ৱিকীর্ত্তিত","h":"-","s":{"eng":"NULL"},"o":{}},{"w":"গৌরদয়ম্","h":"","s":{"eng":"NULL"},"o":{}}],
      [{"w":"দয়নীয়গণার্পিত","h":"-","s":{"eng":"NULL"},"o":{}},{"w":"গৌরপদং","h":"","s":{"eng":"NULL"},"o":{}}],
      [{"w":"প্রণমামি","h":" ","s":{"eng":"NULL"},"o":{}},{"w":"সদা","h":" ","s":{"eng":"NULL"},"o":{}},{"w":"প্রভুপাদপদম্","h":" ॥৫॥","s":{"eng":"NULL"},"o":{}}]],
    "translation":{"eng":"UNDEFINED"}},{
    "lines":[
      [{"w":"চিরগৌর","h":"-","s":{"eng":"NULL"},"o":{}},{"w":"জনাশ্রয়","h":"-","s":{"eng":"NULL"},"o":{}},{"w":"ৱিশ্ৱগুরুং","h":"","s":{"eng":"NULL"},"o":{}}],
      [{"w":"গুরু","h":"-","s":{"eng":"NULL"},"o":{}},{"w":"গৌরকিশোরক","h":"-","s":{"eng":"NULL"},"o":{}},{"w":"দাস্যপরম্","h":"","s":{"eng":"NULL"},"o":{}}],
      [{"w":"পরমাদৃত","h":"-","s":{"eng":"NULL"},"o":{}},{"w":"ভক্তিৱিনোদপদং","h":"","s":{"eng":"NULL"},"o":{}}],
      [{"w":"প্রণমামি","h":" ","s":{"eng":"NULL"},"o":{}},{"w":"সদা","h":" ","s":{"eng":"NULL"},"o":{}},{"w":"প্রভুপাদপদম্","h":" ॥৬॥","s":{"eng":"NULL"},"o":{}}]],
    "translation":{"eng":"UNDEFINED"}},{
    "lines":[
      [{"w":"রঘু","h":"-","s":{"eng":"NULL"},"o":{}},{"w":"রূপ","h":"-","s":{"eng":"NULL"},"o":{}},{"w":"সনাতন","h":"-","s":{"eng":"NULL"},"o":{}},{"w":"কীর্ত্তিধরং","h":"","s":{"eng":"NULL"},"o":{}}],
      [{"w":"ধরণীতল","h":"-","s":{"eng":"NULL"},"o":{}},{"w":"কীর্ত্তিত","h":"-","s":{"eng":"NULL"},"o":{}},{"w":"জীৱকৱিম্","h":"","s":{"eng":"NULL"},"o":{}}],
      [{"w":"কৱিরাজ","h":"-","s":{"eng":"NULL"},"o":{}},{"w":"নরোত্তম","h":"-","s":{"eng":"NULL"},"o":{}},{"w":"সখ্যপদং","h":"","s":{"eng":"NULL"},"o":{}}],
      [{"w":"প্রণমামি","h":" ","s":{"eng":"NULL"},"o":{}},{"w":"সদা","h":" ","s":{"eng":"NULL"},"o":{}},{"w":"প্রভুপাদপদম্","h":" ॥৭॥","s":{"eng":"NULL"},"o":{}}]],
    "translation":{"eng":"UNDEFINED"}},{
    "lines":[
      [{"w":"কৃপয়া","h":"-","s":{"eng":"NULL"},"o":{}},{"w":"হরিকীর্ত্তন","h":"- ","s":{"eng":"NULL"},"o":{}},{"w":"মূর্তি","h":"-","s":{"eng":"NULL"},"o":{}},{"w":"ধরং","h":"","s":{"eng":"NULL"},"o":{}}],
      [{"w":"ধরণী","h":"-","s":{"eng":"NULL"},"o":{}},{"w":"ভরহারক","h":"-","s":{"eng":"NULL"},"o":{}},{"w":"গৌরজনম্","h":"","s":{"eng":"NULL"},"o":{}}],
      [{"w":"জনকাধিক","h":"-","s":{"eng":"NULL"},"o":{}},{"w":"ৱৎসল","h":"- ","s":{"eng":"NULL"},"o":{}},{"w":"স্নিগ্ধপদং","h":"","s":{"eng":"NULL"},"o":{}}],
      [{"w":"প্রণমামি","h":" ","s":{"eng":"NULL"},"o":{}},{"w":"সদা","h":" ","s":{"eng":"NULL"},"o":{}},{"w":"প্রভুপাদপদম্","h":" ॥৮॥","s":{"eng":"NULL"},"o":{}}]],
    "translation":{"eng":"UNDEFINED"}},{
    "lines":[
      [{"w":"শরণাগত","h":"-","s":{"eng":"NULL"},"o":{}},{"w":"কিঙ্কর","h":"-","s":{"eng":"NULL"},"o":{}},{"w":"কল্পতরুং","h":"","s":{"eng":"NULL"},"o":{}}],
      [{"w":"তরুধিক্কৃত","h":"-","s":{"eng":"NULL"},"o":{}},{"w":"ধীর","h":"-","s":{"eng":"NULL"},"o":{}},{"w":"ৱদান্যৱরম্","h":"","s":{"eng":"NULL"},"o":{}}],
      [{"w":"ৱরদেন্দ্র","h":"-","s":{"eng":"NULL"},"o":{}},{"w":"গণার্চ্চিত","h":"-","s":{"eng":"NULL"},"o":{}},{"w":"দিৱ্যপদং","h":"","s":{"eng":"NULL"},"o":{}}],
      [{"w":"প্রণমামি","h":" ","s":{"eng":"NULL"},"o":{}},{"w":"সদা","h":" ","s":{"eng":"NULL"},"o":{}},{"w":"প্রভুপাদপদম্","h":" ॥৯॥","s":{"eng":"NULL"},"o":{}}]],
    "translation":{"eng":"UNDEFINED"}},{
    "lines":[
      [{"w":"পরহংসৱরং","h":" ","s":{"eng":"NULL"},"o":{}},{"w":"পরমার্থপতিং","h":"","s":{"eng":"NULL"},"o":{}}],
      [{"w":"পতিতোদ্ধরণে","h":" ","s":{"eng":"NULL"},"o":{}},{"w":"কৃত","h":"-","s":{"eng":"NULL"},"o":{}},{"w":"ৱেশযতিম্","h":"","s":{"eng":"NULL"},"o":{}}],
      [{"w":"যতিরাজগণৈঃ","h":" ","s":{"eng":"NULL"},"o":{}},{"w":"পরিসেৱ্যপদং","h":"","s":{"eng":"NULL"},"o":{}}],
      [{"w":"প্রণমামি","h":" ","s":{"eng":"NULL"},"o":{}},{"w":"সদা","h":" ","s":{"eng":"NULL"},"o":{}},{"w":"প্রভুপাদপদম্","h":" ॥১০॥","s":{"eng":"NULL"},"o":{}}]],
    "translation":{"eng":"UNDEFINED"}},{
    "lines":[
      [{"w":"ৱৃষভানুসুতা","h":"-","s":{"eng":"NULL"},"o":{}},{"w":"দয়িতানুচরং","h":"","s":{"eng":"NULL"},"o":{}}],
      [{"w":"চরণাশ্রিত","h":"-","s":{"eng":"NULL"},"o":{}},{"w":"রেণুধরস্তমহম্","h":"","s":{"eng":"NULL"},"o":{}}],
      [{"w":"মহদদ্ভুত","h":"-","s":{"eng":"NULL"},"o":{}},{"w":"পাৱন","h":"-","s":{"eng":"NULL"},"o":{}},{"w":"শক্তিপদং","h":"","s":{"eng":"NULL"},"o":{}}],
      [{"w":"প্রণমামি","h":" ","s":{"eng":"NULL"},"o":{}},{"w":"সদা","h":" ","s":{"eng":"NULL"},"o":{}},{"w":"প্রভুপাদপদম্","h":" ॥১১॥","s":{"eng":"NULL"},"o":{}}]],
    "translation":{"eng":"UNDEFINED"}}
  ]
}