{
  "uid":"GV31",
  "title":"শ্রীষড়্‌গোস্ৱাম্যাষ্টকম্",
  "author":"শ্রীল শ্রীনিৱাসাচার্য্য",
  "language":"san",
  "notes":[],
  "audio":[
    {"uid":"srrb-1","fn":"GV31-srrb-1.mp3","meta":{"artist":"Sudarsan das (Radha-ramana Babaji Maharaja)","src":"19 Sanskrit Stotras/[04] Śrī Ṣaḍ-gosvāmyaṣṭakam/srrb-sad_gosvamy_astakam.mp3"}},
    {"uid":"bvsm-1","fn":"GV31-bvsm-1.mp3","meta":{"artist":"Srila BV Svami Prabhupada","src":"19 Sanskrit Stotras/[04] Śrī Ṣaḍ-gosvāmyaṣṭakam/bvsm-sad_gosvamy_astakam-1.mp3"}},
    {"uid":"bvsm-2","fn":"GV31-bvsm-2.mp3","meta":{"artist":"Srila BV Svami Prabhupada","src":"19 Sanskrit Stotras/[04] Śrī Ṣaḍ-gosvāmyaṣṭakam/bvsm-sad_gosvamy_astakam-3.mp3"}},
    {"uid":"bvsm-3","fn":"GV31-bvsm-3.mp3","meta":{"artist":"Srila BV Svami Prabhupada","src":"19 Sanskrit Stotras/[04] Śrī Ṣaḍ-gosvāmyaṣṭakam/bvsm-sad_gosvamy_astakam.mp3"}}],
  "has_synonyms":false,
  "has_translations":true,
  "legend":{"w":"word","h":"hint","s":"synonym","o":"override"},
  "verses":[{
    "lines":[
      [{"w":"কৃষ্ণোৎকীর্ত্তন","h":"-","s":{"eng":"NULL"},"o":{}},{"w":"গান","h":"-","s":{"eng":"NULL"},"o":{}},{"w":"নর্ত্তন","h":"-","s":{"eng":"NULL"},"o":{}},{"w":"পরৌ","h":" ","s":{"eng":"NULL"},"o":{}},{"w":"প্রেমামৃতাম্ভোনিধী","h":"","s":{"eng":"NULL"},"o":{}}],
      [{"w":"ধীরাধীরজন","h":"-","s":{"eng":"NULL"},"o":{}},{"w":"প্রিয়ৌ","h":" ","s":{"eng":"NULL"},"o":{}},{"w":"প্রিয়করৌ","h":" ","s":{"eng":"NULL"},"o":{}},{"w":"নির্ম্মত্সরৌ","h":" ","s":{"eng":"NULL"},"o":{}},{"w":"পূজিতৌ","h":"","s":{"eng":"NULL"},"o":{}}],
      [{"w":"শ্রীচৈতন্য","h":"-","s":{"eng":"NULL"},"o":{}},{"w":"কৃপাভরৌ","h":" ","s":{"eng":"NULL"},"o":{}},{"w":"ভুৱি","h":" ","s":{"eng":"NULL"},"o":{}},{"w":"ভুৱোভারাৱহন্তারকৌ","h":"","s":{"eng":"NULL"},"o":{}}],
      [{"w":"ৱন্দে","h":" ","s":{"eng":"NULL"},"o":{}},{"w":"রূপ","h":"-","s":{"eng":"NULL"},"o":{}},{"w":"সনাতনৌ","h":" ","s":{"eng":"NULL"},"o":{}},{"w":"রঘুযুগৌ","h":" ","s":{"eng":"NULL"},"o":{}},{"w":"শ্রীজীৱ","h":"-","s":{"eng":"NULL"},"o":{}},{"w":"গোপালকৌ","h":" ॥১॥","s":{"eng":"NULL"},"o":{}}]],
    "translation":{"eng":"UNDEFINED"}},{
    "lines":[
      [{"w":"নানাশাস্ত্র","h":"-","s":{"eng":"NULL"},"o":{}},{"w":"ৱিচারণৈক","h":"-","s":{"eng":"NULL"},"o":{}},{"w":"নিপুণৌ","h":" ","s":{"eng":"NULL"},"o":{}},{"w":"সদ্ধর্ম্ম","h":"-","s":{"eng":"NULL"},"o":{}},{"w":"সংস্থাপকৌ","h":"","s":{"eng":"NULL"},"o":{}}],
      [{"w":"লোকানাং","h":" ","s":{"eng":"NULL"},"o":{}},{"w":"হিতকারিণৌ","h":" ","s":{"eng":"NULL"},"o":{}},{"w":"ত্রিভুৱনে","h":" ","s":{"eng":"NULL"},"o":{}},{"w":"মান্যৌ","h":" ","s":{"eng":"NULL"},"o":{}},{"w":"শরণ্যাকরৌ","h":"","s":{"eng":"NULL"},"o":{}}],
      [{"w":"রাধাকৃষ্ণ","h":"-","s":{"eng":"NULL"},"o":{}},{"w":"পদারৱিন্দ","h":"-","s":{"eng":"NULL"},"o":{}},{"w":"ভজনানন্দেন","h":" ","s":{"eng":"NULL"},"o":{}},{"w":"মত্তালিকৌ","h":"","s":{"eng":"NULL"},"o":{}}],
      [{"w":"ৱন্দে","h":" ","s":{"eng":"NULL"},"o":{}},{"w":"রূপ","h":"-","s":{"eng":"NULL"},"o":{}},{"w":"সনাতনৌ","h":" ","s":{"eng":"NULL"},"o":{}},{"w":"রঘুযুগৌ","h":" ","s":{"eng":"NULL"},"o":{}},{"w":"শ্রীজীৱ","h":"-","s":{"eng":"NULL"},"o":{}},{"w":"গোপালকৌ","h":" ॥২॥","s":{"eng":"NULL"},"o":{}}]],
    "translation":{"eng":"UNDEFINED"}},{
    "lines":[
      [{"w":"শ্রীগৌরাঙ্গ","h":"-","s":{"eng":"NULL"},"o":{}},{"w":"গুণানুৱর্ণন","h":"-","s":{"eng":"NULL"},"o":{}},{"w":"ৱিধৌ","h":" ","s":{"eng":"NULL"},"o":{}},{"w":"শ্রদ্ধা","h":"-","s":{"eng":"NULL"},"o":{}},{"w":"সমৃদ্ধ্যন্ৱিতৌ","h":"","s":{"eng":"NULL"},"o":{}}],
      [{"w":"পাপোত্তাপ","h":"-","s":{"eng":"NULL"},"o":{}},{"w":"নিকৃন্তনৌ","h":" ","s":{"eng":"NULL"},"o":{}},{"w":"তনুভৃতাং","h":" ","s":{"eng":"NULL"},"o":{}},{"w":"গোৱিন্দ","h":"-","s":{"eng":"NULL"},"o":{}},{"w":"গানামৃতৈঃ","h":"","s":{"eng":"NULL"},"o":{}}],
      [{"w":"আনন্দাম্বুধি","h":"-","s":{"eng":"NULL"},"o":{}},{"w":"ৱর্দ্ধনৈক","h":"-","s":{"eng":"NULL"},"o":{}},{"w":"নিপুণৌ","h":" ","s":{"eng":"NULL"},"o":{}},{"w":"কৈৱল্য","h":"-","s":{"eng":"NULL"},"o":{}},{"w":"নিস্তারকৌ","h":"","s":{"eng":"NULL"},"o":{}}],
      [{"w":"ৱন্দে","h":" ","s":{"eng":"NULL"},"o":{}},{"w":"রূপ","h":"-","s":{"eng":"NULL"},"o":{}},{"w":"সনাতনৌ","h":" ","s":{"eng":"NULL"},"o":{}},{"w":"রঘুযুগৌ","h":" ","s":{"eng":"NULL"},"o":{}},{"w":"শ্রীজীৱ","h":"-","s":{"eng":"NULL"},"o":{}},{"w":"গোপালকৌ","h":" ॥৩॥","s":{"eng":"NULL"},"o":{}}]],
    "translation":{"eng":"UNDEFINED"}},{
    "lines":[
      [{"w":"ত্যক্ত্ৱা","h":" ","s":{"eng":"NULL"},"o":{}},{"w":"তূর্ণমশেষ","h":"-","s":{"eng":"NULL"},"o":{}},{"w":"মণ্ডলপতি","h":"-","s":{"eng":"NULL"},"o":{}},{"w":"শ্রেণীং","h":" ","s":{"eng":"NULL"},"o":{}},{"w":"সদা","h":" ","s":{"eng":"NULL"},"o":{}},{"w":"তুচ্ছৱৎ","h":"","s":{"eng":"NULL"},"o":{}}],
      [{"w":"ভূত্ৱা","h":" ","s":{"eng":"NULL"},"o":{}},{"w":"দীনগণেশকৌ","h":" ","s":{"eng":"NULL"},"o":{}},{"w":"করুণয়া","h":" ","s":{"eng":"NULL"},"o":{}},{"w":"কৌপীন","h":"-","s":{"eng":"NULL"},"o":{}},{"w":"কন্থাশ্রিতৌ","h":"","s":{"eng":"NULL"},"o":{}}],
      [{"w":"গোপীভাৱ","h":"-","s":{"eng":"NULL"},"o":{}},{"w":"রসামৃতাব্ধি","h":"-","s":{"eng":"NULL"},"o":{}},{"w":"লহরী","h":"-","s":{"eng":"NULL"},"o":{}},{"w":"কল্লোল","h":"-","s":{"eng":"NULL"},"o":{}},{"w":"মগ্নৌ","h":" ","s":{"eng":"NULL"},"o":{}},{"w":"মুহু","h":"-","s":{"eng":"NULL"},"o":{}}],
      [{"w":"র্ৱন্দে","h":" ","s":{"eng":"NULL"},"o":{}},{"w":"রূপ","h":"-","s":{"eng":"NULL"},"o":{}},{"w":"সনাতনৌ","h":" ","s":{"eng":"NULL"},"o":{}},{"w":"রঘুযুগৌ","h":" ","s":{"eng":"NULL"},"o":{}},{"w":"শ্রীজীৱ","h":"-","s":{"eng":"NULL"},"o":{}},{"w":"গোপালকৌ","h":" ॥৪॥","s":{"eng":"NULL"},"o":{}}]],
    "translation":{"eng":"UNDEFINED"}},{
    "lines":[
      [{"w":"কূজৎ","h":"-","s":{"eng":"NULL"},"o":{}},{"w":"কোকিল","h":"-","s":{"eng":"NULL"},"o":{}},{"w":"হংস","h":"-","s":{"eng":"NULL"},"o":{}},{"w":"সারস","h":"-","s":{"eng":"NULL"},"o":{}},{"w":"গণাকীর্ণে","h":" ","s":{"eng":"NULL"},"o":{}},{"w":"ময়ূরাকুলে","h":"","s":{"eng":"NULL"},"o":{}}],
      [{"w":"নানারত্ন","h":"-","s":{"eng":"NULL"},"o":{}},{"w":"নিবদ্ধ","h":"-","s":{"eng":"NULL"},"o":{}},{"w":"মূল","h":"-","s":{"eng":"NULL"},"o":{}},{"w":"ৱিটপ","h":"-","s":{"eng":"NULL"},"o":{}},{"w":"শ্রীযুক্ত","h":"-","s":{"eng":"NULL"},"o":{}},{"w":"ৱৃন্দাৱনে","h":"","s":{"eng":"NULL"},"o":{}}],
      [{"w":"রাধাকৃষ্ণমহর্নিশং","h":" ","s":{"eng":"NULL"},"o":{}},{"w":"প্রভজতৌ","h":" ","s":{"eng":"NULL"},"o":{}},{"w":"জীৱার্থদৌ","h":" ","s":{"eng":"NULL"},"o":{}},{"w":"যৌ","h":" ","s":{"eng":"NULL"},"o":{}},{"w":"মুদা","h":"","s":{"eng":"NULL"},"o":{}}],
      [{"w":"ৱন্দে","h":" ","s":{"eng":"NULL"},"o":{}},{"w":"রূপ","h":"-","s":{"eng":"NULL"},"o":{}},{"w":"সনাতনৌ","h":" ","s":{"eng":"NULL"},"o":{}},{"w":"রঘুযুগৌ","h":" ","s":{"eng":"NULL"},"o":{}},{"w":"শ্রীজীৱ","h":"-","s":{"eng":"NULL"},"o":{}},{"w":"গোপালকৌ","h":" ॥৫॥","s":{"eng":"NULL"},"o":{}}]],
    "translation":{"eng":"UNDEFINED"}},{
    "lines":[
      [{"w":"সংখ্যাপূর্ব্বক","h":"-","s":{"eng":"NULL"},"o":{}},{"w":"নাম","h":"-","s":{"eng":"NULL"},"o":{}},{"w":"গান","h":"-","s":{"eng":"NULL"},"o":{}},{"w":"নতিভিঃ","h":" ","s":{"eng":"NULL"},"o":{}},{"w":"কালাবসানীকৃতৌ","h":"","s":{"eng":"NULL"},"o":{}}],
      [{"w":"নিদ্রাহার","h":"-","s":{"eng":"NULL"},"o":{}},{"w":"ৱিহারকাদি","h":"-","s":{"eng":"NULL"},"o":{}},{"w":"ৱিজিতৌ","h":" ","s":{"eng":"NULL"},"o":{}},{"w":"চাত্যন্তদীনৌ","h":" ","s":{"eng":"NULL"},"o":{}},{"w":"চ","h":" ","s":{"eng":"NULL"},"o":{}},{"w":"যৌ","h":"","s":{"eng":"NULL"},"o":{}}],
      [{"w":"রাধাকৃষ্ণ","h":"-","s":{"eng":"NULL"},"o":{}},{"w":"গুণ","h":"-","s":{"eng":"NULL"},"o":{}},{"w":"স্মৃতের্মধুরিমানন্দেন","h":" ","s":{"eng":"NULL"},"o":{}},{"w":"সম্মোহিতৌ","h":"","s":{"eng":"NULL"},"o":{}}],
      [{"w":"ৱন্দে","h":" ","s":{"eng":"NULL"},"o":{}},{"w":"রূপ","h":"-","s":{"eng":"NULL"},"o":{}},{"w":"সনাতনৌ","h":" ","s":{"eng":"NULL"},"o":{}},{"w":"রঘুযুগৌ","h":" ","s":{"eng":"NULL"},"o":{}},{"w":"শ্রীজীৱ","h":"-","s":{"eng":"NULL"},"o":{}},{"w":"গোপালকৌ","h":" ॥৬॥","s":{"eng":"NULL"},"o":{}}]],
    "translation":{"eng":"UNDEFINED"}},{
    "lines":[
      [{"w":"রাধাকুণ্ড","h":"-","s":{"eng":"NULL"},"o":{}},{"w":"তটে","h":" ","s":{"eng":"NULL"},"o":{}},{"w":"কলিন্দ","h":"-","s":{"eng":"NULL"},"o":{}},{"w":"তনয়া","h":"-","s":{"eng":"NULL"},"o":{}},{"w":"তীরে","h":" ","s":{"eng":"NULL"},"o":{}},{"w":"চ","h":" ","s":{"eng":"NULL"},"o":{}},{"w":"ৱংশীৱটে","h":"","s":{"eng":"NULL"},"o":{}}],
      [{"w":"প্রেমোন্মাদ","h":"-","s":{"eng":"NULL"},"o":{}},{"w":"ৱশাদশেষ","h":"-","s":{"eng":"NULL"},"o":{}},{"w":"দশয়া","h":" ","s":{"eng":"NULL"},"o":{}},{"w":"গ্রস্তৌ","h":" ","s":{"eng":"NULL"},"o":{}},{"w":"প্রমত্তৌ","h":" ","s":{"eng":"NULL"},"o":{}},{"w":"সদা","h":"","s":{"eng":"NULL"},"o":{}}],
      [{"w":"গায়ন্তৌ","h":" ","s":{"eng":"NULL"},"o":{}},{"w":"চ","h":" ","s":{"eng":"NULL"},"o":{}},{"w":"কদা","h":" ","s":{"eng":"NULL"},"o":{}},{"w":"হরের্গুণৱরং","h":" ","s":{"eng":"NULL"},"o":{}},{"w":"ভাৱাভিভূতৌ","h":" ","s":{"eng":"NULL"},"o":{}},{"w":"মুদা","h":"","s":{"eng":"NULL"},"o":{}}],
      [{"w":"ৱন্দে","h":" ","s":{"eng":"NULL"},"o":{}},{"w":"রূপ","h":"-","s":{"eng":"NULL"},"o":{}},{"w":"সনাতনৌ","h":" ","s":{"eng":"NULL"},"o":{}},{"w":"রঘুযুগৌ","h":" ","s":{"eng":"NULL"},"o":{}},{"w":"শ্রীজীৱ","h":"-","s":{"eng":"NULL"},"o":{}},{"w":"গোপালকৌ","h":" ॥৭॥","s":{"eng":"NULL"},"o":{}}]],
    "translation":{"eng":"UNDEFINED"}},{
    "lines":[
      [{"w":"হে","h":" ","s":{"eng":"NULL"},"o":{}},{"w":"রাধে","h":"! ","s":{"eng":"NULL"},"o":{}},{"w":"ৱ্রজদেৱিকে","h":"! ","s":{"eng":"NULL"},"o":{}},{"w":"চ","h":" ","s":{"eng":"NULL"},"o":{}},{"w":"ললিতে","h":"! ","s":{"eng":"NULL"},"o":{}},{"w":"হে","h":" ","s":{"eng":"NULL"},"o":{}},{"w":"নন্দসূনো","h":"! ","s":{"eng":"NULL"},"o":{}},{"w":"কুতঃ","h":"","s":{"eng":"NULL"},"o":{}}],
      [{"w":"শ্রীগোৱর্দ্ধন","h":"-","s":{"eng":"NULL"},"o":{}},{"w":"কল্পপাদপ","h":"-","s":{"eng":"NULL"},"o":{}},{"w":"তলে","h":" ","s":{"eng":"NULL"},"o":{}},{"w":"কালিন্দী","h":"-","s":{"eng":"NULL"},"o":{}},{"w":"ৱন্যে","h":" ","s":{"eng":"NULL"},"o":{}},{"w":"কুতঃ","h":"","s":{"eng":"NULL"},"o":{}}],
      [{"w":"ঘোষন্তাৱিতি","h":" ","s":{"eng":"NULL"},"o":{}},{"w":"সর্ৱতো","h":" ","s":{"eng":"NULL"},"o":{}},{"w":"ৱ্রজ","h":"-","s":{"eng":"NULL"},"o":{}},{"w":"পুরে","h":" ","s":{"eng":"NULL"},"o":{}},{"w":"খেদৈর্মহাৱিহ্ৱলৌ","h":"","s":{"eng":"NULL"},"o":{}}],
      [{"w":"ৱন্দে","h":" ","s":{"eng":"NULL"},"o":{}},{"w":"রূপ","h":"-","s":{"eng":"NULL"},"o":{}},{"w":"সনাতনৌ","h":" ","s":{"eng":"NULL"},"o":{}},{"w":"রঘুযুগৌ","h":" ","s":{"eng":"NULL"},"o":{}},{"w":"শ্রীজীৱ","h":"-","s":{"eng":"NULL"},"o":{}},{"w":"গোপালকৌ","h":" ॥৮॥","s":{"eng":"NULL"},"o":{}}]],
    "translation":{"eng":"UNDEFINED"}}
  ]
}