{
  "uid":"GV43",
  "title":"যঙ্ কলি রূপ শরীর ন ধরত",
  "author":"মাধব দাস",
  "language":"ben",
  "notes":["শব্দার্থঃ- যঙ্—যদি; তঙ্—তবে; কুঠরীক—কোষ্ঠাগার; যাকর—যাঁহার; উর—শ্রেষ্ঠ ।"],
  "audio":[
    {"uid":"krsn-2","fn":"GV43-krsn-2.mp3","meta":{"artist":"Krsnadas das","src":"03 Śrīla Rūpa Gosvāmī/[01] Yaṅ Kali Rūpa Śarīra Na Dharata/krsn-yan_kali_rupa.mp3"}},
    {"uid":"srrb-1","fn":"GV43-srrb-1.mp3","meta":{"artist":"Sudarsan das (Radha-ramana Babaji Maharaja)","src":"03 Śrīla Rūpa Gosvāmī/[01] Yaṅ Kali Rūpa Śarīra Na Dharata/srrb-yan_kali_rupa.mp3"}},
    {"uid":"gaur-1","fn":"GV43-gaur-1.mp3","meta":{"artist":"Gaurasundar das","src":"03 Śrīla Rūpa Gosvāmī/[01] Yaṅ Kali Rūpa Śarīra Na Dharata/gaur-yan_kali_rupa.mp3"}},
    {"uid":"krsn-1","fn":"GV43-krsn-1.mp3","meta":{"artist":"Krsnadas das","src":"03 Śrīla Rūpa Gosvāmī/[01] Yaṅ Kali Rūpa Śarīra Na Dharata/krsn-yan_kali_rupa-2.mp3"}}],
  "has_synonyms":true,
  "has_translations":true,
  "legend":{"w":"word","h":"hint","s":"synonym","o":"override"},
  "verses":[{
    "lines":[
      [{"w":"যঙ্","h":" ","s":{"eng":"if"},"o":{}},{"w":"কলি","h":" ","s":{"eng":"the age of quarrel"},"o":{}},{"w":"রূপ","h":" ","s":{"eng":"Śrīla Rūpa Gosvāmī"},"o":{}},{"w":"শরীর","h":" ","s":{"eng":"body"},"o":{}},{"w":"ন","h":" ","s":{"eng":"not"},"o":{}},{"w":"ধরত","h":" ।","s":{"eng":"were to have accepted"},"o":{}}],
      [{"w":"তঙ্","h":" ","s":{"eng":"then"},"o":{}},{"w":"ব্রজপ্রেম","h":",    ","s":{"eng":"the love of Vraja"},"o":{}},{"w":"মহানিধি","h":" ","s":{"eng":"the great treasure-house"},"o":{}},{"w":"কুঠরীক","h":",","s":{"eng":"(koṣṭhāgār) the inner part of a (dwelling) house"},"o":{}}],
      [{"w":"কোন্","h":" ","s":{"eng":"who"},"o":{}},{"w":"কপাট","h":" ","s":{"eng":"the doors"},"o":{}},{"w":"উঘাড়ত","h":" ॥১॥","s":{"eng":"opened"},"o":{}}]],
    "translation":{"eng":"Had Śrīla Rūpa Gosvāmī not appeared in this age of Kali, who would have opened the doors to the great treasure-house of vraja-prema?"}},{
    "lines":[
      [{"w":"নীর","h":"-","s":{"eng":"water"},"o":{}},{"w":"ক্ষীর","h":"-","s":{"eng":"milk"},"o":{}},{"w":"হংসন","h":",    ","s":{"eng":"swan"},"o":{}},{"w":"পান","h":"-","s":{"eng":"of drinking"},"o":{}},{"w":"বিধায়ন","h":",","s":{"eng":"showing the proper method"},"o":{}}],
      [{"w":"কোন্","h":" ","s":{"eng":"who"},"o":{}},{"w":"পৃথক্","h":" ","s":{"eng":"separated"},"o":{}},{"w":"করি","h":" ","s":{"eng":"⬅1"},"o":{}},{"w":"পায়ত","h":" ।","s":{"eng":"can get"},"o":{}}],
      [{"w":"কো","h":" ","s":{"eng":"who"},"o":{}},{"w":"সব","h":" ","s":{"eng":"all"},"o":{}},{"w":"ত্যজি’","h":",    ","s":{"eng":"abandoning"},"o":{}},{"w":"ভজি’","h":" ","s":{"eng":"having worshipped"},"o":{}},{"w":"বৃন্দাবন","h":",","s":{"eng":"Vṛndāvana"},"o":{}}],
      [{"w":"কো","h":" ","s":{"eng":"who"},"o":{}},{"w":"সব","h":" ","s":{"eng":"all"},"o":{}},{"w":"গ্রন্থ","h":" ","s":{"eng":"scriptures"},"o":{}},{"w":"বিরচিত","h":" ॥২॥","s":{"eng":"written"},"o":{}}]],
    "translation":{"eng":"Who but Śrīla Rūpa Gosvāmī could have extracted the essence of the scriptures in the same way that a swan separates water from milk? Who could have abandoned everything to perform bhajana in Vṛndāvana? Who could have written such scriptures?"}},{
    "lines":[
      [{"w":"যব্","h":" ","s":{"eng":"when"},"o":{}},{"w":"পিতু","h":" ","s":{"eng":"yellow"},"o":{}},{"w":"বনফুল","h":",    ","s":{"eng":"forest-flowers"},"o":{}},{"w":"ফলত","h":" ","s":{"eng":"blossoming"},"o":{}},{"w":"নানাবিধ","h":",","s":{"eng":"various kinds"},"o":{}}],
      [{"w":"মনোরাজি","h":" ","s":{"eng":"mind-enchanting"},"o":{}},{"w":"অরবিন্দ","h":" ।","s":{"eng":"lotus"},"o":{}}],
      [{"w":"সো","h":" ","s":{"eng":"that"},"o":{}},{"w":"মধুকর","h":" ","s":{"eng":"honey bee"},"o":{}},{"w":"বিনু","h":",    ","s":{"eng":"without"},"o":{}},{"w":"পান","h":" ","s":{"eng":"dring"},"o":{}},{"w":"কোন্","h":" ","s":{"eng":"who"},"o":{}},{"w":"জানত","h":",","s":{"eng":"known"},"o":{}}],
      [{"w":"বিদ্যমান","h":" ","s":{"eng":"present"},"o":{}},{"w":"করি","h":" ","s":{"eng":"confined"},"o":{}},{"w":"বন্ধ","h":" ॥৩॥","s":{"eng":"⬅1"},"o":{}}]],
    "translation":{"eng":"He was a honey bee amid varieties of blossoming yellow forest flowers and mind-enchanting lotuses. Without that honey bee, who could have known the art of drinking the nectar present yet confined within [those flowers]?"}},{
    "lines":[
      [{"w":"কো","h":" ","s":{"eng":"who"},"o":{}},{"w":"জানত","h":",    ","s":{"eng":"could know"},"o":{}},{"w":"মথুরা","h":" ","s":{"eng":"Mathurā and Vrṇdāvana"},"o":{}},{"w":"বৃন্দাবন","h":",","s":{"eng":"⬅1"},"o":{}}],
      [{"w":"কো","h":" ","s":{"eng":"who"},"o":{}},{"w":"জানত","h":" ","s":{"eng":"could know"},"o":{}},{"w":"ব্রজনীত","h":" ।","s":{"eng":"intricacies of Vraja"},"o":{}}],
      [{"w":"কো","h":" ","s":{"eng":"who"},"o":{}},{"w":"জানত","h":",    ","s":{"eng":"could know"},"o":{}},{"w":"রাধামাধব","h":"-","s":{"eng":"the loving attachment between Śrī Rādhā and Mādhava"},"o":{}},{"w":"রতি","h":",","s":{"eng":"⬅1"},"o":{}}],
      [{"w":"কো","h":" ","s":{"eng":"who"},"o":{}},{"w":"জানত","h":" ","s":{"eng":"could know"},"o":{}},{"w":"সোই","h":" ","s":{"eng":"that"},"o":{}},{"w":"প্রীত","h":" ॥৪॥","s":{"eng":"love"},"o":{}}]],
    "translation":{"eng":"Who could have understood the glories of Mathurā and Vrṇdāvana? Who could have fathomed the intricacies of Vraja? Who could have understood the rati between Śrī Rādhā and Mādhava? Who could have known that love?"}},{
    "lines":[
      [{"w":"যাকর","h":"-","s":{"eng":"whose"},"o":{}},{"w":"চরণ","h":"-,    ","s":{"eng":"feet"},"o":{}},{"w":"প্রসাদে","h":" ","s":{"eng":"by mercy"},"o":{}},{"w":"সকল","h":" ","s":{"eng":"all"},"o":{}},{"w":"জন","h":",","s":{"eng":"souls"},"o":{}}],
      [{"w":"গাই","h":" ","s":{"eng":"sing"},"o":{}},{"w":"গাওয়াই","h":" ","s":{"eng":"make sing"},"o":{}},{"w":"সুখ","h":" ","s":{"eng":"joy"},"o":{}},{"w":"পাওত","h":" ।","s":{"eng":"get"},"o":{}}],
      [{"w":"চরণ","h":"-","s":{"eng":"at the lotus feet"},"o":{}},{"w":"কমলে","h":",    ","s":{"eng":"⬅1"},"o":{}},{"w":"শরণাগত","h":" ","s":{"eng":"surrendered"},"o":{}},{"w":"মাধো","h":",","s":{"eng":"Mādhava dāsa"},"o":{}}],
      [{"w":"তব","h":" ","s":{"eng":"your"},"o":{}},{"w":"মহিমা","h":" ","s":{"eng":"glories"},"o":{}},{"w":"উর","h":" ","s":{"eng":"topmost"},"o":{}},{"w":"লাগত","h":" ॥৫॥","s":{"eng":"comprehend"},"o":{}}]],
    "translation":{"eng":"By the mercy of his lotus feet, all souls may sing and inspire others to sing [about glories of the love of Śrī Rādhā-Mādhava], thereby attaining true joy. [O Śrīla Rūpa Gosvāmī,] having surrendered at your lotus feet, may this Mādhava dāsa be able to comprehend your unlimited glories."}}
  ]
}