{
  "uid":"K3",
  "title":"শ্রীনন্দনন্দনাষ্টকম্",
  "author":"?",
  "language":"san",
  "notes":[],
  "audio":[
    {"uid":"jana-1","fn":"K3-jana-1.mp3","meta":{"artist":"Janaki dasi","src":"19 Sanskrit Stotras/[13] Śrī Nanda-nandanāṣṭakam /jana-nanda_nandanastakam.mp3"}},
    {"uid":"krsn-1","fn":"K3-krsn-1.mp3","meta":{"artist":"Krsnadas das","src":"19 Sanskrit Stotras/[13] Śrī Nanda-nandanāṣṭakam /krsn-nanda_nandanastakam.mp3"}},
    {"uid":"mith-1","fn":"K3-mith-1.mp3","meta":{"artist":"Mithu dasi","src":"19 Sanskrit Stotras/[13] Śrī Nanda-nandanāṣṭakam /mith-nanda_nandanastakam.mp3"}},
    {"uid":"mith-2","fn":"K3-mith-2.mp3","meta":{"artist":"Mithu dasi","src":"19 Sanskrit Stotras/[13] Śrī Nanda-nandanāṣṭakam /mith-nanda_nandanastakam-2.mp3"}}],
  "has_synonyms":false,
  "has_translations":true,
  "legend":{"w":"word","h":"hint","s":"synonym","o":"override"},
  "verses":[{
    "lines":[
      [{"w":"xxx শ্রী","h":"-","s":{"eng":"NULL"},"o":{}},{"w":"নন্দ","h":"-","s":{"eng":"NULL"},"o":{}},{"w":"নন্দনাষ্টকম্","h":"","s":{"eng":"NULL"},"o":{}}],
      [{"w":"সুচারু","h":"-","s":{"eng":"NULL"},"o":{}},{"w":"ৱক্ত্রমণ্ডলং","h":"","s":{"eng":"NULL"},"o":{}}],
      [{"w":"সুকর্ণ","h":"-","s":{"eng":"NULL"},"o":{}},{"w":"রত্নকুণ্ডলম্","h":" ।","s":{"eng":"NULL"},"o":{}}],
      [{"w":"সুচর্চিতাঙ্গ","h":"-","s":{"eng":"NULL"},"o":{}},{"w":"চন্দনং","h":"","s":{"eng":"NULL"},"o":{}}],
      [{"w":"নমামি","h":" ","s":{"eng":"NULL"},"o":{}},{"w":"নন্দনন্দনম্","h":" ॥১॥","s":{"eng":"NULL"},"o":{}}]],
    "translation":{"eng":"His round face is so lovely, His beautiful ears are adorned with hanging jewelled earrings, and His body is nicely anointed with fragrant sandalwood paste. I offer praṇāma to that Śrī Nanda-nandana."}},{
    "lines":[
      [{"w":"সুদীর্ঘ","h":"-","s":{"eng":"NULL"},"o":{}},{"w":"নেত্রপঙ্কজং","h":"","s":{"eng":"NULL"},"o":{}}],
      [{"w":"শিখি","h":"-","s":{"eng":"NULL"},"o":{}},{"w":"শিখণ্ড","h":"-","s":{"eng":"NULL"},"o":{}},{"w":"মূর্দ্ধজম্","h":" ।","s":{"eng":"NULL"},"o":{}}],
      [{"w":"অনঙ্গকোটি","h":"-","s":{"eng":"NULL"},"o":{}},{"w":"মোহনং","h":"","s":{"eng":"NULL"},"o":{}}],
      [{"w":"নমামি","h":" ","s":{"eng":"NULL"},"o":{}},{"w":"নন্দনন্দনম্","h":" ॥২॥","s":{"eng":"NULL"},"o":{}}]],
    "translation":{"eng":"His eyes are elongated like lotuses; peacock feathers adorn His head; and He enchants millions of Cupids. I offer praṇāma to that Śrī Nanda-nandana."}},{
    "lines":[
      [{"w":"সুনাসিকাগ্র","h":"-","s":{"eng":"NULL"},"o":{}},{"w":"মৌক্তিকং","h":"","s":{"eng":"NULL"},"o":{}}],
      [{"w":"স্ৱচ্ছন্দ","h":"-","s":{"eng":"NULL"},"o":{}},{"w":"দন্ত","h":"-","s":{"eng":"NULL"},"o":{}},{"w":"পঙ্ক্তিকম্","h":" ।","s":{"eng":"NULL"},"o":{}}],
      [{"w":"নৱাম্বুদাঙ্গ","h":"-","s":{"eng":"NULL"},"o":{}},{"w":"চিক্কণং","h":"","s":{"eng":"NULL"},"o":{}}],
      [{"w":"নমামি","h":" ","s":{"eng":"NULL"},"o":{}},{"w":"নন্দনন্দনম্","h":" ॥৩॥","s":{"eng":"NULL"},"o":{}}]],
    "translation":{"eng":"From the tip of His beautiful nose hangs an elephant pearl, His rows of teeth shine naturally [like pearls], and His bodily complexion shines like a fresh raincloud. I offer praṇāma to that Śrī Nanda-nandana."}},{
    "lines":[
      [{"w":"করেণ","h":" ","s":{"eng":"NULL"},"o":{}},{"w":"ৱেণুরঞ্জিতং","h":"","s":{"eng":"NULL"},"o":{}}],
      [{"w":"গতি","h":"-","s":{"eng":"NULL"},"o":{}},{"w":"করীন্দ্রগঞ্জিতম্","h":" ।","s":{"eng":"NULL"},"o":{}}],
      [{"w":"দুকূল","h":"-","s":{"eng":"NULL"},"o":{}},{"w":"পীত","h":"-","s":{"eng":"NULL"},"o":{}},{"w":"শোভনং","h":"","s":{"eng":"NULL"},"o":{}}],
      [{"w":"নমামি","h":" ","s":{"eng":"NULL"},"o":{}},{"w":"নন্দনন্দনম্","h":" ॥৪॥","s":{"eng":"NULL"},"o":{}}]],
    "translation":{"eng":"His hands are adorned with a flute, His majestic gait excels that of the king of elephants, and He is beautified by fine yellow garments. I offer praṇāma to that Śrī Nanda-nandana."}},{
    "lines":[
      [{"w":"ত্রিভঙ্গ","h":"-","s":{"eng":"NULL"},"o":{}},{"w":"দেহ","h":"-","s":{"eng":"NULL"},"o":{}},{"w":"সুন্দরং","h":"","s":{"eng":"NULL"},"o":{}}],
      [{"w":"নখদ্যুতি","h":"-","s":{"eng":"NULL"},"o":{}},{"w":"সুধাকরম্","h":" ।","s":{"eng":"NULL"},"o":{}}],
      [{"w":"অমূল্য","h":"-","s":{"eng":"NULL"},"o":{}},{"w":"রত্ন","h":"-","s":{"eng":"NULL"},"o":{}},{"w":"ভূষণং","h":"","s":{"eng":"NULL"},"o":{}}],
      [{"w":"নমামি","h":" ","s":{"eng":"NULL"},"o":{}},{"w":"নন্দনন্দনম্","h":" ॥৫॥","s":{"eng":"NULL"},"o":{}}]],
    "translation":{"eng":"His threefold bending form is most beautiful, His nails glow like the moon, and He is adorned by priceless gems. I offer praṇāma to that Śrī Nanda-nandana."}},{
    "lines":[
      [{"w":"সুগন্ধ","h":"-","s":{"eng":"NULL"},"o":{}},{"w":"অঙ্গসৌরভম্","h":"-","s":{"eng":"NULL"},"o":{}}],
      [{"w":"উরোৱিরাজি","h":"-","s":{"eng":"NULL"},"o":{}},{"w":"কৌস্তুভম্","h":" ।","s":{"eng":"NULL"},"o":{}}],
      [{"w":"স্ফুরচ্ছ্রীৱৎস","h":"-","s":{"eng":"NULL"},"o":{}},{"w":"লাঞ্ছনং","h":"","s":{"eng":"NULL"},"o":{}}],
      [{"w":"নমামি","h":" ","s":{"eng":"NULL"},"o":{}},{"w":"নন্দনন্দনম্","h":" ॥৬॥","s":{"eng":"NULL"},"o":{}}]],
    "translation":{"eng":"His body exudes an extraordinarily enchanting fragrance, and upon His broad chest the kaustubha gem shines, along with the mark of Śrīvatsa. I offer praṇāma to that Śrī Nanda-nandana."}},{
    "lines":[
      [{"w":"ৱৃন্দাৱন","h":"-","s":{"eng":"NULL"},"o":{}},{"w":"সুনাগরং","h":"","s":{"eng":"NULL"},"o":{}}],
      [{"w":"ৱিলাসানুগ","h":"-","s":{"eng":"NULL"},"o":{}},{"w":"ৱাসসম্","h":" ।","s":{"eng":"NULL"},"o":{}}],
      [{"w":"সুরেন্দ্রগর্ৱ্ৱ","h":"-","s":{"eng":"NULL"},"o":{}},{"w":"মোচনং","h":"","s":{"eng":"NULL"},"o":{}}],
      [{"w":"নমামি","h":" ","s":{"eng":"NULL"},"o":{}},{"w":"নন্দ","h":"-","s":{"eng":"NULL"},"o":{}},{"w":"নন্দনম্","h":" ॥৭॥","s":{"eng":"NULL"},"o":{}}]],
    "translation":{"eng":"He is Vṛndāvana’s expert paramour, who dresses in a manner to enhance His charming, playful pastimes and who liberates Indra from his pride. I offer praṇāma to that Śrī Nanda-nandana."}},{
    "lines":[
      [{"w":"ৱ্রজাঙ্গনা","h":"-","s":{"eng":"NULL"},"o":{}},{"w":"সুনায়কং","h":"","s":{"eng":"NULL"},"o":{}}],
      [{"w":"সদা","h":" ","s":{"eng":"NULL"},"o":{}},{"w":"সুখ","h":"-","s":{"eng":"NULL"},"o":{}},{"w":"প্রদায়কম্","h":" ।","s":{"eng":"NULL"},"o":{}}],
      [{"w":"জগন্মনঃ","h":"-","s":{"eng":"NULL"},"o":{}},{"w":"প্রলোভনং","h":"","s":{"eng":"NULL"},"o":{}}],
      [{"w":"নমামি","h":" ","s":{"eng":"NULL"},"o":{}},{"w":"নন্দনন্দনম্","h":" ॥৮॥","s":{"eng":"NULL"},"o":{}}]],
    "translation":{"eng":"The exquisite lover of the damsels of Vraja always bestows happiness upon all living entities and enchants their mind. I offer praṇāma to that Śrī Nanda-nandana."}},{
    "lines":[
      [{"w":"শ্রীনন্দনন্দনাষ্টকং","h":"","s":{"eng":"NULL"},"o":{}}],
      [{"w":"পঠেদ্","h":" ","s":{"eng":"NULL"},"o":{}},{"w":"যঃ","h":" ","s":{"eng":"NULL"},"o":{}},{"w":"শ্রদ্ধয়ান্ৱিতঃ","h":" ।","s":{"eng":"NULL"},"o":{}}],
      [{"w":"তরেদ্ভৱাব্ধিং","h":" ","s":{"eng":"NULL"},"o":{}},{"w":"দুস্তরং","h":"","s":{"eng":"NULL"},"o":{}}],
      [{"w":"লভেত্তদঙ্ঘ্রি","h":"-","s":{"eng":"NULL"},"o":{}},{"w":"যুগ্মকম্","h":" ॥৯॥","s":{"eng":"NULL"},"o":{}}]],
    "translation":{"eng":"Whoever with faith recites these eight verses glorifying the son of Nanda will easily conquer the insurmountable ocean of material existence and attain shelter at His two lotus feet."}}
  ]
}