{
  "uid":"K36",
  "title":"জয় জয় ৱল্লৱরাজ-কুমার",
  "author":"rg",
  "language":"san",
  "notes":["(ভৈরৱ রাগ)"],
  "audio":[
    {"uid":"srrb-1","fn":"K36-srrb-1.mp3","meta":{"artist":"Sudarsan das (Radha-ramana Babaji Maharaja)","src":"20 Sanskrit Songs/[09] Jaya Jaya Ballava-rāja-kumāra/srrb-jaya_jaya_ballava_raja_kumara.mp3"}},
    {"uid":"hakr-1","fn":"K36-hakr-1.mp3","meta":{"artist":"Hare Krsna das","src":"20 Sanskrit Songs/[09] Jaya Jaya Ballava-rāja-kumāra/hakr-jaya_jaya_ballava_raja_kumara.mp3"}}],
  "has_synonyms":false,
  "has_translations":true,
  "legend":{"w":"word","h":"hint","s":"synonym","o":"override"},
  "verses":[{
    "lines":[
      [{"w":"জয়","h":" ","s":{"eng":"NULL"},"o":{}},{"w":"জয়","h":" ","s":{"eng":"NULL"},"o":{}},{"w":"বল্লৱরাজ","h":"-","s":{"eng":"NULL"},"o":{}},{"w":"কুমার","h":" ।","s":{"eng":"NULL"},"o":{}}],
      [{"w":"রাধা","h":"-","s":{"eng":"NULL"},"o":{}},{"w":"ৱক্ষসি","h":" ","s":{"eng":"NULL"},"o":{}},{"w":"হরি","h":"-","s":{"eng":"NULL"},"o":{}},{"w":"মণিহার","h":" ॥","s":{"eng":"NULL"},"o":{}},{"w":"ধ্রু","h":"॥","s":{"eng":"NULL"},"o":{}}]],
    "translation":{"eng":"All glories to the prince of the cowherds! He is the blue sapphire necklace adorning the breast of Śrī Rādhā."}},{
    "lines":[
      [{"w":"অপঘন","h":"-","s":{"eng":"NULL"},"o":{}},{"w":"ঘটিত","h":"-","s":{"eng":"NULL"},"o":{}},{"w":"ঘুসৃণ","h":"-","s":{"eng":"NULL"},"o":{}},{"w":"ঘনসার","h":" ।","s":{"eng":"NULL"},"o":{}}],
      [{"w":"পিঞ্ছ","h":"-","s":{"eng":"NULL"},"o":{}},{"w":"খচিত","h":"-","s":{"eng":"NULL"},"o":{}},{"w":"কুঞ্চিত","h":"-","s":{"eng":"NULL"},"o":{}},{"w":"কচভার","h":" ॥১॥","s":{"eng":"NULL"},"o":{}}]],
    "translation":{"eng":"His limbs are anointed with kuṁkuma, saffron, and camphor, and His curly hair is bedecked with a peacock feather."}},{
    "lines":[
      [{"w":"রাধা","h":"-","s":{"eng":"NULL"},"o":{}},{"w":"ধৃতিহর","h":"-","s":{"eng":"NULL"},"o":{}},{"w":"মুরলী","h":"-","s":{"eng":"NULL"},"o":{}},{"w":"তার","h":"  ।","s":{"eng":"NULL"},"o":{}}],
      [{"w":"নয়নাঞ্চলকৃত","h":"-","s":{"eng":"NULL"},"o":{}},{"w":"মদন","h":"-","s":{"eng":"NULL"},"o":{}},{"w":"ৱিকার","h":" ॥২॥","s":{"eng":"NULL"},"o":{}}]],
    "translation":{"eng":"The shrill sound of His muralī flute shatters the composure of Śrī Rādhā, and His sidelong glance causes transformations of love to arise in Her."}},{
    "lines":[
      [{"w":"রস","h":"-","s":{"eng":"NULL"},"o":{}},{"w":"রঞ্জিত","h":"-","s":{"eng":"NULL"},"o":{}},{"w":"রাধা","h":"-","s":{"eng":"NULL"},"o":{}},{"w":"পরিৱার","h":" ।","s":{"eng":"NULL"},"o":{}}],
      [{"w":"কলিত","h":"-","s":{"eng":"NULL"},"o":{}},{"w":"সনাতন","h":"-","s":{"eng":"NULL"},"o":{}},{"w":"চিত্তৱিহার","h":" ॥৩॥","s":{"eng":"NULL"},"o":{}}]],
    "translation":{"eng":"He delights Śrī Rādhā’s sakhīs with rasa, and He revels in the heart of Śrīla Sanātana Gosvāmī."}}
  ]
}