{
  "uid":"K41",
  "title":"জনম সফল তা’র, কৃষ্ণ দরশন যা’র",
  "author":"bt",
  "language":"ben",
  "notes":["শ্রীকৃষ্ণ-রূপ-বর্ণন<br>","শব্দার্থ:- হৃন্নয়ন—হৃদয়চক্ষু; ইন্দ্রনীল—নীলবর্ণের শ্রেষ্ঠ মণি; উচাটন—ব্যাকুল ।"],
  "audio":[
    {"uid":"srrb-1","fn":"K41-srrb-1.mp3","meta":{"artist":"Sudarsan das (Radha-ramana Babaji Maharaja)","src":"10 Śrī Kṛṣṇa/[02] Janama Saphala Tā’ra/srrb-janama_saphala_tara.mp3"}},
    {"uid":"vraj-1","fn":"K41-vraj-1.mp3","meta":{"artist":"Vraj Mohan das","src":"10 Śrī Kṛṣṇa/[02] Janama Saphala Tā’ra/vraj-janama_saphala_tara.mp3"}},
    {"uid":"krsn-1","fn":"K41-krsn-1.mp3","meta":{"artist":"Krsnadas das","src":"10 Śrī Kṛṣṇa/[02] Janama Saphala Tā’ra/krsn-janama_saphala_tara.mp3"}},
    {"uid":"mith-1","fn":"K41-mith-1.mp3","meta":{"artist":"Mithu dasi","src":"10 Śrī Kṛṣṇa/[02] Janama Saphala Tā’ra/mith-janama_saphala_tara.mp3"}},
    {"uid":"mith-2","fn":"K41-mith-2.mp3","meta":{"artist":"Mithu dasi","src":"10 Śrī Kṛṣṇa/[02] Janama Saphala Tā’ra/mith-janama_saphala_tara-2.mp3"}},
    {"uid":"gaur-1","fn":"K41-gaur-1.mp3","meta":{"artist":"Gaurasundar das","src":"10 Śrī Kṛṣṇa/[02] Janama Saphala Tā’ra/gaur-janama_saphala_tara.mp3"}},
    {"uid":"shbi-1","fn":"K41-shbi-1.mp3","meta":{"artist":"Shyam-bihari das","src":"10 Śrī Kṛṣṇa/[02] Janama Saphala Tā’ra/shbi-janama_saphala_tara.mp3"}},
    {"uid":"tama-1","fn":"K41-tama-1.mp3","meta":{"artist":"Tamal Krsna das","src":"10 Śrī Kṛṣṇa/[02] Janama Saphala Tā’ra/tama-janama_saphala_tara.mp3"}}],
  "has_synonyms":true,
  "has_translations":true,
  "legend":{"w":"word","h":"hint","s":"synonym","o":"override"},
  "verses":[{
    "lines":[
      [{"w":"জনম","h":" ","s":{"eng":"birth"},"o":{}},{"w":"সফল","h":" ","s":{"eng":"successful"},"o":{}},{"w":"তা’র","h":",    ","s":{"eng":"his"},"o":{}},{"w":"কৃষ্ণ","h":" ","s":{"eng":"Śrī Kṛṣṇa"},"o":{}},{"w":"দরশন","h":" ","s":{"eng":"beholds, has audience"},"o":{}},{"w":"যা’র","h":",","s":{"eng":"of he who"},"o":{}}],
      [{"w":"ভাগ্যে","h":" ","s":{"eng":"by good fortune"},"o":{}},{"w":"হইয়াছে","h":" ","s":{"eng":"happends"},"o":{}},{"w":"একবার","h":" ।","s":{"eng":"one + time"},"o":{}}],
      [{"w":"বিকশিয়া","h":" ","s":{"eng":"having opened, widened"},"o":{}},{"w":"হৃন্নয়ন","h":",    ","s":{"eng":"of the heart + eyes"},"o":{}},{"w":"করি’","h":" ","s":{"eng":"having [connected with darśan]"},"o":{}},{"w":"কৃষ্ণ","h":"-","s":{"eng":"Śrī Kṛṣṇa"},"o":{}},{"w":"দরশন","h":",","s":{"eng":"beheld"},"o":{}}],
      [{"w":"ছাড়ে","h":" ","s":{"eng":"abandons"},"o":{}},{"w":"জীব","h":" ","s":{"eng":"the living entity"},"o":{}},{"w":"চিত্তের","h":" ","s":{"eng":"of conscinousness, mind, heart"},"o":{}},{"w":"বিকার","h":" ॥১॥","s":{"eng":"derangement, perversion, deviation from the natural state"},"o":{}}]],
    "translation":{"eng":"That person's birth is successful if, by good fortune, he has Kṛṣṇa's darśana just once. By seeing Kṛṣṇa with the opened eyes of the heart, the jīva abandons all perversions of consciousness."}},{
    "lines":[
      [{"w":"বৃন্দাবন","h":"-","s":{"eng":"in Vṛndāvana"},"o":{}},{"w":"কেলিচতুর","h":" ","s":{"eng":"in amorous enjoyment + expert"},"o":{}},{"w":"বনমালী","h":" ।","s":{"eng":"A name for Kṛṣṇa who is bedecked with garlands of forest flowers"},"o":{}}],
      [{"w":"ত্রিভঙ্গ","h":"-","s":{"eng":"curved in three places"},"o":{}},{"w":"ভঙ্গিম","h":" ","s":{"eng":"shape, form, figure, posture"},"o":{}},{"w":"রূপ","h":",    ","s":{"eng":"form, beauty"},"o":{}},{"w":"বংশীধারী","h":" ","s":{"eng":"He who holds the vaṁśī flute"},"o":{}},{"w":"অপরূপ","h":",","s":{"eng":"unparalleled"},"o":{}}],
      [{"w":"রসময়নিধি","h":" ","s":{"eng":"made of nectar + an ocean"},"o":{}},{"w":"গুণশালী","h":" ॥২॥","s":{"eng":"good qualities + posessing"},"o":{}}]],
    "translation":{"eng":"Bedecked with garlands of forest flowers, He [Kṛṣṇa] expertly engages in amorous enjoyment in Vṛndāvana. Standing in His threefold bending form and holding His flute, He displays unparalleled beauty. He is an ocean of nectarean mellows and a reservoir of all good qualities."}},{
    "lines":[
      [{"w":"বর্ণ","h":" ","s":{"eng":"complexion"},"o":{}},{"w":"নবজলধর","h":",    ","s":{"eng":"fresh + rain cloud"},"o":{}},{"w":"শিরে","h":" ","s":{"eng":"on the head"},"o":{}},{"w":"শিখিপিচ্ছবর","h":",","s":{"eng":"peacock + feather + great"},"o":{}}],
      [{"w":"অলকা","h":" ","s":{"eng":"painting on the face with sandal-paste"},"o":{}},{"w":"তিলক","h":" ","s":{"eng":"⬅1"},"o":{}},{"w":"শোভা","h":" ","s":{"eng":"looks beautiful, present beautifully"},"o":{}},{"w":"পায়","h":" ।","s":{"eng":"⬅1"},"o":{}}],
      [{"w":"পরিধানে","h":" ","s":{"eng":"He wears"},"o":{}},{"w":"পীতবাস","h":",    ","s":{"eng":"yellow + garment"},"o":{}},{"w":"বদনে","h":" ","s":{"eng":"on his lips"},"o":{}},{"w":"মধুর","h":" ","s":{"eng":"sweet"},"o":{}},{"w":"হাস","h":",","s":{"eng":"smile"},"o":{}}],
      [{"w":"হেন","h":" ","s":{"eng":"such"},"o":{}},{"w":"রূপ","h":" ","s":{"eng":"beauty"},"o":{}},{"w":"জগত","h":" ","s":{"eng":"the world"},"o":{}},{"w":"মাতায়","h":" ॥৩॥","s":{"eng":"He maddens"},"o":{}}]],
    "translation":{"eng":"His bodily complexion is the color of a fresh rain cloud, He wears a great peacock feather on His head, and His forehead is beautifully decorated with marks of sandalwood paste. Wearing yellow garments and smiling sweetly, He maddens the whole world with His beauty."}},{
    "lines":[
      [{"w":"ইন্দ্রনীল","h":" ","s":{"eng":"blue sapphire"},"o":{}},{"w":"জিনি’","h":",    ","s":{"eng":"defeating"},"o":{}},{"w":"কৃষ্ণরূপখানি","h":",","s":{"eng":"of Kṛṣṇa + form + [used as the article ‘the’]"},"o":{}}],
      [{"w":"হেরিয়া","h":" ","s":{"eng":"seeing"},"o":{}},{"w":"কদম্বমূলে","h":" ।","s":{"eng":"a kadamba tree + at the foot, base"},"o":{}}],
      [{"w":"মন","h":" ","s":{"eng":"the mind"},"o":{}},{"w":"উচাটন","h":",    ","s":{"eng":"unsteady"},"o":{}},{"w":"না","h":" ","s":{"eng":"not"},"o":{}},{"w":"চলে","h":" ","s":{"eng":"moves"},"o":{}},{"w":"চরণ","h":",","s":{"eng":"the feet"},"o":{}}],
      [{"w":"সংসার","h":" ","s":{"eng":"material existence"},"o":{}},{"w":"গেলাম","h":" ","s":{"eng":"I have forgotten"},"o":{}},{"w":"ভুলে","h":" ॥৪॥","s":{"eng":"⬅1"},"o":{}}]],
    "translation":{"eng":"When I see that form of Kṛṣṇa, whose beauty defeats the dark blue indranīla jewel (sapphire), standing under a kadamba tree, my mind becomes unsteady. My feet cannot move, and I forget my material existence."}},{
    "lines":[
      [{"w":"(সখি","h":" ","s":{"eng":"O friend"},"o":{}},{"w":"হে)","h":" ","s":{"eng":"⬅1"},"o":{}},{"w":"সুধাময়","h":", ","s":{"eng":"full of nectar"},"o":{}},{"w":"সে","h":" ","s":{"eng":"that"},"o":{}},{"w":"রূপমাধুরী","h":" ।","s":{"eng":"form + sweet"},"o":{}}],
      [{"w":"দেখিলে","h":" ","s":{"eng":"if it beholds"},"o":{}},{"w":"নয়ন","h":",    ","s":{"eng":"the eyes"},"o":{}},{"w":"হয়","h":" ","s":{"eng":"[one] becomes"},"o":{}},{"w":"অচেতন","h":",","s":{"eng":"unconscious"},"o":{}}],
      [{"w":"ঝরে","h":" ","s":{"eng":"flows"},"o":{}},{"w":"প্রেমময়","h":" ","s":{"eng":"made of love"},"o":{}},{"w":"বারি","h":" ॥৫॥","s":{"eng":"water (tears)"},"o":{}}]],
    "translation":{"eng":"O sakhī! His sweet form is full of nectar. If the eyes behold that form, one falls unconscious and tears of love stream from them."}},{
    "lines":[
      [{"w":"কিবা","h":" ","s":{"eng":"how wonderful"},"o":{}},{"w":"চূড়া","h":" ","s":{"eng":""},"o":{}},{"w":"শিরে","h":",    ","s":{"eng":"on the head"},"o":{}},{"w":"কিবা","h":" ","s":{"eng":"how wonderful"},"o":{}},{"w":"বংশী","h":" ","s":{"eng":"the vaṁśī flute"},"o":{}},{"w":"করে","h":",","s":{"eng":"in the hands"},"o":{}}],
      [{"w":"কিবা","h":" ","s":{"eng":"how wonderful"},"o":{}},{"w":"সে","h":" ","s":{"eng":"that"},"o":{}},{"w":"ত্রিভঙ্গ","h":"-","s":{"eng":"curved in three places"},"o":{}},{"w":"ঠাম","h":" ।","s":{"eng":"shape, form, figure, posture"},"o":{}}],
      [{"w":"চরণকমলে","h":",    ","s":{"eng":"from the lotus feet"},"o":{}},{"w":"অমিয়া","h":" ","s":{"eng":"nectar"},"o":{}},{"w":"উছলে","h":",","s":{"eng":"overflows"},"o":{}}],
      [{"w":"তাহাতে","h":" ","s":{"eng":"on that"},"o":{}},{"w":"নূপুরদাম","h":" ॥৬॥","s":{"eng":"of ankle bells + a string"},"o":{}}]],
    "translation":{"eng":"How wonderful is the peacock-feather crown on His head! How wonderful is the flute in His hands! How wonderful is His three-fold bending form! His lotus feet overflow with nectar and are bound with ankle bells."}},{
    "lines":[
      [{"w":"সদা","h":" ","s":{"eng":"always"},"o":{}},{"w":"আশা","h":" ","s":{"eng":"desiring"},"o":{}},{"w":"করি’","h":",    ","s":{"eng":"⬅1"},"o":{}},{"w":"ভৃঙ্গরূপ","h":" ","s":{"eng":"the form of a bee"},"o":{}},{"w":"ধরি’","h":",","s":{"eng":"assuming"},"o":{}}],
      [{"w":"চরণকমলে","h":" ","s":{"eng":"at the lotus feet"},"o":{}},{"w":"স্থান","h":" ।","s":{"eng":"a place"},"o":{}}],
      [{"w":"অনায়াসে","h":" ","s":{"eng":"readily"},"o":{}},{"w":"পাই","h":",    ","s":{"eng":"I get"},"o":{}},{"w":"কৃষ্ণগুণ","h":" ","s":{"eng":"Kṛṣṇa’s glories"},"o":{}},{"w":"গাই","h":",","s":{"eng":"I sing"},"o":{}}],
      [{"w":"আর","h":" ","s":{"eng":"and"},"o":{}},{"w":"না","h":" ","s":{"eng":"not"},"o":{}},{"w":"ভজিব","h":" ","s":{"eng":"I shall worship"},"o":{}},{"w":"আন","h":" ॥৭॥","s":{"eng":"other"},"o":{}}]],
    "translation":{"eng":"I always desire to take the form of a bee and attain shelter at His lotus feet. I shall readily sing of Kṛṣṇa’s glories and never worship any other."}}
  ]
}