{
  "uid":"K67",
  "title":"হরি ব’লব আর মদনমোহন হেরিব গো",
  "author":"ndt",
  "language":"ben",
  "notes":[],
  "audio":[
    {"uid":"srrb-1","fn":"K67-srrb-1.mp3","meta":{"artist":"Sudarsan das (Radha-ramana Babaji Maharaja)","src":"10 Śrī Kṛṣṇa/[15] Hari Bôlbô Āra Madana-mohana Heribô Go/srrb-hari_bolbo_ara_madana_mohana.mp3"}},
    {"uid":"vraj-1","fn":"K67-vraj-1.mp3","meta":{"artist":"Vraj Mohan das","src":"10 Śrī Kṛṣṇa/[15] Hari Bôlbô Āra Madana-mohana Heribô Go/vraj-hari_bolbo_ara_madana_mohana.mp3"}},
    {"uid":"sadh-1","fn":"K67-sadh-1.mp3","meta":{"artist":"BV Sadhu Maharaja","src":"10 Śrī Kṛṣṇa/[15] Hari Bôlbô Āra Madana-mohana Heribô Go/sadh-hari_bolbo_ara_madana_mohana.mp3"}}],
  "has_synonyms":false,
  "has_translations":false,
  "legend":{"w":"word","h":"hint","s":"synonym","o":"override"},
  "verses":[{
    "lines":[
      [{"w":"হরি","h":" ","s":{"eng":"NULL"},"o":{}},{"w":"ব’লব","h":" ","s":{"eng":"NULL"},"o":{}},{"w":"আর","h":" ","s":{"eng":"NULL"},"o":{}},{"w":"মদনমোহন","h":" ","s":{"eng":"NULL"},"o":{}},{"w":"হেরিব","h":" ","s":{"eng":"NULL"},"o":{}},{"w":"গো","h":" ।","s":{"eng":"NULL"},"o":{}}],
      [{"w":"এই","h":" ","s":{"eng":"NULL"},"o":{}},{"w":"রূপেতে","h":" ","s":{"eng":"NULL"},"o":{}},{"w":"ব্রজের","h":" ","s":{"eng":"NULL"},"o":{}},{"w":"পথে","h":" ","s":{"eng":"NULL"},"o":{}},{"w":"চলিব","h":" ","s":{"eng":"NULL"},"o":{}},{"w":"গো","h":" ॥১॥","s":{"eng":"NULL"},"o":{}}]],
    "translation":{"eng":"UNDEFINED"}},{
    "lines":[
      [{"w":"যা’ব","h":" ","s":{"eng":"NULL"},"o":{}},{"w":"গো","h":" ","s":{"eng":"NULL"},"o":{}},{"w":"ব্রজেন্দ্রপুর","h":",    ","s":{"eng":"NULL"},"o":{}},{"w":"হ’ব","h":" ","s":{"eng":"NULL"},"o":{}},{"w":"গোপী","h":"-","s":{"eng":"NULL"},"o":{}},{"w":"পাযের","h":" ","s":{"eng":"NULL"},"o":{}},{"w":"নূপুর","h":",","s":{"eng":"NULL"},"o":{}}],
      [{"w":"নূপুর","h":" ","s":{"eng":"NULL"},"o":{}},{"w":"হ’য়ে","h":" ","s":{"eng":"NULL"},"o":{}},{"w":"রুনুঝুনু","h":" ","s":{"eng":"NULL"},"o":{}},{"w":"বাজিব","h":" ","s":{"eng":"NULL"},"o":{}},{"w":"গো","h":" ।","s":{"eng":"NULL"},"o":{}}],
      [{"w":"রাধাকৃষ্ণের","h":" ","s":{"eng":"NULL"},"o":{}},{"w":"রূপমাধুরী","h":",    ","s":{"eng":"NULL"},"o":{}},{"w":"হেরিব","h":" ","s":{"eng":"NULL"},"o":{}},{"w":"দু’নয়ন","h":" ","s":{"eng":"NULL"},"o":{}},{"w":"ভরি’","h":",","s":{"eng":"NULL"},"o":{}}],
      [{"w":"নিকুঞ্জের","h":" ","s":{"eng":"NULL"},"o":{}},{"w":"দ্বারের","h":" ","s":{"eng":"NULL"},"o":{}},{"w":"দ্বারী","h":" ","s":{"eng":"NULL"},"o":{}},{"w":"রহিব","h":" ","s":{"eng":"NULL"},"o":{}},{"w":"গো","h":" ॥২॥","s":{"eng":"NULL"},"o":{}}]],
    "translation":{"eng":"UNDEFINED"}},{
    "lines":[
      [{"w":"বিপিনে","h":" ","s":{"eng":"NULL"},"o":{}},{"w":"বিনোদ","h":" ","s":{"eng":"NULL"},"o":{}},{"w":"খেলা","h":",    ","s":{"eng":"NULL"},"o":{}},{"w":"সঙ্গেতে","h":" ","s":{"eng":"NULL"},"o":{}},{"w":"রাখালের","h":" ","s":{"eng":"NULL"},"o":{}},{"w":"মেলা","h":",","s":{"eng":"NULL"},"o":{}}],
      [{"w":"তাঁ’দের","h":" ","s":{"eng":"NULL"},"o":{}},{"w":"চরণের","h":" ","s":{"eng":"NULL"},"o":{}},{"w":"ধূলা","h":" ","s":{"eng":"NULL"},"o":{}},{"w":"মাখিব","h":" ","s":{"eng":"NULL"},"o":{}},{"w":"গো","h":" ।","s":{"eng":"NULL"},"o":{}}],
      [{"w":"তোমরা","h":" ","s":{"eng":"NULL"},"o":{}},{"w":"সবে","h":" ","s":{"eng":"NULL"},"o":{}},{"w":"ব্রজবাসী","h":",    ","s":{"eng":"NULL"},"o":{}},{"w":"পুরাও","h":" ","s":{"eng":"NULL"},"o":{}},{"w":"মনের","h":" ","s":{"eng":"NULL"},"o":{}},{"w":"অভিলাষি","h":",","s":{"eng":"NULL"},"o":{}}],
      [{"w":"আর","h":" ","s":{"eng":"NULL"},"o":{}},{"w":"কবে","h":" ","s":{"eng":"NULL"},"o":{}},{"w":"কৃষ্ণের","h":" ","s":{"eng":"NULL"},"o":{}},{"w":"বাঁশী","h":" ","s":{"eng":"NULL"},"o":{}},{"w":"শুনিব","h":" ","s":{"eng":"NULL"},"o":{}},{"w":"গো","h":" ॥৩॥","s":{"eng":"NULL"},"o":{}}]],
    "translation":{"eng":"UNDEFINED"}},{
    "lines":[
      [{"w":"এই","h":" ","s":{"eng":"NULL"},"o":{}},{"w":"দেহ","h":" ","s":{"eng":"NULL"},"o":{}},{"w":"অন্তিমকালে","h":",    ","s":{"eng":"NULL"},"o":{}},{"w":"রাখিব","h":" ","s":{"eng":"NULL"},"o":{}},{"w":"যমুনার","h":" ","s":{"eng":"NULL"},"o":{}},{"w":"জলে","h":",","s":{"eng":"NULL"},"o":{}}],
      [{"w":"জয়","h":" ","s":{"eng":"NULL"},"o":{}},{"w":"রাধাগোবিন্দ","h":" ","s":{"eng":"NULL"},"o":{}},{"w":"ব’লে","h":" ","s":{"eng":"NULL"},"o":{}},{"w":"ভাসিব","h":" ","s":{"eng":"NULL"},"o":{}},{"w":"গো","h":" ।","s":{"eng":"NULL"},"o":{}}],
      [{"w":"কহে","h":" ","s":{"eng":"NULL"},"o":{}},{"w":"নরোত্তমদাস","h":",    ","s":{"eng":"NULL"},"o":{}},{"w":"না","h":" ","s":{"eng":"NULL"},"o":{}},{"w":"পূরিল","h":" ","s":{"eng":"NULL"},"o":{}},{"w":"অভিলাষ","h":",","s":{"eng":"NULL"},"o":{}}],
      [{"w":"আর","h":" ","s":{"eng":"NULL"},"o":{}},{"w":"কবে","h":" ","s":{"eng":"NULL"},"o":{}},{"w":"ব্রজেবাস","h":" ","s":{"eng":"NULL"},"o":{}},{"w":"করিব","h":" ","s":{"eng":"NULL"},"o":{}},{"w":"গো","h":" ॥৪॥","s":{"eng":"NULL"},"o":{}}]],
    "translation":{"eng":"UNDEFINED"}}
  ]
}