{
  "uid":"K73",
  "title":"হেদে হে নাগরবর, শুন হে মুরলীধর",
  "author":"ndt",
  "language":"ben",
  "notes":[],
  "audio":[],
  "has_synonyms":false,
  "has_translations":false,
  "legend":{"w":"word","h":"hint","s":"synonym","o":"override"},
  "verses":[{
    "lines":[
      [{"w":"হেদে","h":" ","s":{"eng":"NULL"},"o":{}},{"w":"হে","h":" ","s":{"eng":"NULL"},"o":{}},{"w":"নাগরবর","h":",    ","s":{"eng":"NULL"},"o":{}},{"w":"শুন","h":" ","s":{"eng":"NULL"},"o":{}},{"w":"হে","h":" ","s":{"eng":"NULL"},"o":{}},{"w":"মুরলীধর","h":",","s":{"eng":"NULL"},"o":{}}],
      [{"w":"নিবেদন","h":" ","s":{"eng":"NULL"},"o":{}},{"w":"করি","h":" ","s":{"eng":"NULL"},"o":{}},{"w":"তুয়া","h":" ","s":{"eng":"NULL"},"o":{}},{"w":"পায়","h":" ।","s":{"eng":"NULL"},"o":{}}],
      [{"w":"চরণ","h":"-","s":{"eng":"NULL"},"o":{}},{"w":"নখর","h":"-","s":{"eng":"NULL"},"o":{}},{"w":"মণি","h":",    ","s":{"eng":"NULL"},"o":{}},{"w":"যেন","h":" ","s":{"eng":"NULL"},"o":{}},{"w":"চাঁদের","h":" ","s":{"eng":"NULL"},"o":{}},{"w":"গাঁথনি","h":",","s":{"eng":"NULL"},"o":{}}],
      [{"w":"ভাল","h":" ","s":{"eng":"NULL"},"o":{}},{"w":"শোভে","h":" ","s":{"eng":"NULL"},"o":{}},{"w":"আমার","h":" ","s":{"eng":"NULL"},"o":{}},{"w":"গলায়","h":" ॥১॥","s":{"eng":"NULL"},"o":{}}]],
    "translation":{"eng":"UNDEFINED"}},{
    "lines":[
      [{"w":"শ্রীদাম","h":"-","s":{"eng":"NULL"},"o":{}},{"w":"সুদাম","h":"-","s":{"eng":"NULL"},"o":{}},{"w":"সঙ্গে","h":",    ","s":{"eng":"NULL"},"o":{}},{"w":"যখন","h":" ","s":{"eng":"NULL"},"o":{}},{"w":"বনে","h":" ","s":{"eng":"NULL"},"o":{}},{"w":"যাও","h":" ","s":{"eng":"NULL"},"o":{}},{"w":"রঙ্গে","h":",","s":{"eng":"NULL"},"o":{}}],
      [{"w":"তখন","h":" ","s":{"eng":"NULL"},"o":{}},{"w":"আমি","h":" ","s":{"eng":"NULL"},"o":{}},{"w":"দুয়ারে","h":" ","s":{"eng":"NULL"},"o":{}},{"w":"দাঁড়ায়ে","h":" ।","s":{"eng":"NULL"},"o":{}}],
      [{"w":"মনে","h":" ","s":{"eng":"NULL"},"o":{}},{"w":"করি","h":" ","s":{"eng":"NULL"},"o":{}},{"w":"সঙ্গে","h":" ","s":{"eng":"NULL"},"o":{}},{"w":"যাই","h":",    ","s":{"eng":"NULL"},"o":{}},{"w":"গুরুজনার","h":" ","s":{"eng":"NULL"},"o":{}},{"w":"ভয়","h":" ","s":{"eng":"NULL"},"o":{}},{"w":"পাই","h":",","s":{"eng":"NULL"},"o":{}}],
      [{"w":"আঁখি","h":" ","s":{"eng":"NULL"},"o":{}},{"w":"রহে","h":" ","s":{"eng":"NULL"},"o":{}},{"w":"তুয়া","h":" ","s":{"eng":"NULL"},"o":{}},{"w":"পানে","h":" ","s":{"eng":"NULL"},"o":{}},{"w":"চেয়ে","h":" ॥২॥","s":{"eng":"NULL"},"o":{}}]],
    "translation":{"eng":"UNDEFINED"}},{
    "lines":[
      [{"w":"চাই","h":" ","s":{"eng":"NULL"},"o":{}},{"w":"নবীন","h":" ","s":{"eng":"NULL"},"o":{}},{"w":"মেঘপানে","h":",    ","s":{"eng":"NULL"},"o":{}},{"w":"তুয়া","h":" ","s":{"eng":"NULL"},"o":{}},{"w":"বঁধু","h":" ","s":{"eng":"NULL"},"o":{}},{"w":"পড়ে","h":" ","s":{"eng":"NULL"},"o":{}},{"w":"মনে","h":"!","s":{"eng":"NULL"},"o":{}}],
      [{"w":"এলাইলে","h":" ","s":{"eng":"NULL"},"o":{}},{"w":"কেশ","h":" ","s":{"eng":"NULL"},"o":{}},{"w":"নাহি","h":" ","s":{"eng":"NULL"},"o":{}},{"w":"বাঁধি","h":" ।","s":{"eng":"NULL"},"o":{}}],
      [{"w":"রন্ধনশালাতে","h":" ","s":{"eng":"NULL"},"o":{}},{"w":"যাই","h":",    ","s":{"eng":"NULL"},"o":{}},{"w":"তুয়া","h":" ","s":{"eng":"NULL"},"o":{}},{"w":"বধু","h":" ","s":{"eng":"NULL"},"o":{}},{"w":"গুণ","h":" ","s":{"eng":"NULL"},"o":{}},{"w":"গাই","h":",","s":{"eng":"NULL"},"o":{}}],
      [{"w":"ধুঁয়ার","h":" ","s":{"eng":"NULL"},"o":{}},{"w":"ছলনা","h":" ","s":{"eng":"NULL"},"o":{}},{"w":"করি'","h":" ","s":{"eng":"NULL"},"o":{}},{"w":"কান্দি","h":" ॥৩॥","s":{"eng":"NULL"},"o":{}}]],
    "translation":{"eng":"UNDEFINED"}},{
    "lines":[
      [{"w":"মণি","h":" ","s":{"eng":"NULL"},"o":{}},{"w":"নও","h":", ","s":{"eng":"NULL"},"o":{}},{"w":"মাণিক","h":" ","s":{"eng":"NULL"},"o":{}},{"w":"নও","h":",    ","s":{"eng":"NULL"},"o":{}},{"w":"আঁচলে","h":" ","s":{"eng":"NULL"},"o":{}},{"w":"বাঁধিলে","h":" ","s":{"eng":"NULL"},"o":{}},{"w":"রও","h":",","s":{"eng":"NULL"},"o":{}}],
      [{"w":"ফুল","h":" ","s":{"eng":"NULL"},"o":{}},{"w":"নও","h":" ","s":{"eng":"NULL"},"o":{}},{"w":"যে","h":" ","s":{"eng":"NULL"},"o":{}},{"w":"কেশে","h":" ","s":{"eng":"NULL"},"o":{}},{"w":"করি","h":" ","s":{"eng":"NULL"},"o":{}},{"w":"বেশে","h":" ।","s":{"eng":"NULL"},"o":{}}],
      [{"w":"নারী","h":" ","s":{"eng":"NULL"},"o":{}},{"w":"না","h":" ","s":{"eng":"NULL"},"o":{}},{"w":"করিত","h":" ","s":{"eng":"NULL"},"o":{}},{"w":"বিধি","h":",    ","s":{"eng":"NULL"},"o":{}},{"w":"তুয়া","h":" ","s":{"eng":"NULL"},"o":{}},{"w":"হেন","h":" ","s":{"eng":"NULL"},"o":{}},{"w":"গুণনিধি","h":",","s":{"eng":"NULL"},"o":{}}],
      [{"w":"লইয়া","h":" ","s":{"eng":"NULL"},"o":{}},{"w":"ফিরিতাম","h":" ","s":{"eng":"NULL"},"o":{}},{"w":"দেশে","h":" ","s":{"eng":"NULL"},"o":{}},{"w":"দেশে","h":" ॥৪॥","s":{"eng":"NULL"},"o":{}}]],
    "translation":{"eng":"UNDEFINED"}},{
    "lines":[
      [{"w":"অগুরু","h":" ","s":{"eng":"NULL"},"o":{}},{"w":"চন্দন","h":" ","s":{"eng":"NULL"},"o":{}},{"w":"হইতাম","h":",    ","s":{"eng":"NULL"},"o":{}},{"w":"তুয়া","h":" ","s":{"eng":"NULL"},"o":{}},{"w":"অঙ্গে","h":" ","s":{"eng":"NULL"},"o":{}},{"w":"মাখা","h":" ","s":{"eng":"NULL"},"o":{}},{"w":"রইতাম","h":",","s":{"eng":"NULL"},"o":{}}],
      [{"w":"ঘামিয়া","h":" ","s":{"eng":"NULL"},"o":{}},{"w":"পড়িতাম","h":" ","s":{"eng":"NULL"},"o":{}},{"w":"রাঙ্গা","h":" ","s":{"eng":"NULL"},"o":{}},{"w":"পায়","h":" ।","s":{"eng":"NULL"},"o":{}}],
      [{"w":"কি","h":" ","s":{"eng":"NULL"},"o":{}},{"w":"মোর","h":" ","s":{"eng":"NULL"},"o":{}},{"w":"মনের","h":" ","s":{"eng":"NULL"},"o":{}},{"w":"সাধ","h":",    ","s":{"eng":"NULL"},"o":{}},{"w":"বামন","h":" ","s":{"eng":"NULL"},"o":{}},{"w":"হয়ে","h":" ","s":{"eng":"NULL"},"o":{}},{"w":"চাঁদে","h":" ","s":{"eng":"NULL"},"o":{}},{"w":"হাত","h":",","s":{"eng":"NULL"},"o":{}}],
      [{"w":"বিধি","h":" ","s":{"eng":"NULL"},"o":{}},{"w":"কি","h":" ","s":{"eng":"NULL"},"o":{}},{"w":"সাধ","h":" ","s":{"eng":"NULL"},"o":{}},{"w":"পূরাবে","h":" ","s":{"eng":"NULL"},"o":{}},{"w":"আমায়","h":" ॥৫॥","s":{"eng":"NULL"},"o":{}}]],
    "translation":{"eng":"UNDEFINED"}},{
    "lines":[
      [{"w":"নরোত্তমদাসে","h":" ","s":{"eng":"NULL"},"o":{}},{"w":"কয়","h":",    ","s":{"eng":"NULL"},"o":{}},{"w":"শুন","h":" ","s":{"eng":"NULL"},"o":{}},{"w":"ওহে","h":" ","s":{"eng":"NULL"},"o":{}},{"w":"দয়াময়","h":",","s":{"eng":"NULL"},"o":{}}],
      [{"w":"তুমি","h":" ","s":{"eng":"NULL"},"o":{}},{"w":"আমায়","h":" ","s":{"eng":"NULL"},"o":{}},{"w":"না","h":" ","s":{"eng":"NULL"},"o":{}},{"w":"ছাড়িহ","h":" ","s":{"eng":"NULL"},"o":{}},{"w":"দয়া","h":" ।","s":{"eng":"NULL"},"o":{}}],
      [{"w":"যে","h":" ","s":{"eng":"NULL"},"o":{}},{"w":"দিন","h":" ","s":{"eng":"NULL"},"o":{}},{"w":"তোমার","h":" ","s":{"eng":"NULL"},"o":{}},{"w":"ভাবে","h":",    ","s":{"eng":"NULL"},"o":{}},{"w":"আমার","h":" ","s":{"eng":"NULL"},"o":{}},{"w":"পরাণ","h":" ","s":{"eng":"NULL"},"o":{}},{"w":"যাবে","h":",","s":{"eng":"NULL"},"o":{}}],
      [{"w":"সেই","h":" ","s":{"eng":"NULL"},"o":{}},{"w":"দিন","h":" ","s":{"eng":"NULL"},"o":{}},{"w":"দিও","h":" ","s":{"eng":"NULL"},"o":{}},{"w":"পদছায়া","h":" ॥৬॥","s":{"eng":"NULL"},"o":{}}]],
    "translation":{"eng":"UNDEFINED"}},{
    "lines":[
      []]}
  ]
}