{
  "uid":"K78",
  "title":"দেহি পদম্‌ (শঙ্খচক্রগদাধর)",
  "author":"?",
  "language":"san",
  "notes":[],
  "audio":[],
  "has_synonyms":false,
  "has_translations":false,
  "legend":{"w":"word","h":"hint","s":"synonym","o":"override"},
  "verses":[{
    "lines":[
      [{"w":"(জয়)","h":" ","s":{"eng":"NULL"},"o":{}},{"w":"শঙ্খচক্রগদাধর","h":", ","s":{"eng":"NULL"},"o":{}},{"w":"নীল","h":" ","s":{"eng":"NULL"},"o":{}},{"w":"কলেবর","h":",","s":{"eng":"NULL"},"o":{}}],
      [{"w":"জেয়)","h":" ","s":{"eng":"NULL"},"o":{}},{"w":"চন্দন","h":" ","s":{"eng":"NULL"},"o":{}},{"w":"চর্চ্চিত","h":", ","s":{"eng":"NULL"},"o":{}},{"w":"কুণ্ডল","h":" ","s":{"eng":"NULL"},"o":{}},{"w":"মণ্ডিত","h":"","s":{"eng":"NULL"},"o":{}}],
      [{"w":"কৌস্তুভ","h":" ","s":{"eng":"NULL"},"o":{}},{"w":"লাঞ্ছিত","h":" ","s":{"eng":"NULL"},"o":{}},{"w":"দেহি","h":" ","s":{"eng":"NULL"},"o":{}},{"w":"পদম্‌","h":" ॥১॥","s":{"eng":"NULL"},"o":{}}]],
    "translation":{"eng":"UNDEFINED"}},{
    "lines":[
      [{"w":"(জয়)","h":" ","s":{"eng":"NULL"},"o":{}},{"w":"পঙ্কজ","h":" ","s":{"eng":"NULL"},"o":{}},{"w":"লোচন","h":", ","s":{"eng":"NULL"},"o":{}},{"w":"ভুরুত","h":" ","s":{"eng":"NULL"},"o":{}},{"w":"সুশোভন","h":",","s":{"eng":"NULL"},"o":{}}],
      [{"w":"পাপবিমোচন","h":" ","s":{"eng":"NULL"},"o":{}},{"w":"দেহি","h":" ","s":{"eng":"NULL"},"o":{}},{"w":"পদম্‌","h":" ॥২॥","s":{"eng":"NULL"},"o":{}}]],
    "translation":{"eng":"UNDEFINED"}},{
    "lines":[
      [{"w":"(জয়)","h":" ","s":{"eng":"NULL"},"o":{}},{"w":"বেণু","h":" ","s":{"eng":"NULL"},"o":{}},{"w":"নিনাদক","h":", ","s":{"eng":"NULL"},"o":{}},{"w":"রাস","h":"-","s":{"eng":"NULL"},"o":{}},{"w":"বিহারক","h":",","s":{"eng":"NULL"},"o":{}}],
      [{"w":"বঙ্কিম","h":" ","s":{"eng":"NULL"},"o":{}},{"w":"সুন্দর","h":" ","s":{"eng":"NULL"},"o":{}},{"w":"দেহি","h":" ","s":{"eng":"NULL"},"o":{}},{"w":"পদম্‌","h":" ॥৩॥","s":{"eng":"NULL"},"o":{}}]],
    "translation":{"eng":"UNDEFINED"}},{
    "lines":[
      [{"w":"(জয়)","h":" ","s":{"eng":"NULL"},"o":{}},{"w":"ধীর","h":" ","s":{"eng":"NULL"},"o":{}},{"w":"ধুরন্ধর","h":", ","s":{"eng":"NULL"},"o":{}},{"w":"অদ্ভুত","h":" ","s":{"eng":"NULL"},"o":{}},{"w":"সুন্দর","h":",","s":{"eng":"NULL"},"o":{}}],
      [{"w":"দেব","h":" ","s":{"eng":"NULL"},"o":{}},{"w":"সুদুর্ল্লভ","h":" ","s":{"eng":"NULL"},"o":{}},{"w":"দেহি","h":" ","s":{"eng":"NULL"},"o":{}},{"w":"পদম্‌","h":" ॥৪॥","s":{"eng":"NULL"},"o":{}}]],
    "translation":{"eng":"UNDEFINED"}},{
    "lines":[
      [{"w":"(জয়)","h":" ","s":{"eng":"NULL"},"o":{}},{"w":"বিশ্ব","h":" ","s":{"eng":"NULL"},"o":{}},{"w":"বিমোহন","h":", ","s":{"eng":"NULL"},"o":{}},{"w":"মানস","h":" ","s":{"eng":"NULL"},"o":{}},{"w":"মোহন","h":",","s":{"eng":"NULL"},"o":{}}],
      [{"w":"সংস্থিতি","h":" ","s":{"eng":"NULL"},"o":{}},{"w":"কারণ","h":" ","s":{"eng":"NULL"},"o":{}},{"w":"দেহি","h":" ","s":{"eng":"NULL"},"o":{}},{"w":"পদম্‌","h":" ॥৫॥","s":{"eng":"NULL"},"o":{}}]],
    "translation":{"eng":"UNDEFINED"}},{
    "lines":[
      [{"w":"(জয়)","h":" ","s":{"eng":"NULL"},"o":{}},{"w":"সত্য","h":" ","s":{"eng":"NULL"},"o":{}},{"w":"সনাতন","h":", ","s":{"eng":"NULL"},"o":{}},{"w":"মঙ্গল","h":" ","s":{"eng":"NULL"},"o":{}},{"w":"কারণ","h":",","s":{"eng":"NULL"},"o":{}}],
      [{"w":"অন্তিম","h":" ","s":{"eng":"NULL"},"o":{}},{"w":"বান্ধব","h":" ","s":{"eng":"NULL"},"o":{}},{"w":"দেহি","h":" ","s":{"eng":"NULL"},"o":{}},{"w":"পদম্‌","h":" ॥৬॥","s":{"eng":"NULL"},"o":{}}]],
    "translation":{"eng":"UNDEFINED"}},{
    "lines":[
      [{"w":"(জয়)","h":" ","s":{"eng":"NULL"},"o":{}},{"w":"দুর্জ্জন","h":" ","s":{"eng":"NULL"},"o":{}},{"w":"শাসন","h":", ","s":{"eng":"NULL"},"o":{}},{"w":"কেলি","h":" ","s":{"eng":"NULL"},"o":{}},{"w":"পরায়ণ","h":",","s":{"eng":"NULL"},"o":{}}],
      [{"w":"কালীয়","h":" ","s":{"eng":"NULL"},"o":{}},{"w":"দমন","h":" ","s":{"eng":"NULL"},"o":{}},{"w":"দেহি","h":" ","s":{"eng":"NULL"},"o":{}},{"w":"পদম্‌","h":" ॥৭॥","s":{"eng":"NULL"},"o":{}}]],
    "translation":{"eng":"UNDEFINED"}},{
    "lines":[
      [{"w":"(জয়)","h":" ","s":{"eng":"NULL"},"o":{}},{"w":"ভক্তজনাশ্রয়","h":", ","s":{"eng":"NULL"},"o":{}},{"w":"দীন","h":" ","s":{"eng":"NULL"},"o":{}},{"w":"দয়াময়","h":",","s":{"eng":"NULL"},"o":{}}],
      [{"w":"চিন্ময়","h":" ","s":{"eng":"NULL"},"o":{}},{"w":"অচ্যুত","h":" ","s":{"eng":"NULL"},"o":{}},{"w":"দেহি","h":" ","s":{"eng":"NULL"},"o":{}},{"w":"পদম্","h":" ॥৮॥","s":{"eng":"NULL"},"o":{}}]],
    "translation":{"eng":"UNDEFINED"}},{
    "lines":[
      [{"w":"(জয়)","h":" ","s":{"eng":"NULL"},"o":{}},{"w":"পরম","h":" ","s":{"eng":"NULL"},"o":{}},{"w":"পাবন","h":", ","s":{"eng":"NULL"},"o":{}},{"w":"ধর্ম্ম","h":" ","s":{"eng":"NULL"},"o":{}},{"w":"পরায়ণ","h":",","s":{"eng":"NULL"},"o":{}}],
      [{"w":"দৈত্য","h":" ","s":{"eng":"NULL"},"o":{}},{"w":"নিসূদন","h":" ","s":{"eng":"NULL"},"o":{}},{"w":"দেহি","h":" ","s":{"eng":"NULL"},"o":{}},{"w":"পদম্‌","h":" ॥৯॥","s":{"eng":"NULL"},"o":{}}]],
    "translation":{"eng":"UNDEFINED"}},{
    "lines":[
      [{"w":"(জয়)","h":" ","s":{"eng":"NULL"},"o":{}},{"w":"বেদ","h":" ","s":{"eng":"NULL"},"o":{}},{"w":"বিমোহন","h":", ","s":{"eng":"NULL"},"o":{}},{"w":"শ্রীরাধা","h":"-","s":{"eng":"NULL"},"o":{}},{"w":"রমণ","h":"","s":{"eng":"NULL"},"o":{}}],
      [{"w":"বৃন্দাবন","h":" ","s":{"eng":"NULL"},"o":{}},{"w":"ধন","h":" ","s":{"eng":"NULL"},"o":{}},{"w":"দেহি","h":" ","s":{"eng":"NULL"},"o":{}},{"w":"পদম্‌","h":" ॥১০॥","s":{"eng":"NULL"},"o":{}}]],
    "translation":{"eng":"UNDEFINED"}},{
    "lines":[
      [{"w":"(জয়)","h":" ","s":{"eng":"NULL"},"o":{}},{"w":"নিত্য","h":" ","s":{"eng":"NULL"},"o":{}},{"w":"নিরঞ্জন","h":", ","s":{"eng":"NULL"},"o":{}},{"w":"দূর্গতি","h":" ","s":{"eng":"NULL"},"o":{}},{"w":"ভঞ্জন","h":",","s":{"eng":"NULL"},"o":{}}],
      [{"w":"সজ্জন","h":" ","s":{"eng":"NULL"},"o":{}},{"w":"রঞ্জন","h":" ","s":{"eng":"NULL"},"o":{}},{"w":"দেহি","h":" ","s":{"eng":"NULL"},"o":{}},{"w":"পদম","h":" ॥১১॥","s":{"eng":"NULL"},"o":{}}]],
    "translation":{"eng":"UNDEFINED"}},{
    "lines":[
      []]}
  ]
}