{
  "uid":"M14",
  "title":"প্রেমধ্বনি (শ্রীচৈতন্য মঠ)",
  "author":"?",
  "language":"ben",
  "notes":["শ্রীনামসংকীর্ত্তনান্তে নিম্নলিখিত নাম উচ্চারণপূর্ব্বক প্রেমধ্বনি ও হরিবোল দিয়া দণ্ডবৎ প্রণাম কর্ত্তব্য।"],
  "audio":[],
  "has_synonyms":false,
  "has_translations":false,
  "legend":{"w":"word","h":"hint","s":"synonym","o":"override"},
  "verses":[{
    "lines":[
      [{"w":"জয়","h":" ","s":{"eng":"NULL"},"o":{}},{"w":"শ্রীশ্রীগুরু","h":"-","s":{"eng":"NULL"},"o":{}},{"w":"গৌরাঙ্গ","h":"-","s":{"eng":"NULL"},"o":{}},{"w":"গান্ধর্ব্বিকা","h":"-","s":{"eng":"NULL"},"o":{}},{"w":"গিরিধারী","h":"-","s":{"eng":"NULL"},"o":{}},{"w":"জিউ","h":" ","s":{"eng":"NULL"},"o":{}},{"w":"কি","h":" ","s":{"eng":"NULL"},"o":{}},{"w":"জয়","h":"!","s":{"eng":"NULL"},"o":{}}],
      [{"w":"জয়","h":" ","s":{"eng":"NULL"},"o":{}},{"w":"আচার্য্যপাদ","h":" ","s":{"eng":"NULL"},"o":{}},{"w":"শ্রীল","h":" ","s":{"eng":"NULL"},"o":{}},{"w":"ভক্তিবিলাস","h":" ","s":{"eng":"NULL"},"o":{}},{"w":"তীর্থ","h":" ","s":{"eng":"NULL"},"o":{}},{"w":"মহারাজ","h":" ","s":{"eng":"NULL"},"o":{}},{"w":"কি","h":" ","s":{"eng":"NULL"},"o":{}},{"w":"জয়","h":"!","s":{"eng":"NULL"},"o":{}}],
      [{"w":"জয়","h":" ","s":{"eng":"NULL"},"o":{}},{"w":"ওঁ","h":" ","s":{"eng":"NULL"},"o":{}},{"w":"বিষ্ণুপাদ","h":" ","s":{"eng":"NULL"},"o":{}},{"w":"শ্রীশ্রীল","h":" ","s":{"eng":"NULL"},"o":{}},{"w":"ভক্তিসিদ্ধান্ত","h":" ","s":{"eng":"NULL"},"o":{}},{"w":"সরস্বতী","h":" ","s":{"eng":"NULL"},"o":{}},{"w":"গোস্বামী","h":" ","s":{"eng":"NULL"},"o":{}},{"w":"ঠাকুর","h":" ","s":{"eng":"NULL"},"o":{}},{"w":"কি","h":" ","s":{"eng":"NULL"},"o":{}},{"w":"জয়","h":"!","s":{"eng":"NULL"},"o":{}}],
      [{"w":"জয়","h":" ","s":{"eng":"NULL"},"o":{}},{"w":"পরমহংস","h":" ","s":{"eng":"NULL"},"o":{}},{"w":"বাবাজী","h":" ","s":{"eng":"NULL"},"o":{}},{"w":"শ্রীশ্রীল","h":" ","s":{"eng":"NULL"},"o":{}},{"w":"গৌরকিশোরদাস","h":" ","s":{"eng":"NULL"},"o":{}},{"w":"গোস্বামী","h":" ","s":{"eng":"NULL"},"o":{}},{"w":"মহারাজ","h":" ","s":{"eng":"NULL"},"o":{}},{"w":"কি","h":" ","s":{"eng":"NULL"},"o":{}},{"w":"জয়","h":"!","s":{"eng":"NULL"},"o":{}}],
      [{"w":"জয়","h":" ","s":{"eng":"NULL"},"o":{}},{"w":"শ্রীশ্রীল","h":" ","s":{"eng":"NULL"},"o":{}},{"w":"সচ্চিদানন্দ","h":" ","s":{"eng":"NULL"},"o":{}},{"w":"ভক্তিবিনোদ","h":" ","s":{"eng":"NULL"},"o":{}},{"w":"ঠাকুর","h":" ","s":{"eng":"NULL"},"o":{}},{"w":"কি","h":" ","s":{"eng":"NULL"},"o":{}},{"w":"জয়","h":"!","s":{"eng":"NULL"},"o":{}}],
      [{"w":"জয়","h":" ","s":{"eng":"NULL"},"o":{}},{"w":"বৈষ্ণবসার্ব্বভৌম","h":" ","s":{"eng":"NULL"},"o":{}},{"w":"শ্রীশ্রীল","h":" ","s":{"eng":"NULL"},"o":{}},{"w":"জগন্নাথ","h":" ","s":{"eng":"NULL"},"o":{}},{"w":"দাস","h":" ","s":{"eng":"NULL"},"o":{}},{"w":"বাবাজী","h":" ","s":{"eng":"NULL"},"o":{}},{"w":"মহারাজ","h":" ","s":{"eng":"NULL"},"o":{}},{"w":"কি","h":" ","s":{"eng":"NULL"},"o":{}},{"w":"জয়","h":"!","s":{"eng":"NULL"},"o":{}}],
      [{"w":"জয়","h":" ","s":{"eng":"NULL"},"o":{}},{"w":"গৌড়ীয়বেদান্তাচার্য্য","h":" ","s":{"eng":"NULL"},"o":{}},{"w":"শ্রীশ্রীল","h":" ","s":{"eng":"NULL"},"o":{}},{"w":"বলদেব","h":" ","s":{"eng":"NULL"},"o":{}},{"w":"বিদ্যাভূষণ","h":" ","s":{"eng":"NULL"},"o":{}},{"w":"প্রভু","h":" ","s":{"eng":"NULL"},"o":{}},{"w":"কি","h":" ","s":{"eng":"NULL"},"o":{}},{"w":"জয়","h":"!","s":{"eng":"NULL"},"o":{}}],
      [{"w":"অয়","h":" ","s":{"eng":"NULL"},"o":{}},{"w":"শ্রীশ্রীল","h":" ","s":{"eng":"NULL"},"o":{}},{"w":"বিশ্বনাথ","h":" ","s":{"eng":"NULL"},"o":{}},{"w":"চক্রবর্ত্তী","h":" ","s":{"eng":"NULL"},"o":{}},{"w":"ঠাকুর","h":" ","s":{"eng":"NULL"},"o":{}},{"w":"কি","h":" ","s":{"eng":"NULL"},"o":{}},{"w":"জয়","h":"!","s":{"eng":"NULL"},"o":{}}],
      [{"w":"জয়","h":" ","s":{"eng":"NULL"},"o":{}},{"w":"শ্রীশ্রীনরোত্তম","h":"-","s":{"eng":"NULL"},"o":{}},{"w":"শ্রীনিবাস","h":"-","s":{"eng":"NULL"},"o":{}},{"w":"শ্যামানন্দ","h":" ","s":{"eng":"NULL"},"o":{}},{"w":"প্রভুত্রয়","h":" ","s":{"eng":"NULL"},"o":{}},{"w":"কি","h":" ","s":{"eng":"NULL"},"o":{}},{"w":"জয়","h":"!","s":{"eng":"NULL"},"o":{}}],
      [{"w":"জয়","h":" ","s":{"eng":"NULL"},"o":{}},{"w":"শ্রীল","h":" ","s":{"eng":"NULL"},"o":{}},{"w":"বৃন্দাবনদাস","h":" ","s":{"eng":"NULL"},"o":{}},{"w":"ঠাকুর","h":" ","s":{"eng":"NULL"},"o":{}},{"w":"মহাশয়","h":" ","s":{"eng":"NULL"},"o":{}},{"w":"কি","h":" ","s":{"eng":"NULL"},"o":{}},{"w":"জয়","h":"!","s":{"eng":"NULL"},"o":{}}],
      [{"w":"জয়","h":" ","s":{"eng":"NULL"},"o":{}},{"w":"শ্রীশ্রীল","h":" ","s":{"eng":"NULL"},"o":{}},{"w":"কৃষ্ণদাস","h":" ","s":{"eng":"NULL"},"o":{}},{"w":"কবিরাজ","h":" ","s":{"eng":"NULL"},"o":{}},{"w":"গোস্বামী","h":"-","s":{"eng":"NULL"},"o":{}},{"w":"প্রভু","h":" ","s":{"eng":"NULL"},"o":{}},{"w":"কি","h":" ","s":{"eng":"NULL"},"o":{}},{"w":"জয়","h":"!","s":{"eng":"NULL"},"o":{}}],
      [{"w":"জয়","h":" ","s":{"eng":"NULL"},"o":{}},{"w":"‘শ্রীরূপ","h":", ","s":{"eng":"NULL"},"o":{}},{"w":"সনাতন","h":", ","s":{"eng":"NULL"},"o":{}},{"w":"ভট্ট","h":" ","s":{"eng":"NULL"},"o":{}},{"w":"রঘুনাথ","h":", ","s":{"eng":"NULL"},"o":{}},{"w":"শ্রীজীব","h":", ","s":{"eng":"NULL"},"o":{}},{"w":"গোপালভট্ট","h":", ","s":{"eng":"NULL"},"o":{}},{"w":"দাস","h":"-","s":{"eng":"NULL"},"o":{}},{"w":"রঘুনাথ","h":"॥","s":{"eng":"NULL"},"o":{}},{"w":"’","h":"—","s":{"eng":"NULL"},"o":{}},{"w":"ষড়্‌গোস্বামি","h":" ","s":{"eng":"NULL"},"o":{}},{"w":"প্রভু","h":" ","s":{"eng":"NULL"},"o":{}},{"w":"কি","h":" ","s":{"eng":"NULL"},"o":{}},{"w":"জয়","h":"!","s":{"eng":"NULL"},"o":{}}],
      [{"w":"জয়","h":" ","s":{"eng":"NULL"},"o":{}},{"w":"শ্রীশ্রীস্বরূপ","h":"-","s":{"eng":"NULL"},"o":{}},{"w":"দামোদর","h":"-","s":{"eng":"NULL"},"o":{}},{"w":"শ্রীরায়","h":"-","s":{"eng":"NULL"},"o":{}},{"w":"রামানন্দাদি","h":" ","s":{"eng":"NULL"},"o":{}},{"w":"গৌরশক্তিবর্গ","h":" ","s":{"eng":"NULL"},"o":{}},{"w":"কি","h":" ","s":{"eng":"NULL"},"o":{}},{"w":"জয়","h":"!","s":{"eng":"NULL"},"o":{}}],
      [{"w":"প্রেম্‌সে","h":" ","s":{"eng":"NULL"},"o":{}},{"w":"কহো","h":" ","s":{"eng":"NULL"},"o":{}},{"w":"শ্রীকৃষ্ণচৈতন্য","h":" ","s":{"eng":"NULL"},"o":{}},{"w":"প্রভু","h":" ","s":{"eng":"NULL"},"o":{}},{"w":"নিত্যানন্দ","h":" ","s":{"eng":"NULL"},"o":{}},{"w":"শ্রীঅদ্বৈত","h":" ","s":{"eng":"NULL"},"o":{}},{"w":"শ্রীগদাধর","h":" ","s":{"eng":"NULL"},"o":{}},{"w":"শ্রীবাসাদি","h":" ","s":{"eng":"NULL"},"o":{}},{"w":"শ্রীগৌরভক্তবৃন্দ","h":" ","s":{"eng":"NULL"},"o":{}},{"w":"কি","h":" ","s":{"eng":"NULL"},"o":{}},{"w":"জয়","h":"!","s":{"eng":"NULL"},"o":{}}],
      [{"w":"শ্রীজগন্নাথ","h":"-","s":{"eng":"NULL"},"o":{}},{"w":"বলদেব","h":"-","s":{"eng":"NULL"},"o":{}},{"w":"সুভদ্রা","h":" ","s":{"eng":"NULL"},"o":{}},{"w":"জিউ","h":" ","s":{"eng":"NULL"},"o":{}},{"w":"কি","h":" ","s":{"eng":"NULL"},"o":{}},{"w":"জয়","h":"!","s":{"eng":"NULL"},"o":{}}],
      [{"w":"জয়","h":" ","s":{"eng":"NULL"},"o":{}},{"w":"ভক্তিবিঘ্নবিনাশন","h":" ","s":{"eng":"NULL"},"o":{}},{"w":"শ্রীনৃসিংহদেব","h":" ","s":{"eng":"NULL"},"o":{}},{"w":"কি","h":" ","s":{"eng":"NULL"},"o":{}},{"w":"জয়","h":"!","s":{"eng":"NULL"},"o":{}}],
      [{"w":"জয়","h":" ","s":{"eng":"NULL"},"o":{}},{"w":"শ্রীঅন্তর্দ্বীপ","h":" ","s":{"eng":"NULL"},"o":{}},{"w":"মায়াপুর","h":", ","s":{"eng":"NULL"},"o":{}},{"w":"সীমন্তদ্বীপ","h":", ","s":{"eng":"NULL"},"o":{}},{"w":"গোদ্রুমদ্বীপ","h":", ","s":{"eng":"NULL"},"o":{}},{"w":"মধ্যদ্বীপ","h":", ","s":{"eng":"NULL"},"o":{}},{"w":"কোলদ্বীপ","h":", ","s":{"eng":"NULL"},"o":{}},{"w":"ঋতুদ্বীপ","h":", ","s":{"eng":"NULL"},"o":{}},{"w":"জহ্নুদ্বীপ","h":", ","s":{"eng":"NULL"},"o":{}},{"w":"মোদ্রুমদ্বীপ","h":", ","s":{"eng":"NULL"},"o":{}},{"w":"রুদ্রদ্বীপাত্মক","h":" ","s":{"eng":"NULL"},"o":{}},{"w":"শ্রীনবদ্বীপধাম","h":" ","s":{"eng":"NULL"},"o":{}},{"w":"কি","h":" ","s":{"eng":"NULL"},"o":{}},{"w":"জয়","h":"!","s":{"eng":"NULL"},"o":{}}],
      [{"w":"জয়","h":" ","s":{"eng":"NULL"},"o":{}},{"w":"শ্রীরাধাকৃষ্ণ","h":", ","s":{"eng":"NULL"},"o":{}},{"w":"গো","h":"-","s":{"eng":"NULL"},"o":{}},{"w":"গোপী","h":", ","s":{"eng":"NULL"},"o":{}},{"w":"গোপ","h":"-","s":{"eng":"NULL"},"o":{}},{"w":"গোবর্দ্ধন","h":", ","s":{"eng":"NULL"},"o":{}},{"w":"দ্বাদশবনাত্মক","h":" ","s":{"eng":"NULL"},"o":{}},{"w":"ব্রজমণ্ডল","h":", ","s":{"eng":"NULL"},"o":{}},{"w":"রাধাকুণ্ড","h":", ","s":{"eng":"NULL"},"o":{}},{"w":"শ্যামকুণ্ড","h":", ","s":{"eng":"NULL"},"o":{}},{"w":"যমুনাজী","h":" ","s":{"eng":"NULL"},"o":{}},{"w":"কি","h":" ","s":{"eng":"NULL"},"o":{}},{"w":"জয়","h":"!","s":{"eng":"NULL"},"o":{}}],
      [{"w":"শ্রীব্রজমণ্ডল","h":", ","s":{"eng":"NULL"},"o":{}},{"w":"শ্রীগৌরমণ্ডল","h":", ","s":{"eng":"NULL"},"o":{}},{"w":"শ্রীক্ষেত্রমণ্ডল","h":" ","s":{"eng":"NULL"},"o":{}},{"w":"কি","h":" ","s":{"eng":"NULL"},"o":{}},{"w":"জয়","h":"!","s":{"eng":"NULL"},"o":{}}],
      [{"w":"শ্রীগঙ্গাজী","h":" ","s":{"eng":"NULL"},"o":{}},{"w":"কি","h":" ","s":{"eng":"NULL"},"o":{}},{"w":"জয়","h":"! ","s":{"eng":"NULL"},"o":{}}],
      [{"w":"শ্রীতুলসী","h":" ","s":{"eng":"NULL"},"o":{}},{"w":"মহারাণী","h":" ","s":{"eng":"NULL"},"o":{}},{"w":"কি","h":" ","s":{"eng":"NULL"},"o":{}},{"w":"জয়","h":"! ","s":{"eng":"NULL"},"o":{}}],
      [{"w":"শ্রীসুরভিকুঞ্জ","h":" ","s":{"eng":"NULL"},"o":{}},{"w":"কি","h":" ","s":{"eng":"NULL"},"o":{}},{"w":"জয়","h":"! ","s":{"eng":"NULL"},"o":{}}],
      [{"w":"শ্রীস্বানন্দসুখদকুঞ্জ","h":" ","s":{"eng":"NULL"},"o":{}},{"w":"কি","h":" ","s":{"eng":"NULL"},"o":{}},{"w":"জয়","h":"! ","s":{"eng":"NULL"},"o":{}}],
      [{"w":"শ্রীনামহট্ট","h":" ","s":{"eng":"NULL"},"o":{}},{"w":"কি","h":" ","s":{"eng":"NULL"},"o":{}},{"w":"জয়","h":"!","s":{"eng":"NULL"},"o":{}}],
      [{"w":"শ্রীভক্তিদেবী","h":" ","s":{"eng":"NULL"},"o":{}},{"w":"কি","h":" ","s":{"eng":"NULL"},"o":{}},{"w":"জয়","h":"!","s":{"eng":"NULL"},"o":{}}],
      [{"w":"শীবিশ্ববৈঞ্চবরাজসভা","h":" ","s":{"eng":"NULL"},"o":{}},{"w":"কি","h":" ","s":{"eng":"NULL"},"o":{}},{"w":"জয়","h":"!","s":{"eng":"NULL"},"o":{}}],
      [{"w":"আকর","h":" ","s":{"eng":"NULL"},"o":{}},{"w":"মঠরাজ","h":" ","s":{"eng":"NULL"},"o":{}},{"w":"শ্রীচৈতন্যমঠ","h":" ","s":{"eng":"NULL"},"o":{}},{"w":"কি","h":" ","s":{"eng":"NULL"},"o":{}},{"w":"জয়","h":"! ","s":{"eng":"NULL"},"o":{}}],
      [{"w":"তদীয়","h":" ","s":{"eng":"NULL"},"o":{}},{"w":"শাখামঠসমূহ","h":" ","s":{"eng":"NULL"},"o":{}},{"w":"কি","h":" ","s":{"eng":"NULL"},"o":{}},{"w":"জয়","h":"!","s":{"eng":"NULL"},"o":{}}],
      [{"w":"অনন্তকোটি","h":" ","s":{"eng":"NULL"},"o":{}},{"w":"বৈষ্ণববৃন্দ","h":" ","s":{"eng":"NULL"},"o":{}},{"w":"কি","h":" ","s":{"eng":"NULL"},"o":{}},{"w":"জয়","h":"! ","s":{"eng":"NULL"},"o":{}}],
      [{"w":"গ্রন্থরাজ","h":" ","s":{"eng":"NULL"},"o":{}},{"w":"শ্রীমদ্‌ভাগবত","h":" ","s":{"eng":"NULL"},"o":{}},{"w":"কি","h":" ","s":{"eng":"NULL"},"o":{}},{"w":"জয়","h":"!","s":{"eng":"NULL"},"o":{}}],
      [{"w":"গৌর","h":" ","s":{"eng":"NULL"},"o":{}},{"w":"প্রেমানন্দে","h":" ","s":{"eng":"NULL"},"o":{}},{"w":"হরি","h":" ","s":{"eng":"NULL"},"o":{}},{"w":"হরিবোল","h":"।","s":{"eng":"NULL"},"o":{}}]],
    "translation":{"eng":"UNDEFINED"}}
  ]
}