{
  "uid":"N22",
  "title":"দয়া কর মোরে নিতাই ",
  "author":"কানুরাম দাস ",
  "language":"ben",
  "notes":[],
  "audio":[],
  "has_synonyms":false,
  "has_translations":false,
  "legend":{"w":"word","h":"hint","s":"synonym","o":"override"},
  "verses":[{
    "lines":[
      [{"w":"দয়া","h":" ","s":{"eng":"NULL"},"o":{}},{"w":"কর","h":" ","s":{"eng":"NULL"},"o":{}},{"w":"মোরে","h":" ","s":{"eng":"NULL"},"o":{}},{"w":"নিতাই","h":" ","s":{"eng":"NULL"},"o":{}},{"w":"দয়া","h":" ","s":{"eng":"NULL"},"o":{}},{"w":"কর","h":" ","s":{"eng":"NULL"},"o":{}},{"w":"মোরে","h":" ।","s":{"eng":"NULL"},"o":{}}],
      [{"w":"অগতির","h":" ","s":{"eng":"NULL"},"o":{}},{"w":"গতি","h":" ","s":{"eng":"NULL"},"o":{}},{"w":"নিতাই","h":" ","s":{"eng":"NULL"},"o":{}},{"w":"সাধু","h":" ","s":{"eng":"NULL"},"o":{}},{"w":"লোকে","h":" ","s":{"eng":"NULL"},"o":{}},{"w":"বলে","h":" ॥১॥","s":{"eng":"NULL"},"o":{}}]],
    "translation":{"eng":"UNDEFINED"}},{
    "lines":[
      [{"w":"জয়","h":" ","s":{"eng":"NULL"},"o":{}},{"w":"প্রেমভক্তিদাতা","h":"-","s":{"eng":"NULL"},"o":{}},{"w":"পতাকা","h":" ","s":{"eng":"NULL"},"o":{}},{"w":"তোমার","h":" ।","s":{"eng":"NULL"},"o":{}}],
      [{"w":"উত্তম","h":" ","s":{"eng":"NULL"},"o":{}},{"w":"অধম","h":" ","s":{"eng":"NULL"},"o":{}},{"w":"কিছু","h":" ","s":{"eng":"NULL"},"o":{}},{"w":"না","h":" ","s":{"eng":"NULL"},"o":{}},{"w":"কৈল","h":" ","s":{"eng":"NULL"},"o":{}},{"w":"বিচার","h":" ॥২॥","s":{"eng":"NULL"},"o":{}}]],
    "translation":{"eng":"UNDEFINED"}},{
    "lines":[
      [{"w":"প্রেমদানে","h":" ","s":{"eng":"NULL"},"o":{}},{"w":"জগজনের","h":" ","s":{"eng":"NULL"},"o":{}},{"w":"মন","h":" ","s":{"eng":"NULL"},"o":{}},{"w":"কৈলা","h":" ","s":{"eng":"NULL"},"o":{}},{"w":"সুখী","h":" ।","s":{"eng":"NULL"},"o":{}}],
      [{"w":"তুমি","h":" ","s":{"eng":"NULL"},"o":{}},{"w":"হেন","h":" ","s":{"eng":"NULL"},"o":{}},{"w":"দয়ার","h":" ","s":{"eng":"NULL"},"o":{}},{"w":"ঠাকুর","h":" ","s":{"eng":"NULL"},"o":{}},{"w":"আমি","h":" ","s":{"eng":"NULL"},"o":{}},{"w":"কেনে","h":" ","s":{"eng":"NULL"},"o":{}},{"w":"দুখী","h":" ॥৩॥","s":{"eng":"NULL"},"o":{}}]],
    "translation":{"eng":"UNDEFINED"}},{
    "lines":[
      [{"w":"কানুরাম","h":" ","s":{"eng":"NULL"},"o":{}},{"w":"দাস","h":" ","s":{"eng":"NULL"},"o":{}},{"w":"বলে","h":" ","s":{"eng":"NULL"},"o":{}},{"w":"কি","h":" ","s":{"eng":"NULL"},"o":{}},{"w":"বলিব","h":" ","s":{"eng":"NULL"},"o":{}},{"w":"আমি","h":" ।","s":{"eng":"NULL"},"o":{}}],
      [{"w":"এ","h":" ","s":{"eng":"NULL"},"o":{}},{"w":"বড়","h":" ","s":{"eng":"NULL"},"o":{}},{"w":"ভরসা","h":" ","s":{"eng":"NULL"},"o":{}},{"w":"মোর","h":" ","s":{"eng":"NULL"},"o":{}},{"w":"কুলের","h":" ","s":{"eng":"NULL"},"o":{}},{"w":"ঠাকুর","h":" ","s":{"eng":"NULL"},"o":{}},{"w":"তুমি","h":" ॥৪॥","s":{"eng":"NULL"},"o":{}}]],
    "translation":{"eng":"UNDEFINED"}},{
    "lines":[
      []]}
  ]
}