{
  "uid":"NK26",
  "title":"বড় সুখের খবর গাই",
  "author":"bt",
  "language":"ben",
  "notes":[],
  "audio":[
    {"uid":"sadh-2","fn":"NK26-sadh-2.mp3","meta":{"artist":"BV Sadhu Maharaja","src":"11 Śrī Nāma-kīrtana/[19] Baḓô Sukher Khabor Gāi/sadh-bado_sukher_khabor_gai.mp3"}},
    {"uid":"srrb-1","fn":"NK26-srrb-1.mp3","meta":{"artist":"Sudarsan das (Radha-ramana Babaji Maharaja)","src":"11 Śrī Nāma-kīrtana/[19] Baḓô Sukher Khabor Gāi/srrb-bado_sukher_khabor_gai.mp3"}},
    {"uid":"vraj-1","fn":"NK26-vraj-1.mp3","meta":{"artist":"Vraj Mohan das","src":"11 Śrī Nāma-kīrtana/[19] Baḓô Sukher Khabor Gāi/vraj-bado_sukher_khabor_gai.mp3"}},
    {"uid":"krsn-1","fn":"NK26-krsn-1.mp3","meta":{"artist":"Krsnadas das","src":"11 Śrī Nāma-kīrtana/[19] Baḓô Sukher Khabor Gāi/krsn-bado_sukher_khabor_gai.mp3"}},
    {"uid":"sadh-1","fn":"NK26-sadh-1.mp3","meta":{"artist":"BV Sadhu Maharaja","src":"11 Śrī Nāma-kīrtana/[19] Baḓô Sukher Khabor Gāi/sadh-bado_sukher_khabor_gai-2.mp3"}},
    {"uid":"krsn-2","fn":"NK26-krsn-2.mp3","meta":{"artist":"Krsnadas das","src":"11 Śrī Nāma-kīrtana/[19] Baḓô Sukher Khabor Gāi/krsn-bado_sukher_khabor_gai-2.mp3"}},
    {"uid":"shbi-1","fn":"NK26-shbi-1.mp3","meta":{"artist":"Shyam-bihari das","src":"11 Śrī Nāma-kīrtana/[19] Baḓô Sukher Khabor Gāi/shbi-bado_sukher_khabor_gai.mp3"}}],
  "has_synonyms":true,
  "has_translations":true,
  "legend":{"w":"word","h":"hint","s":"synonym","o":"override"},
  "verses":[{
    "lines":[
      [{"w":"বড়","h":" ","s":{"eng":"great"},"o":{}},{"w":"সুখের","h":" ","s":{"eng":"of happiness"},"o":{}},{"w":"খবর","h":" ","s":{"eng":"news"},"o":{}},{"w":"গাই","h":" ।","s":{"eng":"I sing"},"o":{}}],
      [{"w":"সুরভি","h":"-","s":{"eng":"in Surabhi-kuñja"},"o":{}},{"w":"কুঞ্জেতে","h":" ","s":{"eng":"⬅1"},"o":{}},{"w":"নামের","h":" ","s":{"eng":"of the holy name"},"o":{}},{"w":"হাট","h":" ","s":{"eng":"marketplace"},"o":{}},{"w":"খুলেছে","h":" ","s":{"eng":"opened"},"o":{}},{"w":"খোদ","h":"-","s":{"eng":"himself"},"o":{}},{"w":"নিতাই","h":" ॥১॥","s":{"eng":"Nitāi"},"o":{}}]],
    "translation":{"eng":"I am singing news of great happiness! At Surabhi-kuñja, Śrī Nityānanda Prabhu has opened a marketplace of the holy name."}},{
    "lines":[
      [{"w":"বড়","h":" ","s":{"eng":"great"},"o":{}},{"w":"মজার","h":" ","s":{"eng":"of pleasure, fun, joy"},"o":{}},{"w":"কথা","h":" ","s":{"eng":"matter"},"o":{}},{"w":"তায়","h":" ।","s":{"eng":"therein"},"o":{}}],
      [{"w":"শ্রদ্ধামূল্যে","h":" ","s":{"eng":"faith + for the price"},"o":{}},{"w":"শুদ্ধনাম","h":" ","s":{"eng":"pure + names"},"o":{}},{"w":"সেই","h":" ","s":{"eng":"that"},"o":{}},{"w":"হাটেতে","h":" ","s":{"eng":"in the marketplace"},"o":{}},{"w":"বিকায়","h":" ॥২॥","s":{"eng":"He sells"},"o":{}}]],
    "translation":{"eng":"It is a matter of great bliss that He is selling the pure holy name at that marketplace for merely the price of one’s faith."}},{
    "lines":[
      [{"w":"যত","h":" ","s":{"eng":"whatever"},"o":{}},{"w":"ভক্তবৃন্দ","h":" ","s":{"eng":"devotees + assembly"},"o":{}},{"w":"বসি’","h":" ।","s":{"eng":"having waited, sat"},"o":{}}],
      [{"w":"অধিকারী","h":" ","s":{"eng":"qualification"},"o":{}},{"w":"দেখে’","h":" ","s":{"eng":"having seen"},"o":{}},{"w":"নাম","h":" ","s":{"eng":"the holy name"},"o":{}},{"w":"বেচ্‌ছে","h":" ","s":{"eng":"He is selling"},"o":{}},{"w":"দর","h":" ","s":{"eng":"price"},"o":{}},{"w":"কষি","h":" ॥৩॥","s":{"eng":"having calculated"},"o":{}}]],
    "translation":{"eng":"After examining the qualification of everyone in the assembly of devotees waiting to purchase the holy name, He bargains for the proper price with each person."}},{
    "lines":[
      [{"w":"যদি","h":" ","s":{"eng":"if"},"o":{}},{"w":"নাম","h":" ","s":{"eng":"the holy name"},"o":{}},{"w":"কিন্‌বে","h":" ","s":{"eng":"you will buy"},"o":{}},{"w":"ভাই","h":" ।","s":{"eng":"O brothers"},"o":{}}],
      [{"w":"আমার","h":" ","s":{"eng":"my"},"o":{}},{"w":"সঙ্গে","h":" ","s":{"eng":"with"},"o":{}},{"w":"চল","h":" ","s":{"eng":"come on"},"o":{}},{"w":"মহাজনের","h":" ","s":{"eng":"the great personality’s"},"o":{}},{"w":"কাছে","h":" ","s":{"eng":"near"},"o":{}},{"w":"যাই","h":" ॥৪॥","s":{"eng":"we go"},"o":{}}]],
    "translation":{"eng":"My dear brothers, if you want to purchase the pure holy name, then come with me to meet this magnanimous personality."}},{
    "lines":[
      [{"w":"তুমি","h":" ","s":{"eng":"you"},"o":{}},{"w":"কিন্‌বে","h":" ","s":{"eng":"will purchase"},"o":{}},{"w":"কৃষ্ণনাম","h":" ।","s":{"eng":"Kṛṣṇa + names"},"o":{}}],
      [{"w":"দস্তুরি","h":" ","s":{"eng":"commission, discount"},"o":{}},{"w":"লইব","h":" ","s":{"eng":"will take"},"o":{}},{"w":"আমি","h":", ","s":{"eng":"I"},"o":{}},{"w":"পূর্ণ","h":" ","s":{"eng":"complete"},"o":{}},{"w":"হ’বে","h":" ","s":{"eng":"will be"},"o":{}},{"w":"কাম","h":" ॥৫॥","s":{"eng":"desires"},"o":{}}]],
    "translation":{"eng":"You will purchase the pure holy name, I shall take my due commission, and all our desires will be fulfilled."}},{
    "lines":[
      [{"w":"বড়","h":" ","s":{"eng":"great"},"o":{}},{"w":"দয়াল","h":" ","s":{"eng":"merciful"},"o":{}},{"w":"নিত্যানন্দ","h":" ।","s":{"eng":"Nityānanda"},"o":{}}],
      [{"w":"শ্রদ্ধামাত্র","h":" ","s":{"eng":"faith + merely"},"o":{}},{"w":"ল’য়ে","h":" ","s":{"eng":"having taken"},"o":{}},{"w":"দেন","h":" ","s":{"eng":"He bestows"},"o":{}},{"w":"পরম","h":" ","s":{"eng":"topmost"},"o":{}},{"w":"আনন্দ","h":" ॥৬॥","s":{"eng":"bliss"},"o":{}}]],
    "translation":{"eng":"Śrī Nityānanda Prabhu is extraordinarily merciful. Merely for the price of one’s faith, He bestows the topmost divine bliss."}},{
    "lines":[
      [{"w":"একবার","h":" ","s":{"eng":"one + time"},"o":{}},{"w":"দেখ্‌লে","h":" ","s":{"eng":"if He sees"},"o":{}},{"w":"চক্ষে","h":" ","s":{"eng":"in the eyes"},"o":{}},{"w":"জল","h":" ।","s":{"eng":"water"},"o":{}}],
      [{"w":"গৌর","h":" ","s":{"eng":"‘Gaura’"},"o":{}},{"w":"ব’লে","h":" ","s":{"eng":"having said"},"o":{}},{"w":"নিতাই","h":" ","s":{"eng":"Nitāi"},"o":{}},{"w":"দেন","h":" ","s":{"eng":"gives"},"o":{}},{"w":"সকল","h":" ","s":{"eng":"all"},"o":{}},{"w":"সম্বল","h":" ॥৭॥","s":{"eng":"support, supply"},"o":{}}]],
    "translation":{"eng":"If Nitāi only once sees tears welling in the eyes of someone chanting the name of Gaura, He gives His full support to that person."}},{
    "lines":[
      [{"w":"দেন","h":" ","s":{"eng":"He gives"},"o":{}},{"w":"শুদ্ধ","h":" ","s":{"eng":"pure"},"o":{}},{"w":"কৃষ্ণ","h":"-","s":{"eng":"Kṛṣṇa"},"o":{}},{"w":"শিক্ষা","h":" ।","s":{"eng":"teachings, instructions"},"o":{}}],
      [{"w":"জাতি","h":", ","s":{"eng":"caste"},"o":{}},{"w":"ধন","h":", ","s":{"eng":"wealth"},"o":{}},{"w":"বিদ্যা","h":"-","s":{"eng":"knowledge"},"o":{}},{"w":"বল","h":" ","s":{"eng":"strength"},"o":{}},{"w":"না","h":" ","s":{"eng":"not"},"o":{}},{"w":"করে","h":" ","s":{"eng":"He cares for"},"o":{}},{"w":"অপেক্ষা","h":" ॥৮॥","s":{"eng":"⬅1"},"o":{}}]],
    "translation":{"eng":"He gives that person genuine teachings about Śrī Kṛṣṇa, not imposing any conditions in regard to caste, wealth, or strength of knowledge."}},{
    "lines":[
      [{"w":"অমনি","h":" ","s":{"eng":"at once, instantly"},"o":{}},{"w":"ছাড়ে","h":" ","s":{"eng":"releases"},"o":{}},{"w":"মায়াজাল","h":" ।","s":{"eng":"illusion + net, snare, network"},"o":{}}],
      [{"w":"গৃহে","h":" ","s":{"eng":"at home"},"o":{}},{"w":"থাক","h":", ","s":{"eng":"you remain"},"o":{}},{"w":"বনে","h":" ","s":{"eng":"in the forest"},"o":{}},{"w":"থাক","h":", ","s":{"eng":"you remain"},"o":{}},{"w":"না","h":" ","s":{"eng":"not"},"o":{}},{"w":"থাকে","h":" ","s":{"eng":"remains"},"o":{}},{"w":"জঞ্জাল","h":" ॥৯॥","s":{"eng":"rubbish, (fig.) trouble"},"o":{}}]],
    "translation":{"eng":"The snares of māyā are immediately released, so one may remain either at home [as a householder] or in the forest [as a renunciant], for no more troubles remain."}},{
    "lines":[
      [{"w":"আর","h":" ","s":{"eng":"more"},"o":{}},{"w":"নাইকো","h":" ","s":{"eng":"not"},"o":{}},{"w":"কলির","h":" ","s":{"eng":"of the age of Kali"},"o":{}},{"w":"ভয়","h":" ।","s":{"eng":"fear"},"o":{}}],
      [{"w":"আচণ্ডালে","h":" ","s":{"eng":"to one of the lowest castes amongst Hindus (usu. entrusted with the burning of the dead or execution of criminals)"},"o":{}},{"w":"দেন","h":" ","s":{"eng":"He gives"},"o":{}},{"w":"নাম","h":" ","s":{"eng":"the holy name"},"o":{}},{"w":"নিতাই","h":" ","s":{"eng":"Nitāi"},"o":{}},{"w":"দয়াময়","h":" ॥১০॥","s":{"eng":"merciful"},"o":{}}]],
    "translation":{"eng":"There is no longer any need to fear the age of Kali, for the munificent Nitāi gives the holy name to everyone—even to the lowest among men."}},{
    "lines":[
      [{"w":"ভকতিবিনোদ","h":" ","s":{"eng":"Bhaktivinoda"},"o":{}},{"w":"ডাকি’","h":" ","s":{"eng":"having called out"},"o":{}},{"w":"কয়","h":" ।","s":{"eng":"says"},"o":{}}],
      [{"w":"নিতাইচাঁদের","h":" ","s":{"eng":"the moon-like Nitāi’s"},"o":{}},{"w":"চরণ","h":" ","s":{"eng":"feet"},"o":{}},{"w":"বিনা","h":" ","s":{"eng":"without"},"o":{}},{"w":"আর","h":" ","s":{"eng":"other"},"o":{}},{"w":"নাহি","h":" ","s":{"eng":"no"},"o":{}},{"w":"আশ্রয়","h":" ॥১১॥","s":{"eng":"shelter"},"o":{}}]],
    "translation":{"eng":"Bhaktivinoda loudly proclaims to all, “Besides the lotus feet of Śrī Nitāi-candra, there is no other shelter!”"}},{
    "lines":[
      [{"w":"শব্দার্থঃ","h":"- ","s":{"eng":"NULL"},"o":{}},{"w":"দস্তুরি","h":"—","s":{"eng":"NULL"},"o":{}},{"w":"দালালের","h":" ","s":{"eng":"NULL"},"o":{}},{"w":"প্রাপ্য","h":" ।","s":{"eng":"NULL"},"o":{}}]],
    "translation":{"eng":"UNDEFINED"}}
  ]
}