{
  "uid":"NK35",
  "title":"হরি হরয়ে নমঃ কৃষ্ণ যাদবায় নমঃ",
  "author":"?",
  "language":"ben",
  "notes":[],
  "audio":[],
  "has_synonyms":false,
  "has_translations":false,
  "legend":{"w":"word","h":"hint","s":"synonym","o":"override"},
  "verses":[{
    "lines":[
      [{"w":"হরি","h":" ","s":{"eng":"NULL"},"o":{}},{"w":"হরয়ে","h":" ","s":{"eng":"NULL"},"o":{}},{"w":"নমঃ","h":" ","s":{"eng":"NULL"},"o":{}},{"w":"কৃষ্ণ","h":" ","s":{"eng":"NULL"},"o":{}},{"w":"যাদবায়","h":" ","s":{"eng":"NULL"},"o":{}},{"w":"নমঃ","h":"","s":{"eng":"NULL"},"o":{}}],
      [{"w":"যাদবায়","h":" ","s":{"eng":"NULL"},"o":{}},{"w":"মাধবায়","h":" ","s":{"eng":"NULL"},"o":{}},{"w":"কেশবায়","h":" ","s":{"eng":"NULL"},"o":{}},{"w":"নমঃ","h":" ॥","s":{"eng":"NULL"},"o":{}}]],
    "translation":{"eng":"UNDEFINED"}},{
    "lines":[
      [{"w":"গোপাল","h":" ","s":{"eng":"NULL"},"o":{}},{"w":"গোবিন্দ","h":" ","s":{"eng":"NULL"},"o":{}},{"w":"রাম","h":" ","s":{"eng":"NULL"},"o":{}},{"w":"শ্রীমধুসূদন","h":" ।","s":{"eng":"NULL"},"o":{}}],
      [{"w":"রাধাগোবিন্দ","h":" ","s":{"eng":"NULL"},"o":{}},{"w":"বল","h":" ","s":{"eng":"NULL"},"o":{}},{"w":"(","h":"৪ ","s":{"eng":"NULL"},"o":{}},{"w":"বার)","h":" ","s":{"eng":"NULL"},"o":{}}],
      [{"w":"গোবিন্দ","h":" ","s":{"eng":"NULL"},"o":{}},{"w":"গোবিন্দ","h":" ","s":{"eng":"NULL"},"o":{}},{"w":"গোবিন্দ","h":" ","s":{"eng":"NULL"},"o":{}},{"w":"বল","h":" ॥১॥","s":{"eng":"NULL"},"o":{}}]],
    "translation":{"eng":"UNDEFINED"}},{
    "lines":[
      [{"w":"রাধাগোবিন্দ","h":" ","s":{"eng":"NULL"},"o":{}},{"w":"বল","h":" ","s":{"eng":"NULL"},"o":{}},{"w":"(","h":"৪ ","s":{"eng":"NULL"},"o":{}},{"w":"বার)","h":"","s":{"eng":"NULL"},"o":{}}],
      [{"w":"গুরুকৃপা","h":"-","s":{"eng":"NULL"},"o":{}},{"w":"জলে","h":" ","s":{"eng":"NULL"},"o":{}},{"w":"নাশি’","h":" ","s":{"eng":"NULL"},"o":{}},{"w":"বিষয়","h":"-","s":{"eng":"NULL"},"o":{}},{"w":"অনল","h":" ।","s":{"eng":"NULL"},"o":{}}],
      [{"w":"রাধাগোবিন্দ","h":" ","s":{"eng":"NULL"},"o":{}},{"w":"বল","h":" ","s":{"eng":"NULL"},"o":{}},{"w":"(","h":"৪ ","s":{"eng":"NULL"},"o":{}},{"w":"বার)","h":" ","s":{"eng":"NULL"},"o":{}}],
      [{"w":"কৃষ্ণেতে","h":" ","s":{"eng":"NULL"},"o":{}},{"w":"অর্পিয়া","h":" ","s":{"eng":"NULL"},"o":{}},{"w":"দেহ","h":"-","s":{"eng":"NULL"},"o":{}},{"w":"গেহাদি","h":" ","s":{"eng":"NULL"},"o":{}},{"w":"সকল","h":" ॥২॥","s":{"eng":"NULL"},"o":{}}]],
    "translation":{"eng":"UNDEFINED"}},{
    "lines":[
      [{"w":"রাধাগোবিন্দ","h":" ","s":{"eng":"NULL"},"o":{}},{"w":"বল","h":" ","s":{"eng":"NULL"},"o":{}},{"w":"(","h":"৪ ","s":{"eng":"NULL"},"o":{}},{"w":"বার)","h":"","s":{"eng":"NULL"},"o":{}}],
      [{"w":"অনন্য","h":"-","s":{"eng":"NULL"},"o":{}},{"w":"ভাবেতে","h":" ","s":{"eng":"NULL"},"o":{}},{"w":"চিত্ত","h":" ","s":{"eng":"NULL"},"o":{}},{"w":"করিয়া","h":" ","s":{"eng":"NULL"},"o":{}},{"w":"সরল","h":" ।","s":{"eng":"NULL"},"o":{}}],
      [{"w":"রাধাগোবিন্দ","h":" ","s":{"eng":"NULL"},"o":{}},{"w":"বল","h":" ","s":{"eng":"NULL"},"o":{}},{"w":"(","h":"৪ ","s":{"eng":"NULL"},"o":{}},{"w":"বার)","h":"","s":{"eng":"NULL"},"o":{}}],
      [{"w":"রূপানুগ","h":" ","s":{"eng":"NULL"},"o":{}},{"w":"বৈষ্ণবের","h":" ","s":{"eng":"NULL"},"o":{}},{"w":"পিয়া","h":" ","s":{"eng":"NULL"},"o":{}},{"w":"পদজল","h":" ॥৩॥","s":{"eng":"NULL"},"o":{}}]],
    "translation":{"eng":"UNDEFINED"}},{
    "lines":[
      [{"w":"রাধাগোবিন্দ","h":" ","s":{"eng":"NULL"},"o":{}},{"w":"বল","h":" ","s":{"eng":"NULL"},"o":{}},{"w":"(","h":"৪ ","s":{"eng":"NULL"},"o":{}},{"w":"বার)","h":"","s":{"eng":"NULL"},"o":{}}],
      [{"w":"দশ","h":" ","s":{"eng":"NULL"},"o":{}},{"w":"অপরাধ","h":" ","s":{"eng":"NULL"},"o":{}},{"w":"ত্যজি’","h":" ","s":{"eng":"NULL"},"o":{}},{"w":"ভুক্তি","h":"-","s":{"eng":"NULL"},"o":{}},{"w":"মুক্তি","h":"-","s":{"eng":"NULL"},"o":{}},{"w":"ফল","h":" ।","s":{"eng":"NULL"},"o":{}}],
      [{"w":"রাধাগোবিন্দ","h":" ","s":{"eng":"NULL"},"o":{}},{"w":"বল","h":" ","s":{"eng":"NULL"},"o":{}},{"w":"(","h":"৪ ","s":{"eng":"NULL"},"o":{}},{"w":"বার)","h":" ","s":{"eng":"NULL"},"o":{}}],
      [{"w":"সখীর","h":" ","s":{"eng":"NULL"},"o":{}},{"w":"চরণরেণু","h":" ","s":{"eng":"NULL"},"o":{}},{"w":"করিয়া","h":" ","s":{"eng":"NULL"},"o":{}},{"w":"সম্বল","h":" ।","s":{"eng":"NULL"},"o":{}}],
      [{"w":"রাধাগোবিন্দ","h":" ","s":{"eng":"NULL"},"o":{}},{"w":"বল","h":" ","s":{"eng":"NULL"},"o":{}},{"w":"(","h":"৪ ","s":{"eng":"NULL"},"o":{}},{"w":"বার)","h":"","s":{"eng":"NULL"},"o":{}}],
      [{"w":"স্বরূপেতে","h":" ","s":{"eng":"NULL"},"o":{}},{"w":"ব্রজবাসে","h":" ","s":{"eng":"NULL"},"o":{}},{"w":"হইয়া","h":" ","s":{"eng":"NULL"},"o":{}},{"w":"শীতল","h":" ॥৪॥","s":{"eng":"NULL"},"o":{}}]],
    "translation":{"eng":"UNDEFINED"}},{
    "lines":[
      [{"w":"রাধাগোবিন্দ","h":" ","s":{"eng":"NULL"},"o":{}},{"w":"বল","h":" ","s":{"eng":"NULL"},"o":{}},{"w":"(","h":"৪ ","s":{"eng":"NULL"},"o":{}},{"w":"বার)","h":"","s":{"eng":"NULL"},"o":{}}]],
    "translation":{"eng":"UNDEFINED"}}
  ]
}