{
  "uid":"NK6",
  "title":"‘দয়াল নিতাই চৈতন্য’ ব’লে নাচ্ রে আমার মন",
  "author":"bt",
  "language":"ben",
  "notes":[],
  "audio":[
    {"uid":"krsb-1","fn":"NK6-krsb-1.mp3","meta":{"artist":"Krsna das Babaji","src":"11 Śrī Nāma-kīrtana/[28] ‘Dayāl Nitāi Caitanya’ Bô’le/krsb-dayal_nitai_caitanya_bole.mp3"}},
    {"uid":"gaur-1","fn":"NK6-gaur-1.mp3","meta":{"artist":"Gaurasundar das","src":"11 Śrī Nāma-kīrtana/[28] ‘Dayāl Nitāi Caitanya’ Bô’le/gaur-dayal_nitai_caitanya_bole.mp3"}},
    {"uid":"krsn-1","fn":"NK6-krsn-1.mp3","meta":{"artist":"Krsnadas das","src":"11 Śrī Nāma-kīrtana/[28] ‘Dayāl Nitāi Caitanya’ Bô’le/krsn-dayal_nitai_caitanya_bole.mp3"}},
    {"uid":"tama-1","fn":"NK6-tama-1.mp3","meta":{"artist":"Tamal Krsna das","src":"11 Śrī Nāma-kīrtana/[28] ‘Dayāl Nitāi Caitanya’ Bô’le/tama-dayal_nitai_caitanya_bole.mp3"}}],
  "has_synonyms":true,
  "has_translations":true,
  "legend":{"w":"word","h":"hint","s":"synonym","o":"override"},
  "verses":[{
    "lines":[
      [{"w":"","h":"‘","s":{"eng":"NULL"},"o":{}},{"w":"দয়াল","h":" ","s":{"eng":"munificent"},"o":{}},{"w":"নিতাই","h":" ","s":{"eng":"Nitāi"},"o":{}},{"w":"চৈতন্য’","h":" ","s":{"eng":"Caitanya"},"o":{}},{"w":"ব’লে","h":" ","s":{"eng":"having chanted"},"o":{}},{"w":"নাচ্","h":" ","s":{"eng":"dance"},"o":{}},{"w":"রে","h":" ","s":{"eng":"oh"},"o":{}},{"w":"আমার","h":" ","s":{"eng":"my"},"o":{}},{"w":"মন","h":" ।","s":{"eng":"mind"},"o":{}}],
      [{"w":"নাচ্","h":" ","s":{"eng":"dance"},"o":{}},{"w":"রে","h":" ","s":{"eng":"oh"},"o":{}},{"w":"আমার","h":" ","s":{"eng":"my"},"o":{}},{"w":"মন","h":", ","s":{"eng":"mind"},"o":{}},{"w":"নাচ্","h":" ","s":{"eng":"dance"},"o":{}},{"w":"রে","h":" ","s":{"eng":"oh"},"o":{}},{"w":"আমার","h":" ","s":{"eng":"my"},"o":{}},{"w":"মন","h":" ॥১॥","s":{"eng":"mind"},"o":{}}]],
    "translation":{"eng":"Chant the holy names of the munificent Nitāi and Caitanya and dance, my dear mind, dance. O mind, just dance!"}},{
    "lines":[
      [{"w":"(এমন","h":" ","s":{"eng":"such"},"o":{}},{"w":"দয়াল","h":" ","s":{"eng":"merciful"},"o":{}},{"w":"তো","h":" ","s":{"eng":"indeed"},"o":{}},{"w":"নাই","h":" ","s":{"eng":"not"},"o":{}},{"w":"হে","h":", ","s":{"eng":"oh"},"o":{}},{"w":"মার","h":" ","s":{"eng":"having been beaten"},"o":{}},{"w":"খে’য়ে","h":" ","s":{"eng":"⬅1"},"o":{}},{"w":"প্রেম","h":" ","s":{"eng":"love"},"o":{}},{"w":"দেয়)","h":"","s":{"eng":"he bestows"},"o":{}}],
      [{"w":"(ওরে)","h":" ","s":{"eng":"oh"},"o":{}},{"w":"অপরাধ","h":" ","s":{"eng":"offenses"},"o":{}},{"w":"দূরে","h":" ","s":{"eng":"far away"},"o":{}},{"w":"যা’বে","h":", ","s":{"eng":"will go"},"o":{}},{"w":"পা’বে","h":" ","s":{"eng":"you will obtain"},"o":{}},{"w":"প্রেমধন","h":" ।","s":{"eng":"divine love + treasure"},"o":{}}],
      [{"w":"(ও","h":" ","s":{"eng":"that"},"o":{}},{"w":"নামে","h":" ","s":{"eng":"in the name"},"o":{}},{"w":"অপরাধ","h":"-","s":{"eng":"offenses"},"o":{}},{"w":"বিচার","h":" ","s":{"eng":"consideration"},"o":{}},{"w":"তো","h":" ","s":{"eng":"indeed"},"o":{}},{"w":"নাই","h":" ","s":{"eng":"not"},"o":{}},{"w":"হে)","h":"","s":{"eng":"oh"},"o":{}}],
      [{"w":"(তখন)","h":" ","s":{"eng":"then"},"o":{}},{"w":"কৃষ্ণনামে","h":" ","s":{"eng":"for Kṛṣṇa’s names"},"o":{}},{"w":"রুচি","h":" ","s":{"eng":"taste, relish, inclination"},"o":{}},{"w":"হ’বে","h":", ","s":{"eng":"will be"},"o":{}},{"w":"ঘুচিবে","h":" ","s":{"eng":"will be destroyed"},"o":{}},{"w":"বন্ধন","h":" ॥২॥","s":{"eng":"bondage"},"o":{}}]],
    "translation":{"eng":"(There is no one as merciful as Nitāi, for despite being beaten, He bestowed prema.) By chanting Their names, your offenses will go far away and you will obtain the treasure of prema. (There is no consideration of offenses in chanting Their holy names.) (Then) you will develop a taste for kṛṣṇa-nāma, and your bondage [to material existence] will be destroyed."}},{
    "lines":[
      [{"w":"(কৃষ্ণনামে","h":" ","s":{"eng":"to the names of Kṛṣṇa"},"o":{}},{"w":"অনুরাগ","h":" ","s":{"eng":"deep attachment"},"o":{}},{"w":"তো","h":" ","s":{"eng":"indeed"},"o":{}},{"w":"হ’বে","h":" ","s":{"eng":"will develop"},"o":{}},{"w":"হে)","h":"","s":{"eng":"oh"},"o":{}}],
      [{"w":"(তখন)","h":" ","s":{"eng":"then"},"o":{}},{"w":"অনায়াসে","h":" ","s":{"eng":"easily, without difficulty, spontaneously"},"o":{}},{"w":"সফল","h":" ","s":{"eng":"successful"},"o":{}},{"w":"হ’বে","h":" ","s":{"eng":"will be"},"o":{}},{"w":"জীবের","h":" ","s":{"eng":"soul’s jīban"},"o":{}},{"w":"জীবন","h":" ।","s":{"eng":"NULL"},"o":{}}],
      [{"w":"(কৃষ্ণরতি","h":" ","s":{"eng":"Kṛṣṇa + attachment"},"o":{}},{"w":"বিনা","h":" ","s":{"eng":"without"},"o":{}},{"w":"জীবন","h":" ","s":{"eng":"life"},"o":{}},{"w":"তো","h":" ","s":{"eng":"simply"},"o":{}},{"w":"মিছে","h":" ","s":{"eng":"useless"},"o":{}},{"w":"হে)","h":"","s":{"eng":"oh"},"o":{}}],
      [{"w":"(শেষে)","h":" ","s":{"eng":"in the end, ultimately"},"o":{}},{"w":"বৃন্দাবনে","h":" ","s":{"eng":"in Vṛndāvana"},"o":{}},{"w":"রাধাশ্যামে","h":" ","s":{"eng":"Rādhā-Śyāmasundara’s"},"o":{}},{"w":"পা’বে","h":" ","s":{"eng":"will receive"},"o":{}},{"w":"দরশন","h":" ॥৩॥","s":{"eng":"sight, audience"},"o":{}}],
      [{"w":"(গৌর","h":"-","s":{"eng":"Gaura"},"o":{}},{"w":"কৃপা","h":" ","s":{"eng":"mercy"},"o":{}},{"w":"হ’লে","h":" ","s":{"eng":"if it happens"},"o":{}},{"w":"হে)","h":"","s":{"eng":"oh"},"o":{}}]],
    "translation":{"eng":"(You will develop deep attachment to kṛṣṇa-nāma.) (Then) auto­matically your life will become successful. (Without attachment to Śrī Kṛṣṇa, this life is simply useless.) (If you receive the mercy of Śrī Gaurāṅga,) (ultimately) you will receive the darśana of Śrī Śrī Rādhā-Śyāmasundara in Vṛndāvana."}}
  ]
}