{
  "uid":"NK8",
  "title":"বোল হরি বোল (৩ বার)",
  "author":"bt",
  "language":"ben",
  "notes":[],
  "audio":[
    {"uid":"tama-1","fn":"NK8-tama-1.mp3","meta":{"artist":"Tamal Krsna das","src":"11 Śrī Nāma-kīrtana/[29] Bol Hari Bol/tama-bol_hari_bol.mp3"}},
    {"uid":"krsn-1","fn":"NK8-krsn-1.mp3","meta":{"artist":"Krsnadas das","src":"11 Śrī Nāma-kīrtana/[29] Bol Hari Bol/krsn-bol_hari_bol.mp3"}},
    {"uid":"shbi-1","fn":"NK8-shbi-1.mp3","meta":{"artist":"Shyam-bihari das","src":"11 Śrī Nāma-kīrtana/[29] Bol Hari Bol/shbi-bol_hari_bol.mp3"}}],
  "has_synonyms":true,
  "has_translations":true,
  "legend":{"w":"word","h":"hint","s":"synonym","o":"override"},
  "verses":[{
    "lines":[
      [{"w":"বোল","h":" ","s":{"eng":"chant"},"o":{}},{"w":"হরি","h":" ","s":{"eng":"'Hari'"},"o":{}},{"w":"বোল","h":" ","s":{"eng":"chant"},"o":{}},{"w":"(","h":"৩ ","s":{"eng":"NULL"},"o":{}},{"w":"বার)","h":"","s":{"eng":"NULL"},"o":{}}],
      [{"w":"মনের","h":" ","s":{"eng":"of mind"},"o":{}},{"w":"আনন্দে","h":", ","s":{"eng":"in bliss"},"o":{}},{"w":"ভাই","h":", ","s":{"eng":"O brother"},"o":{}},{"w":"বোল","h":" ","s":{"eng":"chant"},"o":{}},{"w":"হরি","h":" ","s":{"eng":"‘Hari’"},"o":{}},{"w":"বোল","h":" ।","s":{"eng":"chant"},"o":{}}],
      [{"w":"বোল","h":" ","s":{"eng":"chant"},"o":{}},{"w":"হরি","h":" ","s":{"eng":"'Hari'"},"o":{}},{"w":"বোল","h":" ","s":{"eng":"chant"},"o":{}},{"w":"(","h":"৩ ","s":{"eng":"NULL"},"o":{}},{"w":"বার)","h":"","s":{"eng":"NULL"},"o":{}}],
      [{"w":"জনমে","h":" ","s":{"eng":"birth after birth"},"o":{}},{"w":"জনমে","h":" ","s":{"eng":"⬅1"},"o":{}},{"w":"সুখে","h":" ","s":{"eng":"in happiness"},"o":{}},{"w":"বোল","h":" ","s":{"eng":"chant"},"o":{}},{"w":"হরি","h":" ","s":{"eng":"‘Hari’"},"o":{}},{"w":"বোল","h":" ॥১॥","s":{"eng":"chant"},"o":{}}]],
    "translation":{"eng":"Chant the name of Hari! Just chant! With blissful minds, O brothers, chant the name of Hari. Birth after birth, in great happiness, just chant the name of Hari."}},{
    "lines":[
      [{"w":"বোল","h":" ","s":{"eng":"chant"},"o":{}},{"w":"হরি","h":" ","s":{"eng":"'Hari'"},"o":{}},{"w":"বোল","h":" ","s":{"eng":"chant"},"o":{}},{"w":"(","h":"৩ ","s":{"eng":"NULL"},"o":{}},{"w":"বার)","h":"","s":{"eng":"NULL"},"o":{}}],
      [{"w":"মানব","h":"-","s":{"eng":"human"},"o":{}},{"w":"জন্ম","h":" ","s":{"eng":"birth"},"o":{}},{"w":"পে’য়ে","h":", ","s":{"eng":"having obtained"},"o":{}},{"w":"ভাই","h":", ","s":{"eng":"O brother"},"o":{}},{"w":"বোল","h":" ","s":{"eng":"chant"},"o":{}},{"w":"হরি","h":" ","s":{"eng":"‘Hari’"},"o":{}},{"w":"বোল","h":" ।","s":{"eng":"chant"},"o":{}}],
      [{"w":"বোল","h":" ","s":{"eng":"chant"},"o":{}},{"w":"হরি","h":" ","s":{"eng":"'Hari'"},"o":{}},{"w":"বোল","h":" ","s":{"eng":"chant"},"o":{}},{"w":"(","h":"৩ ","s":{"eng":"NULL"},"o":{}},{"w":"বার)","h":"","s":{"eng":"NULL"},"o":{}}],
      [{"w":"সুখে","h":" ","s":{"eng":"in happiness"},"o":{}},{"w":"থাক","h":", ","s":{"eng":"you remain"},"o":{}},{"w":"দুঃখে","h":" ","s":{"eng":"in distress"},"o":{}},{"w":"থাক","h":", ","s":{"eng":"you remain"},"o":{}},{"w":"বোল","h":" ","s":{"eng":"chant"},"o":{}},{"w":"হরি","h":" ","s":{"eng":"‘Hari’"},"o":{}},{"w":"বোল","h":" ॥২॥","s":{"eng":"chant"},"o":{}}]],
    "translation":{"eng":"Having obtained this [rare] human birth, O brothers, chant the name of Hari. Whether you are in happiness or distress, just chant the name of Hari."}},{
    "lines":[
      [{"w":"বোল","h":" ","s":{"eng":"chant"},"o":{}},{"w":"হরি","h":" ","s":{"eng":"'Hari'"},"o":{}},{"w":"বোল","h":" ","s":{"eng":"chant"},"o":{}},{"w":"(","h":"৩ ","s":{"eng":"NULL"},"o":{}},{"w":"বার)","h":"","s":{"eng":"NULL"},"o":{}}],
      [{"w":"সম্পদে","h":" ","s":{"eng":"in prosperity, with wealth"},"o":{}},{"w":"বিপদে","h":", ","s":{"eng":"in misfortune, danger, trouble, a disaster"},"o":{}},{"w":"ভাই","h":", ","s":{"eng":"O brother"},"o":{}},{"w":"বোল","h":" ","s":{"eng":"chant"},"o":{}},{"w":"হরি","h":" ","s":{"eng":"‘Hari’"},"o":{}},{"w":"বোল","h":" ।","s":{"eng":"chant"},"o":{}}],
      [{"w":"বোল","h":" ","s":{"eng":"chant"},"o":{}},{"w":"হরি","h":" ","s":{"eng":"'Hari'"},"o":{}},{"w":"বোল","h":" ","s":{"eng":"chant"},"o":{}},{"w":"(","h":"৩ ","s":{"eng":"NULL"},"o":{}},{"w":"বার)","h":"","s":{"eng":"NULL"},"o":{}}],
      [{"w":"কৃষ্ণের","h":" ","s":{"eng":"of Kṛṣṇa"},"o":{}},{"w":"সংসারে","h":" ","s":{"eng":"in a domesticated life"},"o":{}},{"w":"থাকি’","h":", ","s":{"eng":"having stayed"},"o":{}},{"w":"বোল","h":" ","s":{"eng":"NULL"},"o":{}},{"w":"হরি","h":" ","s":{"eng":"NULL"},"o":{}},{"w":"বোল","h":" ॥৩॥","s":{"eng":"NULL"},"o":{}}]],
    "translation":{"eng":"Whether you are in prosperity or misfortune, O brothers, chant the name of Hari. Whether you live at home [as a householder] or in the forest [as a renunciant], chant the name of Hari. Live a Kṛṣṇa-centered life and just chant the name of Hari."}},{
    "lines":[
      [{"w":"বোল","h":" ","s":{"eng":"chant"},"o":{}},{"w":"হরি","h":" ","s":{"eng":"'Hari'"},"o":{}},{"w":"বোল","h":" ","s":{"eng":"chant"},"o":{}},{"w":"(","h":"৩ ","s":{"eng":"NULL"},"o":{}},{"w":"বার)","h":"","s":{"eng":"NULL"},"o":{}}],
      [{"w":"অসৎসঙ্গ","h":" ","s":{"eng":"bad association"},"o":{}},{"w":"ছাড়ি’","h":", ","s":{"eng":"give up"},"o":{}},{"w":"ভাই","h":", ","s":{"eng":"brother"},"o":{}},{"w":"বোল","h":" ","s":{"eng":"chant"},"o":{}},{"w":"হরি","h":" ","s":{"eng":"‘Hari’"},"o":{}},{"w":"বোল","h":" ।","s":{"eng":"chant"},"o":{}}],
      [{"w":"বোল","h":" ","s":{"eng":"chant"},"o":{}},{"w":"হরি","h":" ","s":{"eng":"'Hari'"},"o":{}},{"w":"বোল","h":" ","s":{"eng":"chant"},"o":{}},{"w":"(","h":"৩ ","s":{"eng":"NULL"},"o":{}},{"w":"বার)","h":"","s":{"eng":"NULL"},"o":{}}],
      [{"w":"বৈষ্ণব","h":"-","s":{"eng":"Vaiṣṇava"},"o":{}},{"w":"চরণে","h":" ","s":{"eng":"at feet"},"o":{}},{"w":"পড়ি’","h":", ","s":{"eng":"having fallen"},"o":{}},{"w":"বোল","h":" ","s":{"eng":"NULL"},"o":{}},{"w":"হরি","h":" ","s":{"eng":"NULL"},"o":{}},{"w":"বোল","h":" ॥৪॥","s":{"eng":"NULL"},"o":{}}]],
    "translation":{"eng":"Shunning the association of the wicked, O brothers, chant the name of Hari. Falling at the lotus feet of the Vaiṣṇavas, just chant the name of Hari."}},{
    "lines":[
      [{"w":"বোল","h":" ","s":{"eng":"chant"},"o":{}},{"w":"হরি","h":" ","s":{"eng":"'Hari'"},"o":{}},{"w":"বোল","h":" ","s":{"eng":"chant"},"o":{}},{"w":"(","h":"৩ ","s":{"eng":"NULL"},"o":{}},{"w":"বার)","h":"","s":{"eng":"NULL"},"o":{}}],
      [{"w":"গৌর","h":"-","s":{"eng":"the names Gaura-Nityānanda"},"o":{}},{"w":"নিত্যানন্দ","h":" ","s":{"eng":"⬅1"},"o":{}},{"w":"বোল","h":" ","s":{"eng":"chant"},"o":{}},{"w":"(","h":"৩ ","s":{"eng":"NULL"},"o":{}},{"w":"বার)","h":"","s":{"eng":"NULL"},"o":{}}],
      [{"w":"গৌর","h":"-","s":{"eng":"the names Gaura-Gadādhara"},"o":{}},{"w":"গদাধর","h":" ","s":{"eng":"⬅1"},"o":{}},{"w":"বোল","h":" ","s":{"eng":"chant"},"o":{}},{"w":"(","h":"৩ ","s":{"eng":"NULL"},"o":{}},{"w":"বার)","h":"","s":{"eng":"NULL"},"o":{}}],
      [{"w":"গৌর","h":"-","s":{"eng":"the names Gaura-Advaita"},"o":{}},{"w":"অদ্বৈত","h":" ","s":{"eng":"⬅1"},"o":{}},{"w":"বোল","h":" ","s":{"eng":"chant"},"o":{}},{"w":"(","h":"৩ ","s":{"eng":"NULL"},"o":{}},{"w":"বার)","h":"","s":{"eng":"NULL"},"o":{}}],
      [{"w":"(শ্রীল","h":" ","s":{"eng":"NULL"},"o":{}},{"w":"ভক্তিবিনোদ","h":" ","s":{"eng":"NULL"},"o":{}},{"w":"ঠাকুর)","h":"","s":{"eng":"NULL"},"o":{}}]],
    "translation":{"eng":"Chant the names Gaura-Nityānanda! Chant the names Gaura-Gadādhara! Chant the names Gaura-Advaita! Just chant!"}}
  ]
}