{
  "uid":"NM1",
  "title":"শ্রীরূপ-বদনে",
  "author":"bt",
  "language":"ben",
  "notes":["নিখিল-শ্রুতিমৌলি-রত্নমালা-","দ্যুতি-নীরাজিত-পাদপঙ্কজান্ত ।","অয়ি মুক্তকুলৈরুপাস্যমানং","পরিতস্ত্বাং হরিনাম সংশ্রয়ামি ॥১॥"],
  "audio":[
    {"uid":"srrb-1","fn":"NM1-srrb-1.mp3","meta":{"artist":"Sudarsan das (Radha-ramana Babaji Maharaja)","src":"12 Nāma-mahimā/srrb-sri_rupa_vadane.mp3"}}],
  "has_synonyms":true,
  "has_translations":true,
  "legend":{"w":"word","h":"hint","s":"synonym","o":"override"},
  "verses":[{
    "lines":[
      [{"w":"শ্রীরূপ","h":"-","s":{"eng":"NULL"},"o":{}},{"w":"বদনে","h":",    ","s":{"eng":"NULL"},"o":{}},{"w":"শ্রীশচীকুমার","h":" ।","s":{"eng":"NULL"},"o":{}}],
      [{"w":"স্বনাম","h":"-","s":{"eng":"NULL"},"o":{}},{"w":"মহিমা","h":" ","s":{"eng":"NULL"},"o":{}},{"w":"করল","h":" ","s":{"eng":"NULL"},"o":{}},{"w":"প্রচার","h":" ॥১॥","s":{"eng":"NULL"},"o":{}}]],
    "translation":{"eng":"Through the lips of Śrī Rūpa, the beautiful son of Śacī propagated the glories of His own name."}},{
    "lines":[
      [{"w":"যো","h":" ","s":{"eng":"this"},"o":{}},{"w":"নাম","h":" ","s":{"eng":"name"},"o":{}},{"w":"সো","h":" ","s":{"eng":"that"},"o":{}},{"w":"হরি","h":",    ","s":{"eng":"Śrī Hari"},"o":{}},{"w":"কিছু","h":" ","s":{"eng":"any"},"o":{}},{"w":"নাহি","h":" ","s":{"eng":"not"},"o":{}},{"w":"ভেদ","h":" ।","s":{"eng":"distinction"},"o":{}}],
      [{"w":"সো","h":" ","s":{"eng":"that"},"o":{}},{"w":"নাম","h":" ","s":{"eng":"name"},"o":{}},{"w":"সত্যমিতি","h":" ","s":{"eng":"truth"},"o":{}},{"w":"গায়তি","h":" ","s":{"eng":"sung"},"o":{}},{"w":"বেদ","h":" ॥২॥","s":{"eng":"the Vedas"},"o":{}}]],
    "translation":{"eng":"Śrī Hari's name is Śrī Hari Himself; there is no distinction. His name is Absolute Truth; this fact is sung in the Vedas."}},{
    "lines":[
      [{"w":"সবু","h":" ","s":{"eng":"all"},"o":{}},{"w":"উপনিষদ্","h":",    ","s":{"eng":"Upaniṣads"},"o":{}},{"w":"রত্নমালা","h":"-","s":{"eng":"necklace of gemstones"},"o":{}},{"w":"দ্যুতি","h":",","s":{"eng":"effulgence"},"o":{}}],
      [{"w":"ঝকমকি’","h":" ","s":{"eng":"glitter"},"o":{}},{"w":"চরণ","h":"-","s":{"eng":"feet"},"o":{}},{"w":"সমীপে","h":" ।","s":{"eng":"before, next to"},"o":{}}],
      [{"w":"মঙ্গল","h":"-","s":{"eng":"NULL"},"o":{}},{"w":"আরতি","h":",    ","s":{"eng":"&lt;---1 Maṅgala-ārati"},"o":{}},{"w":"করব","h":" ","s":{"eng":"they perform"},"o":{}},{"w":"অনুক্ষণ","h":",","s":{"eng":"incessantly"},"o":{}}],
      [{"w":"দ্বিগুণিত","h":"-","s":{"eng":"x2"},"o":{}},{"w":"পঞ্চপ্রদীপে","h":" ॥৩॥","s":{"eng":"five-wicked ghee lamp"},"o":{}}]],
    "translation":{"eng":"A the Upaniṣads glitter at His (Śrī Nāma’s) feet like a necklace of gemstones. From moment to moment, they perform maṅgala-ārati with ten lamps. "}},{
    "lines":[
      [{"w":"চৌদ্দভুবন","h":" ","s":{"eng":"the fourteen worlds"},"o":{}},{"w":"মাহ","h":",    ","s":{"eng":"(madhye) within"},"o":{}},{"w":"দেব","h":"-","s":{"eng":"demigods"},"o":{}},{"w":"নর","h":"-","s":{"eng":"men"},"o":{}},{"w":"দানব","h":",","s":{"eng":"demons"},"o":{}}],
      [{"w":"ভাগ","h":" ","s":{"eng":"fortune"},"o":{}},{"w":"যাকর","h":" ","s":{"eng":"whose"},"o":{}},{"w":"বলবান্","h":" ।","s":{"eng":"robust"},"o":{}}],
      [{"w":"নামরস","h":"-","s":{"eng":"the elixir of the name"},"o":{}},{"w":"পীযুষ","h":",    ","s":{"eng":"nectar"},"o":{}},{"w":"পিয়ই","h":" ","s":{"eng":"drink"},"o":{}},{"w":"অনুক্ষণ","h":",","s":{"eng":"incessantly"},"o":{}}],
      [{"w":"ছোড়ত","h":" ","s":{"eng":"giving up"},"o":{}},{"w":"করম","h":"-","s":{"eng":"fruitive action"},"o":{}},{"w":"গেয়ান","h":" ॥৪॥","s":{"eng":"dry knowledge"},"o":{}}]],
    "translation":{"eng":"In all the fourteen realms of existence, those gods, men, and demons whose fortunes are robust incessantly drink the elixir of nectar that is His name, abandoning all pursuits of action or knowledge."}},{
    "lines":[
      [{"w":"নিত্যমুক্ত","h":" ","s":{"eng":"the eternally liberated"},"o":{}},{"w":"পুনঃ","h":",    ","s":{"eng":"furthermore"},"o":{}},{"w":"নাম","h":"-","s":{"eng":"the name"},"o":{}},{"w":"উপাসনা","h":",","s":{"eng":"worship"},"o":{}}],
      [{"w":"সতত","h":" ","s":{"eng":"constantly"},"o":{}},{"w":"করই","h":" ","s":{"eng":"they do"},"o":{}},{"w":"সামগানে","h":" ।","s":{"eng":"with hymns of the Sāma-veda"},"o":{}}],
      [{"w":"গোলোকে","h":" ","s":{"eng":"in Goloka"},"o":{}},{"w":"বৈঠত","h":",    ","s":{"eng":"NULL"},"o":{}},{"w":"গাওয়ে","h":" ","s":{"eng":"NULL"},"o":{}},{"w":"নিরন্তর","h":",","s":{"eng":"NULL"},"o":{}}],
      [{"w":"নাম","h":"-","s":{"eng":"NULL"},"o":{}},{"w":"বিরহ","h":" ","s":{"eng":"NULL"},"o":{}},{"w":"নাহি","h":" ","s":{"eng":"NULL"},"o":{}},{"w":"জানে","h":" ॥৫॥","s":{"eng":"NULL"},"o":{}}]],
    "translation":{"eng":"Furthermore, [above these beings] the eternally liberated eternally worship His name with hymns and songs. Sitting in the transcendental realm of Goloka, they sing His name without cease; thus they do not know the absence of His name."}},{
    "lines":[
      [{"w":"সবু","h":" ","s":{"eng":"NULL"},"o":{}},{"w":"রস","h":"-","s":{"eng":"NULL"},"o":{}},{"w":"আকর","h":",    ","s":{"eng":"NULL"},"o":{}},{"w":"","h":"‘","s":{"eng":"NULL"},"o":{}},{"w":"হরি’","h":" ","s":{"eng":"NULL"},"o":{}},{"w":"ইতিদ্ব্যক্ষর","h":",","s":{"eng":"NULL"},"o":{}}],
      [{"w":"সবুভাবে","h":" ","s":{"eng":"NULL"},"o":{}},{"w":"করল","h":" ","s":{"eng":"NULL"},"o":{}},{"w":"আশ্রয়","h":" ।","s":{"eng":"NULL"},"o":{}}],
      [{"w":"নামচরণে","h":" ","s":{"eng":"NULL"},"o":{}},{"w":"প’ড়ে","h":",    ","s":{"eng":"NULL"},"o":{}},{"w":"ভকতিবিনোদ","h":" ","s":{"eng":"NULL"},"o":{}},{"w":"কহে","h":",","s":{"eng":"NULL"},"o":{}}],
      [{"w":"তুয়া","h":" ","s":{"eng":"NULL"},"o":{}},{"w":"পদে","h":" ","s":{"eng":"NULL"},"o":{}},{"w":"মাগহু","h":" ","s":{"eng":"NULL"},"o":{}},{"w":"নিলয়","h":" ॥৬॥","s":{"eng":"NULL"},"o":{}}]],
    "translation":{"eng":"UNDEFINED"}},{
    "lines":[
      [{"w":"শব্দার্থ:","h":"- ","s":{"eng":"NULL"},"o":{}},{"w":"মাহ","h":"—","s":{"eng":"NULL"},"o":{}},{"w":"মধ্যে","h":"; ","s":{"eng":"NULL"},"o":{}},{"w":"ভাগ","h":"—","s":{"eng":"NULL"},"o":{}},{"w":"ভাগ্য","h":"; ","s":{"eng":"NULL"},"o":{}},{"w":"যাকর","h":"—","s":{"eng":"NULL"},"o":{}},{"w":"যাহার","h":"; ","s":{"eng":"NULL"},"o":{}},{"w":"নিলয়","h":"—","s":{"eng":"NULL"},"o":{}},{"w":"আশ্রয়","h":" ।","s":{"eng":"NULL"},"o":{}}]],
    "translation":{"eng":"Those two syllables ‘ha’ and ‘ri’ are the abode of all nectar. All the mellows of the devotion have take shelter there. At the feet of Śrī Nāma, Bhaktivinoda says, “I beg refuge at your feet.”"}}
  ]
}