{
  "uid":"PBC8",
  "title":"বচনের অগোচর",
  "author":"ndt",
  "language":"ben",
  "notes":[],
  "audio":[],
  "has_synonyms":false,
  "has_translations":false,
  "legend":{"w":"word","h":"hint","s":"synonym","o":"override"},
  "verses":[{
    "lines":[
      [{"w":"বচনের","h":" ","s":{"eng":"NULL"},"o":{}},{"w":"অগোচর","h":",    ","s":{"eng":"NULL"},"o":{}},{"w":"বৃন্দাবন","h":" ","s":{"eng":"NULL"},"o":{}},{"w":"ধামময়","h":",","s":{"eng":"NULL"},"o":{}}],
      [{"w":"স্বপ্রকাশ","h":" ","s":{"eng":"NULL"},"o":{}},{"w":"প্রেমানন্দঘন","h":" ।","s":{"eng":"NULL"},"o":{}}],
      [{"w":"যাহাতে","h":" ","s":{"eng":"NULL"},"o":{}},{"w":"প্রকট","h":" ","s":{"eng":"NULL"},"o":{}},{"w":"সুখ","h":",    ","s":{"eng":"NULL"},"o":{}},{"w":"নাহি","h":" ","s":{"eng":"NULL"},"o":{}},{"w":"জরামৃত্যু","h":"-","s":{"eng":"NULL"},"o":{}},{"w":"দুঃখ","h":",","s":{"eng":"NULL"},"o":{}}],
      [{"w":"কৃষ্ণলীলারস","h":" ","s":{"eng":"NULL"},"o":{}},{"w":"অনুক্ষণ","h":" ॥১॥","s":{"eng":"NULL"},"o":{}}]],
    "translation":{"eng":"UNDEFINED"}},{
    "lines":[
      [{"w":"রাধাকৃষ্ণ","h":" ","s":{"eng":"NULL"},"o":{}},{"w":"দুঁহু","h":" ","s":{"eng":"NULL"},"o":{}},{"w":"প্রেম","h":",    ","s":{"eng":"NULL"},"o":{}},{"w":"জিনি’","h":" ","s":{"eng":"NULL"},"o":{}},{"w":"লক্ষবান","h":" ","s":{"eng":"NULL"},"o":{}},{"w":"হেম","h":",","s":{"eng":"NULL"},"o":{}}],
      [{"w":"দোঁহার","h":" ","s":{"eng":"NULL"},"o":{}},{"w":"হিল্লোলে","h":" ","s":{"eng":"NULL"},"o":{}},{"w":"রসসিন্ধু","h":" ।","s":{"eng":"NULL"},"o":{}}],
      [{"w":"চকোর","h":" ","s":{"eng":"NULL"},"o":{}},{"w":"নয়ন","h":"-","s":{"eng":"NULL"},"o":{}},{"w":"প্রেম","h":",    ","s":{"eng":"NULL"},"o":{}},{"w":"কামরতি","h":" ","s":{"eng":"NULL"},"o":{}},{"w":"করে","h":" ","s":{"eng":"NULL"},"o":{}},{"w":"ধ্যান","h":",","s":{"eng":"NULL"},"o":{}}],
      [{"w":"পিরীতি","h":" ","s":{"eng":"NULL"},"o":{}},{"w":"সুখের","h":" ","s":{"eng":"NULL"},"o":{}},{"w":"দুঁহে","h":" ","s":{"eng":"NULL"},"o":{}},{"w":"বন্ধু","h":" ॥২॥","s":{"eng":"NULL"},"o":{}}]],
    "translation":{"eng":"UNDEFINED"}},{
    "lines":[
      [{"w":"রাধিকা","h":" ","s":{"eng":"NULL"},"o":{}},{"w":"প্রেয়সীবরা","h":",    ","s":{"eng":"NULL"},"o":{}},{"w":"বাম","h":" ","s":{"eng":"NULL"},"o":{}},{"w":"অঙ্গে","h":" ","s":{"eng":"NULL"},"o":{}},{"w":"মনোহরা","h":",","s":{"eng":"NULL"},"o":{}}],
      [{"w":"কনক","h":"-","s":{"eng":"NULL"},"o":{}},{"w":"কেশব","h":"-","s":{"eng":"NULL"},"o":{}},{"w":"কান্তি","h":" ","s":{"eng":"NULL"},"o":{}},{"w":"ধরে","h":" ।","s":{"eng":"NULL"},"o":{}}],
      [{"w":"অনুরাগ","h":"-","s":{"eng":"NULL"},"o":{}},{"w":"রক্ত","h":"-","s":{"eng":"NULL"},"o":{}},{"w":"শাড়ী","h":",    ","s":{"eng":"NULL"},"o":{}},{"w":"নীলপট্ট","h":" ","s":{"eng":"NULL"},"o":{}},{"w":"মনোহারী","h":",","s":{"eng":"NULL"},"o":{}}],
      [{"w":"প্রত্যঙ্গে","h":" ","s":{"eng":"NULL"},"o":{}},{"w":"ভূষণ","h":" ","s":{"eng":"NULL"},"o":{}},{"w":"শোভা","h":" ","s":{"eng":"NULL"},"o":{}},{"w":"করে","h":" ॥৩॥","s":{"eng":"NULL"},"o":{}}]],
    "translation":{"eng":"UNDEFINED"}},{
    "lines":[
      [{"w":"করয়ে","h":" ","s":{"eng":"NULL"},"o":{}},{"w":"লোচন","h":" ","s":{"eng":"NULL"},"o":{}},{"w":"পান","h":",    ","s":{"eng":"NULL"},"o":{}},{"w":"রূপলীলা","h":" ","s":{"eng":"NULL"},"o":{}},{"w":"দুঁহু","h":" ","s":{"eng":"NULL"},"o":{}},{"w":"প্রাণ","h":",","s":{"eng":"NULL"},"o":{}}],
      [{"w":"আনন্দে","h":" ","s":{"eng":"NULL"},"o":{}},{"w":"মগন","h":" ","s":{"eng":"NULL"},"o":{}},{"w":"সহচরী","h":" ।","s":{"eng":"NULL"},"o":{}}],
      [{"w":"বেদ","h":"-","s":{"eng":"NULL"},"o":{}},{"w":"বিধি","h":"-","s":{"eng":"NULL"},"o":{}},{"w":"অগোচর","h":",    ","s":{"eng":"NULL"},"o":{}},{"w":"রতন","h":"-","s":{"eng":"NULL"},"o":{}},{"w":"বেদীরপর","h":",","s":{"eng":"NULL"},"o":{}}],
      [{"w":"সেব","h":" ","s":{"eng":"NULL"},"o":{}},{"w":"নিতি","h":" ","s":{"eng":"NULL"},"o":{}},{"w":"কিশোর","h":"-","s":{"eng":"NULL"},"o":{}},{"w":"কিশোরী","h":" ॥৪॥","s":{"eng":"NULL"},"o":{}}]],
    "translation":{"eng":"UNDEFINED"}},{
    "lines":[
      [{"w":"দুৰ্ল্লভ","h":" ","s":{"eng":"NULL"},"o":{}},{"w":"জনম","h":" ","s":{"eng":"NULL"},"o":{}},{"w":"হেন","h":",    ","s":{"eng":"NULL"},"o":{}},{"w":"নাহি","h":" ","s":{"eng":"NULL"},"o":{}},{"w":"ভজ","h":" ","s":{"eng":"NULL"},"o":{}},{"w":"হরি","h":" ","s":{"eng":"NULL"},"o":{}},{"w":"কেন","h":",","s":{"eng":"NULL"},"o":{}}],
      [{"w":"কি","h":" ","s":{"eng":"NULL"},"o":{}},{"w":"লাগিয়া","h":" ","s":{"eng":"NULL"},"o":{}},{"w":"মর","h":" ","s":{"eng":"NULL"},"o":{}},{"w":"ভব","h":"-","s":{"eng":"NULL"},"o":{}},{"w":"বন্ধে","h":" ।","s":{"eng":"NULL"},"o":{}}],
      [{"w":"ছাড়","h":" ","s":{"eng":"NULL"},"o":{}},{"w":"অন্য","h":" ","s":{"eng":"NULL"},"o":{}},{"w":"ক্রিয়া","h":"-","s":{"eng":"NULL"},"o":{}},{"w":"কর্ম্ম","h":",    ","s":{"eng":"NULL"},"o":{}},{"w":"নাহি","h":" ","s":{"eng":"NULL"},"o":{}},{"w":"দেখ","h":" ","s":{"eng":"NULL"},"o":{}},{"w":"বেদ","h":" ","s":{"eng":"NULL"},"o":{}},{"w":"ধর্ম্ম","h":",","s":{"eng":"NULL"},"o":{}}],
      [{"w":"ভক্তি","h":" ","s":{"eng":"NULL"},"o":{}},{"w":"কর","h":" ","s":{"eng":"NULL"},"o":{}},{"w":"কৃষ্ণপদদ্বন্দ্বে","h":" ॥৫॥","s":{"eng":"NULL"},"o":{}}]],
    "translation":{"eng":"UNDEFINED"}},{
    "lines":[
      [{"w":"বিষয়","h":" ","s":{"eng":"NULL"},"o":{}},{"w":"বিষম","h":"-","s":{"eng":"NULL"},"o":{}},{"w":"গতি","h":",    ","s":{"eng":"NULL"},"o":{}},{"w":"নাহি","h":" ","s":{"eng":"NULL"},"o":{}},{"w":"ভজ","h":" ","s":{"eng":"NULL"},"o":{}},{"w":"ব্রজপতি","h":",","s":{"eng":"NULL"},"o":{}}],
      [{"w":"শ্রীনন্দনন্দন","h":" ","s":{"eng":"NULL"},"o":{}},{"w":"সুখসার","h":" ।","s":{"eng":"NULL"},"o":{}}],
      [{"w":"স্বর্গ","h":" ","s":{"eng":"NULL"},"o":{}},{"w":"আর","h":" ","s":{"eng":"NULL"},"o":{}},{"w":"অপবর্গ","h":",    ","s":{"eng":"NULL"},"o":{}},{"w":"সংসার","h":" ","s":{"eng":"NULL"},"o":{}},{"w":"নরকভোগ","h":",","s":{"eng":"NULL"},"o":{}}],
      [{"w":"সর্ব্বনাশ","h":" ","s":{"eng":"NULL"},"o":{}},{"w":"জনমবিকার","h":" ॥৬॥","s":{"eng":"NULL"},"o":{}}]],
    "translation":{"eng":"UNDEFINED"}},{
    "lines":[
      [{"w":"দেহে","h":" ","s":{"eng":"NULL"},"o":{}},{"w":"না","h":" ","s":{"eng":"NULL"},"o":{}},{"w":"করিহ","h":" ","s":{"eng":"NULL"},"o":{}},{"w":"আস্থা","h":",    ","s":{"eng":"NULL"},"o":{}},{"w":"মন্দ","h":" ","s":{"eng":"NULL"},"o":{}},{"w":"রীতে","h":" ","s":{"eng":"NULL"},"o":{}},{"w":"যম","h":" ","s":{"eng":"NULL"},"o":{}},{"w":"শাস্তা","h":",","s":{"eng":"NULL"},"o":{}}],
      [{"w":"দুঃখের","h":" ","s":{"eng":"NULL"},"o":{}},{"w":"সমুদ্রে","h":" ","s":{"eng":"NULL"},"o":{}},{"w":"কর্ম্মগতি","h":" ।","s":{"eng":"NULL"},"o":{}}],
      [{"w":"দেখিয়া","h":" ","s":{"eng":"NULL"},"o":{}},{"w":"শুনিঞা","h":" ","s":{"eng":"NULL"},"o":{}},{"w":"ভজ","h":",    ","s":{"eng":"NULL"},"o":{}},{"w":"সাধুশাস্ত্রমত","h":" ","s":{"eng":"NULL"},"o":{}},{"w":"যম","h":",","s":{"eng":"NULL"},"o":{}}],
      [{"w":"যুগলচরণে","h":" ","s":{"eng":"NULL"},"o":{}},{"w":"কর","h":" ","s":{"eng":"NULL"},"o":{}},{"w":"রতি","h":" ॥৭॥","s":{"eng":"NULL"},"o":{}}]],
    "translation":{"eng":"UNDEFINED"}},{
    "lines":[
      [{"w":"কর্ম্মকাণ্ড","h":", ","s":{"eng":"NULL"},"o":{}},{"w":"জ্ঞানকাণ্ড","h":",    ","s":{"eng":"NULL"},"o":{}},{"w":"কেবল","h":" ","s":{"eng":"NULL"},"o":{}},{"w":"বিষের","h":" ","s":{"eng":"NULL"},"o":{}},{"w":"ভাণ্ড","h":",","s":{"eng":"NULL"},"o":{}}],
      [{"w":"‘অমৃত’","h":" ","s":{"eng":"NULL"},"o":{}},{"w":"বলিয়া","h":" ","s":{"eng":"NULL"},"o":{}},{"w":"যেবা","h":" ","s":{"eng":"NULL"},"o":{}},{"w":"খায়","h":" ।","s":{"eng":"NULL"},"o":{}}],
      [{"w":"নানা","h":" ","s":{"eng":"NULL"},"o":{}},{"w":"যোনি","h":" ","s":{"eng":"NULL"},"o":{}},{"w":"সদা","h":" ","s":{"eng":"NULL"},"o":{}},{"w":"ফিরে","h":",    ","s":{"eng":"NULL"},"o":{}},{"w":"কদর্য্য","h":" ","s":{"eng":"NULL"},"o":{}},{"w":"ভক্ষণ","h":" ","s":{"eng":"NULL"},"o":{}},{"w":"করে","h":",","s":{"eng":"NULL"},"o":{}}],
      [{"w":"তার","h":" ","s":{"eng":"NULL"},"o":{}},{"w":"জন্ম","h":" ","s":{"eng":"NULL"},"o":{}},{"w":"অধঃপাতে","h":" ","s":{"eng":"NULL"},"o":{}},{"w":"যায়","h":" ॥৮॥","s":{"eng":"NULL"},"o":{}}]],
    "translation":{"eng":"UNDEFINED"}},{
    "lines":[
      [{"w":"রাধাকৃষ্ণে","h":" ","s":{"eng":"NULL"},"o":{}},{"w":"নাহি","h":" ","s":{"eng":"NULL"},"o":{}},{"w":"রতি","h":",    ","s":{"eng":"NULL"},"o":{}},{"w":"অন্য","h":" ","s":{"eng":"NULL"},"o":{}},{"w":"জনে","h":" ","s":{"eng":"NULL"},"o":{}},{"w":"বলে","h":" ","s":{"eng":"NULL"},"o":{}},{"w":"পতি","h":",","s":{"eng":"NULL"},"o":{}}],
      [{"w":"প্রেমভক্তি","h":" ","s":{"eng":"NULL"},"o":{}},{"w":"কিছু","h":" ","s":{"eng":"NULL"},"o":{}},{"w":"নাহি","h":" ","s":{"eng":"NULL"},"o":{}},{"w":"জানে","h":" ।","s":{"eng":"NULL"},"o":{}}],
      [{"w":"নাহি","h":" ","s":{"eng":"NULL"},"o":{}},{"w":"ভক্তির","h":" ","s":{"eng":"NULL"},"o":{}},{"w":"সন্ধান","h":",    ","s":{"eng":"NULL"},"o":{}},{"w":"ভরমে","h":" ","s":{"eng":"NULL"},"o":{}},{"w":"করয়ে","h":" ","s":{"eng":"NULL"},"o":{}},{"w":"ধ্যান","h":",","s":{"eng":"NULL"},"o":{}}],
      [{"w":"বৃথা","h":" ","s":{"eng":"NULL"},"o":{}},{"w":"তার","h":" ","s":{"eng":"NULL"},"o":{}},{"w":"সে","h":" ","s":{"eng":"NULL"},"o":{}},{"w":"ছার","h":" ","s":{"eng":"NULL"},"o":{}},{"w":"ভাবনে","h":" ॥৯॥","s":{"eng":"NULL"},"o":{}}]],
    "translation":{"eng":"UNDEFINED"}},{
    "lines":[
      [{"w":"জ্ঞান","h":" ","s":{"eng":"NULL"},"o":{}},{"w":"কর্ম্ম","h":" ","s":{"eng":"NULL"},"o":{}},{"w":"করে","h":" ","s":{"eng":"NULL"},"o":{}},{"w":"লোক","h":",    ","s":{"eng":"NULL"},"o":{}},{"w":"নাহি","h":" ","s":{"eng":"NULL"},"o":{}},{"w":"জানে","h":" ","s":{"eng":"NULL"},"o":{}},{"w":"ভক্তিযোগ","h":",","s":{"eng":"NULL"},"o":{}}],
      [{"w":"নানামতে","h":" ","s":{"eng":"NULL"},"o":{}},{"w":"হইয়া","h":" ","s":{"eng":"NULL"},"o":{}},{"w":"অজ্ঞান","h":" ।","s":{"eng":"NULL"},"o":{}}],
      [{"w":"তার","h":" ","s":{"eng":"NULL"},"o":{}},{"w":"কথা","h":" ","s":{"eng":"NULL"},"o":{}},{"w":"নাহি","h":" ","s":{"eng":"NULL"},"o":{}},{"w":"শুনি","h":",    ","s":{"eng":"NULL"},"o":{}},{"w":"পরমার্থ","h":"-","s":{"eng":"NULL"},"o":{}},{"w":"তত্ত্ব","h":" ","s":{"eng":"NULL"},"o":{}},{"w":"জানি","h":",","s":{"eng":"NULL"},"o":{}}],
      [{"w":"প্রেমভক্তি","h":" ","s":{"eng":"NULL"},"o":{}},{"w":"ভক্তগণ","h":" ","s":{"eng":"NULL"},"o":{}},{"w":"প্রাণ","h":" ॥১০॥","s":{"eng":"NULL"},"o":{}}]],
    "translation":{"eng":"UNDEFINED"}},{
    "lines":[
      [{"w":"জগত","h":" ","s":{"eng":"NULL"},"o":{}},{"w":"ব্যাপক","h":" ","s":{"eng":"NULL"},"o":{}},{"w":"হরি","h":",    ","s":{"eng":"NULL"},"o":{}},{"w":"অজ","h":"-","s":{"eng":"NULL"},"o":{}},{"w":"ভব","h":" ","s":{"eng":"NULL"},"o":{}},{"w":"আজ্ঞাকারী","h":",","s":{"eng":"NULL"},"o":{}}],
      [{"w":"মধুর","h":" ","s":{"eng":"NULL"},"o":{}},{"w":"মধুর","h":" ","s":{"eng":"NULL"},"o":{}},{"w":"লীলাকথা","h":" ।","s":{"eng":"NULL"},"o":{}}],
      [{"w":"এই","h":" ","s":{"eng":"NULL"},"o":{}},{"w":"তত্ত্ব","h":" ","s":{"eng":"NULL"},"o":{}},{"w":"জানে","h":" ","s":{"eng":"NULL"},"o":{}},{"w":"যেই","h":",    ","s":{"eng":"NULL"},"o":{}},{"w":"পরম","h":" ","s":{"eng":"NULL"},"o":{}},{"w":"উত্তম","h":" ","s":{"eng":"NULL"},"o":{}},{"w":"সেই","h":",","s":{"eng":"NULL"},"o":{}}],
      [{"w":"তাঁর","h":" ","s":{"eng":"NULL"},"o":{}},{"w":"সঙ্গ","h":" ","s":{"eng":"NULL"},"o":{}},{"w":"করিব","h":" ","s":{"eng":"NULL"},"o":{}},{"w":"সর্ব্বথা","h":" ॥১১॥","s":{"eng":"NULL"},"o":{}}]],
    "translation":{"eng":"UNDEFINED"}},{
    "lines":[
      [{"w":"পরম","h":" ","s":{"eng":"NULL"},"o":{}},{"w":"ঈশ্বর","h":"-","s":{"eng":"NULL"},"o":{}},{"w":"কৃষ্ণ","h":",    ","s":{"eng":"NULL"},"o":{}},{"w":"তাঁহে","h":" ","s":{"eng":"NULL"},"o":{}},{"w":"হও","h":" ","s":{"eng":"NULL"},"o":{}},{"w":"অতিতৃষ্ণ","h":",","s":{"eng":"NULL"},"o":{}}],
      [{"w":"ভজ","h":" ","s":{"eng":"NULL"},"o":{}},{"w":"তাঁরে","h":" ","s":{"eng":"NULL"},"o":{}},{"w":"ব্রজভাব","h":" ","s":{"eng":"NULL"},"o":{}},{"w":"লঞা","h":" ।","s":{"eng":"NULL"},"o":{}}],
      [{"w":"রসিক","h":"-","s":{"eng":"NULL"},"o":{}},{"w":"ভকত","h":" ","s":{"eng":"NULL"},"o":{}},{"w":"সঙ্গে","h":",    ","s":{"eng":"NULL"},"o":{}},{"w":"বিহর","h":" ","s":{"eng":"NULL"},"o":{}},{"w":"নিয়ত","h":" ","s":{"eng":"NULL"},"o":{}},{"w":"রঙ্গে","h":",","s":{"eng":"NULL"},"o":{}}],
      [{"w":"ব্রজপুরে","h":" ","s":{"eng":"NULL"},"o":{}},{"w":"বসতি","h":" ","s":{"eng":"NULL"},"o":{}},{"w":"করিঞা","h":" ॥১২॥","s":{"eng":"NULL"},"o":{}}]],
    "translation":{"eng":"UNDEFINED"}},{
    "lines":[
      [{"w":"দিবানিশি","h":" ","s":{"eng":"NULL"},"o":{}},{"w":"ভাব","h":"-","s":{"eng":"NULL"},"o":{}},{"w":"ভরে","h":",    ","s":{"eng":"NULL"},"o":{}},{"w":"মনেতে","h":" ","s":{"eng":"NULL"},"o":{}},{"w":"ভাবনা","h":" ","s":{"eng":"NULL"},"o":{}},{"w":"ক’রে","h":",","s":{"eng":"NULL"},"o":{}}],
      [{"w":"নন্দব্রজে","h":" ","s":{"eng":"NULL"},"o":{}},{"w":"রহিব","h":" ","s":{"eng":"NULL"},"o":{}},{"w":"সদাই","h":" ।","s":{"eng":"NULL"},"o":{}}],
      [{"w":"এই","h":" ","s":{"eng":"NULL"},"o":{}},{"w":"বাক্য","h":" ","s":{"eng":"NULL"},"o":{}},{"w":"সত্য","h":" ","s":{"eng":"NULL"},"o":{}},{"w":"জান","h":",    ","s":{"eng":"NULL"},"o":{}},{"w":"কভু","h":" ","s":{"eng":"NULL"},"o":{}},{"w":"ইথে","h":" ","s":{"eng":"NULL"},"o":{}},{"w":"নাহি","h":" ","s":{"eng":"NULL"},"o":{}},{"w":"আন","h":",","s":{"eng":"NULL"},"o":{}}],
      [{"w":"পরমাণ","h":" ","s":{"eng":"NULL"},"o":{}},{"w":"শ্রীজীব","h":" ","s":{"eng":"NULL"},"o":{}},{"w":"গোসাঁই","h":" ॥১৩॥","s":{"eng":"NULL"},"o":{}}]],
    "translation":{"eng":"UNDEFINED"}},{
    "lines":[
      [{"w":"শ্রীকৃষ্ণ","h":" ","s":{"eng":"NULL"},"o":{}},{"w":"ভকতজন","h":",    ","s":{"eng":"NULL"},"o":{}},{"w":"তাঁহার","h":" ","s":{"eng":"NULL"},"o":{}},{"w":"চরণে","h":" ","s":{"eng":"NULL"},"o":{}},{"w":"মন","h":",","s":{"eng":"NULL"},"o":{}}],
      [{"w":"আরোপিয়া","h":" ","s":{"eng":"NULL"},"o":{}},{"w":"কথা","h":" ","s":{"eng":"NULL"},"o":{}},{"w":"অনুসারে","h":" ।","s":{"eng":"NULL"},"o":{}}],
      [{"w":"সখীর","h":" ","s":{"eng":"NULL"},"o":{}},{"w":"সর্ব্বথা","h":" ","s":{"eng":"NULL"},"o":{}},{"w":"মত","h":",    ","s":{"eng":"NULL"},"o":{}},{"w":"হইঞা","h":" ","s":{"eng":"NULL"},"o":{}},{"w":"তাঁহার","h":" ","s":{"eng":"NULL"},"o":{}},{"w":"যূথ","h":",","s":{"eng":"NULL"},"o":{}}],
      [{"w":"সদা","h":" ","s":{"eng":"NULL"},"o":{}},{"w":"বিহরিব","h":" ","s":{"eng":"NULL"},"o":{}},{"w":"ব্রজপুরে","h":" ॥১৪॥","s":{"eng":"NULL"},"o":{}}]],
    "translation":{"eng":"UNDEFINED"}},{
    "lines":[
      [{"w":"লীলারস","h":"-","s":{"eng":"NULL"},"o":{}},{"w":"কথা","h":" ","s":{"eng":"NULL"},"o":{}},{"w":"গান","h":",    ","s":{"eng":"NULL"},"o":{}},{"w":"যুগলকিশোর","h":" ","s":{"eng":"NULL"},"o":{}},{"w":"ধ্যান","h":",","s":{"eng":"NULL"},"o":{}}],
      [{"w":"প্রার্থনা","h":" ","s":{"eng":"NULL"},"o":{}},{"w":"করিব","h":" ","s":{"eng":"NULL"},"o":{}},{"w":"অভিলাষে","h":" ।","s":{"eng":"NULL"},"o":{}}],
      [{"w":"জীবনে","h":" ","s":{"eng":"NULL"},"o":{}},{"w":"মরণে","h":" ","s":{"eng":"NULL"},"o":{}},{"w":"এই","h":",    ","s":{"eng":"NULL"},"o":{}},{"w":"আর","h":" ","s":{"eng":"NULL"},"o":{}},{"w":"কিছু","h":" ","s":{"eng":"NULL"},"o":{}},{"w":"নাহি","h":" ","s":{"eng":"NULL"},"o":{}},{"w":"চাই","h":",","s":{"eng":"NULL"},"o":{}}],
      [{"w":"কহে","h":" ","s":{"eng":"NULL"},"o":{}},{"w":"দীন","h":" ","s":{"eng":"NULL"},"o":{}},{"w":"নরোত্তমদাসে","h":" ॥১৫॥","s":{"eng":"NULL"},"o":{}}]],
    "translation":{"eng":"UNDEFINED"}},{
    "lines":[
      []]}
  ]
}