{
  "uid":"R20",
  "title":"রাধা-ভজনে যদি মতি নাহি ভেলা",
  "author":"bt",
  "language":"ben",
  "notes":["শ্রীরাধাষ্টক ৭/৮","(শ্রীরাধা-ভজন মহিমা-বর্ণন)"],
  "audio":[
    {"uid":"srrb-1","fn":"R20-srrb-1.mp3","meta":{"artist":"Sudarsan das (Radha-ramana Babaji Maharaja)","src":"08 Śrī Rādhā/[05] Rādhā-bhajane Ĵadi/srrb-radha_bhajane_jadi.mp3"}},
    {"uid":"casu-1","fn":"R20-casu-1.mp3","meta":{"artist":"Candrakanta & Sucandra","src":"08 Śrī Rādhā/[05] Rādhā-bhajane Ĵadi/casu-radha_bhajane_jadi.mp3"}},
    {"uid":"krsn-1","fn":"R20-krsn-1.mp3","meta":{"artist":"Krsnadas das","src":"08 Śrī Rādhā/[05] Rādhā-bhajane Ĵadi/krsn-radha_bhajane_jadi.mp3"}},
    {"uid":"jahn-1","fn":"R20-jahn-1.mp3","meta":{"artist":"Jahnava dasi","src":"08 Śrī Rādhā/[05] Rādhā-bhajane Ĵadi/jahn-radha_bhajane_jadi.mp3"}},
    {"uid":"sadh-1","fn":"R20-sadh-1.mp3","meta":{"artist":"BV Sadhu Maharaja","src":"08 Śrī Rādhā/[05] Rādhā-bhajane Ĵadi/sadh-radha_bhajane_jadi.mp3"}}],
  "has_synonyms":true,
  "has_translations":true,
  "legend":{"w":"word","h":"hint","s":"synonym","o":"override"},
  "verses":[{
    "lines":[
      [{"w":"রাধা","h":"-","s":{"eng":"Śrī Rādhā"},"o":{}},{"w":"ভজনে","h":" ","s":{"eng":"to worship"},"o":{}},{"w":"যদি","h":" ","s":{"eng":"if"},"o":{}},{"w":"মতি","h":" ","s":{"eng":"desire, inclination"},"o":{}},{"w":"নাহি","h":" ","s":{"eng":"not"},"o":{}},{"w":"ভেলা","h":" ।","s":{"eng":"became"},"o":{}}],
      [{"w":"কৃষ্ণভজন","h":" ","s":{"eng":"Kṛṣṇa + worship"},"o":{}},{"w":"তব","h":" ","s":{"eng":"your"},"o":{}},{"w":"অকারণে","h":" ","s":{"eng":"vain"},"o":{}},{"w":"গেলা","h":" ॥১॥","s":{"eng":"gone"},"o":{}}]],
    "translation":{"eng":"If the desire to worship Śrī Rādhā does not arise, then your worship of Kṛṣṇa goes in vain."}},{
    "lines":[
      [{"w":"আতপ","h":"-","s":{"eng":"sun"},"o":{}},{"w":"রহিত","h":" ","s":{"eng":"devoid"},"o":{}},{"w":"সূরয","h":" ","s":{"eng":"sunlight"},"o":{}},{"w":"নাহি","h":" ","s":{"eng":"not"},"o":{}},{"w":"জানি","h":" ।","s":{"eng":"I/we know"},"o":{}}],
      [{"w":"রাধা","h":"-","s":{"eng":"Rādhā"},"o":{}},{"w":"বিরহিত","h":" ","s":{"eng":"separated"},"o":{}},{"w":"মাধব","h":" ","s":{"eng":"Mādhava"},"o":{}},{"w":"নাহি","h":" ","s":{"eng":"not"},"o":{}},{"w":"মানি","h":" ॥২॥","s":{"eng":"I/we accept"},"o":{}}]],
    "translation":{"eng":"We cannot conceive of the sun devoid of sunlight. Similarly, we cannot accept Mādhava separate from Rādhā."}},{
    "lines":[
      [{"w":"কেবল","h":" ","s":{"eng":"only"},"o":{}},{"w":"মাধব","h":" ","s":{"eng":"Mādhava"},"o":{}},{"w":"পূজয়ে","h":", ","s":{"eng":"worships"},"o":{}},{"w":"সো","h":" ","s":{"eng":"(sei, tāhā) he"},"o":{}},{"w":"অজ্ঞানী","h":" ।","s":{"eng":"ignorant"},"o":{}}],
      [{"w":"রাধা","h":"-","s":{"eng":"Śrī Rādhā"},"o":{}},{"w":"অনাদর","h":" ","s":{"eng":"disrespects"},"o":{}},{"w":"করই","h":" ","s":{"eng":"does"},"o":{}},{"w":"অভিমানী","h":" ॥৩॥","s":{"eng":"conceited"},"o":{}}]],
    "translation":{"eng":"One who worships only Mādhava is ignorant, and one who disrespects Śrī Rādhā is simply conceited."}},{
    "lines":[
      [{"w":"কবহিঁ","h":" ","s":{"eng":"(kakhôn nā) never"},"o":{}},{"w":"নাহি","h":" ","s":{"eng":"⬅1"},"o":{}},{"w":"করবি","h":" ","s":{"eng":"you will do"},"o":{}},{"w":"তাঁকর","h":" ","s":{"eng":"(tāhār) his"},"o":{}},{"w":"সঙ্গ","h":" ।","s":{"eng":"association"},"o":{}}],
      [{"w":"চিত্তে","h":" ","s":{"eng":"in heart"},"o":{}},{"w":"ইচ্ছসি","h":" ","s":{"eng":"desirous"},"o":{}},{"w":"যদি","h":" ","s":{"eng":"if"},"o":{}},{"w":"ব্রজরস","h":"-","s":{"eng":"mellows of Vraja"},"o":{}},{"w":"রঙ্গ","h":" ॥৪॥","s":{"eng":"play, revelry"},"o":{}}]],
    "translation":{"eng":"Do not ever associate with such persons if your heart longs for the loving playfulness of vraja-rasa."}},{
    "lines":[
      [{"w":"রাধিকা","h":"-","s":{"eng":"the maidservant of Śrīmatī Rādhikā"},"o":{}},{"w":"দাসী","h":" ","s":{"eng":"⬅1"},"o":{}},{"w":"যদি","h":" ","s":{"eng":"if"},"o":{}},{"w":"হোয়","h":" ","s":{"eng":"is, becomes"},"o":{}},{"w":"অভিমান","h":" ।","s":{"eng":"conception, pride"},"o":{}}],
      [{"w":"শীঘ্রই","h":" ","s":{"eng":"quickly"},"o":{}},{"w":"মিলই","h":" ","s":{"eng":"meet"},"o":{}},{"w":"তব","h":" ","s":{"eng":"your"},"o":{}},{"w":"গোকুল","h":"-","s":{"eng":"the Kāna (a nickname for Kṛṣṇa) of Gokula"},"o":{}},{"w":"কান","h":" ॥৫॥","s":{"eng":"⬅1"},"o":{}}]],
    "translation":{"eng":"If you consider yourself to be the maidservant of Śrīmatī Rādhikā, then very quickly you will attain Kāna of Gokula."}},{
    "lines":[
      [{"w":"ব্রহ্মা","h":", ","s":{"eng":"Lord Brahmā"},"o":{}},{"w":"শিব","h":", ","s":{"eng":"Lord Śiva"},"o":{}},{"w":"নারদ","h":", ","s":{"eng":"Nārada Muṇi"},"o":{}},{"w":"শ্রুতি","h":", ","s":{"eng":"the personified Vedas"},"o":{}},{"w":"নারায়ণী","h":" ।","s":{"eng":"Lakṣmi-devī"},"o":{}}],
      [{"w":"রাধিকা","h":"-","s":{"eng":"Śrīmatī Rādhikā’s"},"o":{}},{"w":"পদরজ","h":" ","s":{"eng":"feet + dust"},"o":{}},{"w":"পূজয়ে","h":" ","s":{"eng":"worship"},"o":{}},{"w":"মানি","h":" ॥৬॥","s":{"eng":"I/we know"},"o":{}}]],
    "translation":{"eng":"We know that Brahmā, Śiva, Nārada, the personified Vedas, and Nārāyāṇī (Lakṣmi-devī) all worship the dust of Śrīmatī Rādhikā’s lotus feet."}},{
    "lines":[
      [{"w":"উমা","h":", ","s":{"eng":"Umā, the consort of Śiva"},"o":{}},{"w":"রমা","h":", ","s":{"eng":"Ramā, the consort of Viṣṇu"},"o":{}},{"w":"সত্যা","h":", ","s":{"eng":"Satyā, the consort of ____"},"o":{}},{"w":"শচী","h":", ","s":{"eng":"Śacī, the consort of Indra"},"o":{}},{"w":"চন্দ্রা","h":", ","s":{"eng":"Candrāvalī"},"o":{}},{"w":"রুক্মিণী","h":" ।","s":{"eng":"Rukmiṇī"},"o":{}}],
      [{"w":"রাধা","h":"-","s":{"eng":"Rādhā"},"o":{}},{"w":"অবতার","h":" ","s":{"eng":"expansions"},"o":{}},{"w":"সবে","h":",—","s":{"eng":"all of them"},"o":{}},{"w":"আম্নায়","h":"-","s":{"eng":"revealed scriptures"},"o":{}},{"w":"বাণী","h":" ॥৭॥","s":{"eng":"message, words"},"o":{}}]],
    "translation":{"eng":"The revealed scriptures declare that Umā, Ramā, Satyā, Śacī, Candrāvalī, and Rukmiṇī are all Rādhā’s expansions."}},{
    "lines":[
      [{"w":"হেন","h":" ","s":{"eng":"such"},"o":{}},{"w":"রাধা","h":"-","s":{"eng":"Śrī Rādhā"},"o":{}},{"w":"পরিচর্য্যা","h":" ","s":{"eng":"service"},"o":{}},{"w":"যাঁকর","h":" ","s":{"eng":"whose"},"o":{}},{"w":"ধন","h":" ।","s":{"eng":"wealth"},"o":{}}],
      [{"w":"ভকতিবিনোদ","h":" ","s":{"eng":"Bhaktivinoda"},"o":{}},{"w":"তাঁ’র","h":" ","s":{"eng":"his"},"o":{}},{"w":"মাগয়ে","h":" ","s":{"eng":"begs"},"o":{}},{"w":"চরণ","h":" ॥৮॥","s":{"eng":"feet"},"o":{}}]],
    "translation":{"eng":"Bhaktivinoda begs at the feet of those whose wealth is the service of Śrī Rādhā."}}
  ]
}