{
  "uid":"R23",
  "title":"রাধিকা-চরণরেণু",
  "author":"ndt",
  "language":"ben",
  "notes":[],
  "audio":[
    {"uid":"krsn-1","fn":"R23-krsn-1.mp3","meta":{"artist":"Krsnadas das","src":"08 Śrī Rādhā/[07] Rādhikā Caraṇa-reṇu/krsn-radhika_carana_renu.mp3"}},
    {"uid":"krsn-2","fn":"R23-krsn-2.mp3","meta":{"artist":"Krsnadas das","src":"08 Śrī Rādhā/[07] Rādhikā Caraṇa-reṇu/krsn-radhika_carana_renu-2.mp3"}}],
  "has_synonyms":true,
  "has_translations":true,
  "legend":{"w":"word","h":"hint","s":"synonym","o":"override"},
  "verses":[{
    "lines":[
      [{"w":"রাধিকা","h":"-","s":{"eng":"Śrīmatī Rādhikā"},"o":{}},{"w":"চরণরেণু","h":",    ","s":{"eng":"feet + dust"},"o":{}},{"w":"ভূষণ","h":" ","s":{"eng":"having decorated"},"o":{}},{"w":"করিয়া","h":" ","s":{"eng":"⬅1"},"o":{}},{"w":"তনু","h":",","s":{"eng":"body"},"o":{}}],
      [{"w":"অনায়াসে","h":" ","s":{"eng":"easily"},"o":{}},{"w":"পাবে","h":" ","s":{"eng":"you will attain"},"o":{}},{"w":"গিরিধারী","h":" ।","s":{"eng":"Kṛṣṇa, the lifter of Govardhāna Hill"},"o":{}}],
      [{"w":"রাধিকা","h":"-","s":{"eng":"Śrīmatī Rādhikā"},"o":{}},{"w":"চরণাশ্রয়","h":",    ","s":{"eng":"feet + shelter"},"o":{}},{"w":"যে","h":" ","s":{"eng":"who"},"o":{}},{"w":"করে","h":" ","s":{"eng":"does"},"o":{}},{"w":"সে","h":" ","s":{"eng":"he"},"o":{}},{"w":"মহাশয়","h":",","s":{"eng":"great personality"},"o":{}}],
      [{"w":"তাঁ’রে","h":" ","s":{"eng":"to him"},"o":{}},{"w":"মুঞি","h":" ","s":{"eng":"I"},"o":{}},{"w":"যাঁও","h":" ","s":{"eng":"go"},"o":{}},{"w":"বলিহারী","h":" ॥১॥","s":{"eng":"“excellent, bravo” [Lit.  dumbfounded – unable to express praise]"},"o":{}}]],
    "translation":{"eng":"Decorate your body with the dust of Śrīmatī Rādhikā’s lotus feet, and you will easily attain Giridhārī. One who takes shelter of Rādhikā’s lotus feet is a great personality, and I heartily glorify such a soul."}},{
    "lines":[
      [{"w":"জয়","h":" ","s":{"eng":"all glories"},"o":{}},{"w":"জয়","h":" ","s":{"eng":"⬅1"},"o":{}},{"w":"","h":"‘","s":{"eng":"NULL"},"o":{}},{"w":"রাধা’","h":" ","s":{"eng":"Rādhā’s name"},"o":{}},{"w":"নাম","h":",    ","s":{"eng":"⬅1"},"o":{}},{"w":"বৃন্দাবন","h":" ","s":{"eng":"Vṛndāvana"},"o":{}},{"w":"যাঁ’র","h":" ","s":{"eng":"whose"},"o":{}},{"w":"ধাম","h":",","s":{"eng":"abode"},"o":{}}],
      [{"w":"কৃষ্ণসুখ","h":"-","s":{"eng":"Kṛṣṇa’s happiness"},"o":{}},{"w":"বিলাসের","h":" ","s":{"eng":"of playful pastimes"},"o":{}},{"w":"নিধি","h":" ।","s":{"eng":"repository"},"o":{}}],
      [{"w":"হেন","h":" ","s":{"eng":"such"},"o":{}},{"w":"রাধা","h":"-","s":{"eng":"Rādhā"},"o":{}},{"w":"গুণগান","h":",    ","s":{"eng":"qualities + songs"},"o":{}},{"w":"না","h":" ","s":{"eng":"not"},"o":{}},{"w":"শুনিল","h":" ","s":{"eng":"I heard"},"o":{}},{"w":"মোর","h":" ","s":{"eng":"my"},"o":{}},{"w":"কাণ","h":",","s":{"eng":"ears"},"o":{}}],
      [{"w":"বঞ্চিত","h":" ","s":{"eng":"cheated"},"o":{}},{"w":"করিল","h":" ","s":{"eng":"⬅1"},"o":{}},{"w":"মোরে","h":" ","s":{"eng":"to me"},"o":{}},{"w":"বিধি","h":" ॥২॥","s":{"eng":"destiny, providence"},"o":{}}]],
    "translation":{"eng":"All glories to the name of Rādhā, whose abode is Śrī Vṛndāvana. She is the repository of loving pastimes that bring happiness to Śrī Kṛṣṇa. If my ears do not hear such narrations of Rādhā’s glories, then destiny has cheated me."}},{
    "lines":[
      [{"w":"তাঁ’র","h":" ","s":{"eng":"Her"},"o":{}},{"w":"ভক্ত","h":"-","s":{"eng":"devotees"},"o":{}},{"w":"সঙ্গে","h":" ","s":{"eng":"with"},"o":{}},{"w":"সদা","h":",    ","s":{"eng":"always"},"o":{}},{"w":"রসলীলা","h":" ","s":{"eng":"nectar + pastimes"},"o":{}},{"w":"প্রেমকথা","h":",","s":{"eng":"love + discussions"},"o":{}}],
      [{"w":"যে","h":" ","s":{"eng":"who"},"o":{}},{"w":"করে","h":" ","s":{"eng":"does"},"o":{}},{"w":"সে","h":" ","s":{"eng":"he"},"o":{}},{"w":"পায়","h":" ","s":{"eng":"attains"},"o":{}},{"w":"ঘনশ্যাম","h":" ।","s":{"eng":"[a name for Kṛṣṇa that means] ‘of darkish complexion (śyāma), like a fresh rain cloud (ghana)"},"o":{}}],
      [{"w":"ইহাতে","h":" ","s":{"eng":"to this"},"o":{}},{"w":"বিমুখ","h":" ","s":{"eng":"averse"},"o":{}},{"w":"যেই","h":",    ","s":{"eng":"one who"},"o":{}},{"w":"তা’র","h":" ","s":{"eng":"his"},"o":{}},{"w":"কভু","h":" ","s":{"eng":"ever"},"o":{}},{"w":"সিদ্ধি","h":" ","s":{"eng":"perfection"},"o":{}},{"w":"নাই","h":",","s":{"eng":"not"},"o":{}}],
      [{"w":"নাহি","h":" ","s":{"eng":"not"},"o":{}},{"w":"যেন","h":" ","s":{"eng":"that"},"o":{}},{"w":"শুনি","h":" ","s":{"eng":"I hear"},"o":{}},{"w":"তা’র","h":" ","s":{"eng":"his"},"o":{}},{"w":"নাম","h":" ॥৩॥","s":{"eng":"name"},"o":{}}]],
    "translation":{"eng":"One who always engages in love-filled discussions of Her rasa-laden pastimes with Her devotees attains Ghanaśyāma . One who is averse to this will never attain perfection. Let me not even hear the name of such a person."}},{
    "lines":[
      [{"w":"কৃষ্ণনাম","h":"-","s":{"eng":"Kṛṣṇa + name"},"o":{}},{"w":"গানে","h":" ","s":{"eng":"by singing"},"o":{}},{"w":"ভাই","h":",    ","s":{"eng":"O brother"},"o":{}},{"w":"রাধিকা","h":"-","s":{"eng":"Rādhikā"},"o":{}},{"w":"চরণ","h":" ","s":{"eng":"feet"},"o":{}},{"w":"পাই","h":",","s":{"eng":"attains"},"o":{}}],
      [{"w":"রাধানাম","h":"-","s":{"eng":"Rādhā + name"},"o":{}},{"w":"গানে","h":" ","s":{"eng":"by singing"},"o":{}},{"w":"কৃষ্ণচন্দ্র","h":" ।","s":{"eng":"the moon-like Kṛṣṇa"},"o":{}}],
      [{"w":"সংক্ষেপে","h":" ","s":{"eng":"in brief"},"o":{}},{"w":"কহিনু","h":" ","s":{"eng":"I have spoken"},"o":{}},{"w":"কথা","h":",    ","s":{"eng":"advice"},"o":{}},{"w":"ঘুচাও","h":" ","s":{"eng":"you dispel"},"o":{}},{"w":"মনের","h":" ","s":{"eng":"of the heart"},"o":{}},{"w":"ব্যথা","h":",","s":{"eng":"sufferings"},"o":{}}],
      [{"w":"দুঃখময়","h":" ","s":{"eng":"full of sorrow"},"o":{}},{"w":"অন্য","h":" ","s":{"eng":"other"},"o":{}},{"w":"কথা","h":"-","s":{"eng":"words"},"o":{}},{"w":"দ্বন্দ্ব","h":" ॥৪॥","s":{"eng":"contradictory"},"o":{}}]],
    "translation":{"eng":"O brother, by chanting Kṛṣṇa’s name, one attains the lotus feet of Śrīmatī Rādhikā, and by chanting Rādhā’s name, one attains Śrī Kṛṣṇa-candra. I have briefly spoken advice by which you may dispel the sufferings of your heart. Contradictory words will only lead to pain and sorrow."}}
  ]
}