{
  "uid":"R24",
  "title":"কোথায় গো প্রেমময়ি",
  "author":"শ্রীল গৌরকিশোরদাস বাবাজী মহারাজ",
  "language":"ben",
  "notes":["শ্রীল রঘুনাথদাস গোস্বামীর উদ্দেশ্যে রচিত গীত বলিয়া প্রচলিত","","শব্দার্থঃ- কুলি কুলি—গলিতে গলিতে ।"],
  "audio":[
    {"uid":"sadh-1","fn":"R24-sadh-1.mp3","meta":{"artist":"BV Sadhu Maharaja","src":"08 Śrī Rādhā/[12] Kothāy Go Premamayi_/sadh-kothay_go_premamayi.mp3"}},
    {"uid":"tama-1","fn":"R24-tama-1.mp3","meta":{"artist":"Tamal Krsna das","src":"08 Śrī Rādhā/[12] Kothāy Go Premamayi_/tama-kothay_go_premamayi-3.mp3"}},
    {"uid":"tama-2","fn":"R24-tama-2.mp3","meta":{"artist":"Tamal Krsna das","src":"08 Śrī Rādhā/[12] Kothāy Go Premamayi_/tama-kothay_go_premamayi-1.mp3"}},
    {"uid":"srrb-1","fn":"R24-srrb-1.mp3","meta":{"artist":"Sudarsan das (Radha-ramana Babaji Maharaja)","src":"08 Śrī Rādhā/[12] Kothāy Go Premamayi_/srrb-kothay_go_premamayi.mp3"}},
    {"uid":"sggm-1","fn":"R24-sggm-1.mp3","meta":{"artist":"Srila Gaura Govinda Gosvami Maharaja","src":"08 Śrī Rādhā/[12] Kothāy Go Premamayi_/sggm-kothay_go_premamayi-2.mp3"}},
    {"uid":"sggm-2","fn":"R24-sggm-2.mp3","meta":{"artist":"Srila Gaura Govinda Gosvami Maharaja","src":"08 Śrī Rādhā/[12] Kothāy Go Premamayi_/sggm-kothay_go_premamayi.mp3"}},
    {"uid":"rash-1","fn":"R24-rash-1.mp3","meta":{"artist":"Radhesh das","src":"08 Śrī Rādhā/[12] Kothāy Go Premamayi_/rash-kothay_go_premamayi.mp3"}},
    {"uid":"tama-3","fn":"R24-tama-3.mp3","meta":{"artist":"Tamal Krsna das","src":"08 Śrī Rādhā/[12] Kothāy Go Premamayi_/tama-kothay_go_premamayi.mp3"}}],
  "has_synonyms":true,
  "has_translations":true,
  "legend":{"w":"word","h":"hint","s":"synonym","o":"override"},
  "verses":[{
    "lines":[
      [{"w":"কোথায়","h":" ","s":{"eng":"where"},"o":{}},{"w":"গো","h":" ","s":{"eng":"hey"},"o":{}},{"w":"প্রেমময়ি","h":" ","s":{"eng":"full of prema"},"o":{}},{"w":"রাধে","h":" ","s":{"eng":"he Rādhe"},"o":{}},{"w":"রাধে","h":" ।","s":{"eng":"⬅1"},"o":{}}],
      [{"w":"রাধে","h":" ","s":{"eng":"Rādhe Rādhe"},"o":{}},{"w":"রাধে","h":" ","s":{"eng":"⬅1"},"o":{}},{"w":"গো","h":", ","s":{"eng":"hey"},"o":{}},{"w":"জয়","h":" ","s":{"eng":"all glories to You"},"o":{}},{"w":"রাধে","h":" ","s":{"eng":"he Rādhe"},"o":{}},{"w":"রাধে","h":" ॥১॥","s":{"eng":"⬅1"},"o":{}}]],
    "translation":{"eng":"O Rādhā, who are full of prema, where are You? Rādhe! All glories to you!"}},{
    "lines":[
      [{"w":"দেখা","h":" ","s":{"eng":"sight, darśana"},"o":{}},{"w":"দিয়ে","h":" ","s":{"eng":"having given"},"o":{}},{"w":"প্রাণ","h":" ","s":{"eng":"life"},"o":{}},{"w":"রাখ","h":" ","s":{"eng":"save"},"o":{}},{"w":"রাধে","h":" ","s":{"eng":"he Rādhe"},"o":{}},{"w":"রাধে","h":" ।","s":{"eng":"⬅1"},"o":{}}],
      [{"w":"তোমার","h":" ","s":{"eng":"Your"},"o":{}},{"w":"কাঙ্গাল","h":" ","s":{"eng":"beggar"},"o":{}},{"w":"তোমায়","h":" ","s":{"eng":"to You"},"o":{}},{"w":"ডাকে","h":" ","s":{"eng":"calls"},"o":{}},{"w":"রাধে","h":" ","s":{"eng":"he Rādhe"},"o":{}},{"w":"রাধে","h":" ॥২॥","s":{"eng":"⬅1"},"o":{}}]],
    "translation":{"eng":"Rādhe! Give me Your darśana and save my life. Your wretched beggar calls out to You, “Rādhe! Rādhe!”"}},{
    "lines":[
      [{"w":"রাধে","h":" ","s":{"eng":"O Rādhā"},"o":{}},{"w":"বৃন্দাবন","h":"-","s":{"eng":"She who engages in amorous pastimes in Vṛndāvana"},"o":{}},{"w":"বিলাসিনী","h":" ","s":{"eng":"⬅1"},"o":{}},{"w":"রাধে","h":" ","s":{"eng":"he Rādhe"},"o":{}},{"w":"রাধে","h":" ।","s":{"eng":"⬅1"},"o":{}}],
      [{"w":"রাধে","h":" ","s":{"eng":"O Rādhā"},"o":{}},{"w":"কানুমনোমোহিনী","h":" ","s":{"eng":"of Kānu (a nick-name for Kṛṣṇa) + the mind + enchantress"},"o":{}},{"w":"রাধে","h":" ","s":{"eng":"he Rādhe"},"o":{}},{"w":"রাধে","h":" ॥৩॥","s":{"eng":"⬅1"},"o":{}}]],
    "translation":{"eng":"Rādhe! You engage in amorous pastimes in Vṛndāvana. Rādhe! You are the enchantress of the mind of Kānu."}},{
    "lines":[
      [{"w":"রাধে","h":" ","s":{"eng":"O Rādhā"},"o":{}},{"w":"অষ্টসখীর","h":" ","s":{"eng":"among the eight principal sakhīs (Lalitā, Viśākhā, Citrā, Campakalatā, Tuṅgavidyā, Indulekhā, Raṅgadevī, Sudevī)"},"o":{}},{"w":"শিরোমণি","h":" ","s":{"eng":"the crest-jewel"},"o":{}},{"w":"রাধে","h":" ","s":{"eng":"he Rādhe"},"o":{}},{"w":"রাধে","h":" ।","s":{"eng":"⬅1"},"o":{}}],
      [{"w":"রাধে","h":" ","s":{"eng":"O Rādhā"},"o":{}},{"w":"বৃষভানু","h":"-","s":{"eng":"the daughter of Vṛṣabhānu Mahārāja"},"o":{}},{"w":"নন্দিনি","h":" ","s":{"eng":"⬅1"},"o":{}},{"w":"রাধে","h":" ","s":{"eng":"he Rādhe"},"o":{}},{"w":"রাধে","h":" ॥৪॥","s":{"eng":"⬅1"},"o":{}}]],
    "translation":{"eng":"Rādhe! You are the crest-jewel among Your eight principal sakhīs.  Rādhe! You are the charming daughter of Vṛṣabhānu Mahārāja."}},{
    "lines":[
      [{"w":"(গোসাঞী)","h":" ","s":{"eng":"Śrīla Raghunātha dāsa Gosvāmī"},"o":{}},{"w":"নিয়ম","h":" ","s":{"eng":"as a practice, in a routine manner"},"o":{}},{"w":"ক’রে","h":" ","s":{"eng":"⬅1"},"o":{}},{"w":"সদাই","h":" ","s":{"eng":"continually"},"o":{}},{"w":"ডাকে","h":", ","s":{"eng":"calls"},"o":{}},{"w":"রাধে","h":" ","s":{"eng":"he Rādhe"},"o":{}},{"w":"রাধে","h":" ॥৫॥","s":{"eng":"⬅1"},"o":{}}]],
    "translation":{"eng":"As a practice, Śrīla Raghunātha dāsa Gosvāmī is continually calling out, “Rādhe! Rādhe!”"}},{
    "lines":[
      [{"w":"(গোসাঞী)","h":" ","s":{"eng":"Śrīla Raghunātha dāsa Gosvāmī"},"o":{}},{"w":"একবার","h":" ","s":{"eng":"one time"},"o":{}},{"w":"ডাকে","h":" ","s":{"eng":"calls"},"o":{}},{"w":"কেশীঘাটে","h":",","s":{"eng":"at Keśī-ghāṭa"},"o":{}}],
      [{"w":"আবার","h":" ","s":{"eng":"once more, and also"},"o":{}},{"w":"ডাকে","h":" ","s":{"eng":"he calls"},"o":{}},{"w":"বংশীবটে","h":", ","s":{"eng":"at Vaṁśī-vaṭa"},"o":{}},{"w":"রাধে","h":" ","s":{"eng":"he Rādhe"},"o":{}},{"w":"রাধে","h":" ॥৬॥","s":{"eng":"⬅1"},"o":{}}]],
    "translation":{"eng":"One time he calls out at Keśī-ghāṭa; another time he calls out at Vaṁśī-vaṭa, “Rādhe! Rādhe!”"}},{
    "lines":[
      [{"w":"(গোসাঞী)","h":" ","s":{"eng":"Śrīla Raghunātha dāsa Gosvāmī"},"o":{}},{"w":"একবার","h":" ","s":{"eng":"one time"},"o":{}},{"w":"ডাকে","h":" ","s":{"eng":"calls"},"o":{}},{"w":"নিধুবনে","h":",","s":{"eng":"at Nidhuvana"},"o":{}}],
      [{"w":"আবার","h":" ","s":{"eng":"once more"},"o":{}},{"w":"ডাকে","h":" ","s":{"eng":"he calls"},"o":{}},{"w":"কুঞ্জবনে","h":", ","s":{"eng":"at Sevā-kuñja"},"o":{}},{"w":"রাধে","h":" ","s":{"eng":"he Rādhe"},"o":{}},{"w":"রাধে","h":" ॥৭॥","s":{"eng":"⬅1"},"o":{}}]],
    "translation":{"eng":"One time he calls out at Nidhuvana; another time he calls out at Sevā-kuñja, “Rādhe! Rādhe!”"}},{
    "lines":[
      [{"w":"(গোসাঞী)","h":" ","s":{"eng":"Śrīla Raghunātha dāsa Gosvāmī"},"o":{}},{"w":"একবার","h":" ","s":{"eng":"one time"},"o":{}},{"w":"ডাকে","h":" ","s":{"eng":"calls"},"o":{}},{"w":"রাধাকুণ্ডে","h":",","s":{"eng":"at Rādhā-kuṇḍa"},"o":{}}],
      [{"w":"আবার","h":" ","s":{"eng":"once more"},"o":{}},{"w":"ডাকে","h":" ","s":{"eng":"he calls"},"o":{}},{"w":"শ্যামকুণ্ডে","h":", ","s":{"eng":"at Śrāma-kuṇḍa"},"o":{}},{"w":"রাধে","h":" ","s":{"eng":"he Rādhe"},"o":{}},{"w":"রাধে","h":" ॥৮॥","s":{"eng":"⬅1"},"o":{}}]],
    "translation":{"eng":"One time he calls out at Rādhā-kuṇḍa; another time he calls out at Śyāma-kuṇḍa, “Rādhe! Rādhe!”"}},{
    "lines":[
      [{"w":"(গোসাঞী)","h":" ","s":{"eng":"Śrīla Raghunātha dāsa Gosvāmī"},"o":{}},{"w":"একবার","h":" ","s":{"eng":"one time"},"o":{}},{"w":"ডাকে","h":" ","s":{"eng":"calls"},"o":{}},{"w":"কুসুমবনে","h":",","s":{"eng":"at Kusuma-sarovara"},"o":{}}],
      [{"w":"আবার","h":" ","s":{"eng":"once more"},"o":{}},{"w":"ডাকে","h":" ","s":{"eng":"he calls"},"o":{}},{"w":"গোবর্দ্ধনে","h":", ","s":{"eng":"at Govardhana"},"o":{}},{"w":"রাধে","h":" ","s":{"eng":"he Rādhe"},"o":{}},{"w":"রাধে","h":" ॥৯॥","s":{"eng":"⬅1"},"o":{}}]],
    "translation":{"eng":"One time he calls out at Kusuma-sarovara; another time he calls out at Govardhana, “Rādhe! Rādhe!”"}},{
    "lines":[
      [{"w":"(গোসাঞী)","h":" ","s":{"eng":"Śrīla Raghunātha dāsa Gosvāmī"},"o":{}},{"w":"একবার","h":" ","s":{"eng":"one time"},"o":{}},{"w":"ডাকে","h":" ","s":{"eng":"calls"},"o":{}},{"w":"তালবনে","h":",","s":{"eng":"at Tālavana"},"o":{}}],
      [{"w":"আবার","h":" ","s":{"eng":"once more"},"o":{}},{"w":"ডাকে","h":" ","s":{"eng":"he calls"},"o":{}},{"w":"তমালবনে","h":", ","s":{"eng":"at Tamālavana"},"o":{}},{"w":"রাধে","h":" ","s":{"eng":"he Rādhe"},"o":{}},{"w":"রাধে","h":" ॥১০॥","s":{"eng":"⬅1"},"o":{}}]],
    "translation":{"eng":"One time he calls out at Tālavana; another time he calls out at Tamālavana, “Rādhe! Rādhe!”"}},{
    "lines":[
      [{"w":"(গোসাঞী)","h":" ","s":{"eng":"Śrīla Raghunātha dāsa Gosvāmī"},"o":{}},{"w":"মলিন","h":" ","s":{"eng":"worn, faded"},"o":{}},{"w":"বসন","h":" ","s":{"eng":"cloth"},"o":{}},{"w":"দিয়ে","h":" ","s":{"eng":"having given"},"o":{}},{"w":"গায়","h":",","s":{"eng":"on the body"},"o":{}}],
      [{"w":"ব্রজের","h":" ","s":{"eng":"of Vraja"},"o":{}},{"w":"ধূলায়","h":" ","s":{"eng":"in the dust"},"o":{}},{"w":"গড়াগড়ি","h":" ","s":{"eng":"he rolls"},"o":{}},{"w":"যায়","h":", ","s":{"eng":"⬅1"},"o":{}},{"w":"রাধে","h":" ","s":{"eng":"he Rādhe"},"o":{}},{"w":"রাধে","h":" ॥১১॥","s":{"eng":"⬅1"},"o":{}}]],
    "translation":{"eng":"Wearing faded and worn cloth, he rolls in the dust of Vraja, singing, “Rādhe! Rādhe!”"}},{
    "lines":[
      [{"w":"(গোসাঞী)","h":" ","s":{"eng":"Śrīla Raghunātha dāsa Gosvāmī"},"o":{}},{"w":"মুখে","h":" ","s":{"eng":"from the mouth"},"o":{}},{"w":"রাধা","h":" ","s":{"eng":"“Rādhā, Rādhā”"},"o":{}},{"w":"রাধা","h":" ","s":{"eng":"⬅1"},"o":{}},{"w":"বলে","h":",","s":{"eng":"chants"},"o":{}}],
      [{"w":"ভাসে","h":" ","s":{"eng":"submerged in, floods"},"o":{}},{"w":"নয়নের","h":" ","s":{"eng":"from the eyes"},"o":{}},{"w":"জলে","h":", ","s":{"eng":"with water (tears)"},"o":{}},{"w":"রাধে","h":" ","s":{"eng":"he Rādhe"},"o":{}},{"w":"রাধে","h":" ॥১২॥","s":{"eng":"⬅1"},"o":{}}]],
    "translation":{"eng":"Calling out, “Rādhe! Rādhe!” he becomes submerged in the tears flowing from his eyes. “Rādhe! Rādhe!”"}},{
    "lines":[
      [{"w":"(গোসাঞী)","h":" ","s":{"eng":"Śrīla Raghunātha dāsa Gosvāmī"},"o":{}},{"w":"বৃন্দাবনে","h":" ","s":{"eng":"in Vṛndāvana"},"o":{}},{"w":"কুলি","h":" ","s":{"eng":"the lanes"},"o":{}},{"w":"কুলি","h":",","s":{"eng":"⬅1"},"o":{}}],
      [{"w":"কেঁদে","h":" ","s":{"eng":"crys"},"o":{}},{"w":"বেড়ায়","h":" ","s":{"eng":"wonders"},"o":{}},{"w":"রাধা","h":" ","s":{"eng":"“Rādhā”"},"o":{}},{"w":"বলি’","h":", ","s":{"eng":"having chanted"},"o":{}},{"w":"রাধে","h":" ","s":{"eng":"he Rādhe"},"o":{}},{"w":"রাধে","h":" ॥১৩॥","s":{"eng":"⬅1"},"o":{}}]],
    "translation":{"eng":"He wanders throughout the lanes of Vṛndāvana, weeping and exclaiming, “Rādhe! Rādhe!”"}},{
    "lines":[
      [{"w":"(গোসাঞী)","h":" ","s":{"eng":"Śrīla Raghunātha dāsa Gosvāmī"},"o":{}},{"w":"ছাপ্পান্ন","h":" ","s":{"eng":"fifty-six"},"o":{}},{"w":"দণ্ড","h":" ","s":{"eng":"[a measurement of time equaling twenty-four minutes]"},"o":{}},{"w":"রাত্রি","h":" ","s":{"eng":"in the night and day"},"o":{}},{"w":"দিনে","h":"","s":{"eng":"⬅1"},"o":{}}],
      [{"w":"জানে","h":" ","s":{"eng":"knows"},"o":{}},{"w":"না","h":" ","s":{"eng":"nothing"},"o":{}},{"w":"রাধা","h":"-","s":{"eng":"Śrī Śrī Rādhā-Govinda"},"o":{}},{"w":"গোবিন্দ","h":" ","s":{"eng":"⬅1"},"o":{}},{"w":"বিনে","h":", ","s":{"eng":"without"},"o":{}},{"w":"রাধে","h":" ","s":{"eng":" he Rādhe"},"o":{}},{"w":"রাধে","h":" ॥১৪॥","s":{"eng":"⬅1"},"o":{}}]],
    "translation":{"eng":"Throughout fifty-six daṇḍas of the day and night, he knows nothing but Rādhā-Govinda. “Rādhe! Rādhe!”"}},{
    "lines":[
      [{"w":"তারপর","h":" ","s":{"eng":"that + after"},"o":{}},{"w":"চারিদণ্ড","h":" ","s":{"eng":"four + daṇḍas"},"o":{}},{"w":"শুতি’","h":" ","s":{"eng":"he lays down, rests"},"o":{}},{"w":"থাকে","h":"","s":{"eng":"⬅1"},"o":{}}],
      [{"w":"স্বপনে","h":" ","s":{"eng":"in dreams"},"o":{}},{"w":"রাধা","h":"-","s":{"eng":"Śrī Śrī Rādhā-Govinda"},"o":{}},{"w":"গোবিন্দ","h":" ","s":{"eng":"⬅1"},"o":{}},{"w":"দেখে","h":", ","s":{"eng":"he sees"},"o":{}},{"w":"রাধে","h":" ","s":{"eng":" he Rādhe"},"o":{}},{"w":"রাধে","h":" ॥১৫॥","s":{"eng":"⬅1"},"o":{}}]],
    "translation":{"eng":"Then he takes rest for only four daṇḍas [one hour thirty-six minutes] and sees Rādhā-Govinda in his dreams. “Rādhe! Rādhe!”"}}
  ]
}