{
  "uid":"R28",
  "title":"চিন্তামণিময়",
  "author":"bt",
  "language":"ben",
  "notes":[],
  "audio":[
    {"uid":"hakr-3","fn":"R28-hakr-3.mp3","meta":{"artist":"Hare Krsna das","src":"08 Śrī Rādhā/[10] Cintāmaṇi-maya/hakr-cintamani_maya.mp3"}},
    {"uid":"hakr-1","fn":"R28-hakr-1.mp3","meta":{"artist":"Hare Krsna das","src":"08 Śrī Rādhā/[10] Cintāmaṇi-maya/hakr-cintamani_maya-1.mp3"}},
    {"uid":"hakr-2","fn":"R28-hakr-2.mp3","meta":{"artist":"Hare Krsna das","src":"08 Śrī Rādhā/[10] Cintāmaṇi-maya/hakr-cintamani_maya-3.mp3"}},
    {"uid":"muni-1","fn":"R28-muni-1.mp3","meta":{"artist":"BV Muni Maharaja","src":"08 Śrī Rādhā/[10] Cintāmaṇi-maya/muni-cintamani_maya.mp3"}},
    {"uid":"srav-1","fn":"R28-srav-1.mp3","meta":{"artist":"Sravan das","src":"08 Śrī Rādhā/[10] Cintāmaṇi-maya/srav-cintamani_maya.mp3"}},
    {"uid":"tama-1","fn":"R28-tama-1.mp3","meta":{"artist":"Tamal Krsna das","src":"08 Śrī Rādhā/[10] Cintāmaṇi-maya/tama-cintamani_maya.mp3"}}],
  "has_synonyms":false,
  "has_translations":false,
  "legend":{"w":"word","h":"hint","s":"synonym","o":"override"},
  "verses":[{
    "lines":[
      [{"w":"চিন্তামণিময়","h":",    ","s":{"eng":"NULL"},"o":{}},{"w":"রাধাকুণ্ড","h":" ","s":{"eng":"NULL"},"o":{}},{"w":"তট","h":", ","s":{"eng":"NULL"},"o":{}}],
      [{"w":"তাহে","h":" ","s":{"eng":"NULL"},"o":{}},{"w":"কুঞ্জ","h":" ","s":{"eng":"NULL"},"o":{}},{"w":"শত","h":" ","s":{"eng":"NULL"},"o":{}},{"w":"শত","h":" ।","s":{"eng":"NULL"},"o":{}}],
      [{"w":"প্রবাল","h":"-","s":{"eng":"NULL"},"o":{}},{"w":"বিদ্রুম","h":"-    ","s":{"eng":"NULL"},"o":{}},{"w":"ময়","h":" ","s":{"eng":"NULL"},"o":{}},{"w":"তরুলতা","h":", ","s":{"eng":"NULL"},"o":{}}],
      [{"w":"মুক্তাফলে","h":" ","s":{"eng":"NULL"},"o":{}},{"w":"অবনত","h":" ॥১॥","s":{"eng":"NULL"},"o":{}}]],
    "translation":{"eng":"UNDEFINED"}},{
    "lines":[
      [{"w":"স্বানন্দ","h":"-","s":{"eng":"NULL"},"o":{}},{"w":"সুখদ","h":"-    ","s":{"eng":"NULL"},"o":{}},{"w":"কুঞ্জ","h":" ","s":{"eng":"NULL"},"o":{}},{"w":"মনোহর","h":", ","s":{"eng":"NULL"},"o":{}}],
      [{"w":"তাহাতে","h":" ","s":{"eng":"NULL"},"o":{}},{"w":"কুটির","h":" ","s":{"eng":"NULL"},"o":{}},{"w":"শোভে","h":" ।","s":{"eng":"NULL"},"o":{}}],
      [{"w":"বসিয়া","h":" ","s":{"eng":"NULL"},"o":{}},{"w":"তথায়","h":",    ","s":{"eng":"NULL"},"o":{}},{"w":"গা’ব","h":" ","s":{"eng":"NULL"},"o":{}},{"w":"কৃষ্ণনাম","h":", ","s":{"eng":"NULL"},"o":{}}],
      [{"w":"কবে","h":" ","s":{"eng":"NULL"},"o":{}},{"w":"কৃষ্ণদাস্য","h":" ","s":{"eng":"NULL"},"o":{}},{"w":"লোভে","h":" ॥২॥","s":{"eng":"NULL"},"o":{}}]],
    "translation":{"eng":"UNDEFINED"}},{
    "lines":[
      [{"w":"এমন","h":" ","s":{"eng":"NULL"},"o":{}},{"w":"সময়","h":",    ","s":{"eng":"NULL"},"o":{}},{"w":"মুরলীর","h":" ","s":{"eng":"NULL"},"o":{}},{"w":"গান","h":", ","s":{"eng":"NULL"},"o":{}}],
      [{"w":"পশিবে","h":" ","s":{"eng":"NULL"},"o":{}},{"w":"এ","h":" ","s":{"eng":"NULL"},"o":{}},{"w":"দাসী","h":"-","s":{"eng":"NULL"},"o":{}},{"w":"কানে","h":" ।","s":{"eng":"NULL"},"o":{}}],
      [{"w":"আনন্দে","h":" ","s":{"eng":"NULL"},"o":{}},{"w":"মাতিব","h":",    ","s":{"eng":"NULL"},"o":{}},{"w":"সকল","h":" ","s":{"eng":"NULL"},"o":{}},{"w":"ভুলিব","h":", ","s":{"eng":"NULL"},"o":{}}],
      [{"w":"শ্রীকৃষ্ণ","h":"-","s":{"eng":"NULL"},"o":{}},{"w":"বংশীর","h":" ","s":{"eng":"NULL"},"o":{}},{"w":"গানে","h":" ॥৩॥","s":{"eng":"NULL"},"o":{}}]],
    "translation":{"eng":"UNDEFINED"}},{
    "lines":[
      [{"w":"রাধে","h":" ","s":{"eng":"NULL"},"o":{}},{"w":"রাধে","h":" ","s":{"eng":"NULL"},"o":{}},{"w":"বলি’","h":",    ","s":{"eng":"NULL"},"o":{}},{"w":"মুরলী","h":" ","s":{"eng":"NULL"},"o":{}},{"w":"ডাকিবে","h":", ","s":{"eng":"NULL"},"o":{}}],
      [{"w":"মদীয়","h":" ","s":{"eng":"NULL"},"o":{}},{"w":"ঈশ্বরী","h":"-","s":{"eng":"NULL"},"o":{}},{"w":"নাম","h":" ।","s":{"eng":"NULL"},"o":{}}],
      [{"w":"শুনিয়া","h":" ","s":{"eng":"NULL"},"o":{}},{"w":"চমকি’","h":",    ","s":{"eng":"NULL"},"o":{}},{"w":"উঠিবে","h":" ","s":{"eng":"NULL"},"o":{}},{"w":"এ","h":" ","s":{"eng":"NULL"},"o":{}},{"w":"দাসী","h":", ","s":{"eng":"NULL"},"o":{}}],
      [{"w":"কেমনে","h":" ","s":{"eng":"NULL"},"o":{}},{"w":"করিবে","h":" ","s":{"eng":"NULL"},"o":{}},{"w":"প্রাণ","h":" ॥৪॥","s":{"eng":"NULL"},"o":{}}]],
    "translation":{"eng":"UNDEFINED"}}
  ]
}