{
  "uid":"R32",
  "title":"প্রাণেশ্বরি! এইবার করুণা কর মোরে",
  "author":"ndt",
  "language":"ben",
  "notes":[],
  "audio":[],
  "has_synonyms":false,
  "has_translations":false,
  "legend":{"w":"word","h":"hint","s":"synonym","o":"override"},
  "verses":[{
    "lines":[
      [{"w":"প্রাণেশ্বরি","h":"! ","s":{"eng":"NULL"},"o":{}},{"w":"এইবার","h":" ","s":{"eng":"NULL"},"o":{}},{"w":"করুণা","h":" ","s":{"eng":"NULL"},"o":{}},{"w":"কর","h":" ","s":{"eng":"NULL"},"o":{}},{"w":"মোরে","h":" ।","s":{"eng":"NULL"},"o":{}}],
      [{"w":"দশনেতে","h":" ","s":{"eng":"NULL"},"o":{}},{"w":"তৃণ","h":" ","s":{"eng":"NULL"},"o":{}},{"w":"ধরি’","h":",    ","s":{"eng":"NULL"},"o":{}},{"w":"অঞ্জলি","h":" ","s":{"eng":"NULL"},"o":{}},{"w":"মস্তকে","h":" ","s":{"eng":"NULL"},"o":{}},{"w":"করি","h":",","s":{"eng":"NULL"},"o":{}}],
      [{"w":"এইজন","h":" ","s":{"eng":"NULL"},"o":{}},{"w":"নিবেদন","h":" ","s":{"eng":"NULL"},"o":{}},{"w":"করে","h":" ॥১॥","s":{"eng":"NULL"},"o":{}}]],
    "translation":{"eng":"UNDEFINED"}},{
    "lines":[
      [{"w":"প্রিয়","h":"-","s":{"eng":"NULL"},"o":{}},{"w":"সহচরী","h":"-","s":{"eng":"NULL"},"o":{}},{"w":"সঙ্গে","h":",    ","s":{"eng":"NULL"},"o":{}},{"w":"সেবন","h":" ","s":{"eng":"NULL"},"o":{}},{"w":"করিব","h":" ","s":{"eng":"NULL"},"o":{}},{"w":"রঙ্গে","h":",","s":{"eng":"NULL"},"o":{}}],
      [{"w":"অঙ্গে","h":" ","s":{"eng":"NULL"},"o":{}},{"w":"বেশ","h":" ","s":{"eng":"NULL"},"o":{}},{"w":"করিবেক","h":" ","s":{"eng":"NULL"},"o":{}},{"w":"সাধে","h":" ।","s":{"eng":"NULL"},"o":{}}],
      [{"w":"রাখ","h":" ","s":{"eng":"NULL"},"o":{}},{"w":"এই","h":" ","s":{"eng":"NULL"},"o":{}},{"w":"সেবা","h":"-","s":{"eng":"NULL"},"o":{}},{"w":"কাজে","h":",    ","s":{"eng":"NULL"},"o":{}},{"w":"নিজ","h":" ","s":{"eng":"NULL"},"o":{}},{"w":"পদ","h":"-","s":{"eng":"NULL"},"o":{}},{"w":"পঙ্কজে","h":",","s":{"eng":"NULL"},"o":{}}],
      [{"w":"প্রিয়","h":" ","s":{"eng":"NULL"},"o":{}},{"w":"সহচরীগণ","h":"-","s":{"eng":"NULL"},"o":{}},{"w":"মাঝে","h":" ॥২॥","s":{"eng":"NULL"},"o":{}}]],
    "translation":{"eng":"UNDEFINED"}},{
    "lines":[
      [{"w":"সুগন্ধি","h":" ","s":{"eng":"NULL"},"o":{}},{"w":"চন্দন","h":",    ","s":{"eng":"NULL"},"o":{}},{"w":"মণিময়","h":" ","s":{"eng":"NULL"},"o":{}},{"w":"আভরণ","h":",","s":{"eng":"NULL"},"o":{}}],
      [{"w":"কৌষিক","h":" ","s":{"eng":"NULL"},"o":{}},{"w":"বসন","h":" ","s":{"eng":"NULL"},"o":{}},{"w":"নানা","h":" ","s":{"eng":"NULL"},"o":{}},{"w":"রঙ্গে","h":" ।","s":{"eng":"NULL"},"o":{}}],
      [{"w":"এই","h":" ","s":{"eng":"NULL"},"o":{}},{"w":"সব","h":" ","s":{"eng":"NULL"},"o":{}},{"w":"সেবা","h":" ","s":{"eng":"NULL"},"o":{}},{"w":"যাঁর","h":",    ","s":{"eng":"NULL"},"o":{}},{"w":"দাসী","h":" ","s":{"eng":"NULL"},"o":{}},{"w":"যেন","h":" ","s":{"eng":"NULL"},"o":{}},{"w":"হঙ","h":" ","s":{"eng":"NULL"},"o":{}},{"w":"তাঁর","h":",","s":{"eng":"NULL"},"o":{}}],
      [{"w":"অনুক্ষণ","h":" ","s":{"eng":"NULL"},"o":{}},{"w":"থাকি","h":" ","s":{"eng":"NULL"},"o":{}},{"w":"তাঁর","h":" ","s":{"eng":"NULL"},"o":{}},{"w":"সঙ্গে","h":" ॥৩॥","s":{"eng":"NULL"},"o":{}}]],
    "translation":{"eng":"UNDEFINED"}},{
    "lines":[
      [{"w":"জল","h":" ","s":{"eng":"NULL"},"o":{}},{"w":"সুবাসিত","h":" ","s":{"eng":"NULL"},"o":{}},{"w":"করি","h":",    ","s":{"eng":"NULL"},"o":{}},{"w":"রতন","h":" ","s":{"eng":"NULL"},"o":{}},{"w":"ভৃঙ্গারে","h":" ","s":{"eng":"NULL"},"o":{}},{"w":"ভরি","h":",","s":{"eng":"NULL"},"o":{}}],
      [{"w":"কর্পূরবাসিত","h":" ","s":{"eng":"NULL"},"o":{}},{"w":"গুয়া","h":" ","s":{"eng":"NULL"},"o":{}},{"w":"পান","h":" ।","s":{"eng":"NULL"},"o":{}}],
      [{"w":"এসব","h":" ","s":{"eng":"NULL"},"o":{}},{"w":"সাজাইয়া","h":" ","s":{"eng":"NULL"},"o":{}},{"w":"ডালা","h":",    ","s":{"eng":"NULL"},"o":{}},{"w":"লবঙ্গ","h":", ","s":{"eng":"NULL"},"o":{}},{"w":"মালতী","h":"-","s":{"eng":"NULL"},"o":{}},{"w":"মালা","h":",","s":{"eng":"NULL"},"o":{}}],
      [{"w":"ভক্ষ্যদ্রব্য","h":" ","s":{"eng":"NULL"},"o":{}},{"w":"নানা","h":" ","s":{"eng":"NULL"},"o":{}},{"w":"অনুপম","h":" ॥৪॥","s":{"eng":"NULL"},"o":{}}]],
    "translation":{"eng":"UNDEFINED"}},{
    "lines":[
      [{"w":"সখীর","h":" ","s":{"eng":"NULL"},"o":{}},{"w":"ইঙ্গিত","h":" ","s":{"eng":"NULL"},"o":{}},{"w":"হবে","h":",    ","s":{"eng":"NULL"},"o":{}},{"w":"এসব","h":" ","s":{"eng":"NULL"},"o":{}},{"w":"আনিয়া","h":" ","s":{"eng":"NULL"},"o":{}},{"w":"কবে","h":",","s":{"eng":"NULL"},"o":{}}],
      [{"w":"যোগাইব","h":" ","s":{"eng":"NULL"},"o":{}},{"w":"ললিতার","h":" ","s":{"eng":"NULL"},"o":{}},{"w":"কাছে","h":" ।","s":{"eng":"NULL"},"o":{}}],
      [{"w":"নরোত্তমদাস","h":" ","s":{"eng":"NULL"},"o":{}},{"w":"কয়","h":",    ","s":{"eng":"NULL"},"o":{}},{"w":"এই","h":" ","s":{"eng":"NULL"},"o":{}},{"w":"যেন","h":" ","s":{"eng":"NULL"},"o":{}},{"w":"মোর","h":" ","s":{"eng":"NULL"},"o":{}},{"w":"হয়","h":",","s":{"eng":"NULL"},"o":{}}],
      [{"w":"দাঁড়াইয়া","h":" ","s":{"eng":"NULL"},"o":{}},{"w":"রহু","h":" ","s":{"eng":"NULL"},"o":{}},{"w":"সখীর","h":" ","s":{"eng":"NULL"},"o":{}},{"w":"পাছে","h":" ॥৫॥","s":{"eng":"NULL"},"o":{}}]],
    "translation":{"eng":"UNDEFINED"}},{
    "lines":[
      []]}
  ]
}