{
  "uid":"R34",
  "title":"শ্রীশ্রীরাধাষ্টক",
  "author":"শ্রীল সনাতন গোস্বামী",
  "language":"san",
  "notes":[],
  "audio":[],
  "has_synonyms":false,
  "has_translations":false,
  "legend":{"w":"word","h":"hint","s":"synonym","o":"override"},
  "verses":[{
    "lines":[
      [{"w":"রাধিকা","h":" ","s":{"eng":"NULL"},"o":{}},{"w":"শরদ","h":"-","s":{"eng":"NULL"},"o":{}},{"w":"ইন্দু","h":"-","s":{"eng":"NULL"},"o":{}},{"w":"নিন্দি","h":" ","s":{"eng":"NULL"},"o":{}},{"w":"মুখ","h":" ","s":{"eng":"NULL"},"o":{}},{"w":"মণ্ডলী","h":"","s":{"eng":"NULL"},"o":{}}],
      [{"w":"কুন্তলে","h":" ","s":{"eng":"NULL"},"o":{}},{"w":"বিচিত্র","h":" ","s":{"eng":"NULL"},"o":{}},{"w":"বেণী","h":" ","s":{"eng":"NULL"},"o":{}},{"w":"চম্পক","h":"-","s":{"eng":"NULL"},"o":{}},{"w":"পুষ্প","h":"-","s":{"eng":"NULL"},"o":{}},{"w":"শোভনী","h":" ।","s":{"eng":"NULL"},"o":{}}],
      [{"w":"নীলপট্ট","h":" ","s":{"eng":"NULL"},"o":{}},{"w":"অঙ্গে","h":" ","s":{"eng":"NULL"},"o":{}},{"w":"শোভে","h":" ","s":{"eng":"NULL"},"o":{}},{"w":"তাহে","h":" ","s":{"eng":"NULL"},"o":{}},{"w":"আধ","h":" ","s":{"eng":"NULL"},"o":{}},{"w":"ওড়নী","h":"","s":{"eng":"NULL"},"o":{}}],
      [{"w":"বন্দিয়ে","h":" ","s":{"eng":"NULL"},"o":{}},{"w":"শ্রীপাদপদ্ম","h":" ","s":{"eng":"NULL"},"o":{}},{"w":"বৃষভানু","h":"-","s":{"eng":"NULL"},"o":{}},{"w":"নন্দিনী","h":" ॥১॥","s":{"eng":"NULL"},"o":{}}]],
    "translation":{"eng":"UNDEFINED"}},{
    "lines":[
      [{"w":"তরুণ","h":" ","s":{"eng":"NULL"},"o":{}},{"w":"অরুণ","h":" ","s":{"eng":"NULL"},"o":{}},{"w":"জিনি","h":" ","s":{"eng":"NULL"},"o":{}},{"w":"সিন্দুরের","h":" ","s":{"eng":"NULL"},"o":{}},{"w":"মণ্ডলী","h":"","s":{"eng":"NULL"},"o":{}}],
      [{"w":"যৈছি","h":" ","s":{"eng":"NULL"},"o":{}},{"w":"অলি","h":" ","s":{"eng":"NULL"},"o":{}},{"w":"মত্ত","h":" ","s":{"eng":"NULL"},"o":{}},{"w":"ভরে","h":" ","s":{"eng":"NULL"},"o":{}},{"w":"মলয়জ","h":"-","s":{"eng":"NULL"},"o":{}},{"w":"গন্ধিনী","h":" ।","s":{"eng":"NULL"},"o":{}}],
      [{"w":"ভুরূর","h":" ","s":{"eng":"NULL"},"o":{}},{"w":"ভঙ্গিম","h":" ","s":{"eng":"NULL"},"o":{}},{"w":"কোটী","h":" ","s":{"eng":"NULL"},"o":{}},{"w":"কোটী","h":" ","s":{"eng":"NULL"},"o":{}},{"w":"কাম","h":"-","s":{"eng":"NULL"},"o":{}},{"w":"গঞ্জিনী","h":"","s":{"eng":"NULL"},"o":{}}],
      [{"w":"বন্দিয়ে","h":" ","s":{"eng":"NULL"},"o":{}},{"w":"শ্রীপাদপদ্ম","h":" ","s":{"eng":"NULL"},"o":{}},{"w":"বৃষভানু","h":"-","s":{"eng":"NULL"},"o":{}},{"w":"নন্দিনী","h":" ॥২॥","s":{"eng":"NULL"},"o":{}}]],
    "translation":{"eng":"UNDEFINED"}},{
    "lines":[
      [{"w":"খঞ্জন","h":"-","s":{"eng":"NULL"},"o":{}},{"w":"গঞ্জন","h":" ","s":{"eng":"NULL"},"o":{}},{"w":"দিঠি","h":" ","s":{"eng":"NULL"},"o":{}},{"w":"বঙ্গিম","h":"-","s":{"eng":"NULL"},"o":{}},{"w":"সুচাহনী","h":"","s":{"eng":"NULL"},"o":{}}],
      [{"w":"অঞ্জন","h":" ","s":{"eng":"NULL"},"o":{}},{"w":"রঞ্জিত","h":" ","s":{"eng":"NULL"},"o":{}},{"w":"তাহে","h":" ","s":{"eng":"NULL"},"o":{}},{"w":"কামশর","h":"-","s":{"eng":"NULL"},"o":{}},{"w":"সন্ধিনী","h":" ।","s":{"eng":"NULL"},"o":{}}],
      [{"w":"তিল","h":"-","s":{"eng":"NULL"},"o":{}},{"w":"পুষ্প","h":" ","s":{"eng":"NULL"},"o":{}},{"w":"জিনি","h":" ","s":{"eng":"NULL"},"o":{}},{"w":"নাসা","h":" ","s":{"eng":"NULL"},"o":{}},{"w":"বেসর","h":"-","s":{"eng":"NULL"},"o":{}},{"w":"সুদোলনী","h":"","s":{"eng":"NULL"},"o":{}}],
      [{"w":"বন্দিয়ে","h":" ","s":{"eng":"NULL"},"o":{}},{"w":"শ্রীপাদপদ্ম","h":" ","s":{"eng":"NULL"},"o":{}},{"w":"বৃষভানু","h":"-","s":{"eng":"NULL"},"o":{}},{"w":"নন্দিনী","h":" ॥৩॥","s":{"eng":"NULL"},"o":{}}]],
    "translation":{"eng":"UNDEFINED"}},{
    "lines":[
      [{"w":"পক্ব","h":" ","s":{"eng":"NULL"},"o":{}},{"w":"বিম্বফল","h":" ","s":{"eng":"NULL"},"o":{}},{"w":"জিনি","h":" ","s":{"eng":"NULL"},"o":{}},{"w":"অধর","h":" ","s":{"eng":"NULL"},"o":{}},{"w":"সুরঙ্গিণী","h":"","s":{"eng":"NULL"},"o":{}}],
      [{"w":"দশন","h":" ","s":{"eng":"NULL"},"o":{}},{"w":"দাড়িম্ব","h":"-","s":{"eng":"NULL"},"o":{}},{"w":"বীজ","h":" ","s":{"eng":"NULL"},"o":{}},{"w":"জিনি","h":" ","s":{"eng":"NULL"},"o":{}},{"w":"অতি","h":" ","s":{"eng":"NULL"},"o":{}},{"w":"শোভনী","h":" ।","s":{"eng":"NULL"},"o":{}}],
      [{"w":"বসন্ত","h":" ","s":{"eng":"NULL"},"o":{}},{"w":"কোকিল","h":" ","s":{"eng":"NULL"},"o":{}},{"w":"জিনি","h":" ","s":{"eng":"NULL"},"o":{}},{"w":"সুমধুর","h":"-","s":{"eng":"NULL"},"o":{}},{"w":"বোলনী","h":"","s":{"eng":"NULL"},"o":{}}],
      [{"w":"বন্দিয়ে","h":" ","s":{"eng":"NULL"},"o":{}},{"w":"শ্রীপাদপদ্ম","h":" ","s":{"eng":"NULL"},"o":{}},{"w":"বৃষভানু","h":"-","s":{"eng":"NULL"},"o":{}},{"w":"নন্দিনী","h":" ॥","s":{"eng":"NULL"},"o":{}},{"w":"8","h":"॥","s":{"eng":"NULL"},"o":{}}]],
    "translation":{"eng":"UNDEFINED"}},{
    "lines":[
      [{"w":"কনক","h":"-","s":{"eng":"NULL"},"o":{}},{"w":"মুকুর","h":" ","s":{"eng":"NULL"},"o":{}},{"w":"জিনি","h":" ","s":{"eng":"NULL"},"o":{}},{"w":"গণ্ডযুগ","h":"-","s":{"eng":"NULL"},"o":{}},{"w":"শোভনী","h":"","s":{"eng":"NULL"},"o":{}}],
      [{"w":"রতন","h":"-","s":{"eng":"NULL"},"o":{}},{"w":"মঞ্জীর","h":" ","s":{"eng":"NULL"},"o":{}},{"w":"পায়ে","h":" ","s":{"eng":"NULL"},"o":{}},{"w":"বঙ্করাজ","h":"-","s":{"eng":"NULL"},"o":{}},{"w":"দোলনী","h":" ।","s":{"eng":"NULL"},"o":{}}],
      [{"w":"কেশর","h":" ","s":{"eng":"NULL"},"o":{}},{"w":"মুকতা","h":" ","s":{"eng":"NULL"},"o":{}},{"w":"হার","h":" ","s":{"eng":"NULL"},"o":{}},{"w":"উর’পর","h":" ","s":{"eng":"NULL"},"o":{}},{"w":"ঝোলনী","h":"","s":{"eng":"NULL"},"o":{}}],
      [{"w":"বন্দিয়ে","h":" ","s":{"eng":"NULL"},"o":{}},{"w":"শ্রীপাদপদ্ম","h":" ","s":{"eng":"NULL"},"o":{}},{"w":"বৃষভানু","h":"-","s":{"eng":"NULL"},"o":{}},{"w":"নন্দিনী","h":" ॥৫॥","s":{"eng":"NULL"},"o":{}}]],
    "translation":{"eng":"UNDEFINED"}},{
    "lines":[
      [{"w":"কনক","h":" ","s":{"eng":"NULL"},"o":{}},{"w":"কলস","h":" ","s":{"eng":"NULL"},"o":{}},{"w":"জিনি","h":" ","s":{"eng":"NULL"},"o":{}},{"w":"কুচযুগ","h":"-","s":{"eng":"NULL"},"o":{}},{"w":"শোভনী","h":"","s":{"eng":"NULL"},"o":{}}],
      [{"w":"করিবর","h":"-","s":{"eng":"NULL"},"o":{}},{"w":"কর","h":" ","s":{"eng":"NULL"},"o":{}},{"w":"জিনি","h":" ","s":{"eng":"NULL"},"o":{}},{"w":"বাহুযুগ","h":"-","s":{"eng":"NULL"},"o":{}},{"w":"দোলনী","h":" ।","s":{"eng":"NULL"},"o":{}}],
      [{"w":"সুললিত","h":" ","s":{"eng":"NULL"},"o":{}},{"w":"অঙ্গুলিতে","h":" ","s":{"eng":"NULL"},"o":{}},{"w":"মুদ্রিকার","h":" ","s":{"eng":"NULL"},"o":{}},{"w":"সাজনী","h":"","s":{"eng":"NULL"},"o":{}}],
      [{"w":"বন্দিয়ে","h":" ","s":{"eng":"NULL"},"o":{}},{"w":"শ্রীপাদপদ্ম","h":" ","s":{"eng":"NULL"},"o":{}},{"w":"বৃষভানু","h":"-","s":{"eng":"NULL"},"o":{}},{"w":"নন্দিনী","h":" ॥৬॥","s":{"eng":"NULL"},"o":{}}]],
    "translation":{"eng":"UNDEFINED"}},{
    "lines":[
      [{"w":"গজ","h":"-","s":{"eng":"NULL"},"o":{}},{"w":"অরি","h":" ","s":{"eng":"NULL"},"o":{}},{"w":"জিনি","h":" ","s":{"eng":"NULL"},"o":{}},{"w":"মাজা","h":" ","s":{"eng":"NULL"},"o":{}},{"w":"গুরুয়া","h":" ","s":{"eng":"NULL"},"o":{}},{"w":"নিতম্বিনী","h":"","s":{"eng":"NULL"},"o":{}}],
      [{"w":"তা’পর","h":" ","s":{"eng":"NULL"},"o":{}},{"w":"শোভিত","h":" ","s":{"eng":"NULL"},"o":{}},{"w":"ভাল","h":" ","s":{"eng":"NULL"},"o":{}},{"w":"কনকের","h":" ","s":{"eng":"NULL"},"o":{}},{"w":"কিঙ্কিনী","h":" ।","s":{"eng":"NULL"},"o":{}}],
      [{"w":"কনক","h":"-","s":{"eng":"NULL"},"o":{}},{"w":"উলট","h":"-","s":{"eng":"NULL"},"o":{}},{"w":"রম্ভা","h":" ","s":{"eng":"NULL"},"o":{}},{"w":"জানুযুগ","h":"-","s":{"eng":"NULL"},"o":{}},{"w":"শোভনী","h":"","s":{"eng":"NULL"},"o":{}}],
      [{"w":"বন্দিয়ে","h":" ","s":{"eng":"NULL"},"o":{}},{"w":"শ্রীপাদপদ্ম","h":" ","s":{"eng":"NULL"},"o":{}},{"w":"বৃষভানু","h":"-","s":{"eng":"NULL"},"o":{}},{"w":"নন্দিনী","h":" ॥৭॥","s":{"eng":"NULL"},"o":{}}]],
    "translation":{"eng":"UNDEFINED"}},{
    "lines":[
      [{"w":"হংসরাজ","h":"-","s":{"eng":"NULL"},"o":{}},{"w":"গতি","h":" ","s":{"eng":"NULL"},"o":{}},{"w":"জিনি","h":" ","s":{"eng":"NULL"},"o":{}},{"w":"সুমন্থর","h":"-","s":{"eng":"NULL"},"o":{}},{"w":"চলনী","h":"","s":{"eng":"NULL"},"o":{}}],
      [{"w":"রাতুল","h":" ","s":{"eng":"NULL"},"o":{}},{"w":"চরণে","h":" ","s":{"eng":"NULL"},"o":{}},{"w":"রাজে","h":" ","s":{"eng":"NULL"},"o":{}},{"w":"কনয়া","h":" ","s":{"eng":"NULL"},"o":{}},{"w":"সুপঞ্জিনী","h":" ।","s":{"eng":"NULL"},"o":{}}],
      [{"w":"যুগল","h":" ","s":{"eng":"NULL"},"o":{}},{"w":"চরণে","h":" ","s":{"eng":"NULL"},"o":{}},{"w":"শোভে","h":" ","s":{"eng":"NULL"},"o":{}},{"w":"যাবক","h":" ","s":{"eng":"NULL"},"o":{}},{"w":"সুরঞ্জিনী","h":"","s":{"eng":"NULL"},"o":{}}],
      [{"w":"বন্দিয়ে","h":" ","s":{"eng":"NULL"},"o":{}},{"w":"শ্রীপাদপদ্ম","h":" ","s":{"eng":"NULL"},"o":{}},{"w":"বৃষভানু","h":"-","s":{"eng":"NULL"},"o":{}},{"w":"নন্দিনী","h":" ॥৮॥","s":{"eng":"NULL"},"o":{}}]],
    "translation":{"eng":"UNDEFINED"}},{
    "lines":[
      []]}
  ]
}