{
  "uid":"RBD11",
  "title":"মধুর-রসে আলম্বনরূপ বিভাব",
  "author":"bt",
  "language":"ben",
  "notes":[],
  "audio":[],
  "has_synonyms":false,
  "has_translations":false,
  "legend":{"w":"word","h":"hint","s":"synonym","o":"override"},
  "verses":[{
    "lines":[
      [{"w":"রতি","h":"—","s":{"eng":"NULL"},"o":{}},{"w":"প্রেম","h":", ","s":{"eng":"NULL"},"o":{}},{"w":"স্নেহ","h":", ","s":{"eng":"NULL"},"o":{}},{"w":"মান","h":",    ","s":{"eng":"NULL"},"o":{}},{"w":"প্রণয়","h":" ","s":{"eng":"NULL"},"o":{}},{"w":"ও","h":" ","s":{"eng":"NULL"},"o":{}},{"w":"রাগাখ্যান","h":",","s":{"eng":"NULL"},"o":{}}],
      [{"w":"অনুরাগ","h":", ","s":{"eng":"NULL"},"o":{}},{"w":"ভাব","h":"—","s":{"eng":"NULL"},"o":{}},{"w":"এই","h":" ","s":{"eng":"NULL"},"o":{}},{"w":"সাত","h":" ।","s":{"eng":"NULL"},"o":{}}],
      [{"w":"রতি","h":" ","s":{"eng":"NULL"},"o":{}},{"w":"যত","h":" ","s":{"eng":"NULL"},"o":{}},{"w":"গাঢ়","h":" ","s":{"eng":"NULL"},"o":{}},{"w":"হয়","h":",    ","s":{"eng":"NULL"},"o":{}},{"w":"ক্রমে","h":" ","s":{"eng":"NULL"},"o":{}},{"w":"সপ্ত","h":" ","s":{"eng":"NULL"},"o":{}},{"w":"নাম","h":" ","s":{"eng":"NULL"},"o":{}},{"w":"লয়","h":",","s":{"eng":"NULL"},"o":{}}],
      [{"w":"স্থায়ী","h":" ","s":{"eng":"NULL"},"o":{}},{"w":"ভাব","h":" ","s":{"eng":"NULL"},"o":{}},{"w":"সদা","h":" ","s":{"eng":"NULL"},"o":{}},{"w":"অবদাত","h":" ॥১॥","s":{"eng":"NULL"},"o":{}}]],
    "translation":{"eng":"UNDEFINED"}},{
    "lines":[
      [{"w":"স্নেহাদি","h":" ","s":{"eng":"NULL"},"o":{}},{"w":"যে","h":" ","s":{"eng":"NULL"},"o":{}},{"w":"ভাব","h":" ","s":{"eng":"NULL"},"o":{}},{"w":"ছয়","h":",    ","s":{"eng":"NULL"},"o":{}},{"w":"‘প্রেম’","h":" ","s":{"eng":"NULL"},"o":{}},{"w":"নামে","h":" ","s":{"eng":"NULL"},"o":{}},{"w":"পরিচয়","h":",","s":{"eng":"NULL"},"o":{}}],
      [{"w":"সাধারণ","h":" ","s":{"eng":"NULL"},"o":{}},{"w":"জনের","h":" ","s":{"eng":"NULL"},"o":{}},{"w":"নিকটে","h":" ।","s":{"eng":"NULL"},"o":{}}],
      [{"w":"যে","h":" ","s":{"eng":"NULL"},"o":{}},{"w":"ভাব","h":" ","s":{"eng":"NULL"},"o":{}},{"w":"কৃষ্ণেতে","h":" ","s":{"eng":"NULL"},"o":{}},{"w":"যাঁর","h":",    ","s":{"eng":"NULL"},"o":{}},{"w":"সেই","h":" ","s":{"eng":"NULL"},"o":{}},{"w":"ভাবে","h":" ","s":{"eng":"NULL"},"o":{}},{"w":"কৃষ্ণ","h":" ","s":{"eng":"NULL"},"o":{}},{"w":"তাঁর","h":",","s":{"eng":"NULL"},"o":{}}],
      [{"w":"এ","h":" ","s":{"eng":"NULL"},"o":{}},{"w":"রহস্য","h":" ","s":{"eng":"NULL"},"o":{}},{"w":"রসে","h":" ","s":{"eng":"NULL"},"o":{}},{"w":"নিত্য","h":" ","s":{"eng":"NULL"},"o":{}},{"w":"বটে","h":" ॥২॥","s":{"eng":"NULL"},"o":{}}]],
    "translation":{"eng":"UNDEFINED"}},{
    "lines":[
      [{"w":"ভক্তচিত্ত","h":" ","s":{"eng":"NULL"},"o":{}},{"w":"সিংহাসন","h":",    ","s":{"eng":"NULL"},"o":{}},{"w":"তাতে","h":" ","s":{"eng":"NULL"},"o":{}},{"w":"উপবিষ্ট","h":" ","s":{"eng":"NULL"},"o":{}},{"w":"হন","h":",","s":{"eng":"NULL"},"o":{}}],
      [{"w":"স্থায়ী","h":" ","s":{"eng":"NULL"},"o":{}},{"w":"ভাব","h":" ","s":{"eng":"NULL"},"o":{}},{"w":"সর্ব্বভাব","h":"-","s":{"eng":"NULL"},"o":{}},{"w":"রাজ","h":" ।","s":{"eng":"NULL"},"o":{}}],
      [{"w":"হ্লাদিনী","h":" ","s":{"eng":"NULL"},"o":{}},{"w":"যে","h":" ","s":{"eng":"NULL"},"o":{}},{"w":"পরা","h":" ","s":{"eng":"NULL"},"o":{}},{"w":"শক্তি","h":",    ","s":{"eng":"NULL"},"o":{}},{"w":"তাঁর","h":" ","s":{"eng":"NULL"},"o":{}},{"w":"সার","h":" ","s":{"eng":"NULL"},"o":{}},{"w":"শুদ্ধভক্তি","h":",","s":{"eng":"NULL"},"o":{}}],
      [{"w":"ভাবরূপে","h":" ","s":{"eng":"NULL"},"o":{}},{"w":"তাঁহার","h":" ","s":{"eng":"NULL"},"o":{}},{"w":"বিরাজ","h":" ॥৩॥","s":{"eng":"NULL"},"o":{}}]],
    "translation":{"eng":"UNDEFINED"}},{
    "lines":[
      [{"w":"বিভাবাদি","h":" ","s":{"eng":"NULL"},"o":{}},{"w":"ভাবগণে","h":",    ","s":{"eng":"NULL"},"o":{}},{"w":"নিজায়ত্তে","h":" ","s":{"eng":"NULL"},"o":{}},{"w":"আনয়নে","h":",","s":{"eng":"NULL"},"o":{}}],
      [{"w":"করেন","h":" ","s":{"eng":"NULL"},"o":{}},{"w":"যে","h":" ","s":{"eng":"NULL"},"o":{}},{"w":"রসের","h":" ","s":{"eng":"NULL"},"o":{}},{"w":"প্রকাশ","h":" ।","s":{"eng":"NULL"},"o":{}}],
      [{"w":"রস","h":" ","s":{"eng":"NULL"},"o":{}},{"w":"নিত্যানন্দ","h":"-","s":{"eng":"NULL"},"o":{}},{"w":"তত্ত্ব","h":",    ","s":{"eng":"NULL"},"o":{}},{"w":"নিত্যসিদ্ধ","h":" ","s":{"eng":"NULL"},"o":{}},{"w":"সারসত্ত্ব","h":",","s":{"eng":"NULL"},"o":{}}],
      [{"w":"জীবচিত্তে","h":" ","s":{"eng":"NULL"},"o":{}},{"w":"তাহার","h":" ","s":{"eng":"NULL"},"o":{}},{"w":"বিকাশ","h":" ॥","s":{"eng":"NULL"},"o":{}},{"w":"8","h":"॥","s":{"eng":"NULL"},"o":{}}]],
    "translation":{"eng":"UNDEFINED"}},{
    "lines":[
      []]}
  ]
}