{
  "uid":"RBD17",
  "title":"নিত্যসিদ্ধা নহেন, এরূপ ‘সখী’র বিচার ",
  "author":"bt",
  "language":"ben",
  "notes":[],
  "audio":[],
  "has_synonyms":false,
  "has_translations":false,
  "legend":{"w":"word","h":"hint","s":"synonym","o":"override"},
  "verses":[{
    "lines":[
      [{"w":"নায়িকার","h":" ","s":{"eng":"NULL"},"o":{}},{"w":"শিরোমণি","h":",    ","s":{"eng":"NULL"},"o":{}},{"w":"ব্রজে","h":" ","s":{"eng":"NULL"},"o":{}},{"w":"রাধা","h":" ","s":{"eng":"NULL"},"o":{}},{"w":"ঠাকুরাণী","h":",","s":{"eng":"NULL"},"o":{}}],
      [{"w":"পঞ্চবিধ","h":" ","s":{"eng":"NULL"},"o":{}},{"w":"সখীগণ","h":" ","s":{"eng":"NULL"},"o":{}},{"w":"তাঁর","h":" ।","s":{"eng":"NULL"},"o":{}}],
      [{"w":"‘সখী’","h":",","s":{"eng":"NULL"},"o":{}},{"w":"’নিত্যসখী’","h":" ","s":{"eng":"NULL"},"o":{}},{"w":"আর","h":",    ","s":{"eng":"NULL"},"o":{}},{"w":"‘প্রাণসখী’","h":" ","s":{"eng":"NULL"},"o":{}},{"w":"অতঃপর","h":",","s":{"eng":"NULL"},"o":{}}],
      [{"w":"‘প্রিয়সখী’","h":",","s":{"eng":"NULL"},"o":{}},{"w":"এই","h":" ","s":{"eng":"NULL"},"o":{}},{"w":"হৈল","h":" ","s":{"eng":"NULL"},"o":{}},{"w":"চার","h":" ॥১॥","s":{"eng":"NULL"},"o":{}}]],
    "translation":{"eng":"UNDEFINED"}},{
    "lines":[
      [{"w":"পঞ্চম","h":" ","s":{"eng":"NULL"},"o":{}},{"w":"‘পরমপ্রেষ্ঠ’","h":",    ","s":{"eng":"NULL"},"o":{}},{"w":"সখীগণ","h":" ","s":{"eng":"NULL"},"o":{}},{"w":"মধ্যে","h":" ","s":{"eng":"NULL"},"o":{}},{"w":"শ্রেষ্ঠ","h":",","s":{"eng":"NULL"},"o":{}}],
      [{"w":"বলি","h":" ","s":{"eng":"NULL"},"o":{}},{"w":"সব","h":", ","s":{"eng":"NULL"},"o":{}},{"w":"শুন","h":" ","s":{"eng":"NULL"},"o":{}},{"w":"বিবরণ","h":" ।","s":{"eng":"NULL"},"o":{}}],
      [{"w":"কুসুমিকা","h":", ","s":{"eng":"NULL"},"o":{}},{"w":"বিন্ধাবতী","h":",    ","s":{"eng":"NULL"},"o":{}},{"w":"ধনিষ্ঠাদি","h":" ","s":{"eng":"NULL"},"o":{}},{"w":"ব্রজসতী","h":",","s":{"eng":"NULL"},"o":{}}],
      [{"w":"‘সখী’গণ","h":"-","s":{"eng":"NULL"},"o":{}},{"w":"মধ্যেতে","h":" ","s":{"eng":"NULL"},"o":{}},{"w":"গণন","h":" ॥২॥","s":{"eng":"NULL"},"o":{}}]],
    "translation":{"eng":"UNDEFINED"}},{
    "lines":[
      [{"w":"শ্রীরূপ","h":", ","s":{"eng":"NULL"},"o":{}},{"w":"রতি","h":", ","s":{"eng":"NULL"},"o":{}},{"w":"কস্তুরী","h":",    ","s":{"eng":"NULL"},"o":{}},{"w":"শ্রীগুণ","h":",  ","s":{"eng":"NULL"},"o":{}},{"w":"মণিমঞ্জরী","h":",","s":{"eng":"NULL"},"o":{}}],
      [{"w":"প্রভৃতি","h":" ","s":{"eng":"NULL"},"o":{}},{"w":"রাধিকা","h":"-","s":{"eng":"NULL"},"o":{}},{"w":"‘নিত্যসখী’","h":" ।","s":{"eng":"NULL"},"o":{}}],
      [{"w":"‘প্রাণসখী’","h":" ","s":{"eng":"NULL"},"o":{}},{"w":"বহু","h":" ","s":{"eng":"NULL"},"o":{}},{"w":"তাঁর","h":",    ","s":{"eng":"NULL"},"o":{}},{"w":"বাসন্তী","h":" ","s":{"eng":"NULL"},"o":{}},{"w":"নায়িকা","h":" ","s":{"eng":"NULL"},"o":{}},{"w":"আর","h":",","s":{"eng":"NULL"},"o":{}}],
      [{"w":"প্রধানা","h":" ","s":{"eng":"NULL"},"o":{}},{"w":"তাঁহার","h":" ","s":{"eng":"NULL"},"o":{}},{"w":"শশিমুখী","h":" ॥৩॥","s":{"eng":"NULL"},"o":{}}]],
    "translation":{"eng":"UNDEFINED"}},{
    "lines":[
      [{"w":"কুরঙ্গাক্ষী","h":", ","s":{"eng":"NULL"},"o":{}},{"w":"মঞ্জুকেশী","h":",    ","s":{"eng":"NULL"},"o":{}},{"w":"সুমধ্যা","h":", ","s":{"eng":"NULL"},"o":{}},{"w":"মদনালসী","h":",","s":{"eng":"NULL"},"o":{}}],
      [{"w":"কমলা","h":", ","s":{"eng":"NULL"},"o":{}},{"w":"মাধুরী","h":", ","s":{"eng":"NULL"},"o":{}},{"w":"কামলতা","h":" ।","s":{"eng":"NULL"},"o":{}}],
      [{"w":"কন্দর্পসুন্দরী","h":" ","s":{"eng":"NULL"},"o":{}},{"w":"আর","h":",    ","s":{"eng":"NULL"},"o":{}},{"w":"মাধবী","h":", ","s":{"eng":"NULL"},"o":{}},{"w":"মালতী","h":" ","s":{"eng":"NULL"},"o":{}},{"w":"আর","h":",","s":{"eng":"NULL"},"o":{}}],
      [{"w":"শশিকলা","h":" ","s":{"eng":"NULL"},"o":{}},{"w":"রাধা","h":"-","s":{"eng":"NULL"},"o":{}},{"w":"সেবারতা","h":" ॥৪॥","s":{"eng":"NULL"},"o":{}}]],
    "translation":{"eng":"UNDEFINED"}},{
    "lines":[
      [{"w":"ললিতা","h":", ","s":{"eng":"NULL"},"o":{}},{"w":"বিশাখা","h":", ","s":{"eng":"NULL"},"o":{}},{"w":"চিত্রা","h":",    ","s":{"eng":"NULL"},"o":{}},{"w":"তুঙ্গবিদ্যা","h":", ","s":{"eng":"NULL"},"o":{}},{"w":"চম্পলতা","h":",","s":{"eng":"NULL"},"o":{}}],
      [{"w":"ইন্দুলেখা","h":", ","s":{"eng":"NULL"},"o":{}},{"w":"রঙ্গদেবী","h":" ","s":{"eng":"NULL"},"o":{}},{"w":"সতী","h":" ","s":{"eng":"NULL"},"o":{}},{"w":"৷","h":"","s":{"eng":"NULL"},"o":{}}],
      [{"w":"সুদেবীতি","h":" ","s":{"eng":"NULL"},"o":{}},{"w":"অষ্টজন","h":",    ","s":{"eng":"NULL"},"o":{}},{"w":"‘পরমপ্রেষ্ঠ","h":"-","s":{"eng":"NULL"},"o":{}},{"w":"সখী’গণ","h":",","s":{"eng":"NULL"},"o":{}}],
      [{"w":"রাধাকৃষ্ণে","h":" ","s":{"eng":"NULL"},"o":{}},{"w":"সেবে","h":" ","s":{"eng":"NULL"},"o":{}},{"w":"একমতি","h":" ॥৫॥","s":{"eng":"NULL"},"o":{}}]],
    "translation":{"eng":"UNDEFINED"}},{
    "lines":[
      []]}
  ]
}