{
  "uid":"RBD14",
  "title":"নায়িকাগণের অষ্ট অবস্থা-সেবা ",
  "author":"bt",
  "language":"ben",
  "notes":[],
  "audio":[],
  "has_synonyms":false,
  "has_translations":false,
  "legend":{"w":"word","h":"hint","s":"synonym","o":"override"},
  "verses":[{
    "lines":[
      [{"w":"সুরম্য","h":", ","s":{"eng":"NULL"},"o":{}},{"w":"মধুর","h":"-","s":{"eng":"NULL"},"o":{}},{"w":"স্মিত","h":",    ","s":{"eng":"NULL"},"o":{}},{"w":"সর্ব্ব","h":" ","s":{"eng":"NULL"},"o":{}},{"w":"সল্লক্ষণান্বিত","h":",","s":{"eng":"NULL"},"o":{}}],
      [{"w":"বলীয়ান্‌","h":", ","s":{"eng":"NULL"},"o":{}},{"w":"তরুণ","h":", ","s":{"eng":"NULL"},"o":{}},{"w":"গম্ভীর","h":" ।","s":{"eng":"NULL"},"o":{}}],
      [{"w":"বাবদূক","h":", ","s":{"eng":"NULL"},"o":{}},{"w":"প্রিয়ভাষী","h":",    ","s":{"eng":"NULL"},"o":{}},{"w":"সুধী","h":", ","s":{"eng":"NULL"},"o":{}},{"w":"সপ্রতিভাশ্বাসী","h":",","s":{"eng":"NULL"},"o":{}}],
      [{"w":"বিদগ্ধ","h":", ","s":{"eng":"NULL"},"o":{}},{"w":"চতুর","h":", ","s":{"eng":"NULL"},"o":{}},{"w":"সুখী","h":", ","s":{"eng":"NULL"},"o":{}},{"w":"ধীর","h":" ॥১॥","s":{"eng":"NULL"},"o":{}}]],
    "translation":{"eng":"UNDEFINED"}},{
    "lines":[
      [{"w":"কৃতজ্ঞ","h":", ","s":{"eng":"NULL"},"o":{}},{"w":"দক্ষিণ","h":", ","s":{"eng":"NULL"},"o":{}},{"w":"প্রেষ্ঠ","h":",    ","s":{"eng":"NULL"},"o":{}},{"w":"বরীয়ান্‌","h":", ","s":{"eng":"NULL"},"o":{}},{"w":"কীর্ত্তিমচ্ছ্রেষ্ঠ","h":", ","s":{"eng":"NULL"},"o":{}}],
      [{"w":"ললনা","h":"-","s":{"eng":"NULL"},"o":{}},{"w":"মোহন","h":", ","s":{"eng":"NULL"},"o":{}},{"w":"কেলিপর","h":" ।","s":{"eng":"NULL"},"o":{}}],
      [{"w":"সুনিত্য","h":"-","s":{"eng":"NULL"},"o":{}},{"w":"নূতন","h":"-","s":{"eng":"NULL"},"o":{}},{"w":"মূর্ত্তি","h":",    ","s":{"eng":"NULL"},"o":{}},{"w":"কেবল","h":" ","s":{"eng":"NULL"},"o":{}},{"w":"সৌন্দর্য্য","h":"-","s":{"eng":"NULL"},"o":{}},{"w":"স্ফূর্ত্তি","h":",","s":{"eng":"NULL"},"o":{}}],
      [{"w":"বংশী","h":"-","s":{"eng":"NULL"},"o":{}},{"w":"গানে","h":" ","s":{"eng":"NULL"},"o":{}},{"w":"সুদক্ষ","h":", ","s":{"eng":"NULL"},"o":{}},{"w":"তৎপর","h":" ॥২॥","s":{"eng":"NULL"},"o":{}}]],
    "translation":{"eng":"UNDEFINED"}},{
    "lines":[
      [{"w":"ধীরোদাত্ত","h":", ","s":{"eng":"NULL"},"o":{}},{"w":"ধীরশান্ত","h":",    ","s":{"eng":"NULL"},"o":{}},{"w":"সু","h":"-","s":{"eng":"NULL"},"o":{}},{"w":"ধীরললিত","h":", ","s":{"eng":"NULL"},"o":{}},{"w":"কান্ত","h":",","s":{"eng":"NULL"},"o":{}}],
      [{"w":"ধীরোদ্ধত","h":", ","s":{"eng":"NULL"},"o":{}},{"w":"ললনানায়ক","h":" ।","s":{"eng":"NULL"},"o":{}}],
      [{"w":"চেটক","h":"-","s":{"eng":"NULL"},"o":{}},{"w":"বিট","h":"-","s":{"eng":"NULL"},"o":{}},{"w":"বেষ্টিত","h":",    ","s":{"eng":"NULL"},"o":{}},{"w":"বিদূষক","h":"-","s":{"eng":"NULL"},"o":{}},{"w":"সুসেবিত","h":",","s":{"eng":"NULL"},"o":{}}],
      [{"w":"পীঠমর্দ্দ","h":", ","s":{"eng":"NULL"},"o":{}},{"w":"প্রিয়","h":"-","s":{"eng":"NULL"},"o":{}},{"w":"নর্ম্মসখ","h":" ॥৩॥","s":{"eng":"NULL"},"o":{}}]],
    "translation":{"eng":"UNDEFINED"}},{
    "lines":[
      [{"w":"এ","h":" ","s":{"eng":"NULL"},"o":{}},{"w":"পঞ্চ","h":" ","s":{"eng":"NULL"},"o":{}},{"w":"সহায়যুত","h":",    ","s":{"eng":"NULL"},"o":{}},{"w":"নন্দীশ্বরপতি","h":"-","s":{"eng":"NULL"},"o":{}},{"w":"সুত","h":",","s":{"eng":"NULL"},"o":{}}],
      [{"w":"পতি","h":"-","s":{"eng":"NULL"},"o":{}},{"w":"উপপতি","h":"-","s":{"eng":"NULL"},"o":{}},{"w":"ভাবাচারী","h":" ।","s":{"eng":"NULL"},"o":{}}],
      [{"w":"অনুকূল","h":", ","s":{"eng":"NULL"},"o":{}},{"w":"শঠ","h":", ","s":{"eng":"NULL"},"o":{}},{"w":"ধৃষ্ট","h":",    ","s":{"eng":"NULL"},"o":{}},{"w":"সদক্ষিণ","h":", ","s":{"eng":"NULL"},"o":{}},{"w":"রসতৃষ্ণ","h":",","s":{"eng":"NULL"},"o":{}}],
      [{"w":"রসমূর্ত্তি","h":", ","s":{"eng":"NULL"},"o":{}},{"w":"নিকুঞ্জবিহারী","h":" ॥৪॥","s":{"eng":"NULL"},"o":{}}]],
    "translation":{"eng":"UNDEFINED"}},{
    "lines":[
      []]}
  ]
}