{
  "uid":"RBD27",
  "title":"উজ্জ্বলরসাশ্রিত-লীলা",
  "author":"bt",
  "language":"ben",
  "notes":[],
  "audio":[],
  "has_synonyms":false,
  "has_translations":false,
  "legend":{"w":"word","h":"hint","s":"synonym","o":"override"},
  "verses":[{
    "lines":[
      [{"w":"দর্শন","h":"-","s":{"eng":"NULL"},"o":{}},{"w":"আশ্লেষান্বিত","h":",    ","s":{"eng":"NULL"},"o":{}},{"w":"আনুকূল্যে","h":" ","s":{"eng":"NULL"},"o":{}},{"w":"সেবাশ্রিত","h":",","s":{"eng":"NULL"},"o":{}}],
      [{"w":"উল্লাসে","h":" ","s":{"eng":"NULL"},"o":{}},{"w":"আরূঢ়","h":" ","s":{"eng":"NULL"},"o":{}},{"w":"যেই","h":" ","s":{"eng":"NULL"},"o":{}},{"w":"ভাব","h":" ।","s":{"eng":"NULL"},"o":{}}],
      [{"w":"যুবদ্বন্দ্ব","h":"-","s":{"eng":"NULL"},"o":{}},{"w":"হৃদিমাঝে","h":",    ","s":{"eng":"NULL"},"o":{}},{"w":"রসাকারে","h":" ","s":{"eng":"NULL"},"o":{}},{"w":"সুবিরাজে","h":",","s":{"eng":"NULL"},"o":{}}],
      [{"w":"সম্ভোগাখ্যা","h":" ","s":{"eng":"NULL"},"o":{}},{"w":"তা’র","h":" ","s":{"eng":"NULL"},"o":{}},{"w":"হয়","h":" ","s":{"eng":"NULL"},"o":{}},{"w":"লাভ","h":" ॥১॥","s":{"eng":"NULL"},"o":{}}]],
    "translation":{"eng":"UNDEFINED"}},{
    "lines":[
      [{"w":"মুখ্য","h":", ","s":{"eng":"NULL"},"o":{}},{"w":"গৌণ","h":"—","s":{"eng":"NULL"},"o":{}},{"w":"দ্বিপ্রকার","h":",    ","s":{"eng":"NULL"},"o":{}},{"w":"সম্ভোগের","h":" ","s":{"eng":"NULL"},"o":{}},{"w":"সুবিস্তার","h":",","s":{"eng":"NULL"},"o":{}}],
      [{"w":"তদুভয়","h":" ","s":{"eng":"NULL"},"o":{}},{"w":"চারিটী","h":" ","s":{"eng":"NULL"},"o":{}},{"w":"প্রকার","h":" ।","s":{"eng":"NULL"},"o":{}}],
      [{"w":"‘সংক্ষিপ্ত’","h":" ","s":{"eng":"NULL"},"o":{}},{"w":"‘সংকীর্ণ’","h":" ","s":{"eng":"NULL"},"o":{}},{"w":"জান","h":",    ","s":{"eng":"NULL"},"o":{}},{"w":"‘সম্পন্ন’","h":" ","s":{"eng":"NULL"},"o":{}},{"w":"‘সমৃদ্ধিমান’","h":", ","s":{"eng":"NULL"},"o":{}}],
      [{"w":"পূর্ব্বভাবাবস্থা","h":" ","s":{"eng":"NULL"},"o":{}},{"w":"অনুসার","h":" ॥২॥","s":{"eng":"NULL"},"o":{}}]],
    "translation":{"eng":"UNDEFINED"}},{
    "lines":[
      [{"w":"পূর্ব্বরাগান্তরে","h":" ","s":{"eng":"NULL"},"o":{}},{"w":"যাঁহা","h":",    ","s":{"eng":"NULL"},"o":{}},{"w":"‘সংক্ষিপ্ত’","h":" ","s":{"eng":"NULL"},"o":{}},{"w":"সম্ভোগ","h":" ","s":{"eng":"NULL"},"o":{}},{"w":"তাঁহা","h":",","s":{"eng":"NULL"},"o":{}}],
      [{"w":"মানান্তরে","h":" ","s":{"eng":"NULL"},"o":{}},{"w":"‘সঙ্কীর্ণ’","h":" ","s":{"eng":"NULL"},"o":{}},{"w":"প্রমাণে","h":" ।","s":{"eng":"NULL"},"o":{}}],
      [{"w":"ক্ষুদ্র","h":" ","s":{"eng":"NULL"},"o":{}},{"w":"প্রবাসাবসানে","h":", ","s":{"eng":"NULL"},"o":{}},{"w":"‘সম্পন্ন’","h":", ","s":{"eng":"NULL"},"o":{}},{"w":"‘সমৃদ্ধিমানে’","h":"—,","s":{"eng":"NULL"},"o":{}}],
      [{"w":"সুদূর","h":" ","s":{"eng":"NULL"},"o":{}},{"w":"প্রবাস","h":"-","s":{"eng":"NULL"},"o":{}},{"w":"অবসানে","h":" ॥৩॥","s":{"eng":"NULL"},"o":{}}]],
    "translation":{"eng":"UNDEFINED"}},{
    "lines":[
      [{"w":"সম্পন্ন","h":" ","s":{"eng":"NULL"},"o":{}},{"w":"দ্বিবিধ","h":" ","s":{"eng":"NULL"},"o":{}},{"w":"ভাব","h":",    ","s":{"eng":"NULL"},"o":{}},{"w":"আগতি","h":" ","s":{"eng":"NULL"},"o":{}},{"w":"ও","h":" ","s":{"eng":"NULL"},"o":{}},{"w":"প্রাদুর্ভাব","h":",","s":{"eng":"NULL"},"o":{}}],
      [{"w":"মনোহর","h":" ","s":{"eng":"NULL"},"o":{}},{"w":"সম্ভোগ","h":" ","s":{"eng":"NULL"},"o":{}},{"w":"তাহায়","h":" ।","s":{"eng":"NULL"},"o":{}}],
      [{"w":"স্বপ্নে","h":" ","s":{"eng":"NULL"},"o":{}},{"w":"ঐ","h":" ","s":{"eng":"NULL"},"o":{}},{"w":"সব","h":" ","s":{"eng":"NULL"},"o":{}},{"w":"ভাব","h":",    ","s":{"eng":"NULL"},"o":{}},{"w":"যবে","h":" ","s":{"eng":"NULL"},"o":{}},{"w":"হয়","h":" ","s":{"eng":"NULL"},"o":{}},{"w":"আবির্ভাব","h":",","s":{"eng":"NULL"},"o":{}}],
      [{"w":"তবে","h":" ","s":{"eng":"NULL"},"o":{}},{"w":"গৌণ","h":"-","s":{"eng":"NULL"},"o":{}},{"w":"সম্ভোগ","h":" ","s":{"eng":"NULL"},"o":{}},{"w":"জানায়","h":" ॥৪॥","s":{"eng":"NULL"},"o":{}}]],
    "translation":{"eng":"UNDEFINED"}},{
    "lines":[
      []]}
  ]
}