{
  "uid":"RBD28",
  "title":"ব্রজলীলার সর্ব্বশ্রেষ্ঠতা",
  "author":"bt",
  "language":"ben",
  "notes":[],
  "audio":[],
  "has_synonyms":false,
  "has_translations":false,
  "legend":{"w":"word","h":"hint","s":"synonym","o":"override"},
  "verses":[{
    "lines":[
      [{"w":"সন্দর্শন","h":", ","s":{"eng":"NULL"},"o":{}},{"w":"সংস্পর্শন","h":",    ","s":{"eng":"NULL"},"o":{}},{"w":"জল্প","h":", ","s":{"eng":"NULL"},"o":{}},{"w":"বর্ত্মনিরোধন","h":",","s":{"eng":"NULL"},"o":{}}],
      [{"w":"রাস","h":", ","s":{"eng":"NULL"},"o":{}},{"w":"বৃন্দাবন","h":"-","s":{"eng":"NULL"},"o":{}},{"w":"লীলা","h":" ","s":{"eng":"NULL"},"o":{}},{"w":"ভূরি","h":" ।","s":{"eng":"NULL"},"o":{}}],
      [{"w":"জলকেলি","h":" ","s":{"eng":"NULL"},"o":{}},{"w":"যমুনায়","h":",    ","s":{"eng":"NULL"},"o":{}},{"w":"নৌকাখেলা","h":", ","s":{"eng":"NULL"},"o":{}},{"w":"চৌর্য্যতায়","h":",","s":{"eng":"NULL"},"o":{}}],
      [{"w":"ঘট্ট","h":"-","s":{"eng":"NULL"},"o":{}},{"w":"লীলা","h":", ","s":{"eng":"NULL"},"o":{}},{"w":"কুঞ্জে","h":" ","s":{"eng":"NULL"},"o":{}},{"w":"লুকোচুরি","h":" ॥১॥","s":{"eng":"NULL"},"o":{}}]],
    "translation":{"eng":"UNDEFINED"}},{
    "lines":[
      [{"w":"মধুপান","h":", ","s":{"eng":"NULL"},"o":{}},{"w":"বধূবেষ","h":",    ","s":{"eng":"NULL"},"o":{}},{"w":"কপট","h":"-","s":{"eng":"NULL"},"o":{}},{"w":"নিদ্রা","h":"-","s":{"eng":"NULL"},"o":{}},{"w":"আবেশ","h":",","s":{"eng":"NULL"},"o":{}}],
      [{"w":"দ্যূতক্রীড়া","h":", ","s":{"eng":"NULL"},"o":{}},{"w":"বস্ত্র","h":"-","s":{"eng":"NULL"},"o":{}},{"w":"টানাটানি","h":" ।","s":{"eng":"NULL"},"o":{}}],
      [{"w":"চুম্বাশ্লেষ","h":", ","s":{"eng":"NULL"},"o":{}},{"w":"নখার্পণ","h":",    ","s":{"eng":"NULL"},"o":{}},{"w":"বিম্বাধর","h":"-","s":{"eng":"NULL"},"o":{}},{"w":"সুধাপান","h":",","s":{"eng":"NULL"},"o":{}}],
      [{"w":"সম্প্রয়োগ","h":" ","s":{"eng":"NULL"},"o":{}},{"w":"আদি","h":" ","s":{"eng":"NULL"},"o":{}},{"w":"লীলা","h":" ","s":{"eng":"NULL"},"o":{}},{"w":"মানি","h":" ॥২॥","s":{"eng":"NULL"},"o":{}}]],
    "translation":{"eng":"UNDEFINED"}},{
    "lines":[
      [{"w":"সম্ভোগপ্রকার","h":" ","s":{"eng":"NULL"},"o":{}},{"w":"সব","h":",    ","s":{"eng":"NULL"},"o":{}},{"w":"সম্ভোগের","h":" ","s":{"eng":"NULL"},"o":{}},{"w":"মহোৎসব","h":",","s":{"eng":"NULL"},"o":{}}],
      [{"w":"লীলা","h":" ","s":{"eng":"NULL"},"o":{}},{"w":"হয়","h":" ","s":{"eng":"NULL"},"o":{}},{"w":"সদা","h":" ","s":{"eng":"NULL"},"o":{}},{"w":"সুপেশল","h":" ।","s":{"eng":"NULL"},"o":{}}],
      [{"w":"সেই","h":" ","s":{"eng":"NULL"},"o":{}},{"w":"লীলা","h":" ","s":{"eng":"NULL"},"o":{}},{"w":"অপরূপ","h":",    ","s":{"eng":"NULL"},"o":{}},{"w":"উজ্জ্বল","h":" ","s":{"eng":"NULL"},"o":{}},{"w":"রসের","h":" ","s":{"eng":"NULL"},"o":{}},{"w":"কূপ","h":",","s":{"eng":"NULL"},"o":{}}],
      [{"w":"তাহে","h":" ","s":{"eng":"NULL"},"o":{}},{"w":"যার","h":" ","s":{"eng":"NULL"},"o":{}},{"w":"হয়","h":" ","s":{"eng":"NULL"},"o":{}},{"w":"কৌতূহল","h":" ॥৩॥","s":{"eng":"NULL"},"o":{}}]],
    "translation":{"eng":"UNDEFINED"}},{
    "lines":[
      [{"w":"চিদ্বিলাস","h":"-","s":{"eng":"NULL"},"o":{}},{"w":"রসভরে","h":",    ","s":{"eng":"NULL"},"o":{}},{"w":"রতি","h":" ","s":{"eng":"NULL"},"o":{}},{"w":"ভাব","h":"-","s":{"eng":"NULL"},"o":{}},{"w":"দশা","h":" ","s":{"eng":"NULL"},"o":{}},{"w":"ধরে","h":",","s":{"eng":"NULL"},"o":{}}],
      [{"w":"মহাভাব","h":" ","s":{"eng":"NULL"},"o":{}},{"w":"পর্য্যন্ত","h":" ","s":{"eng":"NULL"},"o":{}},{"w":"বাড়য়","h":" ।","s":{"eng":"NULL"},"o":{}}],
      [{"w":"যে","h":" ","s":{"eng":"NULL"},"o":{}},{"w":"জীব","h":" ","s":{"eng":"NULL"},"o":{}},{"w":"সৌভাগ্যবান্","h":",    ","s":{"eng":"NULL"},"o":{}},{"w":"লীলাযোগে","h":" ","s":{"eng":"NULL"},"o":{}},{"w":"সুসন্ধান","h":",","s":{"eng":"NULL"},"o":{}}],
      [{"w":"ব্রজে","h":" ","s":{"eng":"NULL"},"o":{}},{"w":"বসি’","h":" ","s":{"eng":"NULL"},"o":{}},{"w":"সতত","h":" ","s":{"eng":"NULL"},"o":{}},{"w":"করয়","h":" ॥৪॥","s":{"eng":"NULL"},"o":{}}]],
    "translation":{"eng":"UNDEFINED"}},{
    "lines":[
      []]}
  ]
}