{
  "uid":"RBD25",
  "title":"সম্ভোগ",
  "author":"bt",
  "language":"ben",
  "notes":[],
  "audio":[],
  "has_synonyms":false,
  "has_translations":false,
  "legend":{"w":"word","h":"hint","s":"synonym","o":"override"},
  "verses":[{
    "lines":[
      [{"w":"সাধারণী","h":", ","s":{"eng":"NULL"},"o":{}},{"w":"সমঞ্জসা","h":",    ","s":{"eng":"NULL"},"o":{}},{"w":"স্থায়ী","h":" ","s":{"eng":"NULL"},"o":{}},{"w":"লভে","h":" ","s":{"eng":"NULL"},"o":{}},{"w":"ভাব","h":" ","s":{"eng":"NULL"},"o":{}},{"w":"দশা","h":",","s":{"eng":"NULL"},"o":{}}],
      [{"w":"কুব্জা","h":" ","s":{"eng":"NULL"},"o":{}},{"w":"আর","h":" ","s":{"eng":"NULL"},"o":{}},{"w":"মহিষী","h":" ","s":{"eng":"NULL"},"o":{}},{"w":"প্রমাণ","h":" ।","s":{"eng":"NULL"},"o":{}}],
      [{"w":"একা","h":" ","s":{"eng":"NULL"},"o":{}},{"w":"ব্রজদেবীগণে","h":",    ","s":{"eng":"NULL"},"o":{}},{"w":"মহাভাব","h":"-","s":{"eng":"NULL"},"o":{}},{"w":"সংঘটনে","h":",","s":{"eng":"NULL"},"o":{}}],
      [{"w":"‘রূঢ’","h":" ","s":{"eng":"NULL"},"o":{}},{"w":"‘অধিরূঢ়’","h":" ","s":{"eng":"NULL"},"o":{}},{"w":"সুবিধান","h":" ॥১॥","s":{"eng":"NULL"},"o":{}}]],
    "translation":{"eng":"UNDEFINED"}},{
    "lines":[
      [{"w":"নিমেষাসহতা","h":" ","s":{"eng":"NULL"},"o":{}},{"w":"তায়","h":",     ","s":{"eng":"NULL"},"o":{}},{"w":"হৃন্মন্থনে","h":" ","s":{"eng":"NULL"},"o":{}},{"w":"খিন্ন","h":" ","s":{"eng":"NULL"},"o":{}},{"w":"প্রায়","h":",","s":{"eng":"NULL"},"o":{}}],
      [{"w":"কল্পক্ষণ","h":", ","s":{"eng":"NULL"},"o":{}},{"w":"সৌখ্যে","h":" ","s":{"eng":"NULL"},"o":{}},{"w":"শঙ্কাকুল","h":" ।","s":{"eng":"NULL"},"o":{}}],
      [{"w":"আত্মাবধি","h":" ","s":{"eng":"NULL"},"o":{}},{"w":"বিস্মরণ","h":", ","s":{"eng":"NULL"},"o":{}},{"w":"ক্ষণকল্প","h":" ","s":{"eng":"NULL"},"o":{}},{"w":"বিবেচন","h":",","s":{"eng":"NULL"},"o":{}}],
      [{"w":"যোগে","h":" ","s":{"eng":"NULL"},"o":{}},{"w":"বা","h":" ","s":{"eng":"NULL"},"o":{}},{"w":"বিয়োগে","h":" ","s":{"eng":"NULL"},"o":{}},{"w":"সমতুল","h":" ॥২॥","s":{"eng":"NULL"},"o":{}}]],
    "translation":{"eng":"UNDEFINED"}},{
    "lines":[
      [{"w":"অধিরূঢ়","h":" ","s":{"eng":"NULL"},"o":{}},{"w":"ভাবে","h":" ","s":{"eng":"NULL"},"o":{}},{"w":"পুনঃ","h":",    ","s":{"eng":"NULL"},"o":{}},{"w":"দ্বিপ্রকার","h":" ","s":{"eng":"NULL"},"o":{}},{"w":"ভেদ","h":" ","s":{"eng":"NULL"},"o":{}},{"w":"শুন","h":",","s":{"eng":"NULL"},"o":{}}],
      [{"w":"‘মোদন’","h":" ","s":{"eng":"NULL"},"o":{}},{"w":"‘মাদন’","h":" ","s":{"eng":"NULL"},"o":{}},{"w":"নামে","h":" ","s":{"eng":"NULL"},"o":{}},{"w":"খ্যাত","h":" ।","s":{"eng":"NULL"},"o":{}}],
      [{"w":"বিশ্লেষ","h":"-","s":{"eng":"NULL"},"o":{}},{"w":"দশাতে","h":" ","s":{"eng":"NULL"},"o":{}},{"w":"পুনঃ","h":",    ","s":{"eng":"NULL"},"o":{}},{"w":"মোদন","h":" ","s":{"eng":"NULL"},"o":{}},{"w":"হয়","h":" ","s":{"eng":"NULL"},"o":{}},{"w":"‘মোহন’","h":",","s":{"eng":"NULL"},"o":{}}],
      [{"w":"দিব্যোন্মাদ","h":" ","s":{"eng":"NULL"},"o":{}},{"w":"তাহে","h":" ","s":{"eng":"NULL"},"o":{}},{"w":"হয়","h":" ","s":{"eng":"NULL"},"o":{}},{"w":"জাত","h":" ॥৩॥","s":{"eng":"NULL"},"o":{}}]],
    "translation":{"eng":"UNDEFINED"}},{
    "lines":[
      [{"w":"দিব্যোন্মাদ","h":" ","s":{"eng":"NULL"},"o":{}},{"w":"দ্বিপ্রকার","h":",    ","s":{"eng":"NULL"},"o":{}},{"w":"চিত্রজল্পোদ্ঘূর্ণা","h":" ","s":{"eng":"NULL"},"o":{}},{"w":"আর","h":",","s":{"eng":"NULL"},"o":{}}],
      [{"w":"চিত্রজল্প","h":" ","s":{"eng":"NULL"},"o":{}},{"w":"বহুবিধ","h":" ","s":{"eng":"NULL"},"o":{}},{"w":"তায়","h":" ।","s":{"eng":"NULL"},"o":{}}],
      [{"w":"মোদনেতে","h":" ","s":{"eng":"NULL"},"o":{}},{"w":"শ্রীরাধার","h":",    ","s":{"eng":"NULL"},"o":{}},{"w":"মাদনাখ্য","h":"-","s":{"eng":"NULL"},"o":{}},{"w":"দশা","h":" ","s":{"eng":"NULL"},"o":{}},{"w":"সার","h":",","s":{"eng":"NULL"},"o":{}}],
      [{"w":"নিত্যলীলাময়ী","h":" ","s":{"eng":"NULL"},"o":{}},{"w":"ভাব","h":" ","s":{"eng":"NULL"},"o":{}},{"w":"পায়","h":" ॥৪॥","s":{"eng":"NULL"},"o":{}}]],
    "translation":{"eng":"UNDEFINED"}},{
    "lines":[
      [{"w":"সাধারণী","h":" ","s":{"eng":"NULL"},"o":{}},{"w":"ধূমায়িতা","h":",    ","s":{"eng":"NULL"},"o":{}},{"w":"সমঞ্জসা","h":" ","s":{"eng":"NULL"},"o":{}},{"w":"সদা","h":" ","s":{"eng":"NULL"},"o":{}},{"w":"দীপ্তা","h":",","s":{"eng":"NULL"},"o":{}}],
      [{"w":"রূঢ়ে","h":" ","s":{"eng":"NULL"},"o":{}},{"w":"তথোদ্দীপ্তা","h":" ","s":{"eng":"NULL"},"o":{}},{"w":"সমর্থায়","h":" ।","s":{"eng":"NULL"},"o":{}}],
      [{"w":"সূদ্দীপ্তা","h":" ","s":{"eng":"NULL"},"o":{}},{"w":"শ্রীরাধাপ্রেম","h":",    ","s":{"eng":"NULL"},"o":{}},{"w":"যেন","h":" ","s":{"eng":"NULL"},"o":{}},{"w":"উজ্জ্বলিত","h":" ","s":{"eng":"NULL"},"o":{}},{"w":"হেম","h":",","s":{"eng":"NULL"},"o":{}}],
      [{"w":"মোদনাদি","h":" ","s":{"eng":"NULL"},"o":{}},{"w":"ভাবে","h":" ","s":{"eng":"NULL"},"o":{}},{"w":"সদা","h":" ","s":{"eng":"NULL"},"o":{}},{"w":"ভায়","h":" ॥৫॥","s":{"eng":"NULL"},"o":{}}]],
    "translation":{"eng":"UNDEFINED"}},{
    "lines":[
      []]}
  ]
}