{
  "uid":"RBD34",
  "title":"অথ অপরাহ্ণলীলা",
  "author":"bt",
  "language":"ben",
  "notes":["শব্দার্থঃ—৩৫ ।১) কৃষ্ণসুখালোকানন্দে—কৃষ্ণসুখ-দর্শনের আনন্দে।"],
  "audio":[],
  "has_synonyms":false,
  "has_translations":false,
  "legend":{"w":"word","h":"hint","s":"synonym","o":"override"},
  "verses":[{
    "lines":[
      [{"w":"সখাগণ","h":" ","s":{"eng":"NULL"},"o":{}},{"w":"ধেনুগণ","h":",    ","s":{"eng":"NULL"},"o":{}},{"w":"লয়ে","h":" ","s":{"eng":"NULL"},"o":{}},{"w":"কৃষ্ণ","h":" ","s":{"eng":"NULL"},"o":{}},{"w":"যান","h":" ","s":{"eng":"NULL"},"o":{}},{"w":"বন","h":",","s":{"eng":"NULL"},"o":{}}],
      [{"w":"গোষ্ঠলোক","h":" ","s":{"eng":"NULL"},"o":{}},{"w":"সঙ্গে","h":" ","s":{"eng":"NULL"},"o":{}},{"w":"সঙ্গে","h":" ","s":{"eng":"NULL"},"o":{}},{"w":"যায়","h":" ।","s":{"eng":"NULL"},"o":{}}],
      [{"w":"মাতা","h":" ","s":{"eng":"NULL"},"o":{}},{"w":"পিতা","h":" ","s":{"eng":"NULL"},"o":{}},{"w":"আদি","h":" ","s":{"eng":"NULL"},"o":{}},{"w":"যত","h":",    ","s":{"eng":"NULL"},"o":{}},{"w":"সঙ্গে","h":" ","s":{"eng":"NULL"},"o":{}},{"w":"যায়","h":" ","s":{"eng":"NULL"},"o":{}},{"w":"শত","h":" ","s":{"eng":"NULL"},"o":{}},{"w":"শত","h":",","s":{"eng":"NULL"},"o":{}}],
      [{"w":"শ্রীকৃষ্ণদর্শন","h":" ","s":{"eng":"NULL"},"o":{}},{"w":"লালসায়","h":" ॥১॥","s":{"eng":"NULL"},"o":{}}]],
    "translation":{"eng":"UNDEFINED"}},{
    "lines":[
      [{"w":"নানাছল","h":" ","s":{"eng":"NULL"},"o":{}},{"w":"উপদেশে","h":",    ","s":{"eng":"NULL"},"o":{}},{"w":"বিদাইয়া","h":" ","s":{"eng":"NULL"},"o":{}},{"w":"সবশেষে","h":",","s":{"eng":"NULL"},"o":{}}],
      [{"w":"শ্রীরাধায়","h":" ","s":{"eng":"NULL"},"o":{}},{"w":"সংকেত","h":" ","s":{"eng":"NULL"},"o":{}},{"w":"করিয়া","h":" ।","s":{"eng":"NULL"},"o":{}}],
      [{"w":"দূর","h":" ","s":{"eng":"NULL"},"o":{}},{"w":"বনে","h":" ","s":{"eng":"NULL"},"o":{}},{"w":"যায়","h":" ","s":{"eng":"NULL"},"o":{}},{"w":"হরি","h":",    ","s":{"eng":"NULL"},"o":{}},{"w":"রাধার","h":" ","s":{"eng":"NULL"},"o":{}},{"w":"সংকেত","h":" ","s":{"eng":"NULL"},"o":{}},{"w":"স্মরি","h":",","s":{"eng":"NULL"},"o":{}}],
      [{"w":"রাধাকুণ্ডে","h":" ","s":{"eng":"NULL"},"o":{}},{"w":"গোবর্দ্ধন","h":" ","s":{"eng":"NULL"},"o":{}},{"w":"হঞা","h":" ॥২॥","s":{"eng":"NULL"},"o":{}}]],
    "translation":{"eng":"UNDEFINED"}},{
    "lines":[
      [{"w":"হেথা","h":" ","s":{"eng":"NULL"},"o":{}},{"w":"কুন্দলতা","h":" ","s":{"eng":"NULL"},"o":{}},{"w":"সখী","h":",    ","s":{"eng":"NULL"},"o":{}},{"w":"লয়ে","h":" ","s":{"eng":"NULL"},"o":{}},{"w":"রাধা","h":" ","s":{"eng":"NULL"},"o":{}},{"w":"গুণবতী","h":",","s":{"eng":"NULL"},"o":{}}],
      [{"w":"জটিলারে","h":" ","s":{"eng":"NULL"},"o":{}},{"w":"করে","h":" ","s":{"eng":"NULL"},"o":{}},{"w":"সমর্পণ","h":" ।","s":{"eng":"NULL"},"o":{}}],
      [{"w":"জটিলা","h":" ","s":{"eng":"NULL"},"o":{}},{"w":"সন্তুষ্ট","h":" ","s":{"eng":"NULL"},"o":{}},{"w":"হয়ে","h":",    ","s":{"eng":"NULL"},"o":{}},{"w":"আদেশে","h":"—","s":{"eng":"NULL"},"o":{}},{"w":"শ্রীরাধা","h":" ","s":{"eng":"NULL"},"o":{}},{"w":"লয়ে","h":",","s":{"eng":"NULL"},"o":{}}],
      [{"w":"করিবারে","h":" ","s":{"eng":"NULL"},"o":{}},{"w":"সূর্য্যের","h":" ","s":{"eng":"NULL"},"o":{}},{"w":"অর্চ্চন","h":" ॥৩॥","s":{"eng":"NULL"},"o":{}}]],
    "translation":{"eng":"UNDEFINED"}},{
    "lines":[
      [{"w":"ছল","h":" ","s":{"eng":"NULL"},"o":{}},{"w":"পেয়ে","h":" ","s":{"eng":"NULL"},"o":{}},{"w":"সখীগণ","h":",    ","s":{"eng":"NULL"},"o":{}},{"w":"করে","h":" ","s":{"eng":"NULL"},"o":{}},{"w":"নানা","h":" ","s":{"eng":"NULL"},"o":{}},{"w":"সংঘটন","h":",","s":{"eng":"NULL"},"o":{}}],
      [{"w":"রাধাকুণ্ডে","h":" ","s":{"eng":"NULL"},"o":{}},{"w":"অভিসার","h":" ","s":{"eng":"NULL"},"o":{}},{"w":"তরে","h":" ।","s":{"eng":"NULL"},"o":{}}],
      [{"w":"‘তুলসী’","h":" ","s":{"eng":"NULL"},"o":{}},{"w":"মালিকা","h":" ","s":{"eng":"NULL"},"o":{}},{"w":"লয়ে","h":",    ","s":{"eng":"NULL"},"o":{}},{"w":"কৃষ্ণে","h":" ","s":{"eng":"NULL"},"o":{}},{"w":"দেয়","h":" ","s":{"eng":"NULL"},"o":{}},{"w":"‘দূতী’","h":" ","s":{"eng":"NULL"},"o":{}},{"w":"হয়ে","h":",","s":{"eng":"NULL"},"o":{}}],
      [{"w":"কৃষ্ণবার্ত্তা","h":" ","s":{"eng":"NULL"},"o":{}},{"w":"আনে","h":" ","s":{"eng":"NULL"},"o":{}},{"w":"রাধাঘরে","h":" ॥৪॥","s":{"eng":"NULL"},"o":{}}]],
    "translation":{"eng":"UNDEFINED"}},{
    "lines":[
      []]}
  ]
}