{
  "uid":"RBD37",
  "title":"অথ নক্তলীলা",
  "author":"bt",
  "language":"ben",
  "notes":["শব্দার্থঃ—৩৮ ।৪) বনেশ্বরী—বৃন্দাবন-পালিকা শ্রীবৃন্দাদেবী; নিভৃত—নিশ্চল, নিস্তব্ধ ।",""],
  "audio":[],
  "has_synonyms":false,
  "has_translations":false,
  "legend":{"w":"word","h":"hint","s":"synonym","o":"override"},
  "verses":[{
    "lines":[
      [{"w":"সায়ংকালে","h":" ","s":{"eng":"NULL"},"o":{}},{"w":"বনেশ্বরী","h":",    ","s":{"eng":"NULL"},"o":{}},{"w":"দিয়া","h":" ","s":{"eng":"NULL"},"o":{}},{"w":"নিজ","h":" ","s":{"eng":"NULL"},"o":{}},{"w":"সহচরী","h":",","s":{"eng":"NULL"},"o":{}}],
      [{"w":"কৃষ্ণার্থে","h":" ","s":{"eng":"NULL"},"o":{}},{"w":"পাঠায়","h":" ","s":{"eng":"NULL"},"o":{}},{"w":"ভোজ্য","h":" ","s":{"eng":"NULL"},"o":{}},{"w":"কত","h":" ।","s":{"eng":"NULL"},"o":{}}],
      [{"w":"কৃষ্ণভুক্ত","h":" ","s":{"eng":"NULL"},"o":{}},{"w":"অবশেষ","h":",    ","s":{"eng":"NULL"},"o":{}},{"w":"সখী","h":" ","s":{"eng":"NULL"},"o":{}},{"w":"আনে","h":" ","s":{"eng":"NULL"},"o":{}},{"w":"যথাদেশ","h":",","s":{"eng":"NULL"},"o":{}}],
      [{"w":"পেয়ে","h":" ","s":{"eng":"NULL"},"o":{}},{"w":"রাধা","h":" ","s":{"eng":"NULL"},"o":{}},{"w":"হয়","h":" ","s":{"eng":"NULL"},"o":{}},{"w":"পুলকিত","h":" ॥১॥","s":{"eng":"NULL"},"o":{}}]],
    "translation":{"eng":"UNDEFINED"}},{
    "lines":[
      [{"w":"হেথা","h":" ","s":{"eng":"NULL"},"o":{}},{"w":"বন","h":" ","s":{"eng":"NULL"},"o":{}},{"w":"হৈতে","h":" ","s":{"eng":"NULL"},"o":{}},{"w":"হরি","h":",    ","s":{"eng":"NULL"},"o":{}},{"w":"ব্রজমুখে","h":" ","s":{"eng":"NULL"},"o":{}},{"w":"আইসে","h":" ","s":{"eng":"NULL"},"o":{}},{"w":"ফিরি","h":",","s":{"eng":"NULL"},"o":{}}],
      [{"w":"ধেনু","h":" ","s":{"eng":"NULL"},"o":{}},{"w":"আর","h":" ","s":{"eng":"NULL"},"o":{}},{"w":"সখাগণ","h":" ","s":{"eng":"NULL"},"o":{}},{"w":"সনে","h":" ।","s":{"eng":"NULL"},"o":{}}],
      [{"w":"যতনেতে","h":" ","s":{"eng":"NULL"},"o":{}},{"w":"যশোমতি","h":",    ","s":{"eng":"NULL"},"o":{}},{"w":"দাস","h":"-","s":{"eng":"NULL"},"o":{}},{"w":"দাসী","h":" ","s":{"eng":"NULL"},"o":{}},{"w":"লয়ে","h":" ","s":{"eng":"NULL"},"o":{}},{"w":"সতী","h":",","s":{"eng":"NULL"},"o":{}}],
      [{"w":"ব্যস্ত","h":" ","s":{"eng":"NULL"},"o":{}},{"w":"কৃষ্ণ","h":"-","s":{"eng":"NULL"},"o":{}},{"w":"শরীর","h":"-","s":{"eng":"NULL"},"o":{}},{"w":"মার্জ্জনে","h":" ॥২॥","s":{"eng":"NULL"},"o":{}}]],
    "translation":{"eng":"UNDEFINED"}},{
    "lines":[
      [{"w":"রম্যবেশ","h":" ","s":{"eng":"NULL"},"o":{}},{"w":"পরাইয়া","h":" , ","s":{"eng":"NULL"},"o":{}},{"w":"শ্রান্তি","h":" ","s":{"eng":"NULL"},"o":{}},{"w":"পূর","h":" ","s":{"eng":"NULL"},"o":{}},{"w":"করাইয়া","h":", ","s":{"eng":"NULL"},"o":{}}],
      [{"w":"কতমতে","h":" ","s":{"eng":"NULL"},"o":{}},{"w":"করেন","h":" ","s":{"eng":"NULL"},"o":{}},{"w":"লালন","h":" ","s":{"eng":"NULL"},"o":{}},{"w":"৷","h":"","s":{"eng":"NULL"},"o":{}}],
      [{"w":"কৃত","h":"-","s":{"eng":"NULL"},"o":{}},{"w":"গোদোহন","h":" ","s":{"eng":"NULL"},"o":{}},{"w":"হরি","h":",    ","s":{"eng":"NULL"},"o":{}},{"w":"গৃহেতে","h":" ","s":{"eng":"NULL"},"o":{}},{"w":"প্রবেশ","h":" ","s":{"eng":"NULL"},"o":{}},{"w":"করি’","h":",","s":{"eng":"NULL"},"o":{}}],
      [{"w":"নানাদ্রব্য","h":" ","s":{"eng":"NULL"},"o":{}},{"w":"করেন","h":" ","s":{"eng":"NULL"},"o":{}},{"w":"ভোজন","h":" ॥৩॥","s":{"eng":"NULL"},"o":{}}]],
    "translation":{"eng":"UNDEFINED"}},{
    "lines":[
      [{"w":"সখাগণে","h":" ","s":{"eng":"NULL"},"o":{}},{"w":"সঙ্গে","h":" ","s":{"eng":"NULL"},"o":{}},{"w":"করি’","h":",    ","s":{"eng":"NULL"},"o":{}},{"w":"ভোজন","h":" ","s":{"eng":"NULL"},"o":{}},{"w":"করিয়া","h":" ","s":{"eng":"NULL"},"o":{}},{"w":"হরি","h":",","s":{"eng":"NULL"},"o":{}}],
      [{"w":"পিতামাতায়","h":" ","s":{"eng":"NULL"},"o":{}},{"w":"করেন","h":" ","s":{"eng":"NULL"},"o":{}},{"w":"সন্তোষ","h":" ।","s":{"eng":"NULL"},"o":{}}],
      [{"w":"দিবসের","h":" ","s":{"eng":"NULL"},"o":{}},{"w":"কথা","h":" ","s":{"eng":"NULL"},"o":{}},{"w":"যত","h":",    ","s":{"eng":"NULL"},"o":{}},{"w":"আলোচিতে","h":" ","s":{"eng":"NULL"},"o":{}},{"w":"নানামত","h":",","s":{"eng":"NULL"},"o":{}}],
      [{"w":"উপস্থিত","h":" ","s":{"eng":"NULL"},"o":{}},{"w":"হয়ত","h":" ","s":{"eng":"NULL"},"o":{}},{"w":"প্রদোষ","h":" ॥৪॥","s":{"eng":"NULL"},"o":{}}]],
    "translation":{"eng":"UNDEFINED"}},{
    "lines":[
      []]}
  ]
}