{
  "uid":"RBD33",
  "title":"অথ মধ্যাহ্নলীলা",
  "author":"bt",
  "language":"ben",
  "notes":["শব্দার্থঃ—৩৪ ।১) মিথঃ—পরস্পর; ৩৪ ।২) লোল—চঞ্চল; স্মরযজ্ঞে—কন্দর্পলীলায়; বিভোল—বিভোর; ৩৪ ।৩) দোলা-হিন্দোল (ঝুলন)-লীলা; অর্ক্কার্চ্চন-সূর্য্যপূজা ।"],
  "audio":[],
  "has_synonyms":false,
  "has_translations":false,
  "legend":{"w":"word","h":"hint","s":"synonym","o":"override"},
  "verses":[{
    "lines":[
      [{"w":"স্নাতা","h":" ","s":{"eng":"NULL"},"o":{}},{"w":"বিভূষিতা","h":" ","s":{"eng":"NULL"},"o":{}},{"w":"সতী","h":",    ","s":{"eng":"NULL"},"o":{}},{"w":"গৃহে","h":" ","s":{"eng":"NULL"},"o":{}},{"w":"রাই","h":" ","s":{"eng":"NULL"},"o":{}},{"w":"রসবতী","h":",","s":{"eng":"NULL"},"o":{}}],
      [{"w":"সখীসহ","h":" ","s":{"eng":"NULL"},"o":{}},{"w":"করে","h":" ","s":{"eng":"NULL"},"o":{}},{"w":"আলাপন","h":" ।","s":{"eng":"NULL"},"o":{}}],
      [{"w":"যশোদা","h":"-","s":{"eng":"NULL"},"o":{}},{"w":"প্রেরিতা","h":" ","s":{"eng":"NULL"},"o":{}},{"w":"বালা","h":",    ","s":{"eng":"NULL"},"o":{}},{"w":"কুন্দলতা","h":" ","s":{"eng":"NULL"},"o":{}},{"w":"সুকোমলা","h":",","s":{"eng":"NULL"},"o":{}}],
      [{"w":"জটিলারে","h":" ","s":{"eng":"NULL"},"o":{}},{"w":"জানায়","h":" ","s":{"eng":"NULL"},"o":{}},{"w":"তখন","h":" ॥১॥","s":{"eng":"NULL"},"o":{}}]],
    "translation":{"eng":"UNDEFINED"}},{
    "lines":[
      [{"w":"‘ওগো","h":" ","s":{"eng":"NULL"},"o":{}},{"w":"জটিলে","h":", ","s":{"eng":"NULL"},"o":{}},{"w":"শুন","h":",    ","s":{"eng":"NULL"},"o":{}},{"w":"যশোদার","h":" ","s":{"eng":"NULL"},"o":{}},{"w":"বিজ্ঞাপন","h":",","s":{"eng":"NULL"},"o":{}}],
      [{"w":"শ্রীরাধায়","h":" ","s":{"eng":"NULL"},"o":{}},{"w":"তথায়","h":" ","s":{"eng":"NULL"},"o":{}},{"w":"লইব","h":" ।","s":{"eng":"NULL"},"o":{}}],
      [{"w":"করিবেন","h":" ","s":{"eng":"NULL"},"o":{}},{"w":"পাককার্য্য","h":",    ","s":{"eng":"NULL"},"o":{}},{"w":"একথা","h":" ","s":{"eng":"NULL"},"o":{}},{"w":"হইল","h":" ","s":{"eng":"NULL"},"o":{}},{"w":"ধার্য্য","h":", ","s":{"eng":"NULL"},"o":{}}],
      [{"w":"পাকান্তে","h":" ","s":{"eng":"NULL"},"o":{}},{"w":"বধূকে","h":" ","s":{"eng":"NULL"},"o":{}},{"w":"আনি","h":" ","s":{"eng":"NULL"},"o":{}},{"w":"দিব’","h":" ॥২॥","s":{"eng":"NULL"},"o":{}}]],
    "translation":{"eng":"UNDEFINED"}},{
    "lines":[
      [{"w":"যদিও","h":" ","s":{"eng":"NULL"},"o":{}},{"w":"কৃষ্ণেরে","h":" ","s":{"eng":"NULL"},"o":{}},{"w":"ভয়","h":",    ","s":{"eng":"NULL"},"o":{}},{"w":"তথাপি","h":" ","s":{"eng":"NULL"},"o":{}},{"w":"সম্মত","h":" ","s":{"eng":"NULL"},"o":{}},{"w":"হয়","h":",","s":{"eng":"NULL"},"o":{}}],
      [{"w":"শুনিয়া","h":" ","s":{"eng":"NULL"},"o":{}},{"w":"যশোদা","h":"-","s":{"eng":"NULL"},"o":{}},{"w":"বিজ্ঞাপন","h":" ।","s":{"eng":"NULL"},"o":{}}],
      [{"w":"সখীসহ","h":" ","s":{"eng":"NULL"},"o":{}},{"w":"রাধা","h":" ","s":{"eng":"NULL"},"o":{}},{"w":"যায়","h":",    ","s":{"eng":"NULL"},"o":{}},{"w":"প্রণমিয়া","h":" ","s":{"eng":"NULL"},"o":{}},{"w":"যশোদায়","h":",","s":{"eng":"NULL"},"o":{}}],
      [{"w":"পাককার্য্য","h":" ","s":{"eng":"NULL"},"o":{}},{"w":"করে","h":" ","s":{"eng":"NULL"},"o":{}},{"w":"সম্পাদন","h":" ॥৩॥","s":{"eng":"NULL"},"o":{}}]],
    "translation":{"eng":"UNDEFINED"}},{
    "lines":[
      [{"w":"কৃষ্ণ","h":" ","s":{"eng":"NULL"},"o":{}},{"w":"নিদ্রা","h":" ","s":{"eng":"NULL"},"o":{}},{"w":"পরিহরি’","h":",    ","s":{"eng":"NULL"},"o":{}},{"w":"গোষ্ঠে","h":" ","s":{"eng":"NULL"},"o":{}},{"w":"গোদোহন","h":" ","s":{"eng":"NULL"},"o":{}},{"w":"করি’","h":",","s":{"eng":"NULL"},"o":{}}],
      [{"w":"সখাসহ","h":" ","s":{"eng":"NULL"},"o":{}},{"w":"স্নানান্তে","h":" ","s":{"eng":"NULL"},"o":{}},{"w":"ভোজন","h":" ।","s":{"eng":"NULL"},"o":{}}],
      [{"w":"কৃষ্ণভুক্ত","h":" ","s":{"eng":"NULL"},"o":{}},{"w":"শেষ","h":" ","s":{"eng":"NULL"},"o":{}},{"w":"যাহা","h":",    ","s":{"eng":"NULL"},"o":{}},{"w":"সখীগণ","h":" ","s":{"eng":"NULL"},"o":{}},{"w":"সঙ্গে","h":" ","s":{"eng":"NULL"},"o":{}},{"w":"তাহা","h":",","s":{"eng":"NULL"},"o":{}}],
      [{"w":"রাধিকা","h":" ","s":{"eng":"NULL"},"o":{}},{"w":"করেন","h":" ","s":{"eng":"NULL"},"o":{}},{"w":"আস্বাদন","h":" ॥৪॥","s":{"eng":"NULL"},"o":{}}]],
    "translation":{"eng":"UNDEFINED"}},{
    "lines":[
      []]}
  ]
}