{
  "uid":"RBD41",
  "title":"সেই কুঞ্জাদি কিরূপ এবং বহির্ম্মুখ মায়াবদ্ধ জীবের তাহাতে কি সম্বন্ধ",
  "author":"bt",
  "language":"ben",
  "notes":["MOVE TO THE BOTTOM: * ইহার পর ‘শ্রীসজ্জনতোষণী’তে আর কোন অংশ প্রকাশিত হয় নাই ।"],
  "audio":[],
  "has_synonyms":false,
  "has_translations":false,
  "legend":{"w":"word","h":"hint","s":"synonym","o":"override"},
  "verses":[{
    "lines":[
      [{"w":"কুঞ্জ","h":" ","s":{"eng":"NULL"},"o":{}},{"w":"কুণ্ড","h":" ","s":{"eng":"NULL"},"o":{}},{"w":"সরোবর","h":" ","s":{"eng":"NULL"},"o":{}},{"w":"গিরি","h":"-","s":{"eng":"NULL"},"o":{}},{"w":"গোবর্দ্ধন","h":" । ","s":{"eng":"NULL"},"o":{}}],
      [{"w":"বৃক্ষলতা","h":" ","s":{"eng":"NULL"},"o":{}},{"w":"শ্রীযমুনা","h":" ","s":{"eng":"NULL"},"o":{}},{"w":"সব","h":" ","s":{"eng":"NULL"},"o":{}},{"w":"বৃন্দাবন","h":" ॥১॥","s":{"eng":"NULL"},"o":{}}]],
    "translation":{"eng":"UNDEFINED"}},{
    "lines":[
      [{"w":"চিদানন্দ","h":" ","s":{"eng":"NULL"},"o":{}},{"w":"মণিরত্ন","h":"-","s":{"eng":"NULL"},"o":{}},{"w":"বিনির্ম্মিত","h":" ","s":{"eng":"NULL"},"o":{}},{"w":"সব","h":" । ","s":{"eng":"NULL"},"o":{}}],
      [{"w":"কিছুমাত্র","h":" ","s":{"eng":"NULL"},"o":{}},{"w":"নাহি","h":" ","s":{"eng":"NULL"},"o":{}},{"w":"তথা","h":" ","s":{"eng":"NULL"},"o":{}},{"w":"মায়ার","h":" ","s":{"eng":"NULL"},"o":{}},{"w":"বৈভব","h":" ॥২॥","s":{"eng":"NULL"},"o":{}}]],
    "translation":{"eng":"UNDEFINED"}},{
    "lines":[
      [{"w":"যেই","h":" ","s":{"eng":"NULL"},"o":{}},{"w":"জীব","h":" ","s":{"eng":"NULL"},"o":{}},{"w":"সিদ্ধ","h":" ","s":{"eng":"NULL"},"o":{}},{"w":"হয়","h":" ","s":{"eng":"NULL"},"o":{}},{"w":"সখীকৃপা","h":" ","s":{"eng":"NULL"},"o":{}},{"w":"বলে","h":" । ","s":{"eng":"NULL"},"o":{}}],
      [{"w":"প্রেমমৃষ্ট","h":" ","s":{"eng":"NULL"},"o":{}},{"w":"চক্ষে","h":" ","s":{"eng":"NULL"},"o":{}},{"w":"সব","h":" ","s":{"eng":"NULL"},"o":{}},{"w":"দেখে","h":" ","s":{"eng":"NULL"},"o":{}},{"w":"কুতূহলে","h":" ॥৩॥","s":{"eng":"NULL"},"o":{}}]],
    "translation":{"eng":"UNDEFINED"}},{
    "lines":[
      [{"w":"মাংসময়ী","h":" ","s":{"eng":"NULL"},"o":{}},{"w":"দৃষ্টিযোগে","h":" ","s":{"eng":"NULL"},"o":{}},{"w":"বহির্ম্মুথ","h":" ","s":{"eng":"NULL"},"o":{}},{"w":"জন","h":" । ","s":{"eng":"NULL"},"o":{}}],
      [{"w":"মায়িকাবরণ","h":" ","s":{"eng":"NULL"},"o":{}},{"w":"মাত্র","h":" ","s":{"eng":"NULL"},"o":{}},{"w":"করে","h":" ","s":{"eng":"NULL"},"o":{}},{"w":"দরশন","h":" ॥৪॥","s":{"eng":"NULL"},"o":{}}]],
    "translation":{"eng":"UNDEFINED"}},{
    "lines":[
      [{"w":"মায়ার","h":" ","s":{"eng":"NULL"},"o":{}},{"w":"যে","h":" ","s":{"eng":"NULL"},"o":{}},{"w":"দেশ","h":" ","s":{"eng":"NULL"},"o":{}},{"w":"কাল","h":" ","s":{"eng":"NULL"},"o":{}},{"w":"নাহিক","h":" ","s":{"eng":"NULL"},"o":{}},{"w":"তথায়","h":" । ","s":{"eng":"NULL"},"o":{}}],
      [{"w":"চিদাবৃত্তি","h":" ","s":{"eng":"NULL"},"o":{}},{"w":"দেশকাল","h":" ","s":{"eng":"NULL"},"o":{}},{"w":"তথা","h":" ","s":{"eng":"NULL"},"o":{}},{"w":"শোভা","h":" ","s":{"eng":"NULL"},"o":{}},{"w":"পায়","h":" ॥৫॥","s":{"eng":"NULL"},"o":{}}]],
    "translation":{"eng":"UNDEFINED"}},{
    "lines":[
      [{"w":"পরম","h":" ","s":{"eng":"NULL"},"o":{}},{"w":"দয়ালু","h":" ","s":{"eng":"NULL"},"o":{}},{"w":"কৃষ্ণ","h":" ","s":{"eng":"NULL"},"o":{}},{"w":"জীবে","h":" ","s":{"eng":"NULL"},"o":{}},{"w":"দয়া","h":" ","s":{"eng":"NULL"},"o":{}},{"w":"করি","h":" । ","s":{"eng":"NULL"},"o":{}}],
      [{"w":"প্রকট","h":" ","s":{"eng":"NULL"},"o":{}},{"w":"করিল","h":" ","s":{"eng":"NULL"},"o":{}},{"w":"সব","h":" ","s":{"eng":"NULL"},"o":{}},{"w":"স্বয়ং","h":" ","s":{"eng":"NULL"},"o":{}},{"w":"অবতরি’","h":" ॥৬॥","s":{"eng":"NULL"},"o":{}}]],
    "translation":{"eng":"UNDEFINED"}},{
    "lines":[
      [{"w":"মায়াবদ্ধ","h":" ","s":{"eng":"NULL"},"o":{}},{"w":"জীব","h":" ","s":{"eng":"NULL"},"o":{}},{"w":"তথা","h":" ","s":{"eng":"NULL"},"o":{}},{"w":"যায়","h":" ","s":{"eng":"NULL"},"o":{}},{"w":"অনুক্ষণ","h":" । ","s":{"eng":"NULL"},"o":{}}],
      [{"w":"কৃষ্ণকৃপা","h":" ","s":{"eng":"NULL"},"o":{}},{"w":"বিনা","h":" ","s":{"eng":"NULL"},"o":{}},{"w":"নাহি","h":" ","s":{"eng":"NULL"},"o":{}},{"w":"পায়","h":" ","s":{"eng":"NULL"},"o":{}},{"w":"দরশন","h":" ॥৭॥","s":{"eng":"NULL"},"o":{}}]],
    "translation":{"eng":"UNDEFINED"}},{
    "lines":[
      [{"w":"যে","h":" ","s":{"eng":"NULL"},"o":{}},{"w":"জীবের","h":" ","s":{"eng":"NULL"},"o":{}},{"w":"কর্ম্মক্ষয়ে","h":" ","s":{"eng":"NULL"},"o":{}},{"w":"সাধুসঙ্গ","h":" ","s":{"eng":"NULL"},"o":{}},{"w":"হয়","h":" । ","s":{"eng":"NULL"},"o":{}}],
      [{"w":"সেইমাত্র","h":" ","s":{"eng":"NULL"},"o":{}},{"w":"ব্রজবন","h":" ","s":{"eng":"NULL"},"o":{}},{"w":"দর্শন","h":" ","s":{"eng":"NULL"},"o":{}},{"w":"করয়","h":" ॥৮॥","s":{"eng":"NULL"},"o":{}}]],
    "translation":{"eng":"UNDEFINED"}},{
    "lines":[
      [{"w":"বহির্ম্মুখ","h":" ","s":{"eng":"NULL"},"o":{}},{"w":"জীব","h":" ","s":{"eng":"NULL"},"o":{}},{"w":"তথা","h":" ","s":{"eng":"NULL"},"o":{}},{"w":"রহিতে","h":" ","s":{"eng":"NULL"},"o":{}},{"w":"না","h":" ","s":{"eng":"NULL"},"o":{}},{"w":"পারে","h":" । ","s":{"eng":"NULL"},"o":{}}],
      [{"w":"শীঘ্র","h":" ","s":{"eng":"NULL"},"o":{}},{"w":"জড়মায়া","h":" ","s":{"eng":"NULL"},"o":{}},{"w":"আকর্ষিয়া","h":" ","s":{"eng":"NULL"},"o":{}},{"w":"লয়","h":" ","s":{"eng":"NULL"},"o":{}},{"w":"তারে","h":" ॥৯॥","s":{"eng":"NULL"},"o":{}}]],
    "translation":{"eng":"UNDEFINED"}},{
    "lines":[
      [{"w":"ব্রজধামে","h":" ","s":{"eng":"NULL"},"o":{}},{"w":"যেই","h":" ","s":{"eng":"NULL"},"o":{}},{"w":"জীব","h":" ","s":{"eng":"NULL"},"o":{}},{"w":"যায়","h":" ","s":{"eng":"NULL"},"o":{}},{"w":"একবার","h":" । ","s":{"eng":"NULL"},"o":{}}],
      [{"w":"ক্রমে","h":" ","s":{"eng":"NULL"},"o":{}},{"w":"বলবতী","h":" ","s":{"eng":"NULL"},"o":{}},{"w":"হয়","h":" ","s":{"eng":"NULL"},"o":{}},{"w":"সুকৃতি","h":" ","s":{"eng":"NULL"},"o":{}},{"w":"তাহার","h":" ॥১০॥","s":{"eng":"NULL"},"o":{}}]],
    "translation":{"eng":"UNDEFINED"}},{
    "lines":[
      [{"w":"সুকৃতি","h":" ","s":{"eng":"NULL"},"o":{}},{"w":"প্রবল","h":" ","s":{"eng":"NULL"},"o":{}},{"w":"হইলে","h":" ","s":{"eng":"NULL"},"o":{}},{"w":"সাধুসঙ্গ","h":" ","s":{"eng":"NULL"},"o":{}},{"w":"হয়","h":" । ","s":{"eng":"NULL"},"o":{}}],
      [{"w":"সাধুসঙ্গে","h":" ","s":{"eng":"NULL"},"o":{}},{"w":"ব্রজলাভ","h":" ","s":{"eng":"NULL"},"o":{}},{"w":"সর্ব্বশাস্ত্রে","h":" ","s":{"eng":"NULL"},"o":{}},{"w":"কয়","h":" ॥১১॥","s":{"eng":"NULL"},"o":{}}]],
    "translation":{"eng":"UNDEFINED"}},{
    "lines":[
      [{"w":"ইতি","h":" ","s":{"eng":"NULL"},"o":{}},{"w":"রূপানুগ","h":"-","s":{"eng":"NULL"},"o":{}},{"w":"ভজন","h":"-","s":{"eng":"NULL"},"o":{}},{"w":"দর্পণে","h":" ","s":{"eng":"NULL"},"o":{}},{"w":"রস","h":"-","s":{"eng":"NULL"},"o":{}},{"w":"লীলাদির","h":" ","s":{"eng":"NULL"},"o":{}},{"w":"তত্ত্ববিবৃতি","h":" ","s":{"eng":"NULL"},"o":{}},{"w":"নাম","h":" ","s":{"eng":"NULL"},"o":{}},{"w":"প্রথমাংশ*","h":" ","s":{"eng":"NULL"},"o":{}},{"w":"সমাপ্ত","h":" ","s":{"eng":"NULL"},"o":{}},{"w":"শ্রীকৃষ্ণচৈতন্যার্পণমস্তু","h":" ॥","s":{"eng":"NULL"},"o":{}}]],
    "translation":{"eng":"UNDEFINED"}},{
    "lines":[
      []]}
  ]
}