{
  "uid":"RBD6",
  "title":"স্থায়িভাবই রসের মূল",
  "author":"bt",
  "language":"ben",
  "notes":[],
  "audio":[],
  "has_synonyms":false,
  "has_translations":false,
  "legend":{"w":"word","h":"hint","s":"synonym","o":"override"},
  "verses":[{
    "lines":[
      [{"w":"‘শ্রদ্ধাদেবী’","h":" ","s":{"eng":"NULL"},"o":{}},{"w":"নাম","h":" ","s":{"eng":"NULL"},"o":{}},{"w":"যা’র","h":",    ","s":{"eng":"NULL"},"o":{}},{"w":"দুইটি","h":" ","s":{"eng":"NULL"},"o":{}},{"w":"স্বভাব","h":" ","s":{"eng":"NULL"},"o":{}},{"w":"তা’র","h":",","s":{"eng":"NULL"},"o":{}}],
      [{"w":"বিধিমূল","h":"-","s":{"eng":"NULL"},"o":{}},{"w":"রুচিমূল","h":"-","s":{"eng":"NULL"},"o":{}},{"w":"ভেদে","h":" ।","s":{"eng":"NULL"},"o":{}}],
      [{"w":"শাস্ত্রের","h":" ","s":{"eng":"NULL"},"o":{}},{"w":"শাসনে","h":" ","s":{"eng":"NULL"},"o":{}},{"w":"যবে","h":",    ","s":{"eng":"NULL"},"o":{}},{"w":"শ্রদ্ধার","h":" ","s":{"eng":"NULL"},"o":{}},{"w":"উদয়","h":" ","s":{"eng":"NULL"},"o":{}},{"w":"হ’বে","h":",","s":{"eng":"NULL"},"o":{}}],
      [{"w":"বৈধী","h":" ","s":{"eng":"NULL"},"o":{}},{"w":"শ্রদ্ধা","h":" ","s":{"eng":"NULL"},"o":{}},{"w":"তা’রে","h":" ","s":{"eng":"NULL"},"o":{}},{"w":"বলে","h":" ","s":{"eng":"NULL"},"o":{}},{"w":"বেদে","h":" ॥১॥","s":{"eng":"NULL"},"o":{}}]],
    "translation":{"eng":"UNDEFINED"}},{
    "lines":[
      [{"w":"ব্রজবাসী","h":" ","s":{"eng":"NULL"},"o":{}},{"w":"সেবে","h":" ","s":{"eng":"NULL"},"o":{}},{"w":"কৃষ্ণে","h":",    ","s":{"eng":"NULL"},"o":{}},{"w":"সেই","h":" ","s":{"eng":"NULL"},"o":{}},{"w":"শুদ্ধসেবা","h":"-","s":{"eng":"NULL"},"o":{}},{"w":"দৃষ্টে","h":",","s":{"eng":"NULL"},"o":{}}],
      [{"w":"যবে","h":" ","s":{"eng":"NULL"},"o":{}},{"w":"হয়","h":" ","s":{"eng":"NULL"},"o":{}},{"w":"শ্রদ্ধার","h":" ","s":{"eng":"NULL"},"o":{}},{"w":"উদয়","h":" ।","s":{"eng":"NULL"},"o":{}}],
      [{"w":"লোভময়ী","h":" ","s":{"eng":"NULL"},"o":{}},{"w":"শ্রদ্ধা","h":" ","s":{"eng":"NULL"},"o":{}},{"w":"সতী","h":",    ","s":{"eng":"NULL"},"o":{}},{"w":"রাগানুগা","h":" ","s":{"eng":"NULL"},"o":{}},{"w":"শুদ্ধ","h":" ","s":{"eng":"NULL"},"o":{}},{"w":"মতি","h":",","s":{"eng":"NULL"},"o":{}}],
      [{"w":"বহু","h":" ","s":{"eng":"NULL"},"o":{}},{"w":"ভাগ্যে","h":" ","s":{"eng":"NULL"},"o":{}},{"w":"সাধক","h":" ","s":{"eng":"NULL"},"o":{}},{"w":"লভয়","h":" ॥২॥","s":{"eng":"NULL"},"o":{}}]],
    "translation":{"eng":"UNDEFINED"}},{
    "lines":[
      [{"w":"শ্রদ্ধাভেদ","h":"-","s":{"eng":"NULL"},"o":{}},{"w":"ভক্তিভেদ","h":",    ","s":{"eng":"NULL"},"o":{}},{"w":"গাইতেছে","h":" ","s":{"eng":"NULL"},"o":{}},{"w":"চতুর্ব্বেদ","h":",","s":{"eng":"NULL"},"o":{}}],
      [{"w":"‘বৈধী’","h":" ","s":{"eng":"NULL"},"o":{}},{"w":"‘রাগানুগা’","h":" ","s":{"eng":"NULL"},"o":{}},{"w":"ভক্তিদ্বয়","h":" ।","s":{"eng":"NULL"},"o":{}}],
      [{"w":"সাধন","h":"-","s":{"eng":"NULL"},"o":{}},{"w":"সময়ে","h":" ","s":{"eng":"NULL"},"o":{}},{"w":"যৈছে","h":",    ","s":{"eng":"NULL"},"o":{}},{"w":"সিদ্ধিকালে","h":" ","s":{"eng":"NULL"},"o":{}},{"w":"প্রাপ্তি","h":" ","s":{"eng":"NULL"},"o":{}},{"w":"তৈছে","h":",","s":{"eng":"NULL"},"o":{}}],
      [{"w":"এইরূপ","h":" ","s":{"eng":"NULL"},"o":{}},{"w":"ভক্তিশাস্ত্রে","h":" ","s":{"eng":"NULL"},"o":{}},{"w":"কয়","h":" ॥৩॥","s":{"eng":"NULL"},"o":{}}]],
    "translation":{"eng":"UNDEFINED"}},{
    "lines":[
      [{"w":"বৈধী","h":" ","s":{"eng":"NULL"},"o":{}},{"w":"ভক্তি","h":" ","s":{"eng":"NULL"},"o":{}},{"w":"ধীরগতি","h":",    ","s":{"eng":"NULL"},"o":{}},{"w":"রাগানুগা","h":" ","s":{"eng":"NULL"},"o":{}},{"w":"তীব্র","h":" ","s":{"eng":"NULL"},"o":{}},{"w":"অতি","h":",","s":{"eng":"NULL"},"o":{}}],
      [{"w":"অতিশীঘ্র","h":" ","s":{"eng":"NULL"},"o":{}},{"w":"রসাবস্থা","h":" ","s":{"eng":"NULL"},"o":{}},{"w":"পায়","h":" ।","s":{"eng":"NULL"},"o":{}}],
      [{"w":"রাগবর্ত্ম","h":"-","s":{"eng":"NULL"},"o":{}},{"w":"সুসাধনে","h":",    ","s":{"eng":"NULL"},"o":{}},{"w":"রুচি","h":" ","s":{"eng":"NULL"},"o":{}},{"w":"হয়","h":" ","s":{"eng":"NULL"},"o":{}},{"w":"যা’র","h":" ","s":{"eng":"NULL"},"o":{}},{"w":"মনে","h":",","s":{"eng":"NULL"},"o":{}}],
      [{"w":"রূপানুগ","h":" ","s":{"eng":"NULL"},"o":{}},{"w":"হৈতে","h":" ","s":{"eng":"NULL"},"o":{}},{"w":"সেই","h":" ","s":{"eng":"NULL"},"o":{}},{"w":"ধায়","h":" ॥৪॥","s":{"eng":"NULL"},"o":{}}]],
    "translation":{"eng":"UNDEFINED"}},{
    "lines":[
      []]}
  ]
}