{
  "uid":"RK11",
  "title":"শ্রীরাধাকৃষ্ণ-পদকমলে মন",
  "author":"bt",
  "language":"ben",
  "notes":["শ্রীরাধা-কৃষ্ণে বিজ্ঞপ্তি","<br>"],
  "audio":[
    {"uid":"srrb-1","fn":"RK11-srrb-1.mp3","meta":{"artist":"Sudarsan das (Radha-ramana Babaji Maharaja)","src":"09 Rādhā-Kṛṣṇa/[01] Śrī Rādhā-Kṛṣṇa Pada-kamale Mana/srrb-sri_radha_krsna_pada_kamale_mana.mp3"}},
    {"uid":"krsn-1","fn":"RK11-krsn-1.mp3","meta":{"artist":"Krsnadas das","src":"09 Rādhā-Kṛṣṇa/[01] Śrī Rādhā-Kṛṣṇa Pada-kamale Mana/krsn-sri_radha_krsna_pada_kamale_mana.mp3"}}],
  "has_synonyms":true,
  "has_translations":true,
  "legend":{"w":"word","h":"hint","s":"synonym","o":"override"},
  "verses":[{
    "lines":[
      [{"w":"শ্রীরাধাকৃষ্ণ","h":"-","s":{"eng":"Śrī Śrī Rādhā-Kṛṣṇa"},"o":{}},{"w":"পদকমলে","h":" ","s":{"eng":"at the lotus feet"},"o":{}},{"w":"মন","h":" ।","s":{"eng":"O mind"},"o":{}}],
      [{"w":"কেমনে","h":" ","s":{"eng":"how"},"o":{}},{"w":"লভিবে","h":" ","s":{"eng":"you will obtain"},"o":{}},{"w":"চরম","h":" ","s":{"eng":"ultimately"},"o":{}},{"w":"শরণ","h":" ॥১॥","s":{"eng":"shelter"},"o":{}}]],
    "translation":{"eng":"O mind, how will you ultimately take shelter at the lotus feet of Śrī Śrī Rādhā-Kṛṣṇa?"}},{
    "lines":[
      [{"w":"চিরদিন","h":" ","s":{"eng":"(bahu kāl) many days, long time"},"o":{}},{"w":"করিয়া","h":" ","s":{"eng":"having had"},"o":{}},{"w":"ও","h":"-","s":{"eng":"those"},"o":{}},{"w":"চরণ","h":"-","s":{"eng":"feet"},"o":{}},{"w":"আশ","h":" ।","s":{"eng":"the desire"},"o":{}}],
      [{"w":"আছে","h":" ","s":{"eng":"present here"},"o":{}},{"w":"হে","h":" ","s":{"eng":"oh"},"o":{}},{"w":"বসিয়া","h":" ","s":{"eng":"having waited"},"o":{}},{"w":"এ","h":" ","s":{"eng":"this"},"o":{}},{"w":"অধম","h":" ","s":{"eng":"wretched"},"o":{}},{"w":"দাস","h":" ॥২॥","s":{"eng":"servant"},"o":{}}]],
    "translation":{"eng":"Having had the desire to take shelter of those lotus feet since time immemorial, this wretched servant simply is waiting."}},{
    "lines":[
      [{"w":"হে","h":" ","s":{"eng":"O Rādhe"},"o":{}},{"w":"রাধে","h":", ","s":{"eng":"⬅1"},"o":{}},{"w":"হে","h":" ","s":{"eng":"O moon-like Kṛṣṇa"},"o":{}},{"w":"কৃষ্ণচন্দ্র","h":" ","s":{"eng":"⬅1"},"o":{}},{"w":"ভক্তপ্রাণ","h":" ।","s":{"eng":"devotees + life, soul"},"o":{}}],
      [{"w":"পামরে","h":" ","s":{"eng":"to this sinner"},"o":{}},{"w":"যুগল","h":"-","s":{"eng":"[You] two lovers"},"o":{}},{"w":"ভক্তি","h":" ","s":{"eng":"devotion"},"o":{}},{"w":"কর’","h":" ","s":{"eng":"bestow"},"o":{}},{"w":"দান","h":" ॥৩॥","s":{"eng":"⬅1"},"o":{}}]],
    "translation":{"eng":"O Rādhe, O Kṛṣṇa-candra, life and soul of the devotees! Please bestow upon this most sinful person bhakti to both of You."}},{
    "lines":[
      [{"w":"ভক্তিহীন","h":" ","s":{"eng":"devotion + devoid"},"o":{}},{"w":"বলি’","h":" ","s":{"eng":"having said"},"o":{}},{"w":"না","h":" ","s":{"eng":"not"},"o":{}},{"w":"কর’","h":" ","s":{"eng":"do"},"o":{}},{"w":"উপেক্ষা","h":" ।","s":{"eng":"neglect"},"o":{}}],
      [{"w":"মূর্খজনে","h":" ","s":{"eng":"to this ignorant person"},"o":{}},{"w":"দেহ’","h":" ","s":{"eng":"give"},"o":{}},{"w":"জ্ঞান","h":"-","s":{"eng":"spiritual knowledge"},"o":{}},{"w":"সুশিক্ষা","h":" ॥৪॥","s":{"eng":"auspicious instructions"},"o":{}}]],
    "translation":{"eng":"Please do not neglect me, saying that I am devoid of bhakti. Instead, give this ignorant person your auspicious instructions on spiritual knowledge."}},{
    "lines":[
      [{"w":"বিষয়","h":"-","s":{"eng":"material enjoyment"},"o":{}},{"w":"পিপাসা","h":"-","s":{"eng":"a thirst"},"o":{}},{"w":"প্রপীড়িত","h":" ","s":{"eng":"afflicted"},"o":{}},{"w":"দাসে","h":" ।","s":{"eng":"to this servant"},"o":{}}],
      [{"w":"দেহ’","h":" ","s":{"eng":"give"},"o":{}},{"w":"অধিকার","h":" ","s":{"eng":"qualification"},"o":{}},{"w":"যুগল","h":"-","s":{"eng":"[You] two lovers"},"o":{}},{"w":"বিলাসে","h":" ॥৫॥","s":{"eng":"in amorous pastimes"},"o":{}}]],
    "translation":{"eng":"Please give this servant, who is afflicted by the thirst for material enjoyment, the qualification to serve in Your amorous pastimes."}},{
    "lines":[
      [{"w":"চঞ্চল","h":" ","s":{"eng":"restless"},"o":{}},{"w":"জীবন","h":"-,    ","s":{"eng":"life"},"o":{}},{"w":"স্রোত","h":" ","s":{"eng":"current, stream"},"o":{}},{"w":"প্রবাহিয়া","h":",","s":{"eng":"having flowed"},"o":{}}],
      [{"w":"কালের","h":" ","s":{"eng":"of time [death]"},"o":{}},{"w":"সাগরে","h":" ","s":{"eng":"into the ocean"},"o":{}},{"w":"ধায়","h":" ।","s":{"eng":"runs"},"o":{}}],
      [{"w":"গেল","h":" ","s":{"eng":"gone"},"o":{}},{"w":"যে","h":" ","s":{"eng":"these"},"o":{}},{"w":"দিবস","h":",    ","s":{"eng":"days"},"o":{}},{"w":"না","h":" ","s":{"eng":"not"},"o":{}},{"w":"আসিবে","h":" ","s":{"eng":"will come"},"o":{}},{"w":"আর","h":",","s":{"eng":"again"},"o":{}}],
      [{"w":"এবে","h":" ","s":{"eng":"now"},"o":{}},{"w":"কৃষ্ণ","h":" ","s":{"eng":"Kṛṣṇa"},"o":{}},{"w":"কি","h":" ","s":{"eng":"what"},"o":{}},{"w":"উপায়","h":" ॥৬॥","s":{"eng":"remedy, means to relieve or help"},"o":{}}]],
    "translation":{"eng":"This restless current of life flows, running into the ocean of time [death]. The days that have gone will not come again. Alas, Kṛṣṇa, what am I to do now?"}},{
    "lines":[
      [{"w":"তুমি","h":" ","s":{"eng":"You"},"o":{}},{"w":"পতিতজনের","h":" ","s":{"eng":"of the fallen"},"o":{}},{"w":"বন্ধু","h":" ।","s":{"eng":"friends"},"o":{}}],
      [{"w":"জানি","h":" ","s":{"eng":"I know"},"o":{}},{"w":"হে","h":" ","s":{"eng":"oh"},"o":{}},{"w":"তোমারে","h":" ","s":{"eng":"to You"},"o":{}},{"w":"নাথ","h":", ","s":{"eng":"O Masters"},"o":{}},{"w":"তুমি","h":" ","s":{"eng":"You"},"o":{}},{"w":"ত’","h":" ","s":{"eng":"indeed"},"o":{}},{"w":"করুণা","h":"-","s":{"eng":"kindness, compassion"},"o":{}},{"w":"জলসিন্ধু","h":" ॥৭॥","s":{"eng":"water + ocean"},"o":{}}]],
    "translation":{"eng":"You are the friends of the fallen. I know who You are, my Masters! You are indeed the very ocean of kindness."}},{
    "lines":[
      [{"w":"আমি","h":" ","s":{"eng":"I"},"o":{}},{"w":"ভাগ্যহীন","h":",    ","s":{"eng":"fortune + devoid"},"o":{}},{"w":"অতি","h":" ","s":{"eng":"exceedingly"},"o":{}},{"w":"অর্ব্বাচীন","h":",","s":{"eng":"foolish"},"o":{}}],
      [{"w":"না","h":" ","s":{"eng":"not"},"o":{}},{"w":"জানি","h":" ","s":{"eng":"I have knowledge"},"o":{}},{"w":"ভকতি","h":"-","s":{"eng":"devotion"},"o":{}},{"w":"লেশ","h":" ।","s":{"eng":"iota"},"o":{}}],
      [{"w":"নিজ","h":"-","s":{"eng":"Your own"},"o":{}},{"w":"গুণে","h":" ","s":{"eng":"qualities"},"o":{}},{"w":"নাথ","h":",    ","s":{"eng":"O Masters"},"o":{}},{"w":"কর’","h":" ","s":{"eng":"appropriate [me] to Your own use"},"o":{}},{"w":"আত্মসাৎ","h":",","s":{"eng":"⬅1"},"o":{}}],
      [{"w":"ঘুচাইয়া","h":" ","s":{"eng":"having vanquished"},"o":{}},{"w":"ভব","h":"-","s":{"eng":"material"},"o":{}},{"w":"ক্লেশ","h":" ॥৮॥","s":{"eng":"sufferings"},"o":{}}]],
    "translation":{"eng":"I am unfortunate and exceedingly foolish. I do not understand even an iota of bhakti. O my Masters, by virtue of Your greatness, take my soul and make me Your own, thereby vanquishing my material sufferings."}},{
    "lines":[
      [{"w":"সিদ্ধ","h":"-","s":{"eng":"perfected spiritual body"},"o":{}},{"w":"দেহ","h":" ","s":{"eng":"⬅1"},"o":{}},{"w":"দিয়া","h":",    ","s":{"eng":"having given"},"o":{}},{"w":"বৃন্দাবন","h":"-","s":{"eng":"Vṛndāvana"},"o":{}},{"w":"মাঝে","h":",","s":{"eng":"within"},"o":{}}],
      [{"w":"সেবামৃত","h":" ","s":{"eng":"service + nectar"},"o":{}},{"w":"কর’","h":" ","s":{"eng":"bestow in charity"},"o":{}},{"w":"দান","h":" ।","s":{"eng":"⬅1"},"o":{}}],
      [{"w":"পিয়াইয়া","h":" ","s":{"eng":"having made drink"},"o":{}},{"w":"প্রেম","h":",    ","s":{"eng":"transcendental love"},"o":{}},{"w":"মত্ত","h":" ","s":{"eng":"having intoxicated"},"o":{}},{"w":"করি’","h":" ","s":{"eng":"⬅1"},"o":{}},{"w":"মোরে","h":",","s":{"eng":"to me"},"o":{}}],
      [{"w":"শুন","h":" ","s":{"eng":"listen (imperative)"},"o":{}},{"w":"নিজ","h":" ","s":{"eng":"Your own"},"o":{}},{"w":"গুণগান","h":" ॥৯॥","s":{"eng":"qualities + songs"},"o":{}}]],
    "translation":{"eng":"Give me a perfected spiritual body within the transcendental abode of Vṛndāvana and bestow upon me in charity the nectar of service to You. After making me drink prema and thus become spiritually intoxicated, hear me sing Your glories."}},{
    "lines":[
      [{"w":"যুগল","h":"-","s":{"eng":"[You] two lovers"},"o":{}},{"w":"সেবায়","h":",    ","s":{"eng":"in service"},"o":{}},{"w":"শ্রীরাসমণ্ডলে","h":",","s":{"eng":"in the arena of the rāsa dance"},"o":{}}],
      [{"w":"নিযুক্ত","h":" ","s":{"eng":"engage"},"o":{}},{"w":"কর’","h":" ","s":{"eng":"⬅1"},"o":{}},{"w":"আমায়","h":" ।","s":{"eng":"me"},"o":{}}],
      [{"w":"ললিতা","h":" ","s":{"eng":"of Śrī Lalitā Sakhī"},"o":{}},{"w":"সখীর","h":",    ","s":{"eng":"⬅1"},"o":{}},{"w":"অযোগ্যা","h":" ","s":{"eng":"unworthly"},"o":{}},{"w":"কিঙ্করী","h":",","s":{"eng":"mainservant"},"o":{}}],
      [{"w":"বিনোদ","h":" ","s":{"eng":"Bhaktivinoda"},"o":{}},{"w":"ধরিছে","h":" ","s":{"eng":"holds"},"o":{}},{"w":"পায়","h":" ॥১০॥","s":{"eng":"[Your] feet"},"o":{}}]],
    "translation":{"eng":"Please engage me in service to You in the arena of the rāsa dance. This unworthy maidservant of Śrī Lalitā Sakhī, Bhaktivinoda, beseeches You by clasping Your lotus feet."}}
  ]
}