{
  "uid":"RK37",
  "title":"বৃষভানু নন্দিনী, নব অনুরাগিনী",
  "author":"গোবিন্দ দাস ",
  "language":"ben",
  "notes":[],
  "audio":[],
  "has_synonyms":false,
  "has_translations":false,
  "legend":{"w":"word","h":"hint","s":"synonym","o":"override"},
  "verses":[{
    "lines":[
      [{"w":"বৃষভানু","h":" ","s":{"eng":"NULL"},"o":{}},{"w":"নন্দিনী","h":",    ","s":{"eng":"NULL"},"o":{}},{"w":"নব","h":" ","s":{"eng":"NULL"},"o":{}},{"w":"অনুরাগিনী","h":",","s":{"eng":"NULL"},"o":{}}],
      [{"w":"তুরিতে","h":" ","s":{"eng":"NULL"},"o":{}},{"w":"করল","h":" ","s":{"eng":"NULL"},"o":{}},{"w":"অভিসার","h":" ।","s":{"eng":"NULL"},"o":{}}],
      [{"w":"সঙ্গিনী","h":" ","s":{"eng":"NULL"},"o":{}},{"w":"রঙ্গিনী","h":",    ","s":{"eng":"NULL"},"o":{}},{"w":"প্রেম","h":" ","s":{"eng":"NULL"},"o":{}},{"w":"তরঙ্গিনী","h":",","s":{"eng":"NULL"},"o":{}}],
      [{"w":"মন্দির","h":" ","s":{"eng":"NULL"},"o":{}},{"w":"হোই","h":" ","s":{"eng":"NULL"},"o":{}},{"w":"বাহার","h":" ॥১॥","s":{"eng":"NULL"},"o":{}}]],
    "translation":{"eng":"UNDEFINED"}},{
    "lines":[
      [{"w":"চলইতে","h":" ","s":{"eng":"NULL"},"o":{}},{"w":"চরণ","h":",    ","s":{"eng":"NULL"},"o":{}},{"w":"নুপুর","h":" ","s":{"eng":"NULL"},"o":{}},{"w":"তহিঁ","h":" ","s":{"eng":"NULL"},"o":{}},{"w":"বোলত","h":",","s":{"eng":"NULL"},"o":{}}],
      [{"w":"সুমধুর","h":" ","s":{"eng":"NULL"},"o":{}},{"w":"রসাল","h":" ।","s":{"eng":"NULL"},"o":{}}],
      [{"w":"হংস","h":" ","s":{"eng":"NULL"},"o":{}},{"w":"গমনে","h":" ","s":{"eng":"NULL"},"o":{}},{"w":"ধনী","h":",    ","s":{"eng":"NULL"},"o":{}},{"w":"আওল","h":" ","s":{"eng":"NULL"},"o":{}},{"w":"বিনোদিনী","h":",","s":{"eng":"NULL"},"o":{}}],
      [{"w":"সখীগণ","h":" ","s":{"eng":"NULL"},"o":{}},{"w":"করি","h":" ","s":{"eng":"NULL"},"o":{}},{"w":"সেই","h":" ","s":{"eng":"NULL"},"o":{}},{"w":"সাথ","h":" ॥২॥","s":{"eng":"NULL"},"o":{}}]],
    "translation":{"eng":"UNDEFINED"}},{
    "lines":[
      [{"w":"রসিক","h":" ","s":{"eng":"NULL"},"o":{}},{"w":"নাগর","h":" ","s":{"eng":"NULL"},"o":{}},{"w":"বর","h":",    ","s":{"eng":"NULL"},"o":{}},{"w":"বিদগধ","h":" ","s":{"eng":"NULL"},"o":{}},{"w":"শেখর","h":",","s":{"eng":"NULL"},"o":{}}],
      [{"w":"তুরিতে","h":" ","s":{"eng":"NULL"},"o":{}},{"w":"মিলল","h":" ","s":{"eng":"NULL"},"o":{}},{"w":"ধনী","h":" ","s":{"eng":"NULL"},"o":{}},{"w":"পাশ","h":" ।","s":{"eng":"NULL"},"o":{}}],
      [{"w":"দুঁহু","h":" ","s":{"eng":"NULL"},"o":{}},{"w":"দোঁহা","h":" ","s":{"eng":"NULL"},"o":{}},{"w":"দরশনে","h":",    ","s":{"eng":"NULL"},"o":{}},{"w":"উলসিত","h":" ","s":{"eng":"NULL"},"o":{}},{"w":"লোচনে","h":",","s":{"eng":"NULL"},"o":{}}],
      [{"w":"নিরখত","h":" ","s":{"eng":"NULL"},"o":{}},{"w":"গোবিন্দ","h":" ","s":{"eng":"NULL"},"o":{}},{"w":"দাস","h":" ॥৩॥","s":{"eng":"NULL"},"o":{}}]],
    "translation":{"eng":"UNDEFINED"}},{
    "lines":[
      []]}
  ]
}