{
  "uid":"RK38",
  "title":"নব ঘন কানন শোহন কুঞ্জ",
  "author":"গোবিন্দ দাস ",
  "language":"ben",
  "notes":["কামোদ মিশ্র—মধ্যম দশকুশি"],
  "audio":[],
  "has_synonyms":false,
  "has_translations":false,
  "legend":{"w":"word","h":"hint","s":"synonym","o":"override"},
  "verses":[{
    "lines":[
      [{"w":"নব","h":" ","s":{"eng":"NULL"},"o":{}},{"w":"ঘন","h":" ","s":{"eng":"NULL"},"o":{}},{"w":"কানন","h":" ","s":{"eng":"NULL"},"o":{}},{"w":"শোহন","h":" ","s":{"eng":"NULL"},"o":{}},{"w":"কুঞ্জ","h":" ।","s":{"eng":"NULL"},"o":{}}],
      [{"w":"বিকশিথ","h":" ","s":{"eng":"NULL"},"o":{}},{"w":"কুসুম","h":" ","s":{"eng":"NULL"},"o":{}},{"w":"মধুকর","h":" ","s":{"eng":"NULL"},"o":{}},{"w":"গুঞ্জ","h":" ॥১॥","s":{"eng":"NULL"},"o":{}}]],
    "translation":{"eng":"UNDEFINED"}},{
    "lines":[
      [{"w":"নব","h":" ","s":{"eng":"NULL"},"o":{}},{"w":"নব","h":" ","s":{"eng":"NULL"},"o":{}},{"w":"পল্লবে","h":" ","s":{"eng":"NULL"},"o":{}},{"w":"শোভিত","h":" ","s":{"eng":"NULL"},"o":{}},{"w":"ডাল","h":" ।","s":{"eng":"NULL"},"o":{}}],
      [{"w":"সারি","h":" ","s":{"eng":"NULL"},"o":{}},{"w":"শুক","h":" ","s":{"eng":"NULL"},"o":{}},{"w":"পিক","h":" ","s":{"eng":"NULL"},"o":{}},{"w":"গাওয়ে","h":" ","s":{"eng":"NULL"},"o":{}},{"w":"রসাল","h":" ॥২॥","s":{"eng":"NULL"},"o":{}}]],
    "translation":{"eng":"UNDEFINED"}},{
    "lines":[
      [{"w":"তহিঁ","h":" ","s":{"eng":"NULL"},"o":{}},{"w":"বনি","h":" ","s":{"eng":"NULL"},"o":{}},{"w":"অপরূপ","h":" ","s":{"eng":"NULL"},"o":{}},{"w":"রতন","h":" ","s":{"eng":"NULL"},"o":{}},{"w":"হিঁডোর","h":" ।","s":{"eng":"NULL"},"o":{}}],
      [{"w":"তা","h":" ","s":{"eng":"NULL"},"o":{}},{"w":"পর","h":" ","s":{"eng":"NULL"},"o":{}},{"w":"বৈঠক","h":" ","s":{"eng":"NULL"},"o":{}},{"w":"যুগল","h":" ","s":{"eng":"NULL"},"o":{}},{"w":"কিশোর","h":" ॥৩॥","s":{"eng":"NULL"},"o":{}}]],
    "translation":{"eng":"UNDEFINED"}},{
    "lines":[
      [{"w":"ব্রজ","h":" ","s":{"eng":"NULL"},"o":{}},{"w":"রমণীগণ","h":" ","s":{"eng":"NULL"},"o":{}},{"w":"দেওত","h":" ","s":{"eng":"NULL"},"o":{}},{"w":"ঝকোর","h":" ।","s":{"eng":"NULL"},"o":{}}],
      [{"w":"গিরত","h":" ","s":{"eng":"NULL"},"o":{}},{"w":"জানি","h":" ","s":{"eng":"NULL"},"o":{}},{"w":"ধনী","h":" ","s":{"eng":"NULL"},"o":{}},{"w":"করতহিঁ","h":" ","s":{"eng":"NULL"},"o":{}},{"w":"কোর","h":" ॥৪॥","s":{"eng":"NULL"},"o":{}}]],
    "translation":{"eng":"UNDEFINED"}},{
    "lines":[
      [{"w":"কত","h":" ","s":{"eng":"NULL"},"o":{}},{"w":"কত","h":" ","s":{"eng":"NULL"},"o":{}},{"w":"উপজিল","h":" ","s":{"eng":"NULL"},"o":{}},{"w":"রস","h":" ","s":{"eng":"NULL"},"o":{}},{"w":"পরসঙ্গ","h":" ","s":{"eng":"NULL"},"o":{}},{"w":"৷","h":"","s":{"eng":"NULL"},"o":{}}],
      [{"w":"গোবিন্দ","h":" ","s":{"eng":"NULL"},"o":{}},{"w":"দাস","h":" ","s":{"eng":"NULL"},"o":{}},{"w":"তহি","h":" ","s":{"eng":"NULL"},"o":{}},{"w":"দেখত","h":" ","s":{"eng":"NULL"},"o":{}},{"w":"রঙ্গ","h":"  ॥৫॥","s":{"eng":"NULL"},"o":{}}]],
    "translation":{"eng":"UNDEFINED"}},{
    "lines":[
      []]}
  ]
}