{
  "uid":"S1",
  "title":"শ্রীকৃষ্ণচৈতন্য প্রভু জীবে দয়া করি’",
  "author":"bt",
  "language":"ben",
  "notes":["ষড়ঙ্গ-শরণাগতি","","আনুকূল্যস্য সঙ্কল্পঃ প্রাতিকূল্যবিবর্জ্জনম্ ।","রক্ষিষ্যতীতি বিশ্বাসো গোপ্তৃত্বে বরণং তথা ।","আত্মনিক্ষেপকার্পণ্যে ষড়্‌বিধা শরণাগতি ।।","(বৈষ্ণবতন্ত্র-বাক্য)"],
  "audio":[
    {"uid":"srrb-1","fn":"S1-srrb-1.mp3","meta":{"artist":"Sudarsan das (Radha-ramana Babaji Maharaja)","src":"16 Śaraṇāgati/[01] Śrī Kṛṣṇa-Caitanya Prabhu Jīve Dayā Kôri’/srrb-sri_krsna_caitanya_prabhu_jive_daya_kori.mp3"}},
    {"uid":"krsn-1","fn":"S1-krsn-1.mp3","meta":{"artist":"Krsnadas das","src":"16 Śaraṇāgati/[01] Śrī Kṛṣṇa-Caitanya Prabhu Jīve Dayā Kôri’/krsn-sri_krsna_caitanya_prabhu_jive_daya_kori.mp3"}},
    {"uid":"krsn-2","fn":"S1-krsn-2.mp3","meta":{"artist":"Krsnadas das","src":"16 Śaraṇāgati/[01] Śrī Kṛṣṇa-Caitanya Prabhu Jīve Dayā Kôri’/krsn-sri_krsna_caitanya_prabhu_jive_daya_kori-2.mp3"}}],
  "has_synonyms":true,
  "has_translations":true,
  "legend":{"w":"word","h":"hint","s":"synonym","o":"override"},
  "verses":[{
    "lines":[
      [{"w":"শ্রীকৃষ্ণচৈতন্য","h":" ","s":{"eng":"Śrī Kṛṣṇa Caitanya Mahāprabhu"},"o":{}},{"w":"প্রভু","h":" ","s":{"eng":"⬅1"},"o":{}},{"w":"জীবে","h":" ","s":{"eng":"for living beings"},"o":{}},{"w":"দয়া","h":" ","s":{"eng":"out of compassion"},"o":{}},{"w":"করি’","h":" ।","s":{"eng":"⬅1"},"o":{}}],
      [{"w":"স্বপার্ষদ","h":" ","s":{"eng":"own + personal associates"},"o":{}},{"w":"স্বীয়","h":" ","s":{"eng":"own"},"o":{}},{"w":"ধাম","h":" ","s":{"eng":"abode"},"o":{}},{"w":"সহ","h":" ","s":{"eng":"with"},"o":{}},{"w":"অবতরি’","h":" ॥১॥","s":{"eng":"having descended"},"o":{}}]],
    "translation":{"eng":"Out of compassion for the living beings, Śrī Kṛṣṇa Caitanya Mahāprabhu descended in this world along with His personal associates and divine abode."}},{
    "lines":[
      [{"w":"অত্যন্ত","h":" ","s":{"eng":"extremely"},"o":{}},{"w":"দুর্ল্লভ","h":" ","s":{"eng":"rare"},"o":{}},{"w":"প্রেম","h":" ","s":{"eng":"pure love"},"o":{}},{"w":"করিবারে","h":" ","s":{"eng":"in order to bestow"},"o":{}},{"w":"দান","h":" ।","s":{"eng":"⬅1"},"o":{}}],
      [{"w":"শিখায়","h":" ","s":{"eng":"He taught"},"o":{}},{"w":"শরণাগতি","h":" ","s":{"eng":"surrender"},"o":{}},{"w":"ভকতের","h":" ","s":{"eng":"the devotee’s"},"o":{}},{"w":"প্রাণ","h":" ॥২॥","s":{"eng":"life, soul"},"o":{}}]],
    "translation":{"eng":"In order to bestow the extremely rare treasure of prema-bhakti, He taught śaraṇāgati, which is the life and soul of the devotees."}},{
    "lines":[
      [{"w":"দৈন্য","h":", ","s":{"eng":"humility"},"o":{}},{"w":"আত্মনিবেদন","h":", ","s":{"eng":"self-submission"},"o":{}},{"w":"গোপ্তৃত্বে","h":" ","s":{"eng":"[as one’s] maintainer"},"o":{}},{"w":"বরণ","h":" ।","s":{"eng":"acceptance [of the Lord]"},"o":{}}],
      [{"w":"","h":"‘","s":{"eng":"NULL"},"o":{}},{"w":"অবশ্য","h":" ","s":{"eng":"certainly"},"o":{}},{"w":"রক্ষিবে","h":" ","s":{"eng":"He will protect"},"o":{}},{"w":"কৃষ্ণ’","h":"—","s":{"eng":"Śrī Kṛṣṇa"},"o":{}},{"w":"বিশ্বাস","h":"-","s":{"eng":"belief, faith"},"o":{}},{"w":"পালন","h":" ॥৩॥","s":{"eng":"maintaining"},"o":{}}]],
    "translation":{"eng":"Humility, submission of the self, acceptance of the Lord as one’s only maintainer, faith in Kṛṣṇa’s protection…"}},{
    "lines":[
      [{"w":"ভক্তি","h":"-","s":{"eng":"only that which is favorable for devotion"},"o":{}},{"w":"অনুকূলমাত্র","h":" ","s":{"eng":"⬅1"},"o":{}},{"w":"কার্য্যের","h":" ","s":{"eng":"of acts"},"o":{}},{"w":"স্বীকার","h":" ।","s":{"eng":"acceptance"},"o":{}}],
      [{"w":"ভক্তি","h":"-","s":{"eng":"unfavorable for devotion"},"o":{}},{"w":"প্রতিকূল","h":"-","s":{"eng":"⬅1"},"o":{}},{"w":"ভাব","h":" ","s":{"eng":"the mood"},"o":{}},{"w":"বর্জ্জনাঙ্গীকার","h":" ॥৪॥","s":{"eng":"rejection"},"o":{}}]],
    "translation":{"eng":"…acceptance of acts favorable for bhakti and rejection of that which is unfavorable."}},{
    "lines":[
      [{"w":"ষড়ঙ্গ","h":" ","s":{"eng":"the six facets of śaraṇāgati"},"o":{}},{"w":"শরণাগতি","h":" ","s":{"eng":"⬅1"},"o":{}},{"w":"হইবে","h":" ","s":{"eng":"will embody"},"o":{}},{"w":"যাঁহার","h":" ।","s":{"eng":"one who"},"o":{}}],
      [{"w":"তাঁহার","h":" ","s":{"eng":"their"},"o":{}},{"w":"প্রার্থনা","h":" ","s":{"eng":"prayers"},"o":{}},{"w":"শুনে","h":" ","s":{"eng":"he hears"},"o":{}},{"w":"শ্রীনন্দকুমার","h":" ॥৫॥","s":{"eng":"the son of Nanda Mahārāja"},"o":{}}]],
    "translation":{"eng":"Whoever embodies each of these six facets of śaraṇāgati has their prayers heard by the son of Nanda Mahārāja."}},{
    "lines":[
      [{"w":"রূপ","h":"-","s":{"eng":"at the feet of Śrī Rūpa and Śrī Sanātana"},"o":{}},{"w":"সনাতন","h":"-","s":{"eng":"⬅1"},"o":{}},{"w":"পদে","h":" ","s":{"eng":"⬅2"},"o":{}},{"w":"দন্তে","h":" ","s":{"eng":"in teeth"},"o":{}},{"w":"তৃণ","h":" ","s":{"eng":"taking a straw"},"o":{}},{"w":"করি’","h":" ।","s":{"eng":"⬅1"},"o":{}}],
      [{"w":"ভকতিবিনোদ","h":" ","s":{"eng":"Bhaktivinoda"},"o":{}},{"w":"পড়ে","h":" ","s":{"eng":"falls"},"o":{}},{"w":"দুহুঁ","h":" ","s":{"eng":"both"},"o":{}},{"w":"পদ","h":" ","s":{"eng":"feet"},"o":{}},{"w":"ধরি’","h":" ॥৬॥","s":{"eng":"holding"},"o":{}}]],
    "translation":{"eng":"With a straw between his teeth, Bhaktivinoda prostrates before Śrī Rūpa and Śrī Sanātana, embracing their lotus feet."}},{
    "lines":[
      [{"w":"কাঁদিয়া","h":" ","s":{"eng":"weeping"},"o":{}},{"w":"কাঁদিয়া","h":" ","s":{"eng":"⬅1"},"o":{}},{"w":"বলে","h":"—","s":{"eng":"he says"},"o":{}},{"w":"","h":"‘","s":{"eng":"NULL"},"o":{}},{"w":"আমি","h":" ","s":{"eng":"I am indeed fallen"},"o":{}},{"w":"ত’","h":" ","s":{"eng":"⬅1"},"o":{}},{"w":"অধম","h":" ।","s":{"eng":"⬅2"},"o":{}}],
      [{"w":"শিখায়ে","h":" ","s":{"eng":"teaching me śaraṇāgati"},"o":{}},{"w":"শরণাগতি","h":" ","s":{"eng":"⬅1"},"o":{}},{"w":"কর","h":" ","s":{"eng":"make"},"o":{}},{"w":"হে","h":" ","s":{"eng":"oh"},"o":{}},{"w":"উত্তম","h":" ॥৭॥”","s":{"eng":"excellent"},"o":{}}]],
    "translation":{"eng":"Weeping, he says, “I am the lowest of men! Kindly teach me unconditional surrender and make me an excellent Vaiṣṇava.”"}}
  ]
}