{
  "uid":"S17",
  "title":"তুমি সর্ব্বেশ্বরেশ্বর",
  "author":"bt",
  "language":"ben",
  "notes":["(১৪)","গোপ্তৃত্বেবরণ—অবশ্য রক্ষিবে কৃষ্ণ","(বাচিক)"],
  "audio":[
    {"uid":"srrb-1","fn":"S17-srrb-1.mp3","meta":{"artist":"Sudarsan das (Radha-ramana Babaji Maharaja)","src":"16 Śaraṇāgati/[08] Tumi Sarveśvareśvara/srrb-tumi_sarvesvaresvara.mp3"}},
    {"uid":"krsn-1","fn":"S17-krsn-1.mp3","meta":{"artist":"Krsnadas das","src":"16 Śaraṇāgati/[08] Tumi Sarveśvareśvara/krsn-tumi_sarvesvaresvara.mp3"}},
    {"uid":"sggm-1","fn":"S17-sggm-1.mp3","meta":{"artist":"Srila Gaura Govinda Gosvami Maharaja","src":"16 Śaraṇāgati/[08] Tumi Sarveśvareśvara/sggm-tumi_sarvesvaresvara.mp3"}}],
  "has_synonyms":true,
  "has_translations":true,
  "legend":{"w":"word","h":"hint","s":"synonym","o":"override"},
  "verses":[{
    "lines":[
      [{"w":"তুমি","h":" ","s":{"eng":"You"},"o":{}},{"w":"সর্ব্বেশ্বরেশ্বর","h":", ","s":{"eng":"all + lords + Lord"},"o":{}},{"w":"ব্রজেন্দ্রকুমার","h":" !","s":{"eng":"the king of Vraja + young boy, son, prince"},"o":{}}],
      [{"w":"তোমার","h":" ","s":{"eng":"Your"},"o":{}},{"w":"ইচ্ছায়","h":" ","s":{"eng":"by will"},"o":{}},{"w":"বিশ্বে","h":" ","s":{"eng":"in the universe"},"o":{}},{"w":"সৃজন","h":"-","s":{"eng":"creation"},"o":{}},{"w":"সংহার","h":" ॥১॥","s":{"eng":"destruction"},"o":{}}]],
    "translation":{"eng":"O youthful son of the king of Vraja, You are the Lord of all lords. In accord with Your will, universal creation and destruction take place."}},{
    "lines":[
      [{"w":"তব","h":" ","s":{"eng":"Your"},"o":{}},{"w":"ইচ্ছামত","h":" ","s":{"eng":"desire + according to, in keeping with"},"o":{}},{"w":"ব্রহ্মা","h":" ","s":{"eng":"Lord Brahmā"},"o":{}},{"w":"করেন","h":" ","s":{"eng":"creates"},"o":{}},{"w":"সৃজন","h":" ।","s":{"eng":"⬅1"},"o":{}}],
      [{"w":"তব","h":" ","s":{"eng":"Your"},"o":{}},{"w":"ইচ্ছামত","h":" ","s":{"eng":"desire + according to"},"o":{}},{"w":"বিষ্ণু","h":" ","s":{"eng":"Lord Viṣṇu"},"o":{}},{"w":"করেন","h":" ","s":{"eng":"maintains"},"o":{}},{"w":"পালন","h":" ॥২॥","s":{"eng":"⬅1"},"o":{}}]],
    "translation":{"eng":"In accord with Your will, Lord Brahmā creates, and in accord with Your will, Lord Viṣṇu maintains."}},{
    "lines":[
      [{"w":"তব","h":" ","s":{"eng":"Your"},"o":{}},{"w":"ইচ্ছামতে","h":" ","s":{"eng":"desire + in accordance with"},"o":{}},{"w":"শিব","h":" ","s":{"eng":"Lord Śiva"},"o":{}},{"w":"করেন","h":" ","s":{"eng":"destroys"},"o":{}},{"w":"সংহার","h":" ।","s":{"eng":"⬅1"},"o":{}}],
      [{"w":"তব","h":" ","s":{"eng":"Your"},"o":{}},{"w":"ইচ্ছামতে","h":" ","s":{"eng":"desire + in accordance with"},"o":{}},{"w":"মায়া","h":" ","s":{"eng":"Māyā-devī"},"o":{}},{"w":"সৃজে","h":" ","s":{"eng":"constructs, designs"},"o":{}},{"w":"কারাগার","h":" ॥৩॥","s":{"eng":"prison house"},"o":{}}]],
    "translation":{"eng":"In accord with Your will, Lord Śiva destroys, and in accord with Your will, Māyā-devī constructs the prison house of this world."}},{
    "lines":[
      [{"w":"তব","h":" ","s":{"eng":"Your"},"o":{}},{"w":"ইচ্ছামতে","h":" ","s":{"eng":"desire + in accordance with"},"o":{}},{"w":"জীবের","h":" ","s":{"eng":"the living being’s"},"o":{}},{"w":"জনম","h":"-","s":{"eng":"birth"},"o":{}},{"w":"মরণ","h":" ।","s":{"eng":"death"},"o":{}}],
      [{"w":"সমৃদ্ধি","h":"-","s":{"eng":"(unnati) prosperity (uplift, good fortune, advancement)"},"o":{}},{"w":"নিপাত","h":" ","s":{"eng":"(avanati) death, ruin, destruction (downfall, depression, depravity)"},"o":{}},{"w":"দুঃখ","h":"-","s":{"eng":"sorrow"},"o":{}},{"w":"সুখ","h":"-","s":{"eng":"happiness"},"o":{}},{"w":"সংঘটন","h":" ॥৪॥","s":{"eng":"occurrence, happening, assemblage"},"o":{}}]],
    "translation":{"eng":"In accord with Your will, the living beings take birth and die, and in accord with Your will, they meet with prosperity and ruin, happiness and sorrow."}},{
    "lines":[
      [{"w":"মিছে","h":" ","s":{"eng":"in vain"},"o":{}},{"w":"মায়াবদ্ধ","h":" ","s":{"eng":"illusion + bound"},"o":{}},{"w":"জীব","h":" ","s":{"eng":"the living being"},"o":{}},{"w":"আশাপাশে","h":" ","s":{"eng":"(āśepāśe M) hither and thither, around"},"o":{}},{"w":"ফিরে’","h":" ।","s":{"eng":"wonders"},"o":{}}],
      [{"w":"তব","h":" ","s":{"eng":"Your"},"o":{}},{"w":"ইচ্ছা","h":" ","s":{"eng":"desire"},"o":{}},{"w":"বিনা","h":" ","s":{"eng":"without"},"o":{}},{"w":"কিছু","h":" ","s":{"eng":"anything"},"o":{}},{"w":"করিতে","h":" ","s":{"eng":"to do"},"o":{}},{"w":"না","h":" ","s":{"eng":"not"},"o":{}},{"w":"পারে","h":" ॥৫॥","s":{"eng":"he can"},"o":{}}]],
    "translation":{"eng":"The living being, bound by illusory māyā, simply wanders hither and thither. Without Your will, he cannot accomplish anything."}},{
    "lines":[
      [{"w":"তুমি","h":" ","s":{"eng":"You"},"o":{}},{"w":"ত’","h":" ","s":{"eng":"indeed"},"o":{}},{"w":"রক্ষক","h":" ","s":{"eng":"protector"},"o":{}},{"w":"আর","h":" ","s":{"eng":"and"},"o":{}},{"w":"পালক","h":" ","s":{"eng":"maintainer"},"o":{}},{"w":"আমার","h":" ।","s":{"eng":"my"},"o":{}}],
      [{"w":"তোমার","h":" ","s":{"eng":"Your"},"o":{}},{"w":"চরণ","h":" ","s":{"eng":"feet"},"o":{}},{"w":"বিনা","h":" ","s":{"eng":"except"},"o":{}},{"w":"আশা","h":" ","s":{"eng":"hope"},"o":{}},{"w":"নাহি","h":" ","s":{"eng":"no"},"o":{}},{"w":"আর","h":" ॥৬॥","s":{"eng":"other"},"o":{}}]],
    "translation":{"eng":"You are my only protector and maintainer. Except for Your lotus feet, there is no hope for me."}},{
    "lines":[
      [{"w":"নিজ","h":"-","s":{"eng":"own"},"o":{}},{"w":"বল","h":"-","s":{"eng":"strength"},"o":{}},{"w":"চেষ্টা","h":"-","s":{"eng":"endeavors"},"o":{}},{"w":"প্রতি","h":" ","s":{"eng":"towards"},"o":{}},{"w":"ভরসা","h":" ","s":{"eng":"hope"},"o":{}},{"w":"ছাড়িয়া","h":" ।","s":{"eng":"having given up"},"o":{}}],
      [{"w":"তোমার","h":" ","s":{"eng":"Your"},"o":{}},{"w":"ইচ্ছায়","h":" ","s":{"eng":"upon will"},"o":{}},{"w":"আছি","h":" ","s":{"eng":"I am"},"o":{}},{"w":"নির্ভর","h":" ","s":{"eng":"having depended"},"o":{}},{"w":"করিয়া","h":" ॥৭॥","s":{"eng":"⬅1"},"o":{}}]],
    "translation":{"eng":"Having given up faith in my own strength and endeavors, I am solely dependent upon Your will."}},{
    "lines":[
      [{"w":"ভকতিবিনোদ","h":" ","s":{"eng":"Bhaktivinoda"},"o":{}},{"w":"অতি","h":" ","s":{"eng":"extremely"},"o":{}},{"w":"দীন","h":" ","s":{"eng":"wretched"},"o":{}},{"w":"অকিঞ্চন","h":" ।","s":{"eng":"poor"},"o":{}}],
      [{"w":"তোমার","h":" ","s":{"eng":"Your"},"o":{}},{"w":"ইচ্ছায়","h":" ","s":{"eng":"according to will"},"o":{}},{"w":"তা’র","h":" ","s":{"eng":"his"},"o":{}},{"w":"জীবন","h":"-","s":{"eng":"birth"},"o":{}},{"w":"মরণ","h":" ॥৮॥","s":{"eng":"death"},"o":{}}]],
    "translation":{"eng":"Bhaktivinoda is very lowly and poor. According to Your will, he lives and dies."}}
  ]
}