{
  "uid":"S38",
  "title":"গুরৌ মন্ত্রে নাম্নি প্রভুবর-শচীগর্ভজ-পদে",
  "author":"rdg",
  "language":"ben",
  "notes":[],
  "audio":[],
  "has_synonyms":false,
  "has_translations":false,
  "legend":{"w":"word","h":"hint","s":"synonym","o":"override"},
  "verses":[{
    "lines":[
      [{"w":"গুরৌ","h":" ","s":{"eng":"NULL"},"o":{}},{"w":"মন্ত্রে","h":" ","s":{"eng":"NULL"},"o":{}},{"w":"নাম্নি","h":" ","s":{"eng":"NULL"},"o":{}},{"w":"প্রভুবর","h":"-","s":{"eng":"NULL"},"o":{}},{"w":"শচীগর্ভজ","h":"-","s":{"eng":"NULL"},"o":{}},{"w":"পদে","h":"","s":{"eng":"NULL"},"o":{}}],
      [{"w":"স্বরূপে","h":" ","s":{"eng":"NULL"},"o":{}},{"w":"শ্রীরূপে","h":" ","s":{"eng":"NULL"},"o":{}},{"w":"গণযুজি","h":" ","s":{"eng":"NULL"},"o":{}},{"w":"তদীয়প্রথমজে","h":" ।","s":{"eng":"NULL"},"o":{}}],
      [{"w":"গিরীন্দ্রে","h":" ","s":{"eng":"NULL"},"o":{}},{"w":"গান্ধর্ব্বাসরসি","h":" ","s":{"eng":"NULL"},"o":{}},{"w":"মধুর্পুয্যাং","h":" ","s":{"eng":"NULL"},"o":{}},{"w":"ব্রজবনে","h":"","s":{"eng":"NULL"},"o":{}}],
      [{"w":"ব্রজে","h":" ","s":{"eng":"NULL"},"o":{}},{"w":"ভক্তে","h":" ","s":{"eng":"NULL"},"o":{}},{"w":"গোষ্ঠালয়িষু","h":" ","s":{"eng":"NULL"},"o":{}},{"w":"পরমাস্তাং","h":" ","s":{"eng":"NULL"},"o":{}},{"w":"মম","h":" ","s":{"eng":"NULL"},"o":{}},{"w":"রতিঃ","h":" ॥১॥","s":{"eng":"NULL"},"o":{}}]],
    "translation":{"eng":"UNDEFINED"}},{
    "lines":[
      [{"w":"ন","h":" ","s":{"eng":"NULL"},"o":{}},{"w":"চান্যত্র","h":" ","s":{"eng":"NULL"},"o":{}},{"w":"ক্ষেত্রে","h":" ","s":{"eng":"NULL"},"o":{}},{"w":"হরিতনুসনাথেহপি","h":" ","s":{"eng":"NULL"},"o":{}},{"w":"সুজনাদ্‌","h":"","s":{"eng":"NULL"},"o":{}}],
      [{"w":"রসাস্বাদং","h":" ","s":{"eng":"NULL"},"o":{}},{"w":"প্রেম্না","h":" ","s":{"eng":"NULL"},"o":{}},{"w":"দধদপি","h":" ","s":{"eng":"NULL"},"o":{}},{"w":"বসামি","h":" ","s":{"eng":"NULL"},"o":{}},{"w":"ক্ষণমপি","h":" ।","s":{"eng":"NULL"},"o":{}}],
      [{"w":"সমং","h":" ","s":{"eng":"NULL"},"o":{}},{"w":"ত্বেতদ্‌গ্রাম্যাবলিভিরভি","h":" ","s":{"eng":"NULL"},"o":{}},{"w":"তন্বন্নপি","h":" ","s":{"eng":"NULL"},"o":{}},{"w":"কথাং","h":"","s":{"eng":"NULL"},"o":{}}],
      [{"w":"বিধাস্যে","h":" ","s":{"eng":"NULL"},"o":{}},{"w":"সংবাসং","h":" ","s":{"eng":"NULL"},"o":{}},{"w":"ব্রজভুবন","h":" ","s":{"eng":"NULL"},"o":{}},{"w":"এব","h":" ","s":{"eng":"NULL"},"o":{}},{"w":"প্রতিভবম্‌","h":" ॥২॥","s":{"eng":"NULL"},"o":{}}]],
    "translation":{"eng":"UNDEFINED"}},{
    "lines":[
      [{"w":"সদা","h":" ","s":{"eng":"NULL"},"o":{}},{"w":"রাধাকৃষ্ণোচ্ছলদতুল","h":"-","s":{"eng":"NULL"},"o":{}},{"w":"খেলাস্থলযুজং","h":"","s":{"eng":"NULL"},"o":{}}],
      [{"w":"ব্রজং","h":" ","s":{"eng":"NULL"},"o":{}},{"w":"সন্ত্যজ্যৈতদ্‌","h":"-","s":{"eng":"NULL"},"o":{}},{"w":"যুগবিরহিতোঽপি","h":" ","s":{"eng":"NULL"},"o":{}},{"w":"ক্রটিমপি","h":" ।","s":{"eng":"NULL"},"o":{}}],
      [{"w":"পুনর্দ্বারাবত্যাং","h":" ","s":{"eng":"NULL"},"o":{}},{"w":"যদুপতিমপি","h":" ","s":{"eng":"NULL"},"o":{}},{"w":"প্রৌঢ়বিভবৈঃ","h":"","s":{"eng":"NULL"},"o":{}}],
      [{"w":"স্ফুরন্তং","h":" ","s":{"eng":"NULL"},"o":{}},{"w":"তদ্‌বাচাপি","h":" ","s":{"eng":"NULL"},"o":{}},{"w":"হি","h":" ","s":{"eng":"NULL"},"o":{}},{"w":"নহি","h":" ","s":{"eng":"NULL"},"o":{}},{"w":"চলামীক্ষিতুমপি","h":" ॥৩॥","s":{"eng":"NULL"},"o":{}}]],
    "translation":{"eng":"UNDEFINED"}},{
    "lines":[
      [{"w":"গতোন্মাদৈ","h":" ","s":{"eng":"NULL"},"o":{}},{"w":"রাধা","h":" ","s":{"eng":"NULL"},"o":{}},{"w":"স্ফুরতি","h":" ","s":{"eng":"NULL"},"o":{}},{"w":"হরিণা","h":" ","s":{"eng":"NULL"},"o":{}},{"w":"শ্লিষ্টহৃদয়া","h":"","s":{"eng":"NULL"},"o":{}}],
      [{"w":"স্ফুটং","h":" ","s":{"eng":"NULL"},"o":{}},{"w":"দ্বারাবত্যামিতি","h":" ","s":{"eng":"NULL"},"o":{}},{"w":"যদি","h":" ","s":{"eng":"NULL"},"o":{}},{"w":"শৃণোমি","h":" ","s":{"eng":"NULL"},"o":{}},{"w":"শ্রুতিতটে","h":" ।","s":{"eng":"NULL"},"o":{}}],
      [{"w":"তদাহং","h":" ","s":{"eng":"NULL"},"o":{}},{"w":"তত্রৈবোদ্ধতমতি","h":" ","s":{"eng":"NULL"},"o":{}},{"w":"পতামি","h":" ","s":{"eng":"NULL"},"o":{}},{"w":"ব্রজপুরাৎ","h":"","s":{"eng":"NULL"},"o":{}}],
      [{"w":"সমুড্ডীয়","h":" ","s":{"eng":"NULL"},"o":{}},{"w":"স্বান্তাধিকগতি","h":"-","s":{"eng":"NULL"},"o":{}},{"w":"খগেন্দ্রাদপি","h":" ","s":{"eng":"NULL"},"o":{}},{"w":"জবাৎ","h":" ॥","s":{"eng":"NULL"},"o":{}},{"w":"8","h":"॥","s":{"eng":"NULL"},"o":{}}]],
    "translation":{"eng":"UNDEFINED"}},{
    "lines":[
      [{"w":"অনাদিঃ","h":" ","s":{"eng":"NULL"},"o":{}},{"w":"সাদির্ব্বা","h":" ","s":{"eng":"NULL"},"o":{}},{"w":"পটুরতিমৃদুর্ব্বা","h":" ","s":{"eng":"NULL"},"o":{}},{"w":"প্রতিপদ","h":"-","s":{"eng":"NULL"},"o":{}}],
      [{"w":"প্রমীলৎকারুণ্যঃ","h":" ","s":{"eng":"NULL"},"o":{}},{"w":"প্রগুণকরুণাহীন","h":" ","s":{"eng":"NULL"},"o":{}},{"w":"ইতি","h":" ","s":{"eng":"NULL"},"o":{}},{"w":"বা","h":" ।","s":{"eng":"NULL"},"o":{}}],
      [{"w":"মহাবৈকুণ্ঠেশাধিক","h":" ","s":{"eng":"NULL"},"o":{}},{"w":"ইহ","h":" ","s":{"eng":"NULL"},"o":{}},{"w":"নরো","h":" ","s":{"eng":"NULL"},"o":{}},{"w":"বা","h":" ","s":{"eng":"NULL"},"o":{}},{"w":"ব্রজপতে","h":"-","s":{"eng":"NULL"},"o":{}}],
      [{"w":"রয়ং","h":" ","s":{"eng":"NULL"},"o":{}},{"w":"সূনুর্গোষ্ঠে","h":" ","s":{"eng":"NULL"},"o":{}},{"w":"প্রতি","h":"-","s":{"eng":"NULL"},"o":{}},{"w":"জনি","h":" ","s":{"eng":"NULL"},"o":{}},{"w":"মমাস্তাং","h":" ","s":{"eng":"NULL"},"o":{}},{"w":"প্রভুবরঃ","h":" ॥৫॥","s":{"eng":"NULL"},"o":{}}]],
    "translation":{"eng":"UNDEFINED"}},{
    "lines":[
      [{"w":"অনাদৃত্যোদগীতামপি","h":" ","s":{"eng":"NULL"},"o":{}},{"w":"মুনিগণৈর্বৈণিকমুখৈঃ","h":"","s":{"eng":"NULL"},"o":{}}],
      [{"w":"প্রবীণাং","h":" ","s":{"eng":"NULL"},"o":{}},{"w":"গান্ধর্ব্বামপি","h":" ","s":{"eng":"NULL"},"o":{}},{"w":"চ","h":" ","s":{"eng":"NULL"},"o":{}},{"w":"নিগমৈস্তৎ","h":" ","s":{"eng":"NULL"},"o":{}},{"w":"প্রিয়তমাম্‌","h":" ।","s":{"eng":"NULL"},"o":{}}],
      [{"w":"য","h":" ","s":{"eng":"NULL"},"o":{}},{"w":"একং","h":" ","s":{"eng":"NULL"},"o":{}},{"w":"গোবিন্দং","h":" ","s":{"eng":"NULL"},"o":{}},{"w":"ভজতি","h":" ","s":{"eng":"NULL"},"o":{}},{"w":"কপটী","h":" ","s":{"eng":"NULL"},"o":{}},{"w":"দাম্ভিকতয়া","h":"","s":{"eng":"NULL"},"o":{}}],
      [{"w":"তদভ্যর্ণে","h":" ","s":{"eng":"NULL"},"o":{}},{"w":"শীর্ণে","h":" ","s":{"eng":"NULL"},"o":{}},{"w":"ক্ষণমপি","h":" ","s":{"eng":"NULL"},"o":{}},{"w":"ন","h":" ","s":{"eng":"NULL"},"o":{}},{"w":"যামি","h":" ","s":{"eng":"NULL"},"o":{}},{"w":"ব্রতমিদম্‌","h":" ॥৬॥","s":{"eng":"NULL"},"o":{}}]],
    "translation":{"eng":"UNDEFINED"}},{
    "lines":[
      [{"w":"অজাণ্ডে","h":" ","s":{"eng":"NULL"},"o":{}},{"w":"রাধেতি","h":"-","s":{"eng":"NULL"},"o":{}},{"w":"স্ফুরদভিধয়াসিক্তজনয়া","h":"-","s":{"eng":"NULL"},"o":{}}],
      [{"w":"ঽনয়া","h":" ","s":{"eng":"NULL"},"o":{}},{"w":"সাকং","h":" ","s":{"eng":"NULL"},"o":{}},{"w":"কৃষ্ণং","h":" ","s":{"eng":"NULL"},"o":{}},{"w":"ভজতি","h":" ","s":{"eng":"NULL"},"o":{}},{"w":"য","h":" ","s":{"eng":"NULL"},"o":{}},{"w":"ইহ","h":" ","s":{"eng":"NULL"},"o":{}},{"w":"প্রেমনমিতঃ","h":" ।","s":{"eng":"NULL"},"o":{}}],
      [{"w":"পরং","h":" ","s":{"eng":"NULL"},"o":{}},{"w":"প্রক্ষাল্যেতচ্চরণকমলে","h":" ","s":{"eng":"NULL"},"o":{}},{"w":"তজ্জলমহো","h":"","s":{"eng":"NULL"},"o":{}}],
      [{"w":"মুদা","h":" ","s":{"eng":"NULL"},"o":{}},{"w":"পীত্বা","h":" ","s":{"eng":"NULL"},"o":{}},{"w":"শশ্বচ্ছিরসি","h":" ","s":{"eng":"NULL"},"o":{}},{"w":"চ","h":" ","s":{"eng":"NULL"},"o":{}},{"w":"বহামি","h":" ","s":{"eng":"NULL"},"o":{}},{"w":"প্রতিদিনম্‌","h":" ॥৭॥","s":{"eng":"NULL"},"o":{}}]],
    "translation":{"eng":"UNDEFINED"}},{
    "lines":[
      [{"w":"পরিত্যক্তঃপ্রেয়োজনসমুদয়ৈর্বাঢ়মসুধী","h":"-","s":{"eng":"NULL"},"o":{}}],
      [{"w":"র্দুরন্ধো","h":" ","s":{"eng":"NULL"},"o":{}},{"w":"নীরন্ধ্রং","h":" ","s":{"eng":"NULL"},"o":{}},{"w":"কদনভরবার্দ্ধৌ","h":" ","s":{"eng":"NULL"},"o":{}},{"w":"নিপতিতঃ","h":" ।","s":{"eng":"NULL"},"o":{}}],
      [{"w":"তৃণং","h":" ","s":{"eng":"NULL"},"o":{}},{"w":"দন্তৈর্দষ্ট্বা","h":" ","s":{"eng":"NULL"},"o":{}},{"w":"চটুভিরভিযাচেহদ্য","h":" ","s":{"eng":"NULL"},"o":{}},{"w":"কৃপয়া","h":"","s":{"eng":"NULL"},"o":{}}],
      [{"w":"স্বয়ং","h":" ","s":{"eng":"NULL"},"o":{}},{"w":"শ্রীগান্ধর্ব্বা","h":" ","s":{"eng":"NULL"},"o":{}},{"w":"স্বপদনলিনান্তং","h":" ","s":{"eng":"NULL"},"o":{}},{"w":"নয়তু","h":" ","s":{"eng":"NULL"},"o":{}},{"w":"মাম্‌","h":" ॥৮॥","s":{"eng":"NULL"},"o":{}}]],
    "translation":{"eng":"UNDEFINED"}},{
    "lines":[
      [{"w":"ব্রজোৎপন্ন","h":"-","s":{"eng":"NULL"},"o":{}},{"w":"ক্ষীরাশন","h":"-","s":{"eng":"NULL"},"o":{}},{"w":"বসনপাত্রাদিভিরহং","h":"","s":{"eng":"NULL"},"o":{}}],
      [{"w":"পদার্থৈর্নির্ব্বাহ্য","h":" ","s":{"eng":"NULL"},"o":{}},{"w":"ব্যবহৃতিমদম্ভং","h":" ","s":{"eng":"NULL"},"o":{}},{"w":"সনিয়মঃ","h":" ।","s":{"eng":"NULL"},"o":{}}],
      [{"w":"বসামীশাকুণ্ডে","h":" ","s":{"eng":"NULL"},"o":{}},{"w":"গিরিকুলবরে","h":" ","s":{"eng":"NULL"},"o":{}},{"w":"চৈব","h":" ","s":{"eng":"NULL"},"o":{}},{"w":"সময়ে","h":"","s":{"eng":"NULL"},"o":{}}],
      [{"w":"মরিষ্যে","h":" ","s":{"eng":"NULL"},"o":{}},{"w":"তু","h":" ","s":{"eng":"NULL"},"o":{}},{"w":"প্রেষ্ঠে","h":" ","s":{"eng":"NULL"},"o":{}},{"w":"সরসি","h":" ","s":{"eng":"NULL"},"o":{}},{"w":"জীবাদিপুরতঃ","h":" ॥৯॥","s":{"eng":"NULL"},"o":{}}]],
    "translation":{"eng":"UNDEFINED"}},{
    "lines":[
      [{"w":"স্ফুরল্লক্ষ্মীলক্ষ্মী","h":" -","s":{"eng":"NULL"},"o":{}},{"w":"ব্রজবিজয়িলক্ষ্মীভর","h":"-","s":{"eng":"NULL"},"o":{}},{"w":"লসদ্‌","h":"-","s":{"eng":"NULL"},"o":{}}],
      [{"w":"বপুঃ","h":" ","s":{"eng":"NULL"},"o":{}},{"w":"শ্রীগান্ধর্ব্বাস্মরনিকর","h":"-","s":{"eng":"NULL"},"o":{}},{"w":"দিব্যদ্‌","h":" ","s":{"eng":"NULL"},"o":{}},{"w":"গিরিভৃতোঃ","h":" ।","s":{"eng":"NULL"},"o":{}}],
      [{"w":"বিধাস্যে","h":" ","s":{"eng":"NULL"},"o":{}},{"w":"কুঞ্জাদৌ","h":" ","s":{"eng":"NULL"},"o":{}},{"w":"বিবিধবরিবস্যাঃ","h":" ","s":{"eng":"NULL"},"o":{}},{"w":"সরভসং","h":"","s":{"eng":"NULL"},"o":{}}],
      [{"w":"রহঃ","h":" ","s":{"eng":"NULL"},"o":{}},{"w":"শ্রীরূপাখ্যপ্রিয়তমজনস্যৈব","h":" ","s":{"eng":"NULL"},"o":{}},{"w":"চরমঃ","h":" ॥১০॥","s":{"eng":"NULL"},"o":{}}]],
    "translation":{"eng":"UNDEFINED"}},{
    "lines":[
      [{"w":"কৃতং","h":" ","s":{"eng":"NULL"},"o":{}},{"w":"কেনাপ্যেতন্নীজ","h":"-","s":{"eng":"NULL"},"o":{}},{"w":"নিয়মশংসি","h":"-","s":{"eng":"NULL"},"o":{}},{"w":"স্তবমিমং","h":"","s":{"eng":"NULL"},"o":{}}],
      [{"w":"পঠেৎ","h":" ","s":{"eng":"NULL"},"o":{}},{"w":"যো","h":" ","s":{"eng":"NULL"},"o":{}},{"w":"বিস্রব্ধঃ","h":" ","s":{"eng":"NULL"},"o":{}},{"w":"প্রিয়যুগলরূপেঽর্পিতমনাঃ","h":" ।","s":{"eng":"NULL"},"o":{}}],
      [{"w":"দৃঢ়ং","h":" ","s":{"eng":"NULL"},"o":{}},{"w":"গোষ্ঠে","h":" ","s":{"eng":"NULL"},"o":{}},{"w":"হৃষ্টো","h":" ","s":{"eng":"NULL"},"o":{}},{"w":"বসতি","h":"-","s":{"eng":"NULL"},"o":{}},{"w":"বসতিং","h":" ","s":{"eng":"NULL"},"o":{}},{"w":"প্রাপ্য","h":" ","s":{"eng":"NULL"},"o":{}},{"w":"সময়ে","h":"","s":{"eng":"NULL"},"o":{}}],
      [{"w":"মুদা","h":" ","s":{"eng":"NULL"},"o":{}},{"w":"রাধাকৃষ্ণৌ","h":" ","s":{"eng":"NULL"},"o":{}},{"w":"ভজতি","h":" ","s":{"eng":"NULL"},"o":{}},{"w":"স","h":" ","s":{"eng":"NULL"},"o":{}},{"w":"হি","h":" ","s":{"eng":"NULL"},"o":{}},{"w":"তেনৈব","h":" ","s":{"eng":"NULL"},"o":{}},{"w":"সহিতঃ","h":" ॥১১॥","s":{"eng":"NULL"},"o":{}}]],
    "translation":{"eng":"UNDEFINED"}},{
    "lines":[
      []]}
  ]
}