{
  "uid":"V3",
  "title":"ওহে! বৈষ্ণব ঠাকুর",
  "author":"bt",
  "language":"ben",
  "notes":["শব্দার্থঃ- ছয় বেগ—বাক্য-বেগ, মনো-বেগ- ক্রোধ-বেগ, জিহ্বা-বেগ, উদর-বেগ, উপস্থ-বেগ । ছয় দোষ—অত্যাহার, অসৎ প্রয়াস, প্রজল্প, নিয়মাগ্রহ, দুর্জ্জন-সঙ্গ ও অসৎইষয়ে লোভ । ছয় গুণ—উৎসাহ, নিশ্চয়তা, ধৈর্য্য, ভগবৎ-সেবায় প্রবৃত্তি, অসৎসঙ্গ ত্যাগ ও সৎসঙ্গ গ্রহণ । ছয় সৎসঙ্গ—বৈষ্ণবকে দান, তাঁহার নিকট হইতে আশীর্ব্বাদ গ্রহণ, তাঁহার নিকট নিজ গোপন কথা বলা এবং তাঁহার নিকট হইতে গোপনীয় ভজন-কথা শ্রবণ, ভক্তকে খাওয়ান ও তাঁহার প্রসাদ গ্রহণ ।"],
  "audio":[
    {"uid":"srrb-1","fn":"V3-srrb-1.mp3","meta":{"artist":"Sudarsan das (Radha-ramana Babaji Maharaja)","src":"02 Vaiṣṇavas/[03] Ohe! Vaiṣṇava Ṭhākura/srrb-ohe_vaisnava_thakura.mp3"}},
    {"uid":"sadh-1","fn":"V3-sadh-1.mp3","meta":{"artist":"BV Sadhu Maharaja","src":"02 Vaiṣṇavas/[03] Ohe! Vaiṣṇava Ṭhākura/sadh-ohe_vaisnava_thakura.mp3"}},
    {"uid":"tama-1","fn":"V3-tama-1.mp3","meta":{"artist":"Tamal Krsna das","src":"02 Vaiṣṇavas/[03] Ohe! Vaiṣṇava Ṭhākura/tama-ohe_vaisnava_thakura.mp3"}},
    {"uid":"vraj-1","fn":"V3-vraj-1.mp3","meta":{"artist":"Vraj Mohan das","src":"02 Vaiṣṇavas/[03] Ohe! Vaiṣṇava Ṭhākura/vraj-ohe_vaisnava_thakura.mp3"}},
    {"uid":"????-1","fn":"V3-????-1.mp3","meta":{"artist":"Unknown Artist","src":"02 Vaiṣṇavas/[03] Ohe! Vaiṣṇava Ṭhākura/????-ohe_vaisnava_thakura.mp3"}},
    {"uid":"gaur-1","fn":"V3-gaur-1.mp3","meta":{"artist":"Gaurasundar das","src":"02 Vaiṣṇavas/[03] Ohe! Vaiṣṇava Ṭhākura/gaur-ohe_vaisnava_thakura.mp3"}},
    {"uid":"shbi-1","fn":"V3-shbi-1.mp3","meta":{"artist":"Shyam-bihari das","src":"02 Vaiṣṇavas/[03] Ohe! Vaiṣṇava Ṭhākura/shbi-ohe_vaisnava_thakura.mp3"}},
    {"uid":"krsn-1","fn":"V3-krsn-1.mp3","meta":{"artist":"Krsnadas das","src":"02 Vaiṣṇavas/[03] Ohe! Vaiṣṇava Ṭhākura/krsn-ohe_vaisnava_thakura-8.mp3"}},
    {"uid":"krsn-2","fn":"V3-krsn-2.mp3","meta":{"artist":"Krsnadas das","src":"02 Vaiṣṇavas/[03] Ohe! Vaiṣṇava Ṭhākura/krsn-ohe_vaisnava_thakura-5.mp3"}},
    {"uid":"krsn-3","fn":"V3-krsn-3.mp3","meta":{"artist":"Krsnadas das","src":"02 Vaiṣṇavas/[03] Ohe! Vaiṣṇava Ṭhākura/krsn-ohe_vaisnava_thakura-4.mp3"}},
    {"uid":"krsn-4","fn":"V3-krsn-4.mp3","meta":{"artist":"Krsnadas das","src":"02 Vaiṣṇavas/[03] Ohe! Vaiṣṇava Ṭhākura/krsn-ohe_vaisnava_thakura-6.mp3"}},
    {"uid":"krsn-5","fn":"V3-krsn-5.mp3","meta":{"artist":"Krsnadas das","src":"02 Vaiṣṇavas/[03] Ohe! Vaiṣṇava Ṭhākura/krsn-ohe_vaisnava_thakura-3.mp3"}},
    {"uid":"????-2","fn":"V3-????-2.mp3","meta":{"artist":"Unknown Artist","src":"02 Vaiṣṇavas/[03] Ohe! Vaiṣṇava Ṭhākura/????-ohe_vaisnava_thakura-1.mp3"}},
    {"uid":"rasi-1","fn":"V3-rasi-1.mp3","meta":{"artist":"Rasika dasi","src":"02 Vaiṣṇavas/[03] Ohe! Vaiṣṇava Ṭhākura/rasi-ohe_vaisnava_thakura.mp3"}},
    {"uid":"krsn-6","fn":"V3-krsn-6.mp3","meta":{"artist":"Krsnadas das","src":"02 Vaiṣṇavas/[03] Ohe! Vaiṣṇava Ṭhākura/krsn-ohe_vaisnava_thakura-2.mp3"}},
    {"uid":"????-3","fn":"V3-????-3.mp3","meta":{"artist":"Unknown Artist","src":"02 Vaiṣṇavas/[03] Ohe! Vaiṣṇava Ṭhākura/????-ohe_vaisnava_thakura-3.mp3"}},
    {"uid":"krsn-7","fn":"V3-krsn-7.mp3","meta":{"artist":"Krsnadas das","src":"02 Vaiṣṇavas/[03] Ohe! Vaiṣṇava Ṭhākura/krsn-ohe_vaisnava_thakura-1.mp3"}},
    {"uid":"anad-1","fn":"V3-anad-1.mp3","meta":{"artist":"Anadi Krsna das","src":"02 Vaiṣṇavas/[03] Ohe! Vaiṣṇava Ṭhākura/anad-ohe_vaisnava_thakura.mp3"}},
    {"uid":"krsn-8","fn":"V3-krsn-8.mp3","meta":{"artist":"Krsnadas das","src":"02 Vaiṣṇavas/[03] Ohe! Vaiṣṇava Ṭhākura/krsn-ohe_vaisnava_thakura.mp3"}}],
  "has_synonyms":true,
  "has_translations":true,
  "legend":{"w":"word","h":"hint","s":"synonym","o":"override"},
  "verses":[{
    "lines":[
      [{"w":"ওহে","h":"!","s":{"eng":"O"},"o":{}}],
      [{"w":"বৈষ্ণব","h":" ","s":{"eng":"venerable Vaiṣṇava"},"o":{}},{"w":"ঠাকুর","h":",    ","s":{"eng":"⬅1"},"o":{}},{"w":"দয়ার","h":" ","s":{"eng":"of mercy"},"o":{}},{"w":"সাগর","h":",","s":{"eng":"ocean"},"o":{}}],
      [{"w":"এ","h":" ","s":{"eng":"this"},"o":{}},{"w":"দাসে","h":" ","s":{"eng":"to servant"},"o":{}},{"w":"করুণা","h":" ","s":{"eng":"being compassionate"},"o":{}},{"w":"করি’","h":" ।","s":{"eng":"⬅1"},"o":{}}],
      [{"w":"দিয়া","h":" ","s":{"eng":"having given"},"o":{}},{"w":"পদছায়া","h":",    ","s":{"eng":"feet + shade"},"o":{}},{"w":"শোধ","h":" ","s":{"eng":"purify"},"o":{}},{"w":"হে","h":" ","s":{"eng":"oh"},"o":{}},{"w":"আমারে","h":",","s":{"eng":"to me"},"o":{}}],
      [{"w":"তোমার","h":" ","s":{"eng":"your"},"o":{}},{"w":"চরণ","h":" ","s":{"eng":"feet"},"o":{}},{"w":"ধরি","h":" ॥১॥","s":{"eng":"I hold"},"o":{}}]],
    "translation":{"eng":"O Vaiṣṇava Ṭhākura, you are an ocean of mercy. Being compassionate upon this servant, purify me by giving me the shade of your feet, of which I take hold."}},{
    "lines":[
      [{"w":"ছয়","h":" ","s":{"eng":"six"},"o":{}},{"w":"বেগ","h":" ","s":{"eng":"urges"},"o":{}},{"w":"দমি’","h":",    ","s":{"eng":"having subdued"},"o":{}},{"w":"ছয়","h":" ","s":{"eng":"six"},"o":{}},{"w":"দোষ","h":" ","s":{"eng":"faults"},"o":{}},{"w":"শোধি’","h":",","s":{"eng":"having purified"},"o":{}}],
      [{"w":"ছয়","h":" ","s":{"eng":"six"},"o":{}},{"w":"গুণ","h":" ","s":{"eng":"qualities"},"o":{}},{"w":"দেহ","h":" ","s":{"eng":"bestow"},"o":{}},{"w":"দাসে","h":" ।","s":{"eng":"to the servant"},"o":{}}],
      [{"w":"ছয়","h":" ","s":{"eng":"six"},"o":{}},{"w":"সৎসঙ্গ","h":",    ","s":{"eng":"pure association"},"o":{}},{"w":"দেহ’","h":" ","s":{"eng":"give"},"o":{}},{"w":"হে","h":" ","s":{"eng":"oh"},"o":{}},{"w":"আমারে","h":",","s":{"eng":"to me"},"o":{}}],
      [{"w":"বসেছি","h":" ","s":{"eng":"I sat, I waited"},"o":{}},{"w":"সঙ্গের","h":" ","s":{"eng":"of association "},"o":{}},{"w":"আশে","h":" ॥২॥","s":{"eng":"in hope"},"o":{}}]],
    "translation":{"eng":"Help me to subdue the six urges and purify my six faults. Bestow upon this servant the six qualities of a devotee and give me the six kinds of devotional association. I am waiting in hope of attaining your association."}},{
    "lines":[
      [{"w":"একাকী","h":" ","s":{"eng":"alone"},"o":{}},{"w":"আমার","h":",    ","s":{"eng":"my"},"o":{}},{"w":"নাহি","h":" ","s":{"eng":"not"},"o":{}},{"w":"পায়","h":" ","s":{"eng":"I get"},"o":{}},{"w":"বল","h":",","s":{"eng":"strength"},"o":{}}],
      [{"w":"হরিনাম","h":"-","s":{"eng":"for harināma-saṅkīrtan"},"o":{}},{"w":"সঙ্কীর্ত্তনে","h":" ।","s":{"eng":"⬅1"},"o":{}}],
      [{"w":"তুমি","h":" ","s":{"eng":"you"},"o":{}},{"w":"কৃপা","h":" ","s":{"eng":"having become merciful"},"o":{}},{"w":"করি’","h":",    ","s":{"eng":"⬅1"},"o":{}},{"w":"শ্রদ্ধাবিন্দু","h":" ","s":{"eng":"faith + a drop"},"o":{}},{"w":"দিয়া","h":",","s":{"eng":"having given"},"o":{}}],
      [{"w":"দেহ’","h":" ","s":{"eng":"give"},"o":{}},{"w":"কৃষ্ণনাম","h":"-","s":{"eng":"the name of Kṛṣṇa"},"o":{}},{"w":"ধনে","h":" ॥৩॥","s":{"eng":"by the treasure"},"o":{}}]],
    "translation":{"eng":"Alone I do not have the strength to perform harināma-saṅkīrtana. Being kind and giving me one drop of faith, bestow upon me the priceless treasure of kṛṣṇa-nāma."}},{
    "lines":[
      [{"w":"কৃষ্ণ","h":" ","s":{"eng":"Kṛṣṇa"},"o":{}},{"w":"সে","h":" ","s":{"eng":"He"},"o":{}},{"w":"তোমার","h":",    ","s":{"eng":"yours"},"o":{}},{"w":"কৃষ্ণ","h":" ","s":{"eng":"Kṛṣṇa"},"o":{}},{"w":"দিতে","h":" ","s":{"eng":"to give"},"o":{}},{"w":"পার","h":",","s":{"eng":"you can"},"o":{}}],
      [{"w":"তোমার","h":" ","s":{"eng":"your"},"o":{}},{"w":"শকতি","h":" ","s":{"eng":"power"},"o":{}},{"w":"আছে","h":" ।","s":{"eng":"is there"},"o":{}}],
      [{"w":"আমি","h":" ","s":{"eng":"I"},"o":{}},{"w":"ত’","h":" ","s":{"eng":"just"},"o":{}},{"w":"কাঙ্গাল","h":",    ","s":{"eng":"a begger"},"o":{}},{"w":"","h":"‘","s":{"eng":"NULL"},"o":{}},{"w":"কৃষ্ণ","h":" ","s":{"eng":"“Kṛṣṇa Kṛṣṇa”"},"o":{}},{"w":"কৃষ্ণ’","h":" ","s":{"eng":"⬅1"},"o":{}},{"w":"বলি’","h":",","s":{"eng":"having called"},"o":{}}],
      [{"w":"ধাই","h":" ","s":{"eng":"I run"},"o":{}},{"w":"তব","h":" ","s":{"eng":"your"},"o":{}},{"w":"পাছে","h":" ","s":{"eng":"following behind"},"o":{}},{"w":"পাছে","h":" ॥৪॥","s":{"eng":"⬅1"},"o":{}}]],
    "translation":{"eng":"Kṛṣṇa is yours, so you have the power to give Kṛṣṇa. I am only a beggar running behind you, calling out “Kṛṣṇa! Kṛṣṇa!”."}}
  ]
}